%% logfile from robot 5
%  1    time 0.033 sec
%  2    mission (2) state 2
%  3  4  5 Acc x,y,z [m/s2]: -5.892959 -0.908638 -12.708941
%  6  7  8 Gyro x,y,z [deg/s]: -15.502930 59.295654 -7.324219
%  9 10 Motor velocity ref left, right: 141.01 142.59
% 11 12 Motor voltage [V] left, right: 8.0 8.0
% 13 14 Motor current left, right [A]: 1.695 1.805
% 15 16 Wheel velocity [r/s] left, right: 28.1678 26.0041
% 17 18 19 20 Pose x,y,h,tilt [m,m,rad,rad]: 0.0167 -0.0001 -0.007773 0.486879
% 21    Battery voltage [V]: 11.70
% 22 23 Get data time [us]: 500 +ctrl 830
%% Configuration as seen in client (assumed updated from robot)
% [main]
% version = 2.159
% mission = 2
% statusinterval = 50
% usbdevicename = /dev/ttyACM0
% connect = True
% 
% [log]
% interval = 40
% mission_state = True
% acceleration = True
% gyro = True
% encoder = False
% motorref = True
% motorvoltage = True
% motorcurrent = True
% wheelvelocity = True
% robotpose = True
% linesensor = False
% batteryvoltage = True
% balancectrl = False
% controltime = True
% extrainfo = False
% logfilename = /home/chr/svnregbot/matlab/log_2015_10_31/bal_velctrl_2.log
% allow = True
% 
% [wheelVel]
% reguse = True
% usevelest = False
% usevelleadfwd = True
% acclimit = 100.0
% kp = 0.33
% taui = 0.0
% taud = 0.043
% alpha = 0.5
% imax = 8.0
% steptime = 0.3
% stepfromreg = -8.0
% steptoreg = -15.0
% stepfromv = 2.1
% steptov = 4.1
% motorvoltlimit = 8.0
% 
% [turn]
% reguse = True
% leadfwd = False
% kp = 32.0
% taui = 0.0
% taud = 0.06
% alpha = 0.1
% imax = 0.4
% outmax = 15.0
% stepontime = 0.1
% stepofftime = 0.6
% stepvaluereg = 5.0
% stepvaluemotreg = 5.0
% stepvaluemotv = 0.35
% stepvelocitymotreg = 20.0
% stepvelocitymotv = 20.0
% 
% [mission]
% mission = # demo mission
% 	vel=0.2, acc=1   : dist = 0.3
% 	tr=0.3 : turn=45
% 	vel=0.7, acc=3   : dist = 0.3
% 	vel=0.15, tr=-0.1,bal=0,log=3 : turn=-45,time=8,dist=0.75
% 	# go straight
% 	: dist = 0.3
% 	vel=0 : time=1
% filename = mission_1.mis
% 
% [balance]
% use = True
% kp = -200.0
% taui = 0.07
% taud = 0.1
% alpha = 0.2
% imax = 40.0
% outmax = 199.0
% leadfwd = True
% leadgyro = True
% 
% [balanceVel]
% use = True
% kp = 0.09
% taui = 1.5
% taud = 0.007
% alpha = 10.0
% zeta = 0.05
% imax = 0.075
% leadfwd = True
% outmax = 0.2
% steptime = 5.0
% stepfrom = 0.0
% stepto = 0.0
% stepfromvel = 0.0
% steptovel = 0.1
% stepfrommsec = 0.0
% steptomsec = 0.0
% stepfrommotvolt = 0.0
% steptomotvolt = 0.0
% 
% [balanceSS]
% use = False
% k_tilt = -8.0
% k_gyro = 0.02
% k_pos = 0.0
% k_vel = 0.0
% k_motor = 0.0
% outmax = 0.1
% steptime = 50.0
% stepfrom = 0.09
% stepto = 0.09
% steppos = -1
% 
% [lineSensor]
% maximum = 1024
% 
% [robot5]
% version = 2.156.13
% robotbase = 0.155
% gear = 9.68
% encoderppr = 48.0
% weelradiusleft = 0.0297
% weelradiusright = 0.0297
% balanceoffset = 0.067
% 
%% data log
0.073 2 -7.065317 -2.325537 -11.416709 -7.324219 181.427002 -14.434814 127.57 129.10 8.0 8.0 1.619 1.308 36.5383 35.5782 0.0540 -0.0005 -0.012956 0.389926 11.73 500 840 
0.113 2 -0.407568 -1.356963 -9.678550 9.826660 327.545166 -12.908936 95.01 96.69 8.0 8.0 1.305 1.115 43.6107 42.2584 0.0984 -0.0012 -0.020729 0.202892 11.75 490 820 
0.153 2 -2.220049 1.697402 -7.513642 5.065918 388.031006 -13.366699 43.50 45.74 -0.1 -1.7 -0.751 -0.850 27.0454 30.7236 0.1426 -0.0023 -0.025911 -0.063029 11.88 500 840 
0.193 2 -0.743213 -0.414761 -9.870346 6.866455 159.057617 -6.713867 -5.67 -4.45 -7.0 -7.0 -1.991 -2.029 2.1366 2.6234 0.1592 -0.0027 -0.023320 -0.241101 11.76 500 820 
0.233 2 0.949395 0.558608 -9.688139 -1.922607 -54.931641 1.281738 -44.64 -44.51 -8.0 -8.0 -1.744 -1.764 -24.1380 -20.7979 0.1440 -0.0025 -0.012956 -0.268436 11.73 500 830 
0.273 2 -1.153179 -2.582065 -6.346079 -4.028320 -241.485596 8.026123 -55.34 -57.11 -5.8 -7.0 -0.777 -1.292 -36.5383 -34.6722 0.1090 -0.0025 0.007773 -0.156291 11.79 500 830 
0.313 2 -2.102573 0.671289 -6.818379 -13.153076 -408.142090 13.153076 -16.81 -16.86 2.9 3.5 0.908 0.699 -15.3618 -15.3618 0.0779 -0.0028 0.010364 0.095993 11.88 500 820 
0.353 2 -3.732846 0.748008 -11.253681 -4.791260 -237.487793 3.753662 56.55 57.10 8.0 8.0 2.111 1.994 22.9074 21.7986 0.0857 -0.0027 0.002591 0.319594 11.64 500 820 
0.393 2 -1.246680 -2.208061 -7.830107 -0.823975 -107.727051 -5.035400 132.17 133.27 8.0 8.0 1.414 1.248 39.7702 38.6343 0.1229 -0.0028 -0.005182 0.426162 11.74 500 830 
0.433 2 -0.671289 -2.975249 -14.696435 -0.854492 -6.134033 -8.422852 144.54 146.85 8.0 8.0 1.280 1.110 43.6107 43.6107 0.1695 -0.0034 -0.020729 0.451986 11.74 500 820 
0.473 2 1.862827 -3.804770 -17.580580 -2.532959 110.168457 -13.092041 137.89 141.68 8.0 8.0 1.284 1.162 43.6107 40.9738 0.2172 -0.0050 -0.041458 0.402418 11.75 500 830 
0.513 2 -2.534116 -0.352427 -11.179360 9.338379 243.621826 -15.319824 113.78 117.71 8.0 8.0 1.303 1.112 45.0711 43.6107 0.2656 -0.0072 -0.049231 0.268948 11.75 500 830 
0.553 2 -0.359619 1.627876 -5.255234 15.777588 335.937500 -10.864258 76.29 78.91 3.3 4.3 0.261 0.047 46.6263 46.6263 0.3199 -0.0098 -0.046640 0.063470 11.86 500 820 
0.593 2 -1.651851 -2.366294 -7.875659 9.094238 186.096191 -19.775391 36.71 39.83 -0.2 -0.3 -0.684 -0.589 27.0454 29.3848 0.3631 -0.0117 -0.044049 -0.127979 11.87 500 830 
0.633 2 -0.757598 -0.059937 -9.752871 -10.437012 -35.888672 -0.976562 20.81 21.98 0.4 -0.1 -0.369 -0.504 16.9034 18.5126 0.3891 -0.0127 -0.033685 -0.167669 11.87 500 830 
0.673 2 -0.314067 0.661699 -12.179101 -0.915527 -79.467773 -14.129639 23.60 25.06 2.5 2.9 0.304 0.219 16.9034 17.5525 0.4088 -0.0134 -0.028502 -0.111750 11.88 500 820 
0.713 2 -2.891338 0.000000 -7.957172 5.249023 1.190186 -10.253906 28.39 29.20 2.4 3.0 0.570 0.211 20.4869 20.4869 0.4307 -0.0139 -0.020729 -0.080867 11.88 500 820 
0.753 2 -0.608955 0.812739 -9.573061 5.828857 29.418945 -7.446289 27.73 27.10 2.7 1.4 0.204 0.029 19.5944 21.1224 0.4550 -0.0143 -0.012956 -0.087572 11.88 500 830 
0.793 2 -1.570337 1.062075 -9.676152 -0.366211 11.962891 -3.936768 23.10 23.04 1.7 0.9 -0.180 -0.103 17.5525 18.7695 0.4777 -0.0146 -0.010364 -0.100967 11.89 500 820 
0.833 2 -0.632930 0.021577 -9.369277 -2.593994 -11.352539 1.007080 21.98 22.91 1.4 2.3 0.061 0.109 17.3361 16.6870 0.4982 -0.0148 -0.010364 -0.092299 11.88 500 820 
0.873 2 -1.023716 -0.544224 -9.333315 -4.089355 0.701904 -1.342773 22.73 23.27 2.2 2.1 0.143 0.297 16.6870 16.9034 0.5182 -0.0150 -0.010364 -0.083468 11.89 490 820 
0.913 2 -0.472300 -0.160630 -9.731294 2.197266 12.451172 1.007080 20.44 22.50 0.7 2.1 0.125 0.094 16.6870 16.2813 0.5377 -0.0152 -0.012956 -0.086787 11.89 500 830 
0.953 2 -0.115078 -0.863086 -10.131670 1.190186 -4.211426 -10.070801 19.58 19.44 1.5 1.6 -0.022 0.100 15.0237 14.3746 0.5560 -0.0154 -0.010364 -0.088584 11.89 500 820 
0.993 2 -0.397979 0.215771 -9.731294 0.183105 -7.385254 -6.774902 19.67 20.32 1.6 1.9 0.158 0.078 14.8479 14.8479 0.5733 -0.0156 -0.010364 -0.080298 11.89 500 820 
1.033 2 -0.184604 -0.136655 -10.889267 3.875732 11.199951 -3.814697 19.87 20.37 2.1 1.6 0.125 0.124 13.9284 15.1860 0.5907 -0.0158 -0.007773 -0.077931 11.88 490 820 
1.073 2 -0.246938 -0.040757 -9.939873 -0.061035 20.751953 2.868652 16.64 16.39 1.2 0.2 0.045 -0.112 12.4003 13.7931 0.6070 -0.0159 -0.005182 -0.089743 11.88 490 820 
1.113 2 -0.129463 -0.556211 -9.326122 -1.770020 -16.967773 -1.922607 15.90 16.55 1.0 1.5 0.174 0.089 12.2921 12.1704 0.6215 -0.0159 -0.005182 -0.081402 11.88 490 810 
1.153 2 0.357222 0.016782 -10.376210 2.075195 2.807617 -9.124756 17.04 17.51 1.6 1.6 0.131 0.242 12.2921 12.5085 0.6359 -0.0160 -0.005182 -0.073117 11.89 500 820 
1.193 2 -0.561006 0.009590 -9.398046 1.586914 23.406982 1.434326 14.40 13.71 1.2 0.6 -0.045 -0.048 10.3990 10.6424 0.6494 -0.0161 -0.002591 -0.084249 11.88 500 830 
1.233 2 -0.438735 0.011987 -9.805614 0.701904 -15.563965 1.342773 13.49 13.37 1.3 1.1 0.105 0.117 9.7904 9.8580 0.6614 -0.0161 -0.002591 -0.078257 11.88 500 830 
1.273 2 -1.095640 -0.405171 -9.551484 -0.122070 -7.263184 -0.213623 14.28 15.71 0.2 2.5 0.221 0.165 11.9541 9.7228 0.6733 -0.0162 -0.005182 -0.068050 11.87 490 830 
1.313 2 -0.163027 0.333247 -9.745678 -0.152588 23.864746 2.136230 12.73 12.23 1.6 0.6 0.122 -0.151 8.3435 9.2495 0.6847 -0.0162 -0.002591 -0.077845 11.89 500 820 
1.353 2 0.184604 -0.026372 -10.289902 -1.068115 -13.854980 3.387451 9.74 11.54 0.6 1.8 0.194 -0.086 7.5051 7.2211 0.6944 -0.0162 -0.007773 -0.077385 11.89 500 830 
1.393 2 -0.625737 0.860688 -9.695332 -0.457764 2.685547 -3.326416 11.54 12.14 1.4 1.3 0.194 0.243 7.8161 8.0866 0.7036 -0.0163 -0.007773 -0.066972 11.89 500 820 
1.433 2 -0.405171 -0.127065 -9.906308 0.396729 18.005371 -0.244141 9.31 9.46 0.4 1.0 -0.088 0.059 7.1806 6.0852 0.7120 -0.0164 -0.007773 -0.074768 11.87 500 830 
1.473 2 -0.608955 -0.445928 -9.445995 -1.525879 -15.655518 0.701904 7.30 8.57 0.8 1.7 0.007 0.151 5.0440 4.5301 0.7186 -0.0164 -0.010364 -0.072266 11.87 500 820 
1.513 2 -0.580186 -0.748008 -10.179619 0.946045 0.823975 -4.852295 8.80 9.52 1.7 0.8 0.251 0.041 4.7329 6.3692 0.7251 -0.0165 -0.010364 -0.062133 11.89 500 820 
1.553 2 -0.198989 -0.189399 -9.843974 0.762939 14.770508 -5.310059 6.64 7.20 0.3 1.0 -0.066 0.185 4.9223 4.0568 0.7311 -0.0166 -0.010364 -0.069087 11.89 500 820 
1.593 2 -0.067129 0.182207 -10.244350 -1.983643 -12.115479 9.429932 4.78 5.10 0.3 0.7 -0.085 0.002 3.5294 2.8668 0.7353 -0.0166 -0.007773 -0.069381 11.89 500 810 
1.633 2 -0.395581 -0.520249 -9.997412 0.366211 -6.439209 -0.701904 5.49 6.65 0.7 1.9 0.046 0.352 3.4212 2.2853 0.7387 -0.0166 -0.010364 -0.057779 11.89 490 810 
1.673 2 -0.285298 -0.002397 -9.750473 0.366211 13.488770 -6.317139 3.82 4.90 0.6 0.9 0.119 0.011 1.7444 2.2042 0.7419 -0.0167 -0.010364 -0.062362 11.88 490 810 
1.713 2 -0.575391 0.014385 -9.541894 -1.312256 -6.072998 5.065918 2.01 2.94 -0.0 0.7 -0.006 -0.029 1.4875 0.8925 0.7435 -0.0167 -0.010364 -0.063458 11.89 500 820 
1.753 2 -0.256528 -0.043154 -9.851167 -0.091553 -8.789062 -0.732422 3.08 3.07 1.2 1.0 0.306 0.042 0.3516 0.3922 0.7442 -0.0167 -0.007773 -0.053808 11.89 490 810 
1.793 2 -0.098296 -0.196592 -10.035771 1.007080 11.932373 -9.521484 2.16 2.71 0.4 0.6 0.015 -0.014 0.9466 0.6897 0.7456 -0.0167 -0.010364 -0.054600 11.88 490 800 
1.833 2 -0.273311 -0.035962 -9.987822 0.793457 14.617920 -3.204346 -0.72 -0.06 -0.7 -0.5 0.020 -0.036 0.2434 0.2569 0.7456 -0.0167 -0.010364 -0.062122 11.89 500 820 
1.873 2 -0.119873 -0.136655 -10.062143 -1.281738 11.230469 13.946533 -5.49 -4.54 -1.2 -1.5 0.054 -0.609 -2.6775 -1.0412 0.7446 -0.0167 -0.007773 -0.072229 11.89 490 810 
1.913 2 -0.225361 -0.350029 -9.414829 0.366211 -6.622314 -1.770020 -8.35 -8.45 -1.5 -2.0 -0.014 -0.459 -3.6917 -3.2995 0.7417 -0.0167 -0.007773 -0.070167 11.89 490 820 
1.953 2 -0.477095 0.318862 -9.623408 1.556396 -20.477295 -2.075195 -10.15 -9.51 -2.4 -1.5 -0.647 0.063 -3.6647 -4.8817 0.7371 -0.0166 -0.010364 -0.059878 11.88 490 820 
1.993 2 -0.414761 -1.220308 -9.889526 -1.068115 -16.998291 3.448486 -9.59 -10.43 -1.1 -2.9 0.040 -0.469 -5.2198 -3.5835 0.7317 -0.0166 -0.007773 -0.048465 11.88 500 830 
2.033 2 -0.407568 0.508262 -9.995014 -0.244141 -3.540039 -0.366211 -11.05 -9.67 -2.0 -1.4 -0.161 -0.365 -5.2198 -5.0034 0.7259 -0.0165 -0.010364 -0.042369 11.89 500 830 
2.073 2 -0.254131 0.421953 -9.899116 0.762939 -4.791260 -2.136230 -11.00 -10.70 -1.9 -2.0 -0.290 -0.225 -5.3144 -4.9899 0.7197 -0.0164 -0.007773 -0.039025 11.89 490 820 
2.113 2 -0.736021 0.220566 -9.913501 -0.061035 -4.882812 -3.112793 -11.13 -11.65 -1.5 -2.3 -0.245 -0.284 -6.0582 -5.4496 0.7130 -0.0164 -0.005182 -0.036554 11.87 490 820 
2.153 2 -0.810342 -0.508262 -9.457983 -0.030518 -3.631592 0.640869 -12.30 -12.08 -1.6 -2.5 -0.161 -0.382 -7.0724 -5.5308 0.7058 -0.0164 -0.005182 -0.035457 11.88 500 820 
2.193 2 -0.297285 0.189399 -10.191607 -0.244141 -3.845215 0.793457 -13.46 -12.39 -2.0 -1.6 -0.253 -0.382 -7.5051 -7.0048 0.6978 -0.0163 -0.005182 -0.033521 11.86 500 830 
2.233 2 -0.345234 0.045552 -9.702524 0.457764 -3.265381 -1.190186 -13.35 -13.62 -1.8 -2.8 -0.170 -0.357 -7.7620 -6.4638 0.6891 -0.0163 -0.002591 -0.031128 11.88 500 820 
2.273 2 -0.177412 0.023975 -10.294697 -0.762939 -3.204346 6.805420 -14.07 -14.22 -1.3 -2.2 -0.222 -0.305 -9.1278 -7.9513 0.6795 -0.0163 -0.002591 -0.028899 11.88 500 820 
2.313 2 -0.644917 -0.031167 -9.949463 1.068115 -4.211426 1.983643 -14.97 -13.97 -1.9 -2.0 -0.306 -0.062 -9.0737 -8.1948 0.6697 -0.0162 -0.005182 -0.025684 11.89 500 830 
2.353 2 -0.407568 -0.441133 -9.700127 -0.915527 -7.659912 -4.333496 -15.33 -14.92 -2.3 -1.9 -0.319 -0.290 -8.7221 -9.1954 0.6588 -0.0162 -0.005182 -0.024352 11.88 500 820 
2.393 2 -0.678481 0.455518 -9.719306 -0.946045 -8.544922 2.075195 -15.63 -15.36 -1.7 -1.8 -0.181 -0.250 -9.9392 -9.7228 0.6480 -0.0161 -0.005182 -0.021517 11.89 500 820 
2.433 2 0.517852 -0.163027 -10.544033 -1.495361 -2.258301 4.547119 -15.75 -15.66 -2.0 -1.9 -0.170 -0.145 -9.5876 -10.0068 0.6363 -0.0161 -0.005182 -0.018650 11.89 500 820 
2.473 2 -0.040757 0.081514 -10.683085 -1.251221 0.793457 -1.434326 -16.70 -15.54 -2.2 -1.9 -0.208 -0.259 -10.2367 -9.8580 0.6245 -0.0160 -0.007773 -0.017354 11.88 500 810 
2.513 2 -0.944600 0.059937 -8.654834 0.762939 -4.394531 0.488281 -16.92 -16.32 -1.6 -2.5 -0.245 -0.101 -11.2644 -9.5876 0.6124 -0.0159 -0.007773 -0.016263 11.89 490 820 
2.553 2 0.110283 0.035962 -10.798163 0.885010 -0.549316 2.502441 -17.43 -17.44 -2.0 -2.0 -0.247 -0.177 -10.9940 -11.5484 0.5996 -0.0158 -0.007773 -0.015794 11.89 500 820 
2.593 2 -0.635327 0.158232 -10.517661 -2.624512 -3.417969 1.434326 -18.54 -17.91 -2.8 -2.5 -0.175 -0.329 -10.8993 -11.0751 0.5861 -0.0157 -0.010364 -0.014646 11.88 500 830 
2.633 2 -0.246938 0.438735 -9.992617 -1.617432 -6.774902 7.568359 -18.86 -18.53 -1.4 -2.4 -0.210 -0.165 -13.2522 -11.7512 0.5721 -0.0155 -0.010364 -0.011265 11.87 490 830 
2.673 2 -0.067129 -0.187002 -10.038169 -0.183105 -4.577637 2.197266 -20.16 -17.96 -3.4 -1.8 -0.223 -0.188 -11.5484 -12.1704 0.5574 -0.0154 -0.012956 -0.008730 11.88 500 820 
2.713 2 -0.652109 -0.805547 -9.659369 1.403809 -1.373291 -1.983643 -19.90 -19.24 -3.0 -2.8 -0.217 -0.239 -11.7512 -11.6566 0.5427 -0.0152 -0.010364 -0.007294 11.89 500 830 
2.753 2 -0.484287 -0.431543 -9.956655 1.770020 -0.091553 -6.683350 -20.79 -19.36 -3.1 -2.3 -0.377 -0.174 -12.5085 -12.5085 0.5275 -0.0151 -0.010364 -0.005549 11.88 490 820 
2.793 2 -0.405171 1.088447 -9.441201 0.000000 -4.089355 -3.234863 -20.72 -20.48 -2.4 -2.3 -0.219 -0.201 -13.3875 -13.3875 0.5118 -0.0150 -0.005182 -0.003704 11.89 500 820 
2.833 2 -0.680879 -1.822070 -10.359428 -1.129150 -7.812500 -8.270264 -20.52 -20.39 -2.2 -2.3 -0.232 -0.152 -13.5227 -13.2522 0.4960 -0.0149 -0.002591 0.000491 11.88 500 830 
2.873 2 -0.218169 0.000000 -9.796025 -1.495361 -6.103516 0.366211 -19.96 -19.79 -1.8 -1.9 -0.256 -0.110 -13.6579 -13.5227 0.4799 -0.0149 -0.002591 0.004991 11.89 500 830 
2.913 2 -0.565801 -0.359619 -9.863154 1.037598 -1.159668 -3.814697 -19.86 -19.69 -2.3 -2.4 -0.207 -0.222 -12.9953 -12.8736 0.4638 -0.0148 -0.002591 0.005643 11.89 500 820 
2.953 2 -0.496274 -0.067129 -10.337852 -1.892090 1.220703 4.974365 -20.69 -19.19 -2.3 -1.8 -0.136 -0.177 -13.7931 -13.3875 0.4480 -0.0148 -0.005182 0.005770 11.87 500 830 
2.993 2 -0.443530 0.074321 -8.992876 -0.854492 -0.946045 -2.685547 -20.43 -20.35 -2.3 -2.7 -0.207 -0.250 -13.5227 -12.9953 0.4317 -0.0148 -0.002591 0.005291 11.89 490 820 
3.033 2 -1.203525 -0.390786 -9.263789 -0.823975 -4.638672 3.417969 -21.49 -20.39 -2.3 -2.1 -0.274 -0.158 -14.3746 -13.9284 0.4150 -0.0147 -0.005182 0.005769 11.88 490 820 
3.073 2 -0.275708 -0.158232 -10.177221 -1.556396 -6.561279 4.608154 -21.62 -20.40 -2.1 -1.8 -0.013 -0.385 -14.8479 -14.2259 0.3982 -0.0146 -0.005182 0.008451 11.87 500 830 
3.113 2 -0.450723 0.206182 -9.074389 2.471924 -3.784180 5.676270 -21.44 -20.85 -1.8 -1.9 -0.281 -0.210 -15.0237 -14.6856 0.3813 -0.0146 -0.005182 0.010364 11.88 500 830 
3.153 2 -1.157974 0.992549 -9.927885 -0.762939 -0.701904 -3.601074 -21.77 -21.36 -2.1 -2.0 -0.373 -0.136 -14.8479 -15.0237 0.3640 -0.0145 -0.005182 0.010792 11.89 500 830 
3.193 2 -1.006934 0.527441 -8.863413 2.441406 -2.227783 -2.044678 -21.90 -22.84 -2.0 -3.2 -0.126 -0.282 -15.1860 -14.3746 0.3466 -0.0144 -0.002591 0.010371 11.88 490 820 
3.233 2 -1.169961 0.740815 -10.862895 1.068115 -9.185791 0.793457 -22.38 -22.67 -2.3 -3.3 -0.143 -0.470 -15.1860 -13.9284 0.3289 -0.0143 -0.002591 0.013397 11.86 500 830 
3.273 2 -0.762393 -0.234951 -8.141777 -0.305176 -8.209229 -1.983643 -22.52 -21.72 -2.7 -1.9 -0.198 -0.203 -14.8479 -15.1860 0.3108 -0.0143 -0.002591 0.018043 11.89 490 820 
3.313 2 -0.537031 -0.311670 -11.423901 -0.183105 -2.227783 -1.190186 -21.84 -21.14 -2.6 -1.6 -0.168 -0.043 -14.3746 -15.3618 0.2931 -0.0142 -0.002591 0.021721 11.88 500 830 
3.353 2 -0.589775 0.333247 -9.167891 -0.823975 0.610352 0.030518 -22.07 -21.34 -2.4 -2.3 -0.222 -0.147 -15.0237 -14.5369 0.2755 -0.0142 -0.002591 0.020790 11.88 500 830 
3.393 2 -0.529839 -0.182207 -10.143657 0.946045 -6.286621 -1.434326 -21.67 -21.26 -2.0 -2.4 -0.130 -0.211 -15.1860 -14.3746 0.2578 -0.0142 -0.002591 0.022645 11.87 500 820 
3.433 2 -1.618286 0.704853 -9.225430 -1.068115 -5.645752 0.427246 -21.18 -20.95 -2.0 -2.1 -0.135 -0.136 -14.6856 -14.5369 0.2401 -0.0142 -0.002591 0.024471 11.89 500 830 
3.473 2 -0.982959 -0.016782 -10.958794 1.312256 -4.211426 -2.044678 -21.35 -20.21 -3.0 -1.3 -0.187 0.033 -13.3875 -15.1860 0.2231 -0.0141 -0.005182 0.025181 11.88 500 830 
3.513 2 -0.409966 -0.472300 -8.805874 -0.640869 4.791260 -0.701904 -21.70 -20.91 -2.3 -2.0 -0.045 -0.327 -14.8479 -14.6856 0.2058 -0.0140 -0.005182 0.022814 11.88 500 820 
3.553 2 -0.875073 -0.714443 -11.953740 -1.037598 -5.828857 0.518799 -21.86 -21.77 -2.0 -2.2 -0.250 -0.299 -15.1860 -15.1860 0.1885 -0.0139 -0.005182 0.022638 11.87 500 820 
3.593 2 -0.275708 -0.918227 -8.618872 0.762939 -6.103516 -0.976562 -22.03 -21.62 -2.1 -2.0 -0.314 -0.173 -15.1860 -15.1860 0.1708 -0.0138 -0.005182 0.025070 11.88 500 820 
3.633 2 -0.438735 0.004795 -9.925488 0.823975 -4.852295 -4.547119 -22.10 -21.08 -2.6 -1.6 -0.122 -0.258 -14.6856 -15.1860 0.1532 -0.0137 -0.005182 0.027505 11.88 500 830 
3.673 2 -0.848701 0.050347 -8.791489 3.326416 0.305176 -0.213623 -20.73 -21.83 -1.4 -2.9 -0.104 -0.158 -15.1860 -14.0771 0.1359 -0.0137 -0.000000 0.029211 11.89 490 790 
3.713 2 -0.810342 0.127065 -10.018989 -0.152588 -4.638672 1.647949 -21.20 -20.95 -2.3 -2.1 -0.177 -0.165 -14.2259 -14.5369 0.1188 -0.0137 -0.002591 0.030248 11.87 500 830 
3.753 2 -0.752803 -0.074321 -9.793628 -2.044678 -3.997803 -1.068115 -20.03 -20.39 -2.4 -1.8 -0.052 -0.227 -13.2522 -14.3746 0.1018 -0.0136 -0.000000 0.033540 11.89 500 790 
3.793 2 -0.685674 0.724033 -9.918296 -1.708984 -1.281738 -1.861572 -20.01 -19.79 -2.2 -1.8 -0.189 -0.168 -13.5227 -14.0771 0.0851 -0.0136 -0.002591 0.033300 11.88 490 820 
3.833 2 -0.815137 -0.007192 -10.896460 -2.075195 -2.929688 4.425049 -19.35 -19.38 -2.1 -1.4 -0.130 -0.094 -13.1170 -14.2259 0.0688 -0.0136 -0.000000 0.034120 11.89 490 790 
3.873 2 -0.700059 0.002397 -9.438804 -1.068115 -2.441406 -0.183105 -19.27 -19.06 -2.2 -2.5 -0.172 -0.125 -12.7519 -12.4003 0.0530 -0.0136 -0.002591 0.033051 11.88 500 820 
3.913 2 -0.800752 -0.745610 -10.699868 -2.044678 -5.126953 -1.800537 -19.17 -19.36 -3.1 -1.7 -0.112 -0.197 -11.2644 -13.7931 0.0373 -0.0135 -0.002591 0.032098 11.88 490 820 
3.953 2 -0.611353 -0.129463 -9.148710 -1.129150 -6.042480 -2.075195 -19.19 -18.77 -1.7 -1.7 -0.177 -0.146 -13.3875 -13.3875 0.0214 -0.0135 -0.005182 0.033322 11.88 490 820 
3.993 2 -0.714443 0.038359 -9.510727 -1.037598 -2.746582 2.563477 -18.65 -18.40 -1.6 -1.8 -0.036 -0.163 -13.1170 -12.7519 0.0062 -0.0134 -0.005182 0.034640 11.87 500 820 
4.033 2 -0.445928 -0.508262 -9.177480 1.037598 0.274658 5.676270 -18.46 -18.40 -2.2 -2.0 -0.227 0.006 -12.0622 -12.6302 -0.0087 -0.0133 -0.005182 0.033945 11.89 500 830 
4.073 2 -0.620942 -0.397979 -10.194004 1.342773 -1.647949 -7.690430 -19.12 -18.04 -2.4 -1.2 -0.280 -0.194 -12.1704 -13.2522 -0.0233 -0.0132 -0.007773 0.033026 11.89 500 830 
4.113 2 -0.982959 0.184604 -8.944926 0.610352 -4.730225 -1.159668 -18.50 -18.29 -1.7 -1.6 -0.112 -0.234 -12.7519 -12.7519 -0.0380 -0.0131 -0.005182 0.034121 11.88 490 820 
4.153 2 -1.126807 0.362017 -9.618613 1.983643 -5.187988 -3.753662 -17.41 -18.35 -1.9 -2.0 0.013 -0.318 -11.5484 -12.2921 -0.0527 -0.0130 -0.002591 0.036009 11.89 500 830 
4.193 2 -0.944600 0.376401 -10.205991 0.122070 -4.241943 -0.366211 -17.32 -16.47 -2.0 -1.5 -0.002 -0.120 -11.4537 -11.3591 -0.0665 -0.0130 -0.005182 0.038793 11.88 490 820 
4.233 2 -0.887061 -0.445928 -10.143657 -0.732422 -2.197266 -1.190186 -16.03 -15.50 -1.1 -1.7 -0.139 -0.025 -11.6566 -10.4801 -0.0798 -0.0129 -0.005182 0.040366 11.89 500 820 
4.273 2 -0.649712 0.076719 -9.244609 1.007080 9.429932 -2.227783 -16.00 -15.24 -2.3 -1.6 -0.032 -0.025 -9.8580 -10.3990 -0.0922 -0.0129 -0.005182 0.036834 11.88 500 820 
4.313 2 -1.579927 0.328452 -9.249404 -1.861572 -7.385254 10.864258 -17.23 -17.28 -1.9 -2.4 -0.285 -0.270 -11.4537 -10.8182 -0.1053 -0.0128 -0.002591 0.029687 11.88 500 830 
4.353 2 -0.584980 -0.067129 -10.059746 -0.213623 -13.092041 -2.471924 -16.08 -15.80 -1.1 -1.6 -0.127 -0.000 -11.4537 -10.7235 -0.1183 -0.0128 -0.005182 0.037354 11.87 500 830 
4.393 2 -1.102832 -0.570596 -10.182016 1.953125 -3.967285 -7.110596 -13.27 -13.57 -1.5 -0.8 -0.107 0.038 -8.4517 -10.0879 -0.1300 -0.0127 -0.005182 0.044514 11.89 500 830 
4.433 2 -0.920625 -0.158232 -9.743281 0.976562 25.390625 -0.488281 -15.03 -13.81 -2.2 -1.4 -0.069 -0.254 -9.2495 -9.5200 -0.1406 -0.0126 -0.007773 0.034099 11.88 490 820 
4.473 2 -0.654507 -0.887061 -10.090913 -0.976562 -17.913818 7.720947 -15.36 -15.66 -1.2 -1.8 -0.161 -0.234 -10.5612 -10.1555 -0.1521 -0.0125 -0.005182 0.030590 11.89 500 820 
4.513 2 -0.318862 0.438735 -9.985424 -1.556396 -11.749268 1.922607 -12.88 -13.08 -1.1 -1.5 -0.165 0.054 -8.4517 -8.5463 -0.1631 -0.0125 -0.007773 0.041324 11.88 490 820 
4.553 2 -1.251475 1.129204 -10.263530 -2.349854 18.402100 -2.441406 -12.63 -12.75 -1.8 -1.5 -0.123 -0.096 -7.5862 -8.4923 -0.1727 -0.0124 -0.007773 0.036819 11.89 490 820 
4.593 2 -0.647314 0.596968 -9.889526 -1.007080 -15.747070 6.591797 -14.41 -13.98 -1.4 -2.0 -0.264 -0.245 -9.5200 -8.4517 -0.1828 -0.0123 -0.007773 0.029966 11.87 490 820 
4.633 2 -0.481890 0.606558 -10.102901 2.197266 -9.765625 0.793457 -13.48 -11.62 -2.0 -0.8 0.078 -0.104 -7.8567 -8.0866 -0.1930 -0.0122 -0.010364 0.037598 11.89 500 830 
4.673 2 -0.532236 -0.326055 -10.261132 1.525879 5.371094 -6.622314 -11.84 -10.44 -1.5 -1.2 0.010 -0.091 -7.1806 -6.6532 -0.2019 -0.0121 -0.010364 0.039487 11.89 490 820 
4.713 2 -0.875073 0.402773 -9.786435 -0.122070 7.537842 3.356934 -12.84 -11.79 -1.8 -1.8 -0.110 -0.308 -7.7620 -6.6937 -0.2101 -0.0121 -0.007773 0.030710 11.88 500 830 
4.753 2 -0.270913 -0.170220 -10.488892 0.000000 -6.835938 -0.274658 -11.81 -11.83 -1.1 -1.4 -0.079 0.087 -7.6268 -7.3834 -0.2187 -0.0120 -0.005182 0.033233 11.88 490 820 
4.793 2 -0.764790 -0.040757 -10.033374 0.427246 -0.823975 -7.141113 -10.45 -10.51 -0.8 -1.7 0.044 -0.064 -7.0048 -5.8418 -0.2268 -0.0120 -0.005182 0.036734 11.88 500 820 
4.833 2 -0.918227 0.143848 -10.105297 0.152588 3.631592 -6.561279 -9.91 -9.14 -1.0 -1.0 0.056 -0.079 -6.3692 -5.5578 -0.2336 -0.0119 -0.005182 0.036379 11.88 500 830 
4.873 2 -0.810342 -0.141450 -9.827192 1.159668 8.666992 3.204346 -9.49 -9.96 -1.2 -1.2 0.114 -0.174 -5.8012 -5.8283 -0.2400 -0.0119 -0.000000 0.031536 11.89 500 790 
4.913 2 -0.513057 -0.244541 -10.004604 -0.366211 -8.026123 9.307861 -10.25 -9.86 -1.8 -1.2 -0.291 -0.184 -5.3144 -5.5984 -0.2464 -0.0119 -0.000000 0.028872 11.88 500 800 
4.953 2 -0.613750 -0.033564 -9.887129 -0.061035 -6.591797 -2.593994 -8.33 -8.85 -0.5 -1.5 0.086 -0.152 -5.5849 -4.4895 -0.2525 -0.0119 -0.000000 0.033984 11.88 490 780 
4.993 2 -0.731226 -0.105488 -10.095708 -0.885010 0.366211 -2.716064 -7.55 -6.87 -0.9 -1.2 0.100 -0.085 -4.3273 -3.2725 -0.2575 -0.0119 -0.002591 0.035256 11.89 500 820 
5.033 3 -0.704853 0.182207 -9.695332 1.556396 9.460449 -0.579834 -8.19 -7.55 -1.5 -1.6 0.019 -0.291 -4.1109 -3.3536 -0.2619 -0.0119 -0.002591 0.031660 11.88 500 820 
5.073 3 -0.719238 -0.836714 -9.254199 -0.061035 -16.998291 5.493164 -8.50 -9.19 -1.1 -1.9 0.044 -0.365 -4.7735 -4.1920 -0.2673 -0.0119 -0.000000 0.030597 11.88 500 820 
5.113 3 -1.201128 -0.970972 -10.162837 -1.586914 -18.218994 -1.831055 -5.83 -4.78 -0.5 -0.3 0.146 0.068 -3.3131 -2.8262 -0.2717 -0.0119 -0.005182 0.045845 11.87 500 830 
5.153 3 -1.023716 -0.203784 -9.517920 -1.403809 16.479492 -1.281738 -4.18 -5.41 -0.9 -1.9 0.012 -0.131 -1.5010 -1.4064 -0.2743 -0.0119 -0.002591 0.040646 11.87 490 820 
5.193 3 -0.978164 0.544224 -9.527510 0.579834 1.220703 15.350342 -6.89 -6.32 -1.4 -1.4 -0.130 -0.328 -2.9479 -2.4747 -0.2774 -0.0119 -0.005182 0.030160 11.87 490 810 
5.233 3 -1.004536 -0.086309 -9.683345 0.579834 -18.615723 1.129150 -5.71 -3.27 -1.7 0.2 0.050 0.009 -1.3658 -2.2042 -0.2802 -0.0118 -0.010364 0.039668 11.87 500 830 
5.273 3 -0.759995 0.601763 -10.632739 0.061035 7.293701 -6.347656 -2.50 -2.50 0.0 -0.3 0.071 -0.025 -1.4199 -1.3658 -0.2816 -0.0118 -0.007773 0.042156 11.87 500 820 
5.313 3 -0.846304 -0.479492 -9.812807 1.007080 12.634277 0.274658 -3.37 -2.87 -1.2 -1.1 0.027 -0.039 -0.2975 -0.2705 -0.2816 -0.0118 -0.007773 0.033179 11.89 500 820 
5.353 3 -0.896650 0.011987 -9.553882 -0.488281 -2.716064 3.356934 -3.71 -3.90 -0.4 -1.0 0.066 -0.025 -1.6227 -1.3523 -0.2828 -0.0118 -0.007773 0.028961 11.89 500 820 
5.393 3 -1.086050 -0.635327 -9.532305 0.701904 -12.390137 0.518799 -3.45 -3.09 -0.9 -0.8 0.033 -0.014 -0.4192 -0.4598 -0.2832 -0.0118 -0.007773 0.031000 11.89 500 820 
5.433 3 -0.949395 -0.165425 -9.683345 -0.396729 -13.824463 -0.671387 -1.02 -0.53 0.1 0.3 0.026 -0.037 -0.2569 -0.2164 -0.2832 -0.0118 -0.007773 0.039419 11.89 500 820 
5.473 3 -0.786367 -0.690469 -10.294697 -0.854492 -13.122559 -5.462646 2.07 3.52 1.0 1.9 0.400 0.180 0.1352 0.1352 -0.2828 -0.0118 -0.007773 0.048223 11.89 500 820 
5.513 3 -1.261064 0.712046 -9.378867 -0.396729 8.270264 -5.493164 5.26 4.76 1.9 1.1 0.461 0.122 1.1900 1.6903 -0.2810 -0.0118 -0.005182 0.045223 11.88 500 820 
5.553 3 -1.018921 -0.783970 -10.198798 0.274658 15.777588 -5.767822 6.80 6.25 2.0 0.9 0.415 0.024 2.0554 3.2319 -0.2780 -0.0119 -0.002591 0.039922 11.88 490 820 
5.593 3 -1.076460 0.702456 -9.318931 1.159668 16.174316 -6.774902 7.04 6.85 1.1 1.7 0.249 0.177 3.5700 2.4747 -0.2739 -0.0119 -0.002591 0.032157 11.89 490 810 
5.633 3 -1.153179 0.095898 -9.534702 1.922607 6.591797 -2.990723 6.35 6.80 0.7 1.8 0.131 0.266 3.6241 2.3800 -0.2699 -0.0119 -0.002591 0.024938 11.88 500 820 
5.673 3 -0.637725 0.256528 -10.553622 0.274658 3.417969 3.906250 7.71 6.89 2.0 0.8 0.049 0.331 2.8262 3.8404 -0.2661 -0.0119 -0.000000 0.024959 11.89 500 780 
5.713 3 -0.661699 -0.740815 -10.117285 -3.936768 -0.152588 5.157471 7.69 7.42 1.3 0.7 0.088 -0.040 4.0568 4.5707 -0.2617 -0.0119 -0.000000 0.022730 11.88 500 790 
5.753 3 -1.165166 0.342837 -9.570663 -0.823975 -0.549316 1.708984 8.05 7.85 1.3 1.4 0.371 0.074 4.1785 3.8404 -0.2569 -0.0119 -0.000000 0.021942 11.87 500 790 
5.793 3 -1.198730 0.218169 -9.215839 0.793457 0.762939 -6.347656 7.92 8.64 0.0 1.6 0.095 0.135 6.0852 4.2596 -0.2519 -0.0119 -0.002591 0.020584 11.88 500 810 
5.833 3 -1.452861 -0.330850 -9.472368 0.335693 3.570557 7.873535 8.82 8.03 1.7 0.5 0.025 0.260 4.4219 5.3550 -0.2464 -0.0119 -0.000000 0.018794 11.88 490 780 
5.873 3 -1.589517 -0.198989 -9.127133 -1.586914 -2.227783 -4.058838 9.10 9.23 1.1 1.5 0.352 0.018 5.4226 4.8952 -0.2406 -0.0119 -0.002591 0.019677 11.89 500 820 
5.913 3 -1.246680 0.177412 -9.539496 0.091553 -6.225586 -3.387451 9.44 10.38 1.4 1.7 0.147 0.413 5.3820 5.4632 -0.2344 -0.0119 -0.005182 0.020058 11.89 500 830 
5.953 3 -0.551416 -0.652109 -9.973437 0.915527 0.244141 -5.737305 9.88 10.60 1.4 2.1 0.221 0.341 5.8283 5.1116 -0.2276 -0.0120 -0.005182 0.017973 11.88 500 820 
5.993 3 -0.781572 0.088706 -10.021386 -0.579834 1.770020 -1.068115 9.40 11.23 0.7 2.5 0.002 0.432 6.3962 5.0710 -0.2205 -0.0120 -0.007773 0.015317 11.88 490 820 
6.033 3 -0.683276 -0.604160 -9.920693 -1.708984 2.685547 -1.586914 10.77 10.73 1.0 1.2 -0.010 0.362 7.2617 6.5585 -0.2131 -0.0120 -0.005182 0.014339 11.88 500 830 
6.073 3 -1.050088 -0.215771 -9.678550 -0.152588 1.220703 -5.187988 10.99 10.66 1.7 1.2 0.131 0.141 6.3962 6.5856 -0.2055 -0.0121 -0.005182 0.012364 11.87 500 830 
6.113 3 -0.685674 0.450723 -9.563472 0.061035 -3.173828 0.823975 11.41 11.17 1.6 0.8 0.085 0.121 7.0048 7.6268 -0.1974 -0.0121 -0.005182 0.012168 11.89 510 840 
6.153 3 -0.800752 -0.839111 -9.678550 -1.098633 0.610352 -2.990723 11.63 11.72 1.3 1.9 0.247 0.032 7.4645 6.5585 -0.1890 -0.0122 -0.005182 0.011609 11.87 500 830 
6.193 3 -1.337783 -0.026372 -9.323726 -0.244141 -4.333496 -3.295898 11.28 12.04 1.6 1.1 0.148 0.031 6.7208 8.2353 -0.1806 -0.0122 -0.005182 0.009227 11.89 500 830 
6.233 3 -0.527441 -0.167822 -10.009399 2.532959 3.601074 -7.904053 12.26 11.91 1.8 1.7 0.371 0.127 7.2617 7.0724 -0.1715 -0.0123 -0.002591 0.009332 11.88 490 820 
6.273 3 -0.738418 0.553813 -9.836782 -0.091553 4.943848 -2.685547 11.82 12.30 1.9 1.5 0.317 0.242 6.6937 7.8567 -0.1627 -0.0123 -0.002591 0.007619 11.87 500 820 
6.313 3 -0.419556 -0.371606 -9.772051 0.579834 7.019043 0.946045 12.11 12.55 1.5 2.2 0.421 0.175 7.3023 7.0318 -0.1537 -0.0123 -0.000000 0.007352 11.89 500 820 
6.353 3 -0.481890 -0.925420 -9.918296 1.007080 3.540039 -0.457764 12.86 11.95 1.3 1.7 0.226 0.063 8.5463 7.1535 -0.1442 -0.0123 0.002591 0.005810 11.88 490 820 
6.393 3 -1.009331 -0.011987 -9.726499 -1.464844 -1.800537 -3.875732 12.73 12.95 1.7 1.4 0.131 0.158 7.9919 8.5463 -0.1344 -0.0123 -0.000000 0.006036 11.89 500 790 
6.433 3 -1.023716 -0.712046 -9.937475 1.312256 0.366211 -4.943848 12.68 13.24 1.4 2.1 0.146 0.135 8.3435 7.7620 -0.1247 -0.0123 -0.000000 0.004709 11.88 500 830 
6.473 3 -0.503467 -0.081514 -10.141259 0.671387 8.209229 2.502441 13.34 12.96 1.4 1.9 0.435 0.171 8.7221 7.8161 -0.1145 -0.0122 0.002591 0.003962 11.88 500 820 
6.513 3 -0.697661 0.551416 -9.553882 -0.915527 4.913330 -0.793457 12.84 13.54 0.8 2.0 0.091 0.164 9.4524 8.2353 -0.1043 -0.0122 -0.000000 0.002157 11.89 500 790 
6.553 3 -0.453120 -0.009590 -9.673755 -1.007080 -0.183105 -0.610352 13.43 13.65 1.5 1.4 0.282 0.068 8.9520 9.1954 -0.0938 -0.0122 -0.000000 0.002165 11.88 490 820 
6.593 3 -0.762393 0.798354 -9.901513 -0.732422 -3.448486 1.312256 13.35 13.53 1.6 1.7 0.254 0.036 8.6680 8.7762 -0.0834 -0.0122 -0.000000 0.000659 11.88 490 780 
6.633 3 -0.347632 0.513057 -9.815205 -1.312256 0.946045 3.112793 13.85 14.00 1.6 1.9 0.100 0.173 9.0737 8.7221 -0.0725 -0.0122 -0.000000 0.001315 11.88 500 790 
6.673 3 -0.266118 0.170220 -10.095708 -0.244141 0.091553 -0.305176 14.34 13.52 1.9 1.5 0.184 0.256 9.2495 8.7762 -0.0617 -0.0122 -0.000000 -0.000411 11.89 500 830 
6.713 3 -0.244541 -0.237349 -9.539496 -1.220703 6.103516 -1.892090 14.15 14.30 1.2 2.0 0.143 0.192 10.0068 8.7221 -0.0506 -0.0123 -0.002591 -0.000781 11.89 500 820 
6.753 3 -0.620942 -0.750405 -9.748075 -1.007080 2.471924 0.518799 14.76 14.23 1.2 1.5 0.111 0.269 10.6424 9.3848 -0.0394 -0.0123 -0.002591 -0.001499 11.88 500 830 
6.793 3 -1.709390 -0.417158 -9.357289 0.152588 11.718750 -0.183105 14.34 14.56 1.5 1.6 0.359 0.112 9.7228 9.4524 -0.0284 -0.0123 -0.005182 -0.003196 11.89 500 830 
6.833 3 -1.241885 0.249336 -9.695332 -1.617432 1.312256 -1.892090 13.75 14.94 1.6 1.6 0.063 0.207 9.1278 9.8580 -0.0169 -0.0124 -0.007773 -0.004800 11.87 500 830 
6.873 3 -1.481631 -0.822329 -9.954258 -0.213623 0.396729 5.920410 14.28 14.00 2.0 1.3 0.288 0.050 9.0061 9.5200 -0.0055 -0.0125 -0.005182 -0.005981 11.87 490 820 
6.913 3 -0.306875 -0.632930 -9.635395 2.258301 -2.746582 -5.310059 13.68 14.69 1.3 1.9 0.112 0.066 9.4524 9.2495 0.0056 -0.0126 -0.007773 -0.005908 11.89 500 830 
6.953 3 0.419556 0.532236 -10.750215 0.854492 1.647949 -3.448486 14.16 14.02 2.9 1.9 0.325 -0.034 7.4240 8.8303 0.0170 -0.0126 -0.005182 -0.006144 11.89 500 820 
6.993 3 -0.167822 0.225361 -9.767256 1.007080 3.814697 1.190186 13.40 14.86 1.3 1.8 0.062 0.135 9.1278 9.7904 0.0283 -0.0127 -0.005182 -0.006680 11.87 500 830 
7.033 3 -1.074062 0.455518 -10.898857 -0.366211 3.448486 0.122070 14.27 14.59 1.9 1.7 0.413 0.109 8.9520 9.7228 0.0397 -0.0127 -0.002591 -0.005960 11.86 500 830 
7.073 3 -1.167563 -0.534634 -9.410034 1.434326 -0.976562 -3.509521 14.63 13.95 1.9 1.2 -0.021 0.085 9.3171 9.8580 0.0512 -0.0127 -0.000000 -0.007617 11.88 500 790 
7.113 3 -0.105488 -0.354824 -9.740884 -0.885010 -2.227783 0.366211 14.48 14.11 2.1 1.6 0.165 0.143 9.0061 9.3171 0.0624 -0.0127 -0.000000 -0.007969 11.89 500 810 
7.153 3 -0.486685 -0.469902 -9.568266 3.601074 2.502441 -3.753662 13.43 14.51 1.1 1.1 0.151 0.172 9.6552 10.6424 0.0739 -0.0127 -0.002591 -0.009675 11.89 490 820 
7.193 3 -0.613750 0.508262 -10.757407 0.152588 2.197266 -2.319336 13.69 14.26 1.3 1.6 0.191 0.135 9.5200 9.4524 0.0851 -0.0128 -0.002591 -0.009416 11.86 500 820 
7.233 3 -1.388130 -0.421953 -9.242211 0.518799 -1.037598 5.920410 14.24 13.77 1.5 1.4 0.268 0.025 9.6552 9.5200 0.0965 -0.0128 -0.000000 -0.009331 11.88 500 790 
7.273 3 -0.517852 -0.290093 -9.784038 1.586914 -2.227783 -1.647949 14.72 14.17 1.2 1.7 0.160 0.099 10.6424 9.1954 0.1078 -0.0128 -0.000000 -0.008444 11.89 490 820 
7.313 3 -0.431543 -0.175015 -9.304545 -0.976562 9.002686 0.946045 13.96 14.94 1.4 2.0 0.386 0.146 9.3171 9.3848 0.1192 -0.0128 -0.002591 -0.009410 11.87 500 820 
7.353 3 -0.330850 0.203784 -10.023784 -1.892090 5.615234 4.821777 13.90 14.30 1.1 2.0 0.067 0.220 10.0068 8.8844 0.1309 -0.0128 -0.002591 -0.011719 11.89 500 820 
7.393 3 0.278105 0.956587 -9.616216 -2.258301 4.425049 4.119873 13.38 14.06 1.1 1.7 0.124 0.181 9.6552 9.0061 0.1419 -0.0129 -0.005182 -0.013104 11.87 490 820 
7.433 3 -0.678481 0.553813 -9.592241 -1.434326 -4.730225 -2.502441 13.33 14.34 0.9 1.7 0.142 0.180 10.0068 9.2495 0.1530 -0.0129 -0.007773 -0.011908 11.87 490 820 
7.473 3 -1.225103 -0.292490 -9.503535 -1.617432 -2.227783 2.777100 13.65 14.08 1.9 1.0 0.249 0.060 8.6004 10.0879 0.1638 -0.0130 -0.007773 -0.011841 11.89 490 820 
7.513 3 -1.030908 -1.582324 -10.179619 -0.122070 -8.453369 0.183105 13.58 14.07 1.5 1.8 0.200 0.116 9.2495 9.0061 0.1751 -0.0131 -0.007773 -0.011777 11.89 500 820 
7.553 3 -1.359360 -0.350029 -9.481957 0.579834 -5.767822 -2.349854 13.85 13.97 1.4 1.3 0.116 0.127 9.5876 9.5876 0.1859 -0.0132 -0.007773 -0.011844 11.88 490 820 
7.593 3 -0.091104 -0.198989 -10.205991 1.098633 6.835938 -1.007080 13.10 14.18 1.4 2.0 0.326 0.060 8.7221 8.8844 0.1968 -0.0133 -0.007773 -0.013106 11.87 500 820 
7.633 3 -0.405171 0.208579 -9.891924 1.312256 0.946045 -2.593994 13.06 13.67 1.0 1.7 0.065 0.125 9.3171 8.8844 0.2078 -0.0133 -0.005182 -0.014086 11.89 500 830 
7.673 3 0.050347 -0.568198 -10.381005 0.366211 4.272461 -8.728027 13.27 12.86 1.4 1.5 0.140 0.207 9.0061 8.3435 0.2180 -0.0134 -0.002591 -0.014516 11.88 500 820 
7.713 3 -0.851099 -0.551416 -9.599433 -1.190186 2.838135 -1.403809 12.65 12.89 1.1 1.7 0.262 0.036 8.7762 8.1407 0.2281 -0.0134 -0.002591 -0.014649 11.88 500 820 
7.753 3 -0.326055 0.546621 -9.623408 -0.579834 0.183105 -1.251221 11.92 13.02 1.0 1.7 0.000 0.089 8.2894 8.3976 0.2381 -0.0134 -0.002591 -0.014733 11.89 500 820 
7.793 3 -0.920625 -0.189399 -9.618613 -0.915527 -2.502441 3.448486 12.28 12.14 1.1 1.8 0.215 -0.038 8.6004 7.4645 0.2480 -0.0134 -0.000000 -0.014517 11.89 500 790 
7.833 3 -1.023716 0.561006 -9.784038 -2.166748 0.701904 -2.014160 11.56 12.45 1.5 1.7 0.177 0.139 7.2617 7.8567 0.2574 -0.0134 -0.002591 -0.014064 11.89 500 830 
7.873 3 -0.052744 0.016782 -9.985424 0.122070 1.892090 2.288818 12.22 11.67 1.4 1.4 0.287 -0.087 8.0866 7.5051 0.2668 -0.0135 -0.000000 -0.013296 11.89 500 810 
7.913 3 -0.572993 0.002397 -9.829590 2.044678 3.356934 1.342773 11.84 11.58 1.3 1.1 0.064 0.029 7.7620 7.8567 0.2761 -0.0135 -0.000000 -0.013866 11.89 500 780 
7.953 3 -0.448325 -1.014126 -10.150849 -0.305176 -0.946045 0.122070 12.00 11.06 1.6 0.5 0.088 0.268 7.7215 8.1948 0.2853 -0.0135 -0.000000 -0.013672 11.89 500 820 
7.993 3 -0.553813 -0.302080 -9.604228 -1.007080 -3.509521 -0.701904 11.28 11.72 1.2 1.6 0.094 0.062 7.5457 7.2617 0.2943 -0.0135 -0.002591 -0.012965 11.89 500 820 
8.033 3 -1.042895 -0.282900 -9.774448 0.122070 -1.098633 -3.082275 10.97 11.47 1.1 1.6 -0.010 0.182 7.3834 7.1129 0.3032 -0.0135 -0.002591 -0.013428 11.89 500 820 
8.073 3 -0.472300 -0.124668 -10.102901 0.488281 -0.823975 4.486084 10.88 11.32 1.3 1.3 0.280 -0.043 6.9236 7.3023 0.3116 -0.0135 -0.002591 -0.013079 11.88 500 820 
8.113 3 -0.920625 -0.009590 -9.383662 -1.617432 -0.488281 1.007080 10.21 11.31 0.6 1.8 -0.004 0.314 7.5051 6.4909 0.3198 -0.0136 -0.005182 -0.013452 11.89 490 820 
8.153 3 -0.321260 -0.227759 -10.378608 -0.610352 1.220703 -6.835938 10.70 10.89 1.7 1.6 0.297 0.059 6.3421 6.3421 0.3283 -0.0136 -0.005182 -0.012066 11.89 500 830 
8.193 3 -0.374004 0.117476 -10.146054 -0.915527 2.288818 10.070801 10.73 10.57 1.6 0.6 0.305 0.061 6.4638 7.5457 0.3363 -0.0136 -0.005182 -0.012356 11.88 500 830 
8.233 3 -0.462710 -0.266118 -10.479301 -0.152588 -0.183105 2.929688 10.18 11.42 1.0 1.1 0.241 0.044 6.7613 7.6268 0.3441 -0.0137 -0.007773 -0.011156 11.88 500 830 
8.273 3 -0.635327 0.359619 -9.764858 -1.617432 11.779785 4.913330 10.44 10.01 1.6 1.1 0.133 0.194 6.0852 6.2881 0.3520 -0.0137 -0.005182 -0.013381 11.88 490 820 
8.313 3 -0.623340 -0.704853 -10.198798 -0.213623 -1.403809 -4.150391 9.20 10.37 0.9 1.3 0.150 0.056 6.1123 6.4368 0.3594 -0.0138 -0.007773 -0.013851 11.88 500 820 
8.353 3 -0.280503 -0.354824 -10.263530 0.457764 9.552002 -8.056641 9.43 10.48 1.2 1.7 0.500 0.086 5.6795 5.8418 0.3666 -0.0138 -0.007773 -0.011563 11.88 500 830 
8.393 3 -0.858291 0.278105 -10.052553 0.885010 3.753662 -2.044678 9.06 9.98 1.0 1.9 0.025 0.328 5.8283 5.1116 0.3739 -0.0139 -0.007773 -0.012543 11.88 500 820 
8.433 3 -0.409966 -0.520249 -9.937475 -0.152588 2.044678 -1.007080 9.27 9.53 1.5 1.0 0.301 0.194 5.1386 6.0852 0.3809 -0.0139 -0.005182 -0.011695 11.88 500 820 
8.473 3 -0.280503 0.002397 -10.107695 -0.701904 1.861572 -2.868652 9.11 8.43 1.5 0.8 0.093 0.067 5.1927 5.5173 0.3875 -0.0140 -0.002591 -0.013125 11.88 500 830 
8.513 3 -0.841509 -0.261323 -9.400444 1.159668 -6.378174 -7.751465 8.81 8.47 1.2 1.1 0.107 0.127 5.2739 5.0710 0.3935 -0.0140 -0.002591 -0.011492 11.89 500 820 
8.553 3 -0.949395 -0.119873 -9.568266 0.640869 0.183105 -2.929688 7.91 8.48 0.8 0.9 -0.051 0.154 4.9087 5.3144 0.3996 -0.0140 -0.002591 -0.011929 11.87 500 820 
8.593 3 -1.026113 -0.234951 -9.009658 0.732422 -2.227783 -1.068115 8.11 8.45 1.0 1.6 0.393 0.184 4.7329 4.4625 0.4054 -0.0140 -0.000000 -0.009644 11.89 490 820 
8.633 3 -0.757598 -0.242144 -9.491548 -0.183105 -6.134033 -2.502441 7.98 8.20 1.0 1.4 -0.057 0.184 4.8952 4.4895 0.4110 -0.0140 -0.000000 -0.009550 11.87 500 780 
8.673 3 -0.755200 0.007192 -9.680947 -0.366211 -4.180908 0.427246 8.30 7.69 1.2 0.8 0.225 -0.093 4.7194 4.9899 0.4168 -0.0140 0.002591 -0.009189 11.87 490 820 
8.713 3 0.074321 0.146245 -10.623149 0.793457 5.554199 2.929688 7.94 7.29 1.1 0.4 -0.074 0.300 4.6112 4.9493 0.4221 -0.0140 0.002591 -0.009862 11.87 490 800 
8.753 3 -0.402773 -0.081514 -9.903911 0.244141 -2.807617 -3.967285 6.79 7.61 1.1 1.1 0.124 0.021 3.5970 4.4625 0.4271 -0.0140 -0.000000 -0.009797 11.88 490 820 
8.793 3 -0.604160 -0.558608 -10.023784 0.366211 -2.014160 -0.640869 7.01 6.88 0.9 0.9 0.297 -0.086 4.0433 4.0027 0.4317 -0.0139 0.002591 -0.009078 11.88 490 810 
8.833 3 -0.525044 0.400376 -9.685741 -0.701904 4.028320 2.441406 6.36 7.35 0.4 1.7 0.051 0.218 4.1650 3.1373 0.4363 -0.0139 -0.000000 -0.008129 11.89 500 780 
8.873 3 -0.582583 -0.093501 -10.028579 0.579834 -4.974365 -0.335693 6.08 7.01 0.1 1.6 -0.021 0.153 4.5571 3.1508 0.4407 -0.0139 -0.000000 -0.007871 11.88 490 780 
8.913 3 -0.222964 0.165425 -9.493945 -0.854492 3.570557 11.718750 6.76 6.51 1.4 1.2 0.151 0.184 2.9750 3.2184 0.4450 -0.0139 0.002591 -0.006287 11.89 500 810 
8.953 3 -0.608955 -0.242144 -10.054951 0.091553 -3.112793 1.129150 5.98 6.73 0.6 1.1 -0.034 0.162 3.6917 3.5835 0.4492 -0.0139 -0.000000 -0.006601 11.88 490 820 
8.993 3 -1.062075 -0.026372 -8.793886 0.274658 6.225586 0.396729 6.15 5.55 1.6 0.5 0.232 -0.041 2.2312 3.2995 0.4530 -0.0139 0.002591 -0.007598 11.88 490 820 
9.033 3 -0.889458 -0.321260 -9.395649 -0.244141 -8.026123 3.967285 5.16 5.92 0.9 1.3 0.122 0.074 2.4341 2.5828 0.4564 -0.0139 -0.000000 -0.006667 11.89 500 820 
9.073 3 -0.330850 -0.978164 -10.563212 1.373291 9.429932 0.244141 5.94 5.61 0.9 1.3 0.089 0.356 3.0561 2.0419 0.4596 -0.0139 -0.000000 -0.004435 11.87 500 790 
9.113 3 -0.383594 -0.021577 -9.712114 -1.708984 3.051758 -1.586914 4.60 4.64 0.8 0.9 0.020 -0.074 2.1636 2.1907 0.4628 -0.0139 -0.000000 -0.008137 11.87 500 780 
9.153 3 -0.625737 0.155835 -9.815205 -0.183105 -11.169434 2.349854 4.76 4.53 1.1 0.6 0.048 -0.058 1.9067 2.4747 0.4652 -0.0139 -0.000000 -0.004482 11.89 500 780 
9.193 3 -0.086309 -1.081255 -10.167631 -0.427246 12.725830 8.911133 6.01 5.62 1.4 0.3 0.335 0.234 2.2718 3.5835 0.4680 -0.0139 -0.000000 0.000785 11.87 490 770 
9.233 3 -0.860688 0.131860 -9.062402 -1.922607 4.241943 -1.251221 3.58 4.99 0.2 1.1 -0.024 -0.055 2.0825 2.0960 0.4711 -0.0139 -0.002591 -0.006089 11.89 500 820 
9.273 3 -0.908638 0.191797 -9.709717 0.396729 -17.578125 7.141113 5.05 3.92 1.2 0.1 0.035 0.109 1.9878 2.6234 0.4731 -0.0139 0.002591 -0.001913 11.89 500 830 
9.313 3 -0.584980 -1.325796 -9.889526 1.312256 8.117676 -8.148193 6.02 5.58 1.3 1.0 0.412 0.309 2.3259 2.3259 0.4757 -0.0139 -0.000000 0.002973 11.88 500 820 
9.353 3 -0.572993 -0.474697 -9.697729 -1.647949 5.462646 -0.335693 4.13 4.90 0.9 1.0 0.254 -0.039 1.3523 2.2989 0.4785 -0.0139 -0.000000 -0.003764 11.88 500 820 
9.393 3 -1.002139 0.086309 -9.903911 0.396729 -5.554199 -0.518799 3.55 4.93 -0.4 1.7 -0.035 0.353 3.2049 1.1494 0.4811 -0.0139 -0.002591 -0.003238 11.88 490 820 
9.433 3 -0.664097 -0.570596 -9.395649 -0.366211 -3.082275 2.563477 3.70 3.12 1.0 -0.6 0.211 -0.093 1.3252 3.0832 0.4829 -0.0139 -0.000000 -0.004865 11.89 500 780 
9.473 3 -0.448325 -0.035962 -10.047758 -1.159668 -8.850098 1.708984 4.25 3.55 1.3 1.0 0.055 0.290 1.1494 0.9195 0.4845 -0.0139 -0.000000 0.000375 11.89 500 780 
9.513 3 0.021577 0.899048 -10.474506 -0.732422 2.166748 6.591797 4.36 4.48 0.7 1.4 0.021 0.266 2.0419 0.8790 0.4859 -0.0139 -0.002591 0.003066 11.89 490 800 
9.553 3 -0.992549 0.201387 -9.422021 -1.312256 9.857178 11.352539 2.66 4.03 -0.0 1.2 0.019 0.014 1.5281 1.1359 0.4879 -0.0139 -0.002591 -0.002231 11.89 490 810 
9.593 3 -0.882266 -0.738418 -10.009399 -0.488281 -17.913818 2.502441 3.49 4.19 0.8 1.5 0.034 0.341 1.0818 0.5274 0.4887 -0.0139 -0.002591 0.002998 11.88 490 810 
9.633 3 -0.676084 -0.297285 -9.781640 0.061035 6.988525 -10.498047 4.79 3.42 1.5 -0.3 0.375 -0.070 1.1089 2.5152 0.4905 -0.0139 -0.000000 0.003040 11.88 500 790 
9.673 3 -0.630532 0.038359 -9.712114 -0.396729 -6.011963 10.467529 3.58 2.21 1.3 0.4 0.036 -0.006 0.4598 0.3922 0.4913 -0.0139 -0.000000 -0.000884 11.89 500 820 
9.713 3 -0.841509 0.119873 -9.230225 3.936768 -1.983643 -6.134033 3.66 4.76 0.5 1.6 -0.010 0.294 1.7850 0.9872 0.4925 -0.0139 -0.005182 0.005993 11.88 490 810 
9.753 3 -0.700059 0.141450 -10.229965 2.563477 9.124756 -7.873535 3.75 2.88 1.1 0.5 0.043 0.157 0.8384 0.8114 0.4939 -0.0139 -0.002591 0.000989 11.89 500 830 
9.793 3 -1.002139 -0.563403 -9.616216 -1.129150 -15.350342 1.495361 3.19 4.36 0.6 1.6 0.260 0.181 0.7978 0.6897 0.4948 -0.0139 -0.002591 0.004821 11.89 500 820 
9.833 3 -0.455518 -0.297285 -9.738486 1.647949 11.596680 -1.312256 3.44 3.18 0.9 0.7 0.103 -0.024 0.8249 0.7032 0.4958 -0.0139 -0.000000 0.002456 11.88 500 780 
9.873 3 -0.553813 -0.050347 -10.028579 -0.335693 -9.063721 5.096436 3.58 2.43 1.3 0.6 0.080 0.089 0.4462 0.2840 0.4962 -0.0139 -0.000000 0.003236 11.89 490 780 
9.913 3 -0.652109 -0.781572 -9.995014 0.427246 10.345459 -15.014648 3.10 3.12 0.9 0.4 0.087 -0.027 0.7708 1.1765 0.4972 -0.0139 -0.002591 0.003581 11.89 490 810 
9.953 3 -0.656904 0.335645 -9.592241 -0.854492 -11.383057 2.166748 2.89 2.88 1.0 1.0 0.101 0.077 0.2299 0.3381 0.4974 -0.0139 -0.000000 0.004314 11.89 500 790 
9.993 3 -0.987754 -0.553813 -9.546689 0.946045 9.460449 6.408691 3.41 2.47 0.8 0.4 0.060 0.017 0.8519 0.7573 0.4984 -0.0139 0.002591 0.004540 11.89 500 820 
10.033 3 -0.719238 -0.309272 -9.438804 -0.885010 -9.979248 1.190186 2.86 2.69 0.9 0.9 0.052 -0.009 0.2569 0.3110 0.4984 -0.0139 0.002591 0.005163 11.88 490 810 
10.073 3 -0.541826 0.002397 -10.404980 1.312256 14.373779 -13.610840 2.88 2.76 0.6 0.5 0.030 -0.036 0.9872 0.7843 0.4994 -0.0139 -0.000000 0.005427 11.89 500 780 
10.113 3 -0.750405 0.093501 -9.829590 0.244141 -10.772705 2.777100 2.71 2.71 0.9 0.9 0.078 -0.007 0.2434 0.2705 0.4994 -0.0139 -0.000000 0.006260 11.88 500 780 
10.153 3 -0.678481 -0.412363 -9.374072 -0.762939 7.080078 5.828857 2.56 2.33 0.6 0.5 0.028 -0.006 0.6085 0.7573 0.5004 -0.0139 0.002591 0.004415 11.89 500 820 
10.193 3 -0.637725 0.131860 -9.700127 -0.274658 -7.354736 -1.831055 2.72 2.55 0.9 0.9 0.120 0.015 0.2164 0.2299 0.5004 -0.0139 0.002591 0.007011 11.88 500 820 
10.234 3 -0.510659 -0.448325 -9.815205 0.091553 -1.098633 -8.880615 3.18 3.20 0.3 0.7 -0.009 0.008 1.6498 0.7437 0.5014 -0.0139 -0.000000 0.009162 11.89 500 790 
10.274 3 -0.539429 0.249336 -9.887129 -1.159668 13.458252 2.593994 3.29 4.03 0.6 0.6 0.410 0.006 0.8925 1.7850 0.5022 -0.0139 -0.000000 0.009851 11.89 500 820 
10.314 3 -0.771982 0.513057 -9.772051 1.342773 -1.129150 13.031006 1.71 1.89 0.3 0.4 0.038 -0.025 0.4192 0.2840 0.5024 -0.0139 -0.002591 0.002069 11.89 500 820 
10.354 3 -0.783970 -0.362017 -9.402842 -0.122070 -7.385254 -2.899170 1.97 2.32 0.6 0.8 0.034 -0.012 0.2975 0.1487 0.5026 -0.0139 -0.005182 0.006382 11.88 490 810 
10.394 3 -0.462710 -0.350029 -10.309082 -0.610352 -2.563477 -3.967285 3.53 2.61 1.5 0.4 0.059 0.299 0.2299 0.7437 0.5032 -0.0139 -0.002591 0.011168 11.88 500 830 
10.434 3 -0.572993 -0.198989 -10.862895 -0.640869 -1.739502 -4.455566 4.27 3.45 1.7 0.1 0.349 0.135 0.4462 1.9473 0.5040 -0.0139 -0.002591 0.012973 11.89 490 810 
10.474 3 -0.767187 0.268516 -9.707319 -0.366211 -4.974365 9.887695 2.55 3.64 0.6 1.2 0.031 0.174 0.4057 0.5409 0.5046 -0.0139 -0.005182 0.008372 11.88 500 810 
10.514 3 -0.738418 -0.189399 -9.481957 1.403809 8.697510 -8.148193 3.24 3.83 0.6 1.1 0.019 0.223 1.2306 0.5409 0.5056 -0.0140 -0.007773 0.009417 11.88 490 810 
10.554 3 -0.887061 -0.076719 -9.477162 -0.915527 -8.453369 8.453369 3.42 2.59 1.2 0.6 0.068 0.075 0.4327 0.3516 0.5062 -0.0140 -0.005182 0.007407 11.87 490 810 
10.594 3 -0.496274 -0.350029 -9.760063 -0.549316 2.563477 -6.866455 3.88 4.36 1.1 1.2 0.178 0.217 0.9872 0.9601 0.5072 -0.0140 -0.007773 0.011763 11.89 490 820 
10.634 3 -0.692866 0.026372 -9.692934 -0.427246 2.288818 4.455566 4.07 3.54 1.2 0.7 0.013 0.220 1.0277 0.9195 0.5088 -0.0140 -0.007773 0.008571 11.88 500 830 
10.674 3 -0.721636 0.083911 -9.865551 0.640869 4.974365 -8.483887 3.74 3.95 1.1 0.7 0.238 -0.027 0.7978 1.4875 0.5100 -0.0140 -0.007773 0.008120 11.88 500 820 
10.714 3 -0.946997 -0.172617 -9.378867 -1.312256 -4.364014 5.584717 3.49 4.09 0.9 1.2 0.112 0.203 0.7708 0.8790 0.5112 -0.0140 -0.007773 0.007927 11.88 490 810 
10.754 3 -1.114819 0.338042 -10.788574 -1.068115 -0.946045 3.143311 4.64 3.72 1.6 -0.4 0.242 0.262 0.7843 2.8398 0.5130 -0.0140 -0.005182 0.008651 11.89 500 820 
10.794 3 -0.738418 0.117476 -9.083980 -0.701904 -0.579834 -7.019043 3.21 4.10 0.8 0.9 0.301 -0.020 0.7302 1.8120 0.5146 -0.0140 -0.005182 0.006249 11.89 500 810 
10.834 3 -0.239746 -0.788765 -10.635137 -1.464844 5.096436 -1.739502 3.70 4.81 0.3 1.7 0.021 0.362 2.1772 0.9060 0.5164 -0.0140 -0.007773 0.008684 11.89 500 820 
10.874 3 -0.577788 0.187002 -9.656972 -0.915527 -7.385254 -3.295898 4.05 3.49 1.2 0.3 0.221 -0.074 1.1765 1.9878 0.5180 -0.0140 -0.002591 0.006688 11.88 490 810 
10.914 3 -0.702456 -1.189141 -10.273120 -0.335693 12.207031 2.227783 4.39 4.47 1.0 0.7 0.165 0.120 1.6362 2.0960 0.5201 -0.0141 -0.002591 0.008820 11.87 500 820 
10.954 3 -0.822329 0.055142 -9.453188 -1.525879 -13.092041 3.540039 3.99 4.86 0.4 1.2 0.177 -0.036 2.0149 1.8661 0.5217 -0.0141 -0.002591 0.008797 11.88 500 820 
10.994 3 -0.294888 0.467505 -10.637534 -1.678467 9.979248 1.678467 4.99 5.17 1.4 0.2 0.346 0.095 1.4875 3.2454 0.5241 -0.0141 -0.002591 0.009829 11.89 500 820 
11.034 3 -1.222705 -0.292490 -9.359687 1.892090 10.253906 2.624512 4.58 4.64 0.8 1.0 0.011 0.177 2.1231 1.8256 0.5265 -0.0141 -0.002591 0.006243 11.89 500 820 
11.074 3 -0.980561 -0.345234 -9.616216 0.122070 0.030518 -3.387451 3.93 5.07 1.0 1.2 0.389 -0.012 1.2035 1.8661 0.5287 -0.0141 -0.005182 0.006225 11.89 500 820 
11.114 3 -0.093501 0.608955 -10.428955 -0.640869 -3.814697 11.108398 4.71 4.81 1.0 -0.0 -0.028 0.335 2.2177 3.2860 0.5311 -0.0141 -0.005182 0.007579 11.89 490 810 
11.154 3 -0.767187 0.026372 -9.191865 -0.885010 2.288818 -4.547119 4.53 4.60 0.5 1.1 -0.002 0.221 2.5828 1.5822 0.5335 -0.0141 -0.005182 0.006323 11.89 490 810 
11.194 3 -0.534634 -0.143848 -10.347441 -1.220703 5.065918 -1.403809 4.44 5.14 0.5 1.1 0.121 0.184 2.2853 1.8661 0.5355 -0.0141 -0.005182 0.007525 11.89 500 820 
11.234 3 -0.623340 -0.306875 -9.649780 0.366211 -1.251221 -0.396729 4.73 5.30 1.2 1.3 0.311 0.007 1.4740 1.9473 0.5379 -0.0141 -0.005182 0.008188 11.89 500 820 
11.274 3 -0.584980 -0.151040 -9.779243 0.885010 -9.307861 -1.373291 5.29 4.86 1.2 0.4 -0.001 -0.057 2.3394 2.7857 0.5407 -0.0141 -0.005182 0.007752 11.88 490 820 
11.314 3 -0.481890 -0.100693 -9.942270 -2.868652 4.547119 -2.929688 5.08 5.42 0.9 0.7 0.295 -0.068 2.0960 2.7992 0.5431 -0.0141 -0.005182 0.007850 11.88 500 830 
11.354 3 -0.623340 0.314067 -9.942270 -2.258301 1.068115 5.767822 5.01 5.41 1.5 0.6 0.466 -0.020 1.2711 3.0020 0.5456 -0.0142 -0.005182 0.007389 11.88 490 810 
11.394 3 -0.908638 -1.028511 -9.700127 -0.457764 2.868652 2.624512 4.61 5.62 1.1 1.8 0.149 0.432 1.8526 1.1089 0.5484 -0.0142 -0.010364 0.006634 11.88 500 810 
11.434 3 -1.038101 -0.688071 -8.208906 -2.655029 -1.068115 4.119873 3.79 4.92 -0.4 0.9 -0.014 -0.006 3.2860 2.4070 0.5514 -0.0142 -0.007773 0.003036 11.89 490 810 
11.474 3 -0.683276 0.143848 -10.486494 -0.793457 -5.615234 -4.577637 4.78 5.49 1.2 1.1 0.230 0.132 1.8120 2.3935 0.5538 -0.0142 -0.007773 0.008193 11.88 490 810 
11.514 3 -0.489082 0.062334 -10.138862 0.091553 -1.647949 -5.126953 4.90 6.49 0.6 1.5 0.409 -0.062 2.5017 2.6910 0.5566 -0.0142 -0.007773 0.009384 11.89 500 830 
11.554 3 -0.800752 -0.194194 -9.846372 0.549316 0.518799 -1.800537 5.94 4.66 1.5 0.1 0.035 -0.082 2.3529 3.1102 0.5598 -0.0143 -0.002591 0.006275 11.88 500 830 
11.594 3 -0.561006 -0.155835 -9.534702 0.701904 -0.671387 -7.232666 5.53 5.12 1.4 0.5 0.147 0.299 1.9473 2.8398 0.5626 -0.0143 -0.002591 0.006590 11.89 490 810 
11.634 3 -0.364414 -0.119873 -10.534443 -0.732422 6.835938 3.814697 5.17 5.89 0.3 1.7 -0.022 0.330 3.3266 1.8932 0.5658 -0.0143 -0.002591 0.006643 11.89 490 810 
11.674 3 -0.414761 0.268516 -9.872744 -0.518799 1.007080 -2.685547 4.18 5.20 -0.5 1.5 0.078 0.074 3.5700 2.0149 0.5693 -0.0143 -0.000000 0.003132 11.88 490 820 
11.714 3 -1.078857 -0.163027 -9.311738 -0.366211 -9.582520 -4.425049 4.70 5.33 0.9 0.8 0.396 -0.067 2.0960 3.0561 0.5721 -0.0143 -0.000000 0.005991 11.89 500 820 
11.754 3 -0.726431 0.019180 -9.834385 0.061035 3.845215 -1.281738 5.35 4.91 1.4 0.3 0.348 -0.069 1.7715 3.2995 0.5747 -0.0143 0.002591 0.006536 11.89 500 820 
11.794 3 -1.086050 0.443530 -9.278173 1.220703 1.251221 1.678467 5.94 3.90 1.7 -0.5 0.252 -0.036 1.9608 3.4889 0.5777 -0.0143 0.005182 0.005589 11.88 500 820 
11.834 3 -0.441133 -0.350029 -10.407377 1.617432 2.532959 -2.105713 6.10 4.57 1.9 0.5 0.169 0.237 1.7715 2.4341 0.5805 -0.0143 0.005182 0.007939 11.86 500 820 
11.874 3 -0.141450 0.290093 -10.397788 -1.586914 -0.061035 6.378174 5.68 5.01 0.9 1.0 -0.002 0.126 2.7992 2.2042 0.5833 -0.0142 0.005182 0.007742 11.89 500 810 
11.914 3 -0.489082 0.158232 -9.925488 -1.373291 -3.021240 7.659912 6.73 4.96 1.5 -0.2 -0.059 0.249 2.9344 3.7458 0.5863 -0.0142 0.007773 0.009176 11.89 500 830 
11.954 3 -0.728828 -0.112681 -9.618613 -0.610352 7.415771 4.547119 5.46 5.32 1.2 1.3 0.245 0.165 2.1366 2.0690 0.5893 -0.0142 0.005182 0.006494 11.89 500 820 
11.994 3 -0.716841 0.208579 -10.059746 -0.701904 -5.126953 8.361816 6.49 4.88 1.8 0.3 0.013 0.115 2.2177 2.9615 0.5923 -0.0142 0.007773 0.007858 11.88 490 820 
12.034 3 -0.829521 0.057539 -9.616216 -0.274658 -5.828857 -1.220703 5.30 5.96 0.5 0.5 -0.051 0.014 3.1102 3.7458 0.5956 -0.0142 0.002591 0.007189 11.89 500 830 
12.074 3 -0.925420 0.306875 -9.858359 -0.213623 -3.265381 6.500244 5.13 5.83 0.5 1.7 -0.001 0.271 2.8533 1.7174 0.5984 -0.0142 0.002591 0.006756 11.88 490 810 
12.114 3 -1.196333 -0.110283 -9.213442 -0.488281 -2.136230 3.814697 5.01 5.18 0.2 1.6 -0.046 0.364 3.2860 1.3252 0.6012 -0.0141 0.002591 0.005472 11.88 490 810 
12.154 3 -0.757598 -0.187002 -9.978232 0.030518 -2.593994 -1.617432 5.92 5.55 1.2 1.7 0.127 0.381 2.4882 1.4875 0.6040 -0.0141 0.002591 0.008702 11.88 500 810 
12.194 3 -0.465107 0.155835 -9.951860 0.152588 1.159668 -1.342773 5.14 5.08 0.7 1.3 -0.036 0.161 2.7586 1.8391 0.6072 -0.0141 0.002591 0.005459 11.88 500 830 
12.234 3 -0.455518 -0.004795 -10.428955 -0.213623 -0.366211 -1.342773 4.83 5.16 0.7 1.2 0.108 0.117 2.3800 2.0419 0.6096 -0.0141 0.002591 0.006256 11.88 490 810 
12.274 3 -0.630532 0.613750 -10.289902 -0.274658 10.589600 -2.258301 5.54 5.41 0.7 0.9 0.021 0.116 2.9479 2.5558 0.6124 -0.0141 0.002591 0.008441 11.89 500 820 
12.314 3 -0.733623 -0.139053 -9.908706 0.244141 -0.610352 -1.586914 5.21 5.26 1.5 0.9 0.439 -0.091 1.3928 2.6910 0.6152 -0.0141 0.002591 0.007625 11.89 490 810 
12.354 3 -1.086050 -0.299683 -9.247006 0.122070 -2.624512 1.525879 5.24 3.96 1.2 -0.4 0.016 -0.101 2.2989 3.2454 0.6180 -0.0141 0.002591 0.005252 11.89 490 810 
12.394 3 -0.692866 -0.067129 -9.824795 -0.427246 -3.082275 -0.885010 5.34 5.23 1.3 0.8 0.313 -0.010 2.0014 2.5423 0.6207 -0.0141 -0.000000 0.009277 11.89 500 780 
12.434 3 -0.642520 0.151040 -9.621011 -0.061035 -0.579834 -1.068115 5.16 5.01 1.4 0.6 0.216 0.239 1.5686 2.5558 0.6235 -0.0141 -0.000000 0.008131 11.87 500 790 
12.474 3 -0.623340 -0.237349 -10.112490 0.549316 5.737305 1.770020 5.62 5.20 1.2 1.4 0.095 0.322 2.4747 1.6498 0.6263 -0.0141 -0.000000 0.008966 11.87 500 790 
12.514 3 -0.570596 -0.649712 -9.848769 0.030518 3.906250 3.082275 5.95 4.89 1.5 0.9 0.021 0.120 2.2042 2.1501 0.6293 -0.0141 0.002591 0.008437 11.89 500 820 
12.554 3 -1.138794 0.081514 -9.858359 -0.183105 0.183105 2.166748 5.40 5.82 0.2 0.8 -0.044 -0.020 3.7323 3.1508 0.6323 -0.0141 -0.000000 0.008611 11.89 500 780 
12.594 3 -0.215771 0.083911 -9.736089 0.732422 2.502441 -0.488281 6.64 4.53 2.1 -0.8 0.247 0.036 2.1366 4.2191 0.6353 -0.0141 0.002591 0.008327 11.89 500 830 
12.634 3 -0.083911 -0.031167 -10.563212 0.610352 10.253906 4.882812 5.03 5.00 0.9 0.5 0.112 0.144 2.3935 2.8668 0.6383 -0.0141 -0.000000 0.005805 11.88 490 770 
12.674 3 -0.572993 -0.062334 -9.719306 0.457764 -2.258301 -4.119873 4.14 5.33 -0.4 1.5 0.005 -0.010 3.4212 2.0014 0.6411 -0.0141 -0.000000 0.005974 11.89 490 780 
12.715 3 -0.282900 -1.344976 -10.579995 0.274658 0.640869 -9.979248 6.01 5.76 0.4 1.0 0.456 -0.044 3.7864 2.9750 0.6442 -0.0141 0.002591 0.010983 11.89 500 820 
12.755 3 -1.040498 0.326055 -9.453188 0.701904 0.610352 -2.563477 5.60 3.63 1.5 -0.5 0.006 -0.032 2.0825 3.1778 0.6472 -0.0141 0.005182 0.004944 11.89 500 830 
12.795 3 -0.767187 -0.263721 -9.544291 0.183105 -16.204834 -0.915527 4.59 6.09 -0.2 1.8 0.011 0.208 3.6241 2.2042 0.6500 -0.0141 -0.000000 0.009687 11.88 490 820 
12.835 3 -0.220566 0.522646 -10.738227 1.678467 11.688232 -2.380371 6.35 6.20 0.3 1.6 0.024 0.120 4.2596 2.2853 0.6534 -0.0141 0.002591 0.011643 11.89 500 820 
12.875 3 -0.604160 0.191797 -9.800820 1.342773 2.441406 0.000000 5.23 4.78 0.9 0.4 0.139 -0.070 2.4747 2.9074 0.6566 -0.0141 0.002591 0.005045 11.88 500 820 
12.915 3 -0.604160 -0.112681 -9.532305 -0.762939 -15.319824 -1.464844 6.37 5.00 1.6 -0.1 0.155 -0.017 2.6099 3.7323 0.6598 -0.0141 0.002591 0.009377 11.87 490 820 
12.955 3 -0.357222 0.184604 -9.961450 0.701904 8.392334 3.479004 5.71 6.83 -0.2 1.8 0.168 0.137 4.3002 2.5152 0.6632 -0.0140 -0.000000 0.010103 11.88 500 820 
12.995 3 -0.736021 0.079116 -9.455585 0.183105 3.204346 1.922607 5.91 6.38 0.8 1.5 0.268 0.101 3.1643 2.6775 0.6672 -0.0140 -0.000000 0.008024 11.88 500 830 
13.035 3 -0.918227 0.453120 -9.685741 -0.122070 1.647949 4.669189 5.93 6.04 0.8 1.5 -0.016 0.295 3.3266 2.2448 0.6705 -0.0140 -0.000000 0.007015 11.88 500 780 
13.075 3 -0.402773 -0.076719 -10.488892 0.762939 1.800537 3.173828 6.21 5.62 1.8 0.9 0.112 0.112 2.1636 2.7045 0.6741 -0.0140 -0.000000 0.006881 11.89 500 780 
13.115 3 -0.326055 -0.611353 -9.755268 -0.518799 2.960205 3.540039 5.48 5.70 1.1 0.6 0.154 0.017 2.5558 3.1914 0.6775 -0.0140 -0.002591 0.005666 11.89 490 820 
13.155 3 -0.381196 -0.167822 -10.030976 -1.708984 -2.532959 1.281738 5.83 6.33 1.1 0.8 0.094 0.143 2.8262 3.3131 0.6809 -0.0141 -0.005182 0.008420 11.88 500 820 
13.195 3 0.045552 -0.136655 -10.028579 -2.044678 3.906250 4.486084 6.40 5.50 1.8 0.0 0.031 -0.040 2.2583 3.8540 0.6843 -0.0141 -0.002591 0.007233 11.87 500 810 
13.235 3 -0.551416 -0.400376 -10.234760 -1.556396 -2.258301 -5.554199 6.36 6.27 1.2 0.7 0.070 0.101 3.1643 3.5024 0.6877 -0.0141 -0.005182 0.008802 11.88 500 820 
13.275 3 -0.501069 0.467505 -9.867949 1.251221 7.080078 -2.380371 6.50 6.28 0.8 1.6 0.055 0.266 3.6511 1.9878 0.6913 -0.0141 -0.005182 0.008336 11.89 500 830 
13.315 3 -0.913433 -0.129463 -9.668960 0.427246 -1.464844 -0.793457 5.50 6.81 0.2 2.0 -0.020 0.265 3.7187 2.0960 0.6948 -0.0141 -0.007773 0.006996 11.89 500 820 
13.355 3 -0.604160 0.678481 -9.752871 1.007080 9.155273 -2.258301 5.15 7.48 0.3 2.0 -0.013 0.266 3.2725 2.6099 0.6986 -0.0142 -0.010364 0.007331 11.88 500 830 
13.395 3 -0.664097 0.081514 -9.724101 0.976562 0.671387 -1.770020 4.89 7.29 -0.2 2.2 0.032 0.251 3.7864 2.2448 0.7022 -0.0142 -0.010364 0.006530 11.89 500 820 
13.435 3 -0.719238 1.505605 -9.956655 2.319336 7.110596 -3.845215 5.32 7.23 0.4 2.1 -0.006 0.302 3.2184 2.2989 0.7058 -0.0142 -0.010364 0.007294 11.87 500 820 
13.475 3 -0.724033 -0.812739 -9.800820 2.227783 4.333496 1.647949 5.53 6.31 -0.2 1.8 -0.070 0.333 4.3949 1.9337 0.7096 -0.0142 -0.007773 0.005547 11.88 500 830 
13.515 3 -0.592173 -0.908638 -9.450790 1.251221 -0.183105 -2.777100 6.15 5.96 1.2 1.2 0.059 0.306 3.0156 2.3935 0.7132 -0.0143 -0.007773 0.006520 11.89 490 810 
13.555 3 -0.400376 -0.676084 -9.903911 1.068115 3.112793 2.929688 5.18 7.00 0.7 2.1 0.049 0.383 2.7316 2.1095 0.7166 -0.0143 -0.010364 0.007136 11.89 490 810 
13.595 3 -0.139053 -0.040757 -10.318671 0.701904 6.103516 0.396729 5.99 7.02 0.7 2.1 -0.017 0.474 3.5024 1.8256 0.7203 -0.0143 -0.010364 0.008723 11.88 500 810 
13.635 3 -0.620942 -0.417158 -9.417226 -2.380371 2.471924 6.652832 6.30 5.90 1.2 0.4 -0.057 0.429 3.2454 3.3807 0.7241 -0.0144 -0.007773 0.006089 11.89 500 830 
13.675 3 -0.795957 -0.486685 -9.875141 -1.068115 -8.972168 -3.295898 5.87 6.63 0.7 1.2 -0.047 0.420 3.6241 3.0561 0.7279 -0.0144 -0.010364 0.007289 11.89 490 820 
13.715 3 -0.549019 -0.172617 -9.632998 0.030518 3.234863 7.324219 6.91 5.48 2.1 -0.3 0.068 0.024 2.2989 4.2732 0.7315 -0.0144 -0.005182 0.006626 11.87 500 830 
13.755 3 -0.704853 -0.448325 -9.954258 -2.441406 -6.774902 -0.457764 6.56 6.32 1.3 0.3 0.301 -0.037 3.2319 4.1785 0.7353 -0.0145 -0.007773 0.007888 11.89 500 830 
13.795 3 -0.170220 -0.736021 -10.191607 -1.342773 2.227783 2.990723 6.16 6.59 0.9 0.8 0.257 -0.124 3.2725 3.8540 0.7389 -0.0145 -0.007773 0.007176 11.88 500 820 
13.835 3 -0.923022 0.258926 -9.757666 0.091553 0.396729 -9.918213 5.25 7.31 -0.0 2.3 0.202 0.025 3.8134 2.3665 0.7427 -0.0145 -0.010364 0.006823 11.89 500 830 
13.875 3 -0.292490 0.117476 -10.400186 1.586914 0.244141 -3.326416 6.01 6.89 0.4 1.6 0.195 0.033 3.8404 2.9750 0.7466 -0.0146 -0.007773 0.007133 11.89 500 820 
13.915 3 -0.563403 -0.421953 -9.913501 1.831055 -5.279541 -9.368896 5.87 6.90 0.4 1.4 -0.029 0.131 3.9081 3.2319 0.7506 -0.0146 -0.007773 0.006899 11.88 500 820 
13.955 3 -0.829521 -0.026372 -9.882334 -1.586914 -0.183105 5.279541 5.90 6.64 1.3 1.2 0.014 0.248 2.5152 3.2319 0.7544 -0.0146 -0.005182 0.006771 11.87 500 830 
13.995 3 -0.867881 -0.045552 -9.867949 -1.434326 -8.544922 -1.617432 5.57 6.74 1.0 1.3 0.078 0.111 2.6910 3.2184 0.7580 -0.0146 -0.005182 0.006855 11.87 500 830 
14.035 3 -0.889458 -0.851099 -9.793628 0.244141 3.265381 -3.540039 5.85 6.47 1.2 1.3 0.340 -0.084 2.2989 3.0020 0.7614 -0.0146 -0.002591 0.006927 11.89 500 820 
14.075 3 -0.680879 0.091104 -9.908706 -0.122070 -2.288818 -0.854492 6.07 5.85 1.4 1.1 0.318 0.078 2.4206 2.7586 0.7652 -0.0146 -0.000000 0.006550 11.89 500 790 
14.115 3 -0.851099 -0.647314 -9.671357 0.244141 4.577637 -4.119873 6.12 6.13 0.9 1.0 0.267 0.093 3.0967 3.0426 0.7689 -0.0146 -0.000000 0.007271 11.89 490 780 
14.155 3 -0.644917 0.218169 -9.956655 -0.122070 1.098633 1.770020 5.70 6.25 0.9 1.4 0.104 0.177 2.7857 2.6504 0.7721 -0.0146 -0.000000 0.007155 11.88 500 780 
14.195 3 -0.489082 0.503467 -9.889526 -0.732422 7.659912 6.164551 5.86 6.38 1.0 1.7 0.121 0.249 2.7181 2.2448 0.7757 -0.0146 -0.000000 0.007842 11.89 500 780 
14.235 3 -0.834316 0.304478 -9.827192 -1.800537 -0.701904 3.662109 5.33 6.08 0.2 1.5 -0.047 0.264 3.6782 2.3124 0.7793 -0.0146 -0.000000 0.006062 11.89 490 780 
14.275 3 -0.659302 0.599365 -10.225170 0.640869 -4.272461 -7.446289 5.42 6.25 0.3 2.0 -0.005 0.385 3.6647 1.8932 0.7829 -0.0146 -0.000000 0.007507 11.89 500 780 
14.315 3 -0.829521 0.757598 -10.194004 0.762939 3.479004 -1.098633 5.62 5.94 -0.2 1.6 -0.031 0.285 4.4625 2.1772 0.7863 -0.0146 0.002591 0.007188 11.88 500 820 
14.355 3 -0.479492 -0.498672 -10.086118 0.366211 -9.674072 -2.838135 5.65 6.01 0.3 1.3 -0.013 -0.032 3.8675 2.8803 0.7899 -0.0146 0.002591 0.008035 11.87 490 810 
14.395 3 -1.011729 0.100693 -9.359687 0.579834 6.164551 -3.295898 6.04 6.08 1.0 1.4 0.123 0.208 2.8803 2.3800 0.7932 -0.0146 0.002591 0.008400 11.89 500 820 
14.435 3 -0.668892 -0.395581 -9.709717 0.061035 -9.246826 -2.441406 6.19 6.37 1.3 1.3 0.027 0.134 2.7316 2.9750 0.7972 -0.0146 0.002591 0.009116 11.87 500 830 
14.475 3 -0.728828 -0.079116 -9.798423 -0.274658 4.180908 3.417969 7.00 6.56 1.5 0.4 0.406 -0.073 2.9074 4.4625 0.8010 -0.0145 0.005182 0.009534 11.87 490 810 
14.515 3 -0.608955 -0.091104 -9.784038 0.030518 -2.502441 2.197266 6.75 5.77 1.6 0.2 0.322 -0.096 2.7045 4.0027 0.8050 -0.0145 0.005182 0.006553 11.89 490 810 
14.555 3 -1.100435 -0.467505 -8.976093 -1.068115 6.134033 1.892090 6.92 5.99 1.4 0.2 0.315 -0.036 3.0561 4.2326 0.8090 -0.0145 0.005182 0.006862 11.88 490 820 
14.595 3 -0.817534 0.057539 -9.359687 0.000000 -7.324219 0.915527 6.82 5.47 1.7 0.3 0.191 0.138 2.7992 3.5024 0.8130 -0.0145 0.005182 0.006068 11.89 500 830 
14.635 3 -0.748008 -0.683276 -9.064799 -0.030518 -0.183105 -0.946045 7.09 6.22 2.0 0.1 0.435 -0.036 2.3394 4.5707 0.8170 -0.0145 0.005182 0.008026 11.89 500 830 
14.675 3 -0.606558 0.213374 -10.141259 -0.244141 -1.495361 2.441406 5.78 5.81 1.2 0.5 0.189 -0.090 2.6099 3.6511 0.8209 -0.0145 0.002591 0.004373 11.89 500 820 
14.715 3 -0.234951 0.175015 -10.440942 -2.105713 -14.678955 3.784180 7.43 7.02 1.9 0.6 0.337 -0.009 3.0561 4.6518 0.8249 -0.0144 0.002591 0.011410 11.89 490 810 
14.755 3 -0.815137 0.026372 -9.659369 -3.051758 12.298584 -5.187988 7.49 6.46 1.7 0.4 0.340 -0.089 3.2454 4.1785 0.8293 -0.0144 0.002591 0.007649 11.89 500 820 
14.795 3 -0.812739 0.508262 -9.450790 1.007080 0.061035 1.678467 5.75 6.52 0.7 1.0 0.299 -0.115 3.1237 3.6917 0.8335 -0.0144 -0.000000 0.003902 11.88 500 820 
14.835 3 -0.846304 -0.426748 -10.016591 1.037598 1.953125 -6.225586 6.40 6.97 1.3 1.6 0.462 -0.023 2.9344 3.1778 0.8375 -0.0144 -0.000000 0.007368 11.88 490 780 
14.875 3 -0.690469 -0.450723 -9.589844 0.579834 -1.831055 2.319336 6.52 6.24 0.8 1.1 0.222 -0.039 3.6106 3.2319 0.8417 -0.0144 0.002591 0.005792 11.89 500 820 
14.915 3 -0.510659 0.364414 -10.146054 0.762939 -4.669189 0.305176 6.98 7.46 0.6 1.2 0.072 0.394 4.4219 3.8810 0.8460 -0.0144 -0.000000 0.009121 11.89 500 790 
14.955 3 -0.913433 -0.062334 -9.501138 -0.335693 -2.044678 3.051758 7.04 5.79 1.4 0.1 -0.068 0.169 3.5700 4.0974 0.8502 -0.0144 0.002591 0.004847 11.89 490 820 
14.995 3 -0.594570 0.047949 -9.872744 0.488281 0.854492 -0.122070 6.70 6.97 1.2 0.9 0.242 0.128 3.2049 3.9486 0.8544 -0.0144 -0.000000 0.007161 11.88 500 820 
15.035 3 -0.450723 0.347632 -9.539496 -1.190186 -1.953125 1.800537 6.52 6.90 0.9 1.1 0.221 0.051 3.5024 3.6511 0.8584 -0.0144 -0.000000 0.006395 11.88 500 780 
15.075 3 -0.791162 -0.743213 -9.817602 0.823975 5.462646 -0.732422 7.53 6.54 1.8 1.0 0.314 0.081 3.0426 3.3266 0.8626 -0.0144 0.002591 0.007346 11.88 500 820 
15.115 3 -1.160371 0.175015 -9.201455 -1.007080 -5.615234 4.852295 6.98 6.72 1.1 1.3 -0.067 0.285 3.7458 2.9885 0.8668 -0.0144 -0.000000 0.006155 11.89 490 780 
15.155 3 -0.884663 -0.486685 -9.728896 0.122070 8.026123 1.770020 6.35 7.30 1.3 1.1 0.219 -0.013 2.7586 3.8404 0.8711 -0.0144 -0.002591 0.005865 11.87 490 820 
15.196 3 -0.397979 -0.213374 -10.222774 -0.549316 -1.220703 -1.312256 6.72 7.12 1.2 0.7 0.277 -0.082 3.4077 4.3543 0.8755 -0.0144 -0.002591 0.006319 11.88 500 820 
15.236 3 -0.647314 -0.023975 -10.249146 -0.335693 1.007080 5.401611 6.79 7.20 0.5 1.2 0.162 0.083 4.3002 3.6917 0.8795 -0.0144 -0.002591 0.006277 11.89 500 810 
15.276 3 -0.606558 0.431543 -9.750473 0.305176 -0.946045 -6.195068 5.87 8.26 -0.3 2.1 0.144 0.199 4.8276 3.2860 0.8839 -0.0144 -0.007773 0.006544 11.89 500 830 
15.316 3 -1.026113 0.841509 -9.386059 1.892090 4.547119 4.364014 6.81 6.79 0.6 1.4 -0.069 0.310 4.4084 2.8939 0.8881 -0.0145 -0.005182 0.005256 11.88 500 830 
15.356 3 -0.889458 -0.836714 -9.625805 -0.213623 -8.636475 1.373291 6.65 7.27 1.0 1.0 -0.072 0.456 3.7999 3.8404 0.8924 -0.0145 -0.007773 0.006513 11.89 500 830 
15.396 3 -0.824727 -1.340181 -9.239814 -2.716064 -1.434326 4.974365 6.36 6.90 1.0 0.7 0.033 0.105 3.4483 4.1244 0.8964 -0.0145 -0.007773 0.004851 11.89 490 810 
15.436 3 -0.246938 -0.345234 -10.258735 -3.845215 1.373291 2.929688 6.92 6.94 1.7 0.6 0.348 0.074 2.8262 4.1920 0.9004 -0.0146 -0.007773 0.006838 11.89 500 820 
15.476 3 -0.333247 0.668892 -10.105297 -2.502441 -0.305176 9.552002 5.79 7.61 0.2 1.1 0.162 -0.120 3.9081 4.1785 0.9046 -0.0146 -0.010364 0.005583 11.89 500 830 
15.516 3 -0.575391 -0.767187 -10.347441 0.610352 -0.732422 -7.354736 6.34 7.78 1.0 1.4 0.443 -0.101 3.2995 3.8675 0.9086 -0.0146 -0.010364 0.007577 11.88 500 830 
15.556 3 -0.783970 -0.215771 -10.205991 1.556396 2.288818 -2.899170 6.36 6.84 0.2 1.3 0.021 0.006 4.5301 3.2319 0.9128 -0.0147 -0.007773 0.005137 11.89 500 820 
15.596 3 -0.831919 0.359619 -9.203853 -0.213623 -1.861572 -2.563477 6.73 6.97 1.3 1.8 0.275 0.309 3.2725 2.4747 0.9168 -0.0147 -0.007773 0.006905 11.87 490 820 
15.636 3 -1.174756 -0.599365 -9.321328 -1.037598 -4.913330 0.335693 6.74 7.24 0.8 1.3 -0.071 0.346 4.0298 3.4077 0.9209 -0.0147 -0.007773 0.006953 11.88 500 810 
15.676 3 -1.335386 0.107886 -9.071992 -1.251221 -1.586914 -2.105713 6.30 7.37 0.6 1.0 0.272 0.021 3.6647 4.1650 0.9253 -0.0148 -0.007773 0.005608 11.88 500 830 
15.716 3 -0.640122 -0.004795 -9.796025 -1.190186 -5.645752 -3.173828 7.13 6.58 1.5 0.4 0.299 0.010 3.2860 4.1785 0.9295 -0.0148 -0.005182 0.006024 11.89 500 830 
15.756 3 -1.095640 0.158232 -9.872744 -0.518799 1.617432 -0.762939 7.42 6.00 1.8 0.5 0.483 -0.089 2.9885 3.7052 0.9337 -0.0148 -0.002591 0.005234 11.88 500 820 
15.796 3 -0.577788 -0.261323 -9.700127 -0.976562 -6.317139 -2.319336 6.28 6.88 1.2 1.0 0.327 -0.040 3.0426 3.9621 0.9379 -0.0148 -0.005182 0.005295 11.89 500 820 
15.836 3 -0.362017 0.726431 -10.328261 1.251221 9.216309 -4.669189 6.18 7.42 -0.1 1.9 -0.053 0.326 4.7735 2.9750 0.9420 -0.0149 -0.005182 0.006250 11.89 500 820 
15.876 3 -1.004536 0.043154 -9.659369 0.152588 -6.317139 -2.044678 6.26 6.65 0.1 1.5 -0.049 0.191 4.6112 2.9750 0.9462 -0.0149 -0.002591 0.005081 11.89 500 820 
15.916 3 -0.462710 -0.225361 -10.265927 1.037598 8.575439 0.854492 6.82 6.23 1.4 0.5 0.061 0.161 3.1102 3.8404 0.9504 -0.0149 -0.000000 0.005667 11.89 500 820 
15.956 3 -0.091104 0.184604 -10.553622 -0.976562 1.708984 -2.532959 6.87 7.04 1.5 1.4 0.300 0.121 2.9074 3.4212 0.9544 -0.0149 -0.000000 0.007870 11.88 490 770 
15.996 3 -0.781572 -0.364414 -9.585049 0.396729 0.366211 -1.312256 6.69 6.37 1.3 1.1 0.267 0.125 3.0020 3.1643 0.9582 -0.0149 0.002591 0.005656 11.89 500 820 
16.036 3 -1.018921 0.608955 -9.333315 0.244141 4.211426 -5.035400 6.30 7.40 -0.1 1.9 0.247 0.291 4.6924 2.8127 0.9624 -0.0149 -0.000000 0.006797 11.88 500 780 
16.076 3 -0.589775 -0.769585 -9.999809 1.739502 0.091553 -5.767822 6.20 5.83 0.5 1.4 0.124 0.053 3.9757 2.3800 0.9666 -0.0148 0.002591 0.003540 11.88 490 820 
16.116 3 -0.239746 -0.273311 -10.313877 -0.061035 -2.838135 -0.701904 6.44 6.27 0.6 1.7 0.138 0.302 3.9621 2.2177 0.9703 -0.0148 0.002591 0.006435 11.88 490 810 
16.156 3 -0.750405 0.136655 -9.791230 0.915527 0.793457 1.525879 5.92 5.80 0.3 1.5 0.038 0.303 4.0027 2.0014 0.9739 -0.0148 0.002591 0.004703 11.88 500 820 
16.196 3 -0.848701 0.095898 -9.697729 -1.159668 -3.875732 0.885010 6.01 6.93 0.6 1.8 0.325 0.247 3.4753 2.6234 0.9777 -0.0148 -0.000000 0.008010 11.89 490 780 
16.236 3 -0.731226 0.474697 -9.525112 0.091553 -3.112793 5.187988 6.26 5.76 1.2 1.0 0.032 -0.021 2.9074 2.7586 0.9815 -0.0148 0.002591 0.005996 11.89 490 820 
16.276 3 -0.625737 -0.004795 -10.052553 -0.183105 3.784180 -2.502441 6.04 6.60 1.2 1.4 0.323 0.074 2.5964 2.8398 0.9849 -0.0148 -0.000000 0.007931 11.89 490 780 
16.316 3 -1.016523 0.426748 -9.347700 -0.396729 -2.593994 3.265381 5.61 6.55 0.7 0.7 0.325 -0.035 2.9344 3.9757 0.9885 -0.0148 -0.000000 0.006746 11.89 500 820 
16.356 3 -0.748008 -0.532236 -9.668960 -0.305176 -1.708984 -5.950928 6.18 6.29 1.3 0.3 0.276 -0.097 2.8398 4.3543 0.9922 -0.0148 -0.000000 0.007717 11.89 490 780 
16.396 3 -0.328452 0.436338 -9.597035 -0.915527 0.305176 3.387451 6.07 5.16 1.4 0.3 0.139 0.071 2.4206 3.3401 0.9956 -0.0148 0.002591 0.005457 11.89 500 820 
16.436 3 -0.318862 0.110283 -10.426558 0.335693 -1.556396 -0.488281 5.75 6.23 1.5 0.7 0.211 0.142 2.1095 3.7458 0.9990 -0.0148 -0.000000 0.008160 11.88 500 820 
16.476 3 -0.620942 -0.448325 -9.652178 0.488281 7.873535 -0.946045 5.86 5.16 1.7 -0.1 0.416 -0.108 1.8391 3.9216 1.0024 -0.0148 0.002591 0.005853 11.88 500 820 
16.516 3 -0.752803 -0.139053 -9.477162 -0.671387 -1.586914 0.061035 4.96 5.06 0.8 0.4 -0.019 0.149 2.6234 3.1373 1.0058 -0.0148 -0.000000 0.004847 11.88 490 780 
16.556 3 -0.594570 -0.191797 -10.285107 0.762939 -3.204346 -0.152588 5.79 5.45 1.2 1.8 0.072 0.474 2.6099 1.2576 1.0086 -0.0148 -0.000000 0.009009 11.88 490 780 
16.596 3 -0.848701 -0.002397 -9.522715 -0.518799 0.396729 2.532959 4.38 6.26 0.0 1.8 -0.030 0.255 3.0291 2.1231 1.0120 -0.0148 -0.002591 0.007235 11.88 500 820 
16.635 3 -0.848701 0.244541 -9.575459 -0.610352 -4.638672 -5.279541 5.41 5.68 1.6 1.4 0.379 0.163 1.6903 2.2312 1.0150 -0.0148 -0.000000 0.009010 11.89 500 780 
16.675 3 -0.115078 0.155835 -9.827192 -0.122070 7.995605 1.831055 5.34 5.92 0.6 1.3 0.178 0.076 2.8939 2.5287 1.0183 -0.0148 -0.000000 0.008774 11.88 500 770 
16.715 3 -0.359619 -0.863086 -10.093310 1.190186 5.737305 0.885010 4.79 5.17 1.1 1.0 0.306 -0.047 1.7444 2.4070 1.0215 -0.0148 -0.000000 0.006071 11.89 500 790 
16.755 3 -0.819932 0.388389 -9.755268 -0.823975 -9.582520 4.699707 5.13 4.89 0.9 0.8 0.020 0.057 2.6099 2.4476 1.0243 -0.0148 -0.000000 0.007938 11.89 490 780 
16.795 3 -0.688071 -0.901445 -9.282969 -0.732422 3.448486 -1.220703 6.22 5.55 1.9 0.1 0.528 0.085 1.7715 3.8404 1.0271 -0.0148 -0.000000 0.011724 11.87 500 780 
16.835 3 -0.776777 -0.028770 -9.422021 -1.037598 -0.793457 -1.434326 5.08 5.83 0.6 0.9 -0.017 0.110 3.0291 2.9750 1.0305 -0.0148 -0.002591 0.008774 11.89 500 820 
16.875 3 -0.532236 0.088706 -10.467314 1.770020 11.047363 2.929688 5.77 5.22 1.5 0.9 0.122 0.192 2.1636 2.3529 1.0335 -0.0148 -0.000000 0.008972 11.89 500 780 
16.915 3 -1.035703 0.208579 -9.141519 -1.586914 -2.227783 0.427246 5.19 5.22 0.0 1.5 -0.034 0.405 3.8675 1.5281 1.0367 -0.0148 -0.000000 0.007857 11.89 500 780 
16.955 3 -1.162768 -0.165425 -10.047758 1.159668 9.063721 7.202148 5.43 5.21 0.5 1.2 0.000 0.303 3.3266 2.0419 1.0400 -0.0148 -0.000000 0.008402 11.89 500 780 
16.995 3 -1.002139 -0.151040 -9.510727 -0.671387 -10.253906 3.326416 4.66 5.26 0.3 1.4 0.238 0.043 2.7992 1.8932 1.0428 -0.0148 -0.000000 0.007998 11.89 490 780 
17.035 3 -0.906240 0.779175 -9.316533 2.288818 -0.122070 -5.889893 6.30 5.65 1.3 1.6 0.088 0.272 2.7722 1.6498 1.0456 -0.0148 -0.000000 0.012383 11.88 500 820 
17.075 3 -0.896650 -0.203784 -9.402842 0.610352 -0.396729 4.608154 5.00 6.05 -0.4 1.7 -0.073 0.188 4.1785 1.9608 1.0490 -0.0148 -0.002591 0.008948 11.89 500 820 
17.115 3 -0.436338 -0.388389 -9.501138 0.976562 0.213623 -0.610352 4.67 5.51 0.6 0.9 0.344 -0.077 2.3394 2.7722 1.0518 -0.0148 -0.002591 0.007661 11.89 500 820 
17.155 3 -1.335386 -0.546621 -10.493686 -2.319336 -2.105713 1.190186 5.55 5.47 1.7 0.0 0.470 -0.075 1.5010 3.9892 1.0546 -0.0148 -0.002591 0.009969 11.89 500 820 
17.195 3 -0.409966 0.882266 -9.448393 -0.091553 2.288818 1.586914 5.06 4.62 1.2 0.6 0.022 0.187 1.9878 2.2042 1.0574 -0.0148 -0.002591 0.007379 11.87 490 810 
17.235 3 -1.050088 -0.409966 -9.208647 2.746582 0.152588 -1.800537 4.17 5.45 -0.5 1.7 -0.082 0.255 3.7052 1.5416 1.0600 -0.0148 -0.005182 0.008260 11.89 500 820 
17.275 3 -0.083911 0.158232 -10.970781 1.373291 1.892090 -5.279541 4.67 5.23 1.2 0.5 0.405 -0.088 1.4605 3.1508 1.0629 -0.0148 -0.005182 0.009539 11.88 500 800 
17.315 3 -0.656904 -0.755200 -10.057348 -0.946045 2.563477 7.629395 5.89 4.15 2.1 -0.5 0.333 0.010 1.5145 3.4212 1.0655 -0.0149 -0.002591 0.010378 11.89 500 830 
17.355 3 -1.273052 -0.095898 -9.419623 -2.838135 -9.979248 2.532959 4.50 5.73 0.2 1.9 -0.054 0.426 3.1778 1.2306 1.0681 -0.0149 -0.010364 0.011047 11.89 490 810 
17.395 3 -1.210718 -0.124668 -8.757924 0.915527 0.640869 -4.272461 4.18 5.80 -0.0 1.8 -0.039 0.247 3.0156 1.6092 1.0709 -0.0149 -0.010364 0.010064 11.87 490 820 
17.435 3 -0.863086 0.875073 -9.623408 0.122070 -2.655029 -5.218506 4.24 6.38 -0.2 2.1 0.232 0.135 3.0832 1.7850 1.0733 -0.0149 -0.010364 0.011881 11.88 490 820 
17.475 3 -0.819932 -0.668892 -11.874623 -3.997803 1.434326 0.396729 5.31 5.17 1.5 -0.2 0.371 -0.073 1.7309 3.9757 1.0759 -0.0149 -0.007773 0.010962 11.88 500 820 
17.515 3 -0.951792 0.692866 -9.683345 0.549316 -4.272461 1.281738 4.24 4.89 0.7 1.2 -0.006 0.242 2.1772 1.6768 1.0785 -0.0150 -0.010364 0.008652 11.87 500 820 
17.555 3 0.249336 0.220566 -9.990219 1.068115 -1.220703 0.854492 4.72 4.85 0.7 1.0 0.421 -0.055 2.3259 2.1636 1.0811 -0.0150 -0.007773 0.010853 11.88 500 820 
17.595 3 -0.896650 0.330850 -9.815205 -3.143311 -5.584717 0.915527 4.31 5.01 0.9 0.5 0.015 0.286 1.8932 2.7857 1.0833 -0.0150 -0.010364 0.010909 11.89 500 820 
17.635 3 -0.592173 0.374004 -9.853564 4.577637 10.955811 2.380371 4.81 5.70 0.9 1.7 -0.002 0.316 2.0554 1.5957 1.0853 -0.0150 -0.010364 0.013477 11.87 490 810 
17.675 3 0.057539 0.249336 -10.333056 0.030518 6.774902 -0.640869 3.88 4.94 0.8 0.7 0.280 -0.061 1.4875 2.6775 1.0881 -0.0151 -0.010364 0.009284 11.89 500 810 
17.715 3 -0.688071 -1.071665 -9.870346 -1.220703 -3.967285 -3.082275 3.87 5.26 1.0 1.3 0.293 0.019 1.2306 1.8526 1.0902 -0.0151 -0.010364 0.011630 11.88 490 810 
17.755 3 -0.004795 0.608955 -11.061885 -2.624512 1.953125 5.767822 5.39 5.12 1.5 0.3 0.119 0.192 1.8932 3.1102 1.0924 -0.0151 -0.007773 0.014389 11.88 490 800 
17.795 3 -0.520249 0.040757 -9.618613 -1.312256 -1.800537 0.640869 4.45 4.38 0.7 1.0 -0.032 0.272 2.2989 1.3523 1.0948 -0.0151 -0.007773 0.010410 11.87 500 820 
17.835 3 -0.237349 0.781572 -10.232363 1.037598 1.251221 -4.882812 3.63 5.95 -0.1 2.0 0.271 0.213 2.4476 1.4469 1.0970 -0.0151 -0.010364 0.012942 11.89 500 830 
17.875 3 -0.280503 -0.745610 -10.460122 0.823975 -7.049561 -6.927490 4.45 5.72 0.9 1.4 0.279 -0.024 1.8120 2.2448 1.0992 -0.0152 -0.007773 0.014460 11.89 500 820 
17.915 3 0.426748 -0.261323 -10.994756 0.885010 12.054443 -5.432129 4.66 5.27 1.4 0.8 0.556 -0.059 0.9195 2.7045 1.1014 -0.0152 -0.005182 0.012957 11.89 500 830 
17.955 3 -0.345234 0.129463 -9.736089 1.495361 4.455566 5.493164 4.45 4.31 1.3 1.2 0.222 0.276 1.4199 1.0548 1.1038 -0.0152 -0.005182 0.010454 11.89 500 820 
17.995 3 -1.340181 -0.719238 -9.393251 0.183105 -1.068115 -2.655029 4.00 4.73 0.0 1.5 -0.052 0.355 2.9344 1.1224 1.1064 -0.0152 -0.007773 0.011238 11.89 500 830 
18.035 3 -0.618545 1.033306 -9.434009 -0.244141 -1.495361 -10.040283 4.42 5.44 0.7 1.6 0.111 0.172 2.0825 1.6633 1.1084 -0.0152 -0.007773 0.014243 11.88 500 820 
18.075 3 -1.105229 -1.668633 -10.925229 0.396729 3.479004 -1.556396 5.37 4.56 1.9 0.2 0.474 -0.088 1.1630 3.1237 1.1108 -0.0152 -0.002591 0.013337 11.87 500 810 
18.115 3 -0.616147 1.306616 -10.009399 -0.457764 -4.180908 6.256104 3.94 5.33 0.1 1.6 -0.017 0.261 2.7992 1.6903 1.1136 -0.0152 -0.007773 0.011889 11.89 500 820 
18.155 3 -0.927817 -0.184604 -9.119941 2.502441 -3.387451 -5.523682 3.77 6.10 0.1 2.1 0.301 0.240 2.3800 1.3928 1.1159 -0.0153 -0.010364 0.013706 11.89 500 830 
18.195 3 -0.421953 -0.534634 -10.448134 1.159668 6.958008 -6.561279 4.45 5.15 1.2 1.1 0.472 -0.017 1.0818 2.1772 1.1183 -0.0153 -0.005182 0.012560 11.88 500 810 
18.235 3 -0.632930 0.033564 -9.805614 -0.854492 -2.868652 -5.615234 4.33 4.17 1.1 0.1 0.047 0.216 1.5686 2.6775 1.1211 -0.0153 -0.005182 0.010437 11.89 490 820 
18.275 3 -1.229897 0.836714 -9.632998 0.762939 -0.885010 -3.845215 4.47 5.54 0.2 1.9 0.002 0.356 2.9479 1.3928 1.1235 -0.0153 -0.005182 0.014511 11.89 490 820 
18.315 3 -0.472300 0.748008 -9.374072 0.732422 7.049561 -2.716064 4.90 4.25 1.6 0.8 0.373 0.051 1.1224 1.8526 1.1259 -0.0153 -0.000000 0.012026 11.88 490 780 
18.355 3 -0.390786 0.098296 -10.220376 0.457764 2.044678 1.342773 3.36 4.26 0.6 1.2 0.182 0.013 1.4469 1.4740 1.1285 -0.0153 -0.002591 0.009554 11.88 500 820 
18.395 3 -1.524785 -0.105488 -9.124736 -0.732422 -5.920410 -3.173828 3.78 5.00 0.2 1.7 0.091 0.169 2.3394 1.4064 1.1305 -0.0153 -0.002591 0.013616 11.88 500 820 
18.434 3 -0.527441 0.352427 -10.510468 1.281738 8.819580 -6.408691 4.52 5.06 1.2 1.2 0.379 -0.013 1.2035 2.0825 1.1327 -0.0153 -0.000000 0.014542 11.89 500 780 
18.474 3 -0.354824 0.376401 -10.030976 0.823975 -6.195068 -5.126953 5.47 3.13 1.8 -0.8 0.245 -0.045 1.3928 3.2454 1.1351 -0.0153 0.005182 0.012528 11.89 500 830 
18.514 3 -0.882266 -0.062334 -9.453188 0.213623 1.312256 0.183105 5.33 4.48 1.6 1.0 0.316 0.125 1.3793 1.6092 1.1371 -0.0153 0.005182 0.015432 11.89 500 820 
18.554 3 -0.558608 1.349770 -10.390595 0.244141 3.295898 -4.150391 5.04 5.26 0.5 1.0 0.059 0.109 2.8127 2.3124 1.1398 -0.0153 0.002591 0.015379 11.88 500 820 
18.594 3 -0.851099 0.242144 -9.808012 0.274658 1.190186 -6.652832 4.75 5.30 -0.4 1.6 0.160 0.099 3.6647 1.7174 1.1420 -0.0153 0.005182 0.014279 11.86 500 820 
18.634 3 -0.781572 -0.745610 -9.812807 0.457764 -0.335693 4.791260 5.33 3.23 1.9 -0.5 0.453 -0.088 1.0683 2.9885 1.1444 -0.0153 0.010364 0.011157 11.86 500 820 
18.674 3 -0.414761 0.395581 -9.405239 -0.183105 -4.669189 -7.171631 3.58 4.62 0.1 1.6 0.110 0.262 2.3529 1.0142 1.1466 -0.0152 0.002591 0.011891 11.89 500 820 
18.714 3 0.342837 -0.860688 -10.937217 1.525879 7.385254 -1.586914 5.15 4.50 0.8 0.7 0.225 -0.046 2.3935 2.3800 1.1490 -0.0152 0.007773 0.015337 11.87 490 810 
18.754 3 -0.479492 0.160630 -10.076528 0.396729 0.579834 5.737305 4.76 4.69 0.8 1.4 0.010 0.302 2.3124 1.3658 1.1512 -0.0152 0.005182 0.014758 11.89 500 820 
18.794 3 -1.273052 -0.726431 -8.827451 -0.274658 4.577637 -2.563477 3.46 4.95 -1.0 1.5 0.026 -0.030 3.5565 1.7039 1.1536 -0.0152 0.005182 0.011971 11.88 490 820 
18.834 3 -1.711787 -0.294888 -8.750732 -0.427246 -6.774902 3.173828 5.19 3.34 1.7 0.4 0.175 0.084 1.3252 1.7580 1.1560 -0.0152 0.010364 0.013140 11.88 500 820 
18.874 3 -0.635327 0.738418 -9.697729 0.030518 -2.136230 8.270264 5.32 4.44 1.0 0.8 0.009 0.142 2.4747 1.8526 1.1582 -0.0152 0.007773 0.016246 11.87 500 820 
18.914 3 -0.640122 -0.299683 -9.757666 -0.305176 -8.331299 -0.183105 4.59 4.96 -0.1 1.6 -0.031 0.325 3.4077 1.1900 1.1604 -0.0152 0.005182 0.015357 11.89 500 820 
18.954 3 -0.738418 1.023716 -9.853564 0.640869 4.394531 -3.417969 5.07 5.01 0.7 1.5 0.038 0.242 2.5152 1.4064 1.1632 -0.0151 0.005182 0.015870 11.89 500 820 
18.994 3 -0.522646 0.316465 -9.911103 0.457764 10.559082 -4.516602 4.44 5.10 -0.3 1.6 0.147 0.094 3.4077 1.5822 1.1657 -0.0151 0.005182 0.013773 11.89 500 820 
19.034 3 -1.316206 -0.479492 -9.398046 0.091553 -8.331299 -1.800537 4.94 4.09 1.5 -0.2 0.385 -0.094 1.3928 3.3942 1.1683 -0.0151 0.007773 0.013334 11.88 500 810 
19.074 3 -1.251475 -0.088706 -9.414829 -0.762939 -11.627197 -1.953125 5.22 5.51 0.6 1.7 -0.022 0.397 2.9885 1.5822 1.1705 -0.0151 0.005182 0.017576 11.88 500 820 
19.114 3 -0.314067 -0.117476 -9.947065 -0.335693 1.983643 8.575439 4.97 5.33 0.8 1.2 0.133 0.063 2.2718 2.0825 1.1733 -0.0151 0.005182 0.015345 11.88 500 820 
19.154 3 -0.647314 0.443530 -9.901513 -1.373291 0.976562 9.918213 5.02 5.03 1.0 1.5 0.036 0.278 2.1231 1.4605 1.1761 -0.0150 0.005182 0.014512 11.88 500 820 
19.194 3 -0.829521 -0.234951 -10.229965 1.129150 2.471924 -6.195068 4.96 5.31 0.7 1.4 0.021 0.250 2.6504 1.8391 1.1787 -0.0150 0.002591 0.014622 11.89 500 820 
19.234 3 -0.688071 0.232554 -9.417226 0.122070 -8.422852 4.852295 5.75 5.09 0.4 0.9 -0.005 0.048 3.6917 2.3800 1.1817 -0.0150 0.005182 0.015753 11.89 500 830 
19.274 3 -0.604160 0.000000 -10.234760 1.434326 5.310059 -4.638672 5.07 5.80 0.1 1.5 0.194 0.058 3.3536 2.0149 1.1843 -0.0150 0.002591 0.015075 11.89 500 820 
19.314 3 -0.354824 0.230156 -10.172426 -0.244141 -3.662109 6.347656 5.94 5.67 1.3 0.7 0.296 -0.065 2.5287 3.1508 1.1875 -0.0150 0.002591 0.016047 11.88 490 820 
19.354 3 -0.213374 -0.894253 -10.392993 0.518799 0.610352 1.556396 6.12 5.61 1.0 1.0 0.249 0.051 3.0156 2.5287 1.1908 -0.0150 0.002591 0.015453 11.88 500 820 
19.394 3 -0.642520 -0.414761 -10.062143 0.396729 -0.152588 -6.835938 5.56 6.08 -0.1 1.1 0.200 -0.051 4.2461 3.0291 1.1942 -0.0150 -0.000000 0.014339 11.88 500 780 
19.434 3 -0.966177 -0.632930 -9.889526 1.708984 2.838135 -5.187988 5.38 5.83 0.1 1.2 0.070 0.093 3.7864 2.6234 1.1974 -0.0150 -0.000000 0.013208 11.89 500 790 
19.474 3 -0.879868 0.299683 -9.469971 -1.068115 -7.202148 -1.068115 5.60 5.67 0.9 1.4 0.110 0.143 2.8939 2.1907 1.2006 -0.0150 -0.000000 0.013836 11.88 490 780 
19.514 3 -0.879868 0.347632 -9.757666 2.136230 4.791260 -5.645752 5.03 6.85 -0.3 2.1 -0.076 0.293 4.0433 2.1501 1.2040 -0.0150 -0.002591 0.014456 11.89 500 830 
19.554 3 -0.716841 -0.146245 -9.968642 0.396729 -3.662109 0.213623 5.63 5.84 0.3 1.6 -0.006 0.264 3.7999 2.0284 1.2074 -0.0150 -0.000000 0.013396 11.89 500 780 
19.594 3 -0.575391 0.537031 -10.306684 1.708984 3.509521 -5.279541 5.42 6.96 0.5 2.1 0.021 0.322 3.1237 2.1366 1.2108 -0.0150 -0.002591 0.015041 11.88 500 820 
19.634 3 -0.709648 -0.254131 -9.906308 -0.061035 1.007080 2.502441 5.80 6.09 1.3 1.6 0.265 0.234 2.2448 2.1366 1.2143 -0.0150 -0.000000 0.013515 11.88 500 790 
19.674 3 -0.522646 -0.652109 -10.059746 0.854492 0.579834 -3.234863 6.54 6.26 1.2 1.3 0.129 0.327 3.1508 2.6099 1.2179 -0.0150 -0.000000 0.014858 11.89 500 780 
19.714 3 -0.222964 -0.282900 -9.896718 0.274658 0.762939 2.593994 6.62 6.03 1.5 0.2 0.296 -0.083 2.7857 4.2056 1.2217 -0.0150 0.002591 0.013435 11.88 500 820 
19.754 3 -0.608955 0.091104 -10.155644 -0.610352 -5.981445 -2.227783 6.85 6.38 1.4 0.5 0.269 -0.136 3.1778 4.2056 1.2257 -0.0150 0.002591 0.014284 11.89 500 810 
19.794 3 -0.642520 -0.951792 -9.896718 2.960205 3.936768 -1.251221 6.85 6.64 0.4 1.3 -0.018 0.183 4.4625 3.0426 1.2297 -0.0150 0.002591 0.013762 11.89 500 820 
19.834 3 -0.899048 0.136655 -9.481957 -0.061035 -6.408691 -0.152588 6.40 7.03 1.0 1.9 0.074 0.333 3.3807 2.5152 1.2335 -0.0149 -0.000000 0.013363 11.89 500 780 
19.874 3 -0.666494 -0.481890 -9.906308 0.579834 2.746582 2.380371 6.83 5.91 1.8 0.3 0.148 0.117 2.4341 3.7864 1.2374 -0.0149 0.002591 0.011448 11.89 490 810 
19.914 3 -0.249336 0.263721 -10.014194 -1.220703 -4.028320 5.462646 7.12 6.25 1.6 -0.0 0.155 0.143 3.2725 4.5977 1.2416 -0.0149 -0.000000 0.012991 11.88 500 820 
19.954 3 -0.529839 -0.877471 -10.345043 -1.464844 -1.525879 7.659912 5.90 6.88 1.4 1.2 0.257 0.038 2.3800 3.4618 1.2454 -0.0149 -0.002591 0.012063 11.88 490 820 
19.994 3 -0.450723 -0.390786 -10.630342 -1.892090 6.408691 -5.249023 7.84 6.51 2.5 0.5 0.396 0.016 2.4611 3.9216 1.2492 -0.0150 -0.000000 0.015393 11.88 490 780 
20.034 3 -0.409966 0.688071 -9.640190 -0.335693 7.568359 8.941650 6.11 6.96 0.4 1.3 0.363 0.039 3.7458 3.3536 1.2534 -0.0150 -0.002591 0.011168 11.88 500 820 
20.074 3 -1.129204 0.112681 -9.434009 0.793457 -7.537842 -0.091553 6.40 7.02 0.8 1.5 -0.013 0.259 3.7052 2.9344 1.2572 -0.0150 -0.005182 0.012496 11.88 490 820 
20.114 3 -1.318604 -1.066870 -9.069594 -1.007080 5.157471 4.577637 7.02 7.35 1.3 0.6 0.429 -0.120 3.2860 4.5031 1.2617 -0.0150 -0.005182 0.013386 11.88 500 830 
20.154 3 -1.076460 0.673687 -9.299750 0.701904 -0.061035 -3.723145 6.83 8.16 0.7 2.4 0.164 0.321 4.0433 2.6775 1.2659 -0.0150 -0.007773 0.013855 11.89 500 820 
20.194 3 -1.033306 -0.635327 -9.522715 2.685547 -0.183105 0.488281 6.62 7.78 0.1 1.3 -0.087 0.472 4.9223 3.9216 1.2707 -0.0151 -0.007773 0.011146 11.88 500 820 
20.234 3 -0.841509 -0.352427 -9.853564 -1.190186 0.366211 4.211426 7.19 6.74 1.7 0.3 0.228 0.173 2.9750 4.4625 1.2749 -0.0151 -0.005182 0.010494 11.89 500 820 
20.273 3 -0.107886 -0.206182 -9.999809 -1.464844 -4.760742 -0.610352 7.30 6.79 1.7 0.8 0.335 -0.087 3.1508 3.7593 1.2793 -0.0151 -0.005182 0.011442 11.89 500 810 
20.313 3 -0.270913 0.052744 -10.714252 1.159668 -1.312256 -2.929688 6.82 7.91 0.4 1.4 0.223 -0.033 4.5571 3.9351 1.2835 -0.0151 -0.007773 0.012245 11.89 500 820 
20.353 3 -0.460312 0.433940 -10.172426 1.342773 -2.258301 -1.342773 7.38 8.05 1.3 1.3 0.152 0.456 3.7728 4.0839 1.2884 -0.0152 -0.007773 0.013246 11.87 500 820 
20.393 3 -0.453120 -0.222964 -9.740884 -1.495361 0.701904 8.087158 7.68 6.94 1.6 -0.2 0.169 -0.032 3.7187 5.4496 1.2930 -0.0152 -0.005182 0.010242 11.88 490 820 
20.433 3 -0.541826 -0.894253 -10.426558 -0.610352 -3.326416 -5.462646 7.07 7.96 0.8 1.4 0.253 0.025 4.2596 4.0568 1.2976 -0.0152 -0.007773 0.011406 11.89 500 810 
20.473 3 -1.253872 0.105488 -9.549087 0.274658 -0.335693 -5.249023 7.51 8.08 0.5 1.8 -0.090 0.465 5.1927 3.3807 1.3024 -0.0153 -0.007773 0.011697 11.88 500 820 
20.513 3 -1.100435 -0.961382 -9.508329 0.976562 2.258301 0.457764 8.36 6.86 2.1 -0.8 0.287 0.063 3.3672 6.2881 1.3076 -0.0153 -0.002591 0.009679 11.89 500 830 
20.553 3 -1.213115 -0.529839 -9.577856 -2.014160 1.220703 -1.464844 7.12 7.91 1.3 1.2 0.417 -0.082 3.4753 4.3949 1.3127 -0.0153 -0.005182 0.009218 11.88 490 810 
20.593 3 -0.565801 0.541826 -9.726499 -0.030518 -2.136230 -0.762939 6.59 8.32 0.1 2.0 0.034 0.212 4.7059 3.5835 1.3175 -0.0153 -0.005182 0.009311 11.89 500 830 
20.633 3 -0.297285 0.220566 -10.023784 0.152588 6.134033 5.004883 7.64 7.95 1.5 1.0 0.312 0.076 3.5565 4.7059 1.3225 -0.0154 -0.002591 0.010527 11.87 500 820 
20.673 3 -0.515454 0.333247 -10.194004 1.281738 3.204346 -3.417969 7.70 8.43 1.4 2.0 0.298 0.330 3.7187 3.6241 1.3277 -0.0154 -0.002591 0.011231 11.86 500 820 
20.713 3 -0.882266 -0.400376 -9.968642 -0.061035 0.976562 0.640869 8.47 7.30 1.2 1.1 0.142 0.040 4.7194 3.9757 1.3329 -0.0154 0.002591 0.009242 11.89 500 820 
20.753 3 -0.738418 0.812739 -10.764599 1.190186 3.417969 -2.075195 8.79 7.66 1.4 0.6 -0.019 0.377 4.8546 4.9223 1.3382 -0.0154 0.002591 0.010342 11.89 500 820 
20.793 3 -0.635327 -0.786367 -10.100503 -0.305176 3.143311 -0.793457 8.57 7.44 2.2 0.5 0.399 0.070 3.3536 5.0440 1.3436 -0.0153 0.005182 0.008832 11.88 500 830 
20.833 3 -0.448325 0.388389 -9.865551 -0.762939 2.624512 3.875732 7.74 7.60 -0.2 1.4 0.096 0.085 6.1393 3.9351 1.3488 -0.0153 0.005182 0.007140 11.88 500 820 
20.873 3 -0.553813 0.194194 -9.731294 -0.122070 4.608154 6.744385 7.44 8.00 1.3 1.8 0.127 0.292 3.6511 3.5159 1.3538 -0.0153 0.002591 0.008171 11.88 490 810 
20.913 3 -0.496274 -0.059937 -10.239555 0.061035 2.624512 0.518799 7.65 8.07 1.9 1.3 0.297 0.092 3.0967 4.3949 1.3590 -0.0153 0.002591 0.008853 11.89 500 820 
20.953 3 -0.544224 -0.417158 -10.071733 0.518799 -0.701904 2.075195 7.73 8.25 0.2 1.7 0.063 0.194 5.6525 3.9216 1.3643 -0.0153 0.002591 0.008850 11.89 490 810 
20.993 3 -1.229897 0.091104 -9.263789 -0.183105 5.889893 3.906250 8.32 7.28 1.2 0.7 0.276 -0.079 4.5571 4.5301 1.3697 -0.0152 0.005182 0.007503 11.88 500 830 
21.033 3 -1.220308 0.052744 -8.966504 -0.274658 -4.364014 -4.333496 7.01 8.67 0.2 2.4 0.011 0.276 5.0575 3.3807 1.3749 -0.0152 -0.000000 0.008155 11.88 500 820 
21.073 3 -0.908638 -0.335645 -9.141519 -0.762939 -2.227783 -1.556396 8.02 7.81 1.2 0.4 0.105 -0.049 4.4760 5.4496 1.3803 -0.0152 0.002591 0.008013 11.89 490 820 
21.113 3 -0.678481 -0.071924 -9.891924 -0.061035 0.457764 1.831055 8.04 7.83 0.8 1.3 0.139 0.098 5.0575 4.2326 1.3856 -0.0152 0.002591 0.007785 11.89 490 810 
21.153 3 -0.275708 -0.381196 -10.882075 1.007080 6.958008 -1.434326 8.34 7.46 1.9 1.0 0.301 0.183 3.7458 4.1515 1.3908 -0.0152 0.002591 0.008002 11.88 500 820 
21.193 3 -0.139053 -0.345234 -10.354633 0.091553 -0.366211 1.068115 8.21 7.61 1.0 0.9 0.188 -0.028 4.8952 4.5166 1.3960 -0.0152 0.002591 0.007889 11.88 500 820 
21.233 3 -0.330850 0.227759 -10.402583 -1.068115 4.577637 4.486084 7.39 8.20 0.6 1.5 0.043 0.281 4.6924 4.1650 1.4014 -0.0152 -0.000000 0.007249 11.87 490 820 
21.273 3 -0.321260 0.179810 -10.462520 0.732422 4.333496 -1.831055 8.08 8.17 1.1 1.4 0.056 0.136 4.8546 4.3408 1.4066 -0.0152 -0.000000 0.008620 11.88 500 790 
21.313 3 -0.316465 -0.407568 -10.011797 0.640869 -2.441406 -0.457764 8.29 7.31 1.6 0.8 0.242 0.030 4.1515 4.4625 1.4121 -0.0152 0.002591 0.007047 11.89 500 820 
21.353 3 0.038359 0.258926 -10.400186 -1.220703 6.774902 1.007080 8.00 8.39 1.0 1.6 0.068 0.144 4.7329 4.1650 1.4175 -0.0152 -0.000000 0.008324 11.88 500 770 
21.393 3 -0.704853 -0.280503 -10.028579 0.762939 7.049561 -6.591797 8.37 8.54 1.7 0.8 0.375 0.166 3.9486 5.5173 1.4231 -0.0152 -0.000000 0.008523 11.87 500 820 
21.433 3 -1.321001 0.383594 -9.659369 -1.403809 -0.549316 4.119873 8.69 8.40 1.5 1.3 0.058 0.298 4.7870 4.4625 1.4287 -0.0152 -0.000000 0.007897 11.88 500 790 
21.473 3 -1.349770 -0.421953 -9.244609 -0.183105 -7.324219 7.904053 7.89 8.71 0.9 1.1 0.143 -0.013 4.7870 5.2198 1.4346 -0.0152 -0.002591 0.006308 11.89 500 820 
21.513 3 -0.767187 0.421953 -9.975835 -0.122070 -3.356934 5.981445 8.44 8.65 1.2 1.3 0.058 0.287 4.9223 4.7329 1.4402 -0.0152 -0.002591 0.007228 11.88 490 820 
21.553 3 -0.230156 -0.690469 -9.815205 0.915527 8.117676 -2.838135 8.87 8.46 1.9 1.1 0.425 0.063 4.1785 4.7735 1.4458 -0.0152 -0.002591 0.007095 11.88 500 820 
21.593 3 -0.369209 0.393184 -9.544291 -0.640869 2.563477 1.953125 7.82 8.48 0.8 1.6 0.048 0.264 5.0440 4.0703 1.4516 -0.0152 -0.005182 0.004741 11.89 500 820 
21.633 3 -0.803149 -0.345234 -9.829590 -0.427246 -2.990723 -1.251221 8.21 9.45 0.8 1.2 0.074 0.175 5.3144 5.6525 1.4575 -0.0153 -0.007773 0.007388 11.88 500 820 
21.673 3 -0.958984 0.007192 -8.973696 -1.647949 2.410889 5.096436 8.61 8.74 0.7 1.3 0.359 0.074 5.5984 4.7194 1.4633 -0.0153 -0.005182 0.005775 11.87 500 830 
21.713 3 -0.846304 0.172617 -9.611421 0.000000 -3.387451 -0.427246 7.33 9.28 0.6 2.6 -0.086 0.496 4.8411 3.2860 1.4689 -0.0153 -0.010364 0.004440 11.88 490 820 
