%  0    time 0.000 sec
%  1    mission (0) state 2
%  2  3 Motor velocity ref left, right: 6.00 6.00
%  4  5 Motor voltage [V] left, right: 4.2 4.2
%  6  7 Motor current left, right [A]: 0.002 0.002
%  8  9 Wheel velocity [r/s] left, right: 0.0000 -0.0033
% 10    Turnrate [r/s]: 0.0000
% 11    Battery voltage [V]: 12.10
% 12 13 Get data time [us]: 590 +ctrl 830
0.001 2 6.00 6.00 4.5 4.1 0.112 0.109 0.0000 -0.0033 -0.0159 12.10 560 750 
0.002 2 6.00 6.00 4.7 3.6 0.359 0.344 0.0000 -0.0033 -0.0467 12.10 560 750 
0.003 2 6.00 6.00 5.0 3.1 0.518 0.417 0.0000 0.0033 -0.0745 12.10 570 810 
0.004 2 6.00 6.00 5.2 2.7 0.607 0.413 0.0000 0.0033 -0.0977 12.10 560 800 
0.005 2 6.00 6.00 5.5 2.4 0.656 0.355 0.0000 0.0033 -0.1170 11.75 590 840 
0.006 2 6.00 6.00 5.7 2.1 0.717 0.297 0.0000 0.0033 -0.1330 11.75 560 750 
0.007 2 6.00 6.00 1.8 0.8 0.775 0.225 4.8643 3.4674 -0.0164 11.75 560 820 
0.008 2 6.00 6.00 1.8 1.5 0.549 0.080 4.8643 3.4674 0.0183 11.75 560 820 
0.009 2 6.00 6.00 0.8 2.0 0.172 0.025 7.5126 3.4674 0.0827 11.75 560 840 
0.010 2 6.00 6.00 0.8 1.2 0.033 0.071 7.5126 5.0837 0.0489 12.09 590 860 
0.011 2 6.00 6.00 0.8 1.4 0.002 0.058 8.2455 5.0837 0.0780 12.09 570 840 
0.012 2 6.00 6.00 -0.8 0.8 -0.002 0.042 8.3473 6.1747 0.0551 12.09 560 840 
0.013 2 6.00 6.00 -0.8 0.9 -0.002 0.002 8.3473 6.1747 0.0587 12.09 560 830 
0.014 2 6.00 6.00 0.8 1.1 0.002 0.004 7.7717 5.9051 0.0523 12.09 560 840 
0.015 2 6.00 6.00 0.8 1.1 0.004 0.011 7.7717 5.9051 0.0526 12.10 590 850 
0.016 2 6.00 6.00 0.8 1.1 0.004 0.009 7.2314 5.9051 0.0360 12.10 560 840 
0.017 2 6.00 6.00 0.8 0.8 0.007 0.009 7.2314 6.3786 0.0220 12.10 560 830 
0.018 2 6.00 6.00 0.8 0.8 0.002 0.002 6.5327 6.3786 0.0019 12.10 570 880 
0.019 2 6.00 6.00 0.8 1.1 0.002 0.002 6.5327 5.8794 0.0178 12.10 560 880 
0.020 2 6.00 6.00 0.8 1.1 0.002 0.018 6.3487 5.8794 0.0118 12.10 590 910 
0.021 2 6.00 6.00 0.8 0.8 0.004 0.013 6.3487 6.3190 -0.0021 12.10 570 890 
0.022 2 6.00 6.00 1.0 0.8 0.002 0.002 6.0640 6.3190 -0.0097 12.10 570 890 
0.023 2 6.00 6.00 1.0 0.9 0.018 0.002 6.0640 6.1747 -0.0039 12.10 560 880 
0.024 2 6.00 6.00 1.0 0.9 0.011 0.016 6.0640 6.1747 -0.0031 12.10 560 870 
0.025 2 6.00 6.00 1.2 1.2 0.009 0.011 5.6580 5.7543 -0.0028 12.10 590 910 
0.026 2 6.00 6.00 1.2 1.2 0.018 0.011 5.6580 5.7543 -0.0029 12.10 570 870 
0.027 2 6.00 6.00 1.4 1.2 0.011 0.009 5.4308 5.7543 -0.0096 12.10 560 880 
0.028 2 6.00 6.00 1.4 1.5 0.018 0.009 5.4308 5.2617 0.0054 12.10 570 890 
0.029 2 6.00 6.00 1.4 1.5 0.027 0.016 5.4308 5.2617 0.0051 12.10 570 880 
0.030 2 6.00 6.00 1.2 1.0 0.031 0.033 5.7543 5.9835 -0.0077 12.07 590 910 
0.031 2 6.00 6.00 1.2 1.0 0.022 0.020 5.7543 5.9835 -0.0072 12.07 570 870 
0.032 2 6.00 6.00 1.2 1.1 0.009 0.009 5.8287 5.9835 -0.0041 12.07 570 890 
0.033 2 6.00 6.00 1.2 0.9 0.009 0.009 5.8287 6.2031 -0.0104 12.07 560 870 
0.034 2 6.00 6.00 0.8 0.9 0.011 0.002 6.4089 6.2031 0.0070 12.07 570 890 
0.035 2 6.00 6.00 0.8 0.8 0.002 0.009 6.4089 6.3487 0.0021 12.10 590 910 
0.036 2 6.00 6.00 0.8 0.8 0.002 0.002 6.9347 6.3487 0.0171 12.10 570 840 
0.037 2 6.00 6.00 0.8 1.3 0.002 0.002 6.9347 5.6111 0.0394 12.10 560 840 
0.038 2 6.00 6.00 0.8 1.3 0.002 0.013 6.3786 5.6111 0.0216 12.10 570 880 
0.039 2 6.00 6.00 0.8 1.0 0.002 0.007 6.3786 5.9571 0.0095 12.10 570 880 
0.040 2 6.00 6.00 0.8 1.0 0.002 0.011 6.2031 5.9571 0.0044 12.10 590 910 
0.041 2 6.00 6.00 0.8 1.1 0.002 0.009 6.2031 5.9571 0.0054 12.10 570 880 
0.042 2 6.00 6.00 0.8 1.2 0.002 0.013 6.2031 5.7300 0.0127 12.10 560 890 
0.043 2 6.00 6.00 1.1 1.2 0.002 0.004 5.7058 5.7300 -0.0024 12.10 570 890 
0.044 2 6.00 6.00 1.1 1.0 0.018 0.007 5.7058 5.9835 -0.0096 12.10 560 880 
0.045 2 6.00 6.00 1.2 1.1 0.013 0.007 5.5195 5.9835 -0.0136 12.09 590 910 
0.046 2 6.00 6.00 1.2 1.2 0.009 0.011 5.5195 5.7789 -0.0061 12.09 570 890 
0.047 2 6.00 6.00 1.2 1.2 0.009 0.009 5.5195 5.7789 -0.0058 12.09 560 880 
0.048 2 6.00 6.00 1.4 0.8 0.016 0.009 5.3661 6.4394 -0.0301 12.09 560 880 
0.049 2 6.00 6.00 1.4 0.8 0.022 0.002 5.3661 6.4394 -0.0286 12.09 570 870 
0.050 2 6.00 6.00 1.7 0.9 0.027 0.002 4.9716 6.3190 -0.0346 12.06 590 910 
0.051 2 6.00 6.00 1.7 0.9 0.042 0.002 4.9716 6.2317 -0.0307 12.06 560 870 
0.052 2 6.00 6.00 1.7 0.9 0.058 0.009 4.9716 6.2317 -0.0298 12.06 560 880 
0.053 2 6.00 6.00 1.1 1.0 0.062 0.007 5.8794 6.0369 0.0026 12.06 560 880 
0.054 2 6.00 6.00 1.1 1.0 0.029 0.020 5.8794 6.0369 0.0005 12.06 570 880 
0.055 2 6.00 6.00 0.8 1.4 0.011 0.018 6.6944 5.5195 0.0371 12.09 590 900 
0.056 2 6.00 6.00 0.8 1.4 0.002 0.007 6.6944 5.5195 0.0343 12.09 560 870 
0.057 2 6.00 6.00 0.8 1.3 0.002 0.011 6.5327 5.5195 0.0266 12.09 560 880 
0.058 2 6.00 6.00 0.8 1.1 0.002 0.029 6.5327 5.8540 0.0158 12.09 570 870 
0.059 2 6.00 6.00 1.2 1.1 0.002 0.013 5.8287 5.8540 -0.0048 12.09 570 890 
0.060 2 6.00 6.00 1.2 1.2 0.018 0.011 5.8287 5.7543 0.0001 12.09 590 910 
0.061 2 6.00 6.00 1.0 1.2 0.011 0.004 6.0101 5.7543 0.0071 12.09 570 890 
0.062 2 6.00 6.00 1.0 0.9 0.016 0.004 6.0101 6.2896 -0.0088 12.09 570 890 
0.063 2 6.00 6.00 1.0 0.9 0.018 0.004 6.0101 6.2896 -0.0083 12.09 560 890 
0.064 2 6.00 6.00 0.8 0.9 0.020 0.007 6.3487 6.3190 0.0020 12.09 560 880 
0.065 2 6.00 6.00 0.8 0.9 0.002 0.004 6.3487 6.3190 0.0018 12.10 590 900 
0.066 2 6.00 6.00 1.1 0.8 0.002 0.004 5.9571 6.4702 -0.0151 12.10 570 880 
0.067 2 6.00 6.00 1.1 0.8 0.018 0.002 5.9571 6.4702 -0.0144 12.10 570 870 
0.068 2 6.00 6.00 1.4 1.0 0.018 0.002 5.3875 6.0913 -0.0187 12.10 570 890 
0.069 2 6.00 6.00 1.4 1.5 0.011 0.016 5.3875 5.3875 0.0032 12.10 570 880 
0.070 2 6.00 6.00 1.4 1.4 0.020 0.009 5.3875 5.3875 0.0026 12.09 590 900 
0.071 2 6.00 6.00 1.3 1.1 0.031 0.018 5.5195 5.9051 -0.0104 12.09 560 880 
0.072 2 6.00 6.00 1.4 1.1 0.031 0.007 5.5195 5.9051 -0.0102 12.09 560 870 
0.073 2 6.00 6.00 1.2 0.8 0.027 0.009 5.7789 6.4702 -0.0184 12.09 570 880 
0.074 2 6.00 6.00 1.2 0.8 0.018 0.002 5.7789 6.4702 -0.0177 12.09 560 870 
0.075 2 6.00 6.00 0.8 0.9 0.013 0.002 6.3487 6.1467 0.0094 12.09 590 910 
0.076 2 6.00 6.00 0.9 0.9 0.002 0.013 6.3487 6.1467 0.0080 12.09 560 870 
0.077 2 6.00 6.00 0.8 0.9 0.002 0.011 6.6288 6.1467 0.0144 12.09 570 880 
0.078 2 6.00 6.00 0.8 1.8 0.002 0.009 6.6288 4.8468 0.0523 12.09 560 880 
0.079 2 6.00 6.00 0.9 1.8 0.002 0.009 6.3487 4.8468 0.0410 12.09 570 890 
0.080 2 6.00 6.00 0.8 1.8 0.002 0.045 6.3487 4.8468 0.0375 12.09 590 910 
0.081 2 6.00 6.00 0.8 1.3 0.002 0.060 6.3487 5.5649 0.0155 12.09 570 880 
0.082 2 6.00 6.00 1.1 1.3 0.002 0.040 5.9051 5.5649 0.0034 12.09 570 880 
0.083 2 6.00 6.00 1.1 1.2 0.020 0.018 5.9051 5.7789 -0.0004 12.09 560 880 
0.084 2 6.00 6.00 1.3 1.3 0.018 0.011 5.6111 5.7789 -0.0072 12.09 570 890 
0.085 2 6.00 6.00 1.3 0.8 0.011 0.007 5.6111 6.7613 -0.0347 12.09 590 900 
0.086 2 6.00 6.00 1.3 0.8 0.009 0.002 5.6111 6.7613 -0.0324 12.09 570 880 
0.087 2 6.00 6.00 1.5 0.8 0.013 0.002 5.3030 6.7277 -0.0384 12.09 560 880 
0.088 2 6.00 6.00 1.5 0.8 0.027 0.002 5.3030 6.7277 -0.0372 12.09 570 870 
0.089 2 6.00 6.00 1.2 0.8 0.036 0.002 5.7789 6.6614 -0.0202 12.09 560 880 
0.090 2 6.00 6.00 1.2 0.8 0.016 0.002 5.7789 6.6614 -0.0208 12.09 590 900 
0.091 2 6.00 6.00 0.9 1.2 0.009 0.002 6.2317 5.7789 0.0178 12.09 570 880 
0.092 2 6.00 6.00 0.9 1.2 0.002 0.016 6.2317 5.7789 0.0155 12.09 570 870 
0.093 2 6.00 6.00 0.8 1.2 0.009 0.009 6.4702 5.7789 0.0198 12.09 570 890 
0.094 2 6.00 6.00 0.8 1.1 0.002 0.007 6.4702 5.8540 0.0163 12.09 570 870 
0.095 2 6.00 6.00 1.2 1.1 0.002 0.007 5.9310 5.8540 -0.0004 12.10 590 910 
0.096 2 6.00 6.00 1.1 1.4 0.020 0.007 5.9310 5.4308 0.0131 12.10 560 880 
0.097 2 6.00 6.00 1.1 1.4 0.013 0.009 5.9310 5.4308 0.0136 12.10 570 880 
0.098 2 6.00 6.00 1.1 1.1 0.011 0.022 5.9571 5.8540 0.0011 12.10 570 880 
0.099 2 6.00 6.00 1.1 1.1 0.011 0.011 5.9571 5.8540 0.0015 12.10 570 870 
0.100 2 6.00 6.00 1.2 1.2 0.011 0.004 5.8287 5.8540 -0.0014 12.09 590 910 
0.101 2 6.00 6.00 1.2 1.1 0.011 0.009 5.8287 6.0101 -0.0056 12.09 560 880 
0.102 2 6.00 6.00 1.0 1.1 0.009 0.013 6.0369 6.0101 0.0013 12.09 560 890 
0.103 2 6.00 6.00 1.0 0.8 0.009 0.009 6.0369 6.5644 -0.0151 12.09 560 880 
0.104 2 6.00 6.00 1.1 0.8 0.018 0.002 6.0369 6.5644 -0.0147 12.09 570 890 
0.105 2 6.00 6.00 1.1 1.2 0.020 0.002 6.0369 5.8037 0.0090 12.09 590 910 
0.106 2 6.00 6.00 1.1 1.2 0.018 0.018 6.0369 5.8037 0.0082 12.09 570 880 
0.107 2 6.00 6.00 1.0 0.8 0.018 0.011 6.1189 6.4089 -0.0090 12.09 570 880 
0.108 2 6.00 6.00 1.0 0.8 0.016 0.002 6.1189 6.4089 -0.0085 12.09 560 870 
0.109 2 6.00 6.00 1.0 0.8 0.013 0.002 6.1747 6.3786 -0.0048 12.09 570 880 
0.110 2 6.00 6.00 1.0 0.8 0.007 0.002 6.1747 6.3786 -0.0046 12.10 590 900 
0.111 2 6.00 6.00 1.0 0.9 0.009 0.004 6.1747 6.2317 -0.0004 12.10 570 890 
0.112 2 6.00 6.00 0.9 0.9 0.007 0.011 6.1747 6.2317 -0.0007 12.10 570 870 
0.113 2 6.00 6.00 1.1 0.9 0.007 0.007 5.9835 6.2317 -0.0067 12.10 570 890 
0.114 2 6.00 6.00 1.1 1.6 0.018 0.004 5.9835 5.1222 0.0267 12.10 570 880 
0.115 2 6.00 6.00 1.1 1.6 0.013 0.009 5.9835 5.1222 0.0251 12.09 590 900 
0.116 2 6.00 6.00 1.2 1.6 0.018 0.025 5.8037 5.1222 0.0169 12.09 560 880 
0.117 2 6.00 6.00 1.2 1.4 0.011 0.049 5.8037 5.3449 0.0096 12.09 570 870 
0.118 2 6.00 6.00 1.2 1.5 0.009 0.042 5.7789 5.3449 0.0094 12.09 570 880 
0.119 2 6.00 6.00 1.2 1.4 0.009 0.040 5.7789 5.4527 0.0069 12.09 560 880 
0.120 2 6.00 6.00 1.1 1.4 0.009 0.036 5.9051 5.4527 0.0111 12.09 590 910 
0.121 2 6.00 6.00 1.1 0.8 0.013 0.036 5.9051 6.5327 -0.0206 12.09 560 880 
0.122 2 6.00 6.00 1.1 0.8 0.011 0.002 5.9051 6.5327 -0.0189 12.09 570 870 
0.123 2 6.00 6.00 1.1 1.0 0.009 0.002 5.9051 6.1747 -0.0059 12.09 570 880 
0.124 2 6.00 6.00 1.1 1.0 0.011 0.020 5.9051 6.1747 -0.0058 12.09 560 870 
0.125 2 6.00 6.00 1.1 0.8 0.009 0.013 6.0369 6.6614 -0.0171 12.04 590 910 
0.126 2 6.00 6.00 1.1 0.8 0.018 0.002 6.0369 6.6614 -0.0169 12.04 560 870 
0.127 2 6.00 6.00 1.2 0.8 0.018 0.002 5.9051 6.4394 -0.0136 12.04 570 890 
0.128 2 6.00 6.00 1.2 1.1 0.013 0.002 5.9051 5.9835 0.0003 12.04 570 880 
0.129 2 6.00 6.00 0.9 1.1 0.011 0.016 6.2317 5.9835 0.0094 12.04 560 890 
0.130 2 6.00 6.00 0.9 1.0 0.002 0.011 6.2317 6.0369 0.0062 12.10 590 910 
0.131 2 6.00 6.00 0.9 1.0 0.004 0.016 6.2317 6.0369 0.0052 12.10 570 890 
0.132 2 6.00 6.00 0.8 1.1 0.004 0.011 6.3487 5.8794 0.0132 12.10 570 890 
0.133 2 6.00 6.00 0.8 1.1 0.002 0.011 6.3487 5.8794 0.0127 12.10 570 880 
0.134 2 6.00 6.00 1.0 1.1 0.002 0.009 6.0640 5.8794 0.0035 12.10 570 880 
0.135 2 6.00 6.00 1.0 1.2 0.020 0.009 6.0640 5.8287 0.0053 12.09 590 900 
0.136 2 6.00 6.00 1.3 1.2 0.018 0.013 5.6818 5.8287 -0.0056 12.09 570 880 
0.137 2 6.00 6.00 1.3 1.3 0.011 0.009 5.6818 5.6580 0.0002 12.09 560 880 
0.138 2 6.00 6.00 1.2 1.3 0.011 0.007 5.7300 5.6580 0.0023 12.09 560 880 
0.139 2 6.00 6.00 1.2 0.8 0.016 0.009 5.7300 6.4394 -0.0211 12.09 560 880 
0.140 2 6.00 6.00 1.2 0.8 0.018 0.002 5.7300 6.4394 -0.0198 12.10 590 900 
0.141 2 6.00 6.00 1.3 0.8 0.016 0.002 5.6345 6.5327 -0.0236 12.10 570 880 
0.142 2 6.00 6.00 1.3 0.8 0.011 0.002 5.6345 6.5327 -0.0228 12.10 570 870 
0.143 2 6.00 6.00 1.0 0.8 0.013 0.004 6.1747 6.4394 -0.0036 12.10 570 880 
0.144 2 6.00 6.00 1.0 0.8 0.004 0.002 6.1747 6.4394 -0.0045 12.10 570 870 
0.145 2 6.00 6.00 0.8 1.2 0.011 0.002 6.8296 5.7789 0.0337 12.09 590 870 
0.146 2 6.00 6.00 0.8 1.4 0.002 0.018 6.8296 5.5195 0.0403 12.09 570 840 
0.147 2 6.00 6.00 0.8 1.3 0.002 0.009 6.4394 5.5195 0.0265 12.09 570 880 
0.148 2 6.00 6.00 0.8 1.1 0.002 0.016 6.4394 5.8540 0.0154 12.09 560 880 
0.149 2 6.00 6.00 0.8 1.1 0.002 0.011 6.3190 5.8540 0.0121 12.09 560 880 
0.150 2 6.00 6.00 0.8 1.2 0.002 0.007 6.3190 5.8037 0.0144 12.10 590 910 
0.151 2 6.00 6.00 0.9 1.2 0.002 0.009 6.1467 5.8037 0.0095 12.10 570 890 
0.152 2 6.00 6.00 1.1 1.0 0.002 0.009 5.8540 6.1189 -0.0085 12.10 570 890 
0.153 2 6.00 6.00 1.0 1.0 0.020 0.007 5.8540 6.1189 -0.0071 12.10 570 870 
0.154 2 6.00 6.00 1.2 1.0 0.018 0.007 5.6580 6.1189 -0.0113 12.10 570 900 
0.155 2 6.00 6.00 1.2 1.1 0.013 0.016 5.6580 5.8794 -0.0034 12.09 590 910 
0.156 2 6.00 6.00 1.3 1.1 0.011 0.007 5.4091 5.8794 -0.0106 12.09 570 880 
0.157 2 6.00 6.00 1.3 0.8 0.007 0.009 5.4091 6.4089 -0.0263 12.09 560 880 
0.158 2 6.00 6.00 1.3 0.8 0.020 0.002 5.4091 6.4089 -0.0248 12.09 570 870 
0.159 2 6.00 6.00 1.7 1.0 0.027 0.002 4.9716 6.1467 -0.0283 12.09 570 880 
0.160 2 6.00 6.00 1.7 1.0 0.040 0.018 4.9716 6.1467 -0.0274 12.07 590 900 
0.161 2 6.00 6.00 1.0 0.9 0.056 0.009 5.9571 6.1747 0.0011 12.07 560 880 
0.162 2 6.00 6.00 1.0 0.9 0.018 0.004 5.9571 6.1747 -0.0006 12.07 560 870 
0.163 2 6.00 6.00 0.8 1.0 0.016 0.009 6.7953 6.0913 0.0219 12.07 570 850 
0.164 2 6.00 6.00 0.8 1.2 0.002 0.016 6.7953 5.7300 0.0326 12.07 570 840 
0.165 2 6.00 6.00 0.8 1.2 0.002 0.016 6.6288 5.7300 0.0268 12.09 590 910 
0.166 2 6.00 6.00 0.8 1.1 0.002 0.009 6.3786 5.8037 0.0162 12.09 570 890 
0.167 2 6.00 6.00 0.8 1.1 0.002 0.009 6.3786 5.8037 0.0160 12.09 560 870 
0.168 2 6.00 6.00 1.3 1.4 0.002 0.009 5.6111 5.5195 0.0017 12.09 560 880 
0.169 2 6.00 6.00 1.2 1.4 0.018 0.007 5.6111 5.5195 0.0025 12.09 560 870 
0.170 2 6.00 6.00 1.2 1.4 0.009 0.020 5.7058 5.5195 0.0064 12.07 590 910 
0.171 2 6.00 6.00 1.1 1.0 0.013 0.022 5.7058 6.0101 -0.0080 12.07 570 880 
0.172 2 6.00 6.00 1.2 1.0 0.009 0.007 5.7058 6.0101 -0.0073 12.07 570 890 
0.173 2 6.00 6.00 0.9 1.0 0.011 0.009 6.1189 6.1747 0.0010 12.07 560 880 
0.174 2 6.00 6.00 0.9 1.0 0.002 0.007 6.1189 6.1747 0.0008 12.07 560 870 
0.175 2 6.00 6.00 1.1 0.8 0.002 0.013 5.8287 6.7277 -0.0248 12.09 590 900 
0.176 2 6.00 6.00 1.1 0.8 0.025 0.002 5.8287 6.7277 -0.0240 12.09 560 870 
0.177 2 6.00 6.00 1.5 1.2 0.016 0.002 5.3239 5.8037 -0.0099 12.09 560 880 
0.178 2 6.00 6.00 1.5 1.2 0.011 0.018 5.3239 5.8037 -0.0096 12.09 570 870 
0.179 2 6.00 6.00 1.4 0.8 0.031 0.009 5.3239 6.2896 -0.0242 12.09 570 890 
0.180 2 6.00 6.00 1.3 0.8 0.036 0.002 5.5421 6.2896 -0.0170 12.09 590 910 
0.181 2 6.00 6.00 1.3 0.8 0.022 0.002 5.5421 6.6614 -0.0273 12.09 570 880 
0.182 2 6.00 6.00 1.2 0.8 0.022 0.004 5.8287 6.6614 -0.0189 12.09 570 880 
0.183 2 6.00 6.00 1.2 0.8 0.011 0.002 5.8287 6.3786 -0.0109 12.09 570 890 
0.184 2 6.00 6.00 0.8 1.0 0.011 0.002 6.4089 6.0101 0.0166 12.09 560 880 
0.185 2 6.00 6.00 0.8 1.0 0.004 0.011 6.4089 6.0101 0.0147 12.09 590 900 
0.186 2 6.00 6.00 0.8 1.9 0.002 0.013 6.6614 4.7117 0.0587 12.09 560 880 
0.187 2 6.00 6.00 0.8 1.9 0.002 0.013 6.6614 4.6311 0.0578 12.09 560 870 
0.188 2 6.00 6.00 0.9 1.9 0.002 0.062 6.2896 4.6311 0.0424 12.09 560 890 
0.189 2 6.00 6.00 0.8 1.3 0.002 0.085 6.2896 5.4748 0.0163 12.09 570 880 
0.190 2 6.00 6.00 0.8 1.4 0.002 0.058 6.2896 5.4748 0.0179 12.09 590 900 
0.191 2 6.00 6.00 1.2 1.1 0.002 0.033 5.8037 5.9051 -0.0071 12.09 560 880 
0.192 2 6.00 6.00 1.1 1.2 0.027 0.009 5.8037 5.9051 -0.0049 12.09 570 870 
0.193 2 6.00 6.00 1.3 0.8 0.016 0.009 5.5421 6.9347 -0.0400 12.09 560 840 
0.194 2 6.00 6.00 1.3 0.8 0.009 0.002 5.5421 6.9347 -0.0391 12.09 560 830 
0.195 2 6.00 6.00 1.3 0.8 0.011 0.002 5.5421 6.8643 -0.0363 12.10 590 860 
0.196 2 6.00 6.00 1.5 0.8 0.020 0.002 5.3030 6.8643 -0.0431 12.10 570 840 
0.197 2 6.00 6.00 1.5 0.8 0.029 0.002 5.3030 6.6944 -0.0374 12.10 570 880 
0.198 2 6.00 6.00 1.1 0.8 0.045 0.002 5.8540 6.6944 -0.0206 12.10 570 880 
0.199 2 6.00 6.00 1.1 0.9 0.025 0.002 5.8540 6.0101 -0.0010 12.10 570 890 
0.200 2 6.00 6.00 0.9 0.9 0.009 0.013 6.2317 5.9835 0.0091 12.09 590 910 
0.201 2 6.00 6.00 0.9 0.9 0.002 0.013 6.2317 5.9835 0.0074 12.09 570 880 
0.202 2 6.00 6.00 0.8 0.8 0.004 0.009 6.3786 6.1467 0.0058 12.09 560 880 
0.203 2 6.00 6.00 0.8 0.8 0.002 0.002 6.3786 6.1467 0.0055 12.09 570 870 
0.204 2 6.00 6.00 0.8 1.4 0.002 0.002 6.3786 5.2414 0.0324 12.09 560 890 
0.205 2 6.00 6.00 1.1 1.4 0.002 0.018 5.9051 5.2414 0.0166 12.10 590 910 
0.206 2 6.00 6.00 1.1 1.4 0.018 0.009 5.9051 5.2414 0.0150 12.10 570 870 
0.207 2 6.00 6.00 1.1 1.4 0.011 0.029 5.9051 5.2414 0.0152 12.10 570 890 
0.208 2 6.00 6.00 1.1 1.4 0.009 0.020 5.9051 5.2414 0.0153 12.10 560 870 
0.209 2 6.00 6.00 1.2 1.3 0.016 0.031 5.7300 5.4091 0.0052 12.10 560 870 
0.210 2 6.00 6.00 1.2 1.4 0.009 0.027 5.7300 5.4091 0.0058 12.09 590 890 
0.211 2 6.00 6.00 1.2 1.4 0.007 0.020 5.7300 5.4091 0.0066 12.09 560 880 
0.212 2 6.00 6.00 1.1 0.9 0.007 0.018 5.9835 6.1747 -0.0080 12.09 560 870 
0.213 2 6.00 6.00 1.1 0.9 0.013 0.002 5.9835 6.1747 -0.0070 12.09 560 870 
0.214 2 6.00 6.00 1.1 1.3 0.013 0.004 6.0101 5.6818 0.0096 12.09 560 880 
0.215 2 6.00 6.00 1.1 1.3 0.018 0.011 6.0101 5.6818 0.0090 12.09 590 890 
0.216 2 6.00 6.00 0.9 0.8 0.013 0.007 6.2317 6.4089 -0.0071 12.09 570 890 
0.217 2 6.00 6.00 0.9 0.8 0.002 0.002 6.2317 6.4089 -0.0065 12.09 560 870 
0.218 2 6.00 6.00 0.9 0.8 0.009 0.002 6.2605 6.4702 -0.0063 12.09 570 880 
0.219 2 6.00 6.00 0.9 0.8 0.002 0.002 6.2605 6.4702 -0.0060 12.09 560 870 
0.220 2 6.00 6.00 1.0 0.9 0.002 0.002 6.0913 6.2605 -0.0047 12.10 590 900 
0.221 2 6.00 6.00 1.0 0.8 0.016 0.007 6.0913 6.2605 -0.0047 12.10 570 870 
0.222 2 6.00 6.00 1.0 0.9 0.018 0.004 6.0913 6.1467 -0.0013 12.10 560 880 
0.223 2 6.00 6.00 1.2 1.6 0.009 0.007 5.8287 5.1417 0.0207 12.10 560 880 
0.224 2 6.00 6.00 1.2 1.6 0.013 0.011 5.8287 5.1417 0.0190 12.10 560 870 
0.225 2 6.00 6.00 1.2 1.4 0.009 0.027 5.7300 5.3030 0.0092 12.07 590 900 
0.226 2 6.00 6.00 1.2 1.5 0.009 0.047 5.7300 5.3030 0.0089 12.07 560 870 
0.227 2 6.00 6.00 1.2 1.5 0.011 0.045 5.7543 5.3030 0.0101 12.07 560 880 
0.228 2 6.00 6.00 1.2 1.4 0.016 0.042 5.7543 5.4091 0.0071 12.07 560 880 
0.229 2 6.00 6.00 1.2 1.5 0.013 0.042 5.7543 5.4091 0.0073 12.07 560 870 
0.230 2 6.00 6.00 1.1 0.8 0.013 0.040 5.9310 6.4702 -0.0184 12.09 590 900 
0.231 2 6.00 6.00 1.1 0.8 0.013 0.002 5.9310 6.4702 -0.0166 12.09 560 870 
0.232 2 6.00 6.00 1.1 1.0 0.009 0.002 5.9571 6.1747 -0.0050 12.09 570 890 
0.233 2 6.00 6.00 1.1 1.0 0.016 0.018 5.9571 6.1747 -0.0050 12.09 560 870 
0.234 2 6.00 6.00 1.0 0.8 0.009 0.013 6.1189 6.5013 -0.0106 12.09 560 880 
0.235 2 6.00 6.00 1.0 0.8 0.009 0.002 6.1189 6.5013 -0.0104 12.10 590 900 
0.236 2 6.00 6.00 1.1 0.9 0.013 0.002 5.9571 6.2605 -0.0077 12.10 560 890 
0.237 2 6.00 6.00 1.1 1.2 0.016 0.007 5.9571 5.8540 0.0045 12.10 560 880 
0.238 2 6.00 6.00 1.1 1.2 0.016 0.018 5.9571 5.8540 0.0036 12.10 570 880 
0.239 2 6.00 6.00 0.9 0.9 0.013 0.011 6.2031 6.2031 -0.0005 12.10 560 880 
0.240 2 6.00 6.00 0.9 0.9 0.002 0.002 6.2031 6.2031 -0.0005 12.10 590 900 
0.241 2 6.00 6.00 0.8 1.0 0.007 0.007 6.3487 6.1467 0.0057 12.10 570 890 
0.242 2 6.00 6.00 0.8 1.0 0.002 0.020 6.3487 6.1467 0.0054 12.10 560 870 
0.243 2 6.00 6.00 1.0 1.1 0.002 0.009 6.1467 5.8794 0.0069 12.10 570 890 
0.244 2 6.00 6.00 1.0 1.1 0.013 0.016 6.1467 5.8794 0.0066 12.10 560 870 
0.245 2 6.00 6.00 1.2 1.1 0.009 0.009 5.7543 5.8794 -0.0053 12.09 590 910 
0.246 2 6.00 6.00 1.2 1.4 0.018 0.011 5.7543 5.4527 0.0080 12.09 560 880 
0.247 2 6.00 6.00 1.2 1.4 0.011 0.009 5.7543 5.4527 0.0081 12.09 560 880 
0.248 2 6.00 6.00 1.2 0.9 0.011 0.022 5.7300 6.1189 -0.0131 12.09 560 880 
0.249 2 6.00 6.00 1.2 1.0 0.011 0.004 5.7300 6.1189 -0.0120 12.09 560 870 
0.250 2 6.00 6.00 1.3 0.9 0.011 0.009 5.5879 6.2896 -0.0196 12.09 590 900 
0.251 2 6.00 6.00 1.3 0.9 0.018 0.002 5.5879 6.2896 -0.0186 12.09 570 870 
0.252 2 6.00 6.00 1.0 0.8 0.016 0.004 6.1467 6.3786 -0.0038 12.09 560 880 
0.253 2 6.00 6.00 1.0 0.8 0.004 0.002 6.1467 6.3786 -0.0044 12.09 560 870 
0.254 2 6.00 6.00 0.8 1.0 0.009 0.002 6.7953 6.1189 0.0216 12.09 560 840 
0.255 2 6.00 6.00 0.8 1.4 0.002 0.020 6.7953 5.5421 0.0385 12.10 590 860 
0.256 2 6.00 6.00 0.8 1.4 0.007 0.013 6.4702 5.5421 0.0271 12.10 570 880 
0.257 2 6.00 6.00 0.8 1.1 0.004 0.011 6.4702 5.8540 0.0162 12.10 560 880 
0.258 2 6.00 6.00 0.8 1.1 0.004 0.011 6.4702 5.8540 0.0163 12.10 560 890 
0.259 2 6.00 6.00 0.8 1.2 0.002 0.009 6.2896 5.7789 0.0138 12.10 570 880 
0.260 2 6.00 6.00 0.8 1.2 0.004 0.009 6.2896 5.7789 0.0139 12.09 590 890 
0.261 2 6.00 6.00 1.1 1.2 0.002 0.009 5.7300 5.7789 -0.0028 12.09 560 880 
0.262 2 6.00 6.00 1.1 1.0 0.020 0.007 5.7300 6.0913 -0.0112 12.09 560 870 
0.263 2 6.00 6.00 1.2 1.0 0.007 0.011 5.5879 6.0913 -0.0135 12.09 560 880 
0.264 2 6.00 6.00 1.2 1.1 0.009 0.013 5.5879 5.9571 -0.0080 12.09 560 880 
0.265 2 6.00 6.00 1.2 1.1 0.011 0.009 5.5879 5.9571 -0.0076 12.09 590 900 
0.266 2 6.00 6.00 1.3 0.8 0.011 0.011 5.4091 6.6288 -0.0330 12.09 570 870 
0.269 2 6.00 6.00 1.3 0.8 0.020 0.002 5.4091 6.6288 -0.0318 12.09 560 860 
0.270 2 6.00 6.00 1.6 0.8 0.027 0.002 5.0084 6.3487 -0.0335 12.09 570 900 
0.271 2 6.00 6.00 1.0 0.8 0.033 0.002 5.9571 6.3190 -0.0037 12.09 570 890 
0.272 2 6.00 6.00 1.0 0.8 0.011 0.002 5.9571 6.3190 -0.0047 12.10 590 910 
0.273 2 6.00 6.00 1.0 1.3 0.009 0.007 5.9571 5.6111 0.0144 12.10 570 900 
0.274 2 6.00 6.00 0.8 1.3 0.025 0.016 6.7277 5.6111 0.0352 12.10 570 880 
0.274 2 6.00 6.00 0.8 1.3 0.002 0.007 6.7277 5.6111 0.0325 12.10 560 870 
0.275 2 6.00 6.00 0.8 1.3 0.002 0.011 6.4089 5.6111 0.0213 12.10 570 880 
0.276 2 6.00 6.00 0.8 1.3 0.002 0.018 6.4089 5.6111 0.0208 12.10 590 890 
0.277 2 6.00 6.00 1.2 1.4 0.002 0.020 5.7300 5.4091 0.0064 12.10 560 880 
0.278 2 6.00 6.00 1.2 1.4 0.018 0.025 5.7300 5.4091 0.0070 12.10 560 870 
0.279 2 6.00 6.00 1.1 1.5 0.011 0.033 5.7300 5.4091 0.0080 12.10 560 880 
0.280 2 6.00 6.00 1.0 1.0 0.011 0.038 5.9051 6.0913 -0.0066 12.10 560 880 
0.281 2 6.00 6.00 1.0 1.0 0.018 0.018 5.9051 6.0913 -0.0057 12.09 590 900 
0.282 2 6.00 6.00 0.8 0.9 0.016 0.016 6.2031 6.3190 -0.0024 12.09 560 880 
0.283 2 6.00 6.00 0.8 0.9 0.004 0.002 6.2031 6.3190 -0.0022 12.09 570 870 
0.284 2 6.00 6.00 1.1 0.8 0.004 0.007 5.8287 6.8993 -0.0319 12.09 560 840 
0.285 2 6.00 6.00 1.1 0.8 0.018 0.002 5.8287 6.8993 -0.0314 12.09 560 830 
0.286 2 6.00 6.00 1.3 1.1 0.009 0.002 5.5195 5.9310 -0.0108 12.09 590 910 
0.287 2 6.00 6.00 1.5 1.1 0.011 0.018 5.2617 5.9310 -0.0184 12.09 570 870 
0.288 2 6.00 6.00 1.5 0.8 0.016 0.013 5.2617 6.5013 -0.0350 12.09 560 880 
0.289 2 6.00 6.00 1.3 0.8 0.040 0.002 5.4970 6.5013 -0.0266 12.09 570 880 
0.290 2 6.00 6.00 1.3 0.8 0.038 0.002 5.4970 6.8296 -0.0352 12.09 560 840 
0.291 2 6.00 6.00 1.2 0.8 0.027 0.002 5.7789 6.8296 -0.0275 12.09 590 860 
0.292 2 6.00 6.00 1.2 0.8 0.020 0.002 5.7789 6.1189 -0.0070 12.09 560 880 
0.293 2 6.00 6.00 1.2 0.8 0.004 0.002 5.7789 6.1189 -0.0079 12.09 570 890 
0.294 2 6.00 6.00 0.8 0.8 0.009 0.002 6.3786 6.1189 0.0094 12.09 560 870 
0.295 2 6.00 6.00 0.8 1.8 0.002 0.002 6.3786 4.6791 0.0510 12.09 560 880 
0.296 2 6.00 6.00 0.8 1.8 0.002 0.016 6.6614 4.6791 0.0551 12.09 590 890 
0.297 2 6.00 6.00 0.8 1.8 0.002 0.038 6.6614 4.6791 0.0505 12.09 560 870 
0.298 2 6.00 6.00 0.8 1.5 0.004 0.058 6.3487 5.1222 0.0263 12.09 560 880 
0.299 2 6.00 6.00 0.8 1.5 0.002 0.067 6.3487 5.1222 0.0269 12.09 560 870 
0.300 2 6.00 6.00 1.1 1.3 0.002 0.049 5.9310 5.4091 0.0074 12.09 570 880 
0.301 2 6.00 6.00 1.1 1.4 0.018 0.038 5.9310 5.4091 0.0091 12.09 590 890 
0.302 2 6.00 6.00 1.3 0.8 0.016 0.027 5.6345 6.5013 -0.0299 12.09 560 880 
0.303 2 6.00 6.00 1.3 0.8 0.011 0.002 5.6345 6.5013 -0.0269 12.09 560 870 
0.304 2 6.00 6.00 1.3 0.8 0.013 0.002 5.6345 6.5013 -0.0238 12.09 570 890 
0.305 2 6.00 6.00 1.4 0.8 0.016 0.002 5.3875 6.5327 -0.0309 12.09 560 880 
0.306 2 6.00 6.00 1.4 0.8 0.022 0.002 5.3875 6.5327 -0.0301 12.10 590 910 
0.307 2 6.00 6.00 1.1 0.8 0.033 0.002 5.9051 6.4394 -0.0113 12.10 560 880 
0.308 2 6.00 6.00 1.1 0.8 0.018 0.002 5.9051 6.4394 -0.0121 12.10 560 870 
0.309 2 6.00 6.00 0.8 1.2 0.009 0.002 6.3190 5.6818 0.0215 12.10 570 890 
0.310 2 6.00 6.00 0.9 1.2 0.002 0.011 6.3190 5.6818 0.0192 12.10 560 870 
0.311 2 6.00 6.00 0.8 1.1 0.002 0.011 6.5327 5.8287 0.0184 12.10 590 900 
0.312 2 6.00 6.00 0.8 1.1 0.002 0.007 6.5327 5.8287 0.0176 12.10 560 870 
0.313 2 6.00 6.00 0.8 1.1 0.002 0.009 6.5013 5.8287 0.0165 12.10 560 870 
0.314 2 6.00 6.00 1.1 1.4 0.002 0.004 5.9835 5.3875 0.0140 12.10 570 880 
0.315 2 6.00 6.00 1.1 1.4 0.016 0.007 5.9835 5.3875 0.0140 12.10 570 870 
0.316 2 6.00 6.00 1.0 1.1 0.018 0.020 5.9571 5.8037 0.0009 12.09 590 900 
0.317 2 6.00 6.00 1.0 1.1 0.013 0.011 5.9571 5.8037 0.0017 12.09 560 870 
0.318 2 6.00 6.00 1.1 1.2 0.020 0.007 5.8037 5.8037 -0.0018 12.09 560 880 
0.319 2 6.00 6.00 1.1 1.2 0.009 0.009 5.8037 5.8287 -0.0020 12.09 560 870 
0.320 2 6.00 6.00 1.1 1.2 0.007 0.009 5.8037 5.8287 -0.0015 12.09 560 890 
0.321 2 6.00 6.00 1.0 0.8 0.011 0.009 5.9835 6.3786 -0.0122 12.09 590 890 
0.322 2 6.00 6.00 1.0 0.8 0.016 0.002 5.9835 6.3786 -0.0115 12.09 560 880 
0.323 2 6.00 6.00 1.1 1.3 0.016 0.002 5.9571 5.6580 0.0101 12.09 560 880 
0.324 2 6.00 6.00 1.1 1.3 0.020 0.013 5.9571 5.6580 0.0091 12.09 560 870 
0.325 2 6.00 6.00 1.1 0.8 0.016 0.007 5.9571 6.2896 -0.0113 12.09 560 880 
0.326 2 6.00 6.00 1.1 0.8 0.022 0.002 5.9571 6.2896 -0.0106 12.09 590 890 
0.327 2 6.00 6.00 1.1 0.8 0.016 0.002 5.9571 6.3190 -0.0100 12.09 560 880 
0.328 2 6.00 6.00 1.1 0.8 0.011 0.002 5.9571 6.3190 -0.0095 12.09 560 870 
0.329 2 6.00 6.00 1.1 0.9 0.013 0.004 5.9571 6.1747 -0.0050 12.09 560 890 
0.330 2 6.00 6.00 1.0 1.0 0.018 0.013 6.0913 6.1189 0.0004 12.09 560 870 
0.331 2 6.00 6.00 1.0 0.9 0.009 0.016 6.0913 6.1189 -0.0002 12.09 590 900 
0.332 2 6.00 6.00 0.9 1.6 0.013 0.011 6.1467 5.1029 0.0312 12.09 560 880 
0.333 2 6.00 6.00 0.9 1.6 0.002 0.007 6.1467 5.1029 0.0290 12.09 570 870 
0.334 2 6.00 6.00 1.0 1.6 0.007 0.038 6.0640 5.1029 0.0236 12.09 560 880 
0.335 2 6.00 6.00 1.0 1.3 0.013 0.054 6.0640 5.5195 0.0105 12.09 560 870 
0.336 2 6.00 6.00 1.1 1.4 0.011 0.049 5.8794 5.5195 0.0058 12.09 590 910 
0.337 2 6.00 6.00 1.1 1.3 0.016 0.038 5.8794 5.6580 0.0031 12.09 560 880 
0.338 2 6.00 6.00 1.1 1.3 0.011 0.022 5.8794 5.6580 0.0041 12.09 560 890 
0.339 2 6.00 6.00 1.2 0.8 0.009 0.016 5.7789 6.7277 -0.0299 12.09 560 880 
0.340 2 6.00 6.00 1.2 0.8 0.009 0.002 5.7789 6.7277 -0.0280 12.09 560 870 
0.341 2 6.00 6.00 1.2 0.9 0.009 0.002 5.6818 6.2896 -0.0156 12.04 590 910 
0.342 2 6.00 6.00 1.3 0.9 0.009 0.011 5.6818 6.2896 -0.0151 12.04 570 870 
0.343 2 6.00 6.00 1.1 0.8 0.013 0.009 5.9051 6.7277 -0.0217 12.04 570 880 
0.344 2 6.00 6.00 1.1 0.8 0.011 0.002 5.9051 6.7277 -0.0217 12.04 570 870 
0.345 2 6.00 6.00 1.1 1.1 0.011 0.002 5.9051 5.9310 0.0021 12.04 570 890 
0.346 2 6.00 6.00 1.1 1.1 0.009 0.018 5.9310 5.9310 0.0020 12.09 590 890 
0.347 2 6.00 6.00 1.1 1.1 0.009 0.011 5.9310 5.9310 0.0007 12.09 560 890 
0.348 2 6.00 6.00 0.8 0.8 0.009 0.013 6.3487 6.2896 0.0020 12.09 560 880 
0.349 2 6.00 6.00 0.8 0.8 0.002 0.002 6.3487 6.2896 0.0018 12.09 560 880 
0.350 2 6.00 6.00 0.8 0.8 0.002 0.002 6.5013 6.2605 0.0071 12.09 560 880 
0.351 2 6.00 6.00 0.8 0.8 0.002 0.004 6.5013 6.2605 0.0068 12.10 590 890 
0.352 2 6.00 6.00 0.9 1.1 0.002 0.002 6.2317 5.8540 0.0105 12.10 560 880 
0.353 2 6.00 6.00 0.9 1.1 0.004 0.013 6.2317 5.8540 0.0101 12.10 560 870 
0.354 2 6.00 6.00 1.2 1.3 0.004 0.013 5.8037 5.5879 0.0047 12.10 560 890 
0.355 2 6.00 6.00 1.2 1.6 0.016 0.009 5.8037 5.2010 0.0163 12.10 560 880 
0.356 2 6.00 6.00 1.1 1.5 0.009 0.022 5.8037 5.2010 0.0158 12.07 590 900 
0.357 2 6.00 6.00 1.3 1.1 0.009 0.042 5.6345 5.8037 -0.0080 12.07 570 880 
0.358 2 6.00 6.00 1.3 1.1 0.011 0.022 5.6345 5.8037 -0.0068 12.07 560 870 
0.359 2 6.00 6.00 1.5 1.0 0.011 0.007 5.3449 6.0640 -0.0212 12.07 570 880 
0.360 2 6.00 6.00 1.5 1.0 0.025 0.011 5.3449 6.0640 -0.0196 12.07 560 870 
0.361 2 6.00 6.00 1.5 0.8 0.033 0.013 5.3449 6.3487 -0.0265 12.07 590 910 
0.362 2 6.00 6.00 1.1 0.8 0.047 0.002 5.8540 6.3487 -0.0105 12.07 560 870 
0.363 2 6.00 6.00 1.2 0.8 0.029 0.002 5.8540 6.3487 -0.0107 12.07 570 890 
0.364 2 6.00 6.00 0.8 1.3 0.011 0.002 6.6614 5.6345 0.0335 12.07 560 880 
0.365 2 6.00 6.00 0.8 1.3 0.002 0.016 6.6614 5.6345 0.0308 12.07 570 890 
0.366 2 6.00 6.00 0.8 1.1 0.002 0.007 6.6288 5.9571 0.0169 12.09 590 900 
0.367 2 6.00 6.00 0.8 1.1 0.002 0.007 6.6288 5.9571 0.0164 12.09 560 890 
0.368 2 6.00 6.00 0.8 1.3 0.004 0.011 6.6614 5.7058 0.0255 12.09 560 880 
0.369 2 6.00 6.00 0.8 1.3 0.002 0.007 6.6614 5.7058 0.0252 12.09 560 870 
0.370 2 6.00 6.00 0.9 1.3 0.002 0.009 6.1747 5.7058 0.0101 12.09 560 890 
0.371 2 6.00 6.00 0.9 1.1 0.011 0.013 6.1747 6.0101 0.0013 12.09 590 910 
0.372 2 6.00 6.00 1.0 1.1 0.004 0.009 5.9835 6.0101 -0.0033 12.09 560 880 
0.373 2 6.00 6.00 1.0 1.2 0.018 0.009 5.9835 5.8794 0.0018 12.09 560 880 
0.374 2 6.00 6.00 1.3 1.2 0.011 0.013 5.6111 5.8794 -0.0089 12.09 560 890 
0.375 2 6.00 6.00 1.3 0.8 0.013 0.009 5.5421 6.6288 -0.0326 12.09 570 890 
0.376 2 6.00 6.00 1.3 0.8 0.011 0.002 5.5421 6.6288 -0.0305 12.09 590 890 
0.377 2 6.00 6.00 1.8 0.8 0.016 0.002 4.8643 6.4394 -0.0429 12.09 560 880 
0.378 2 6.00 6.00 1.8 0.8 0.038 0.002 4.8643 6.4394 -0.0410 12.09 570 870 
0.379 2 6.00 6.00 1.8 0.8 0.069 0.002 4.8643 6.4394 -0.0390 12.09 560 880 
0.380 2 6.00 6.00 1.2 0.8 0.083 0.002 5.8037 6.4394 -0.0108 12.09 560 870 
0.381 2 6.00 6.00 1.2 1.2 0.033 0.004 5.8037 5.8287 0.0059 12.10 590 910 
0.382 2 6.00 6.00 0.8 1.2 0.009 0.016 6.7953 5.8287 0.0300 12.10 570 830 
0.383 2 6.00 6.00 0.8 1.1 0.002 0.007 6.7953 5.8287 0.0286 12.10 560 830 
0.384 2 6.00 6.00 0.8 1.1 0.002 0.009 6.7613 5.8794 0.0255 12.10 570 870 
0.385 2 6.00 6.00 0.8 1.1 0.002 0.009 6.7613 5.8794 0.0255 12.10 570 860 
0.386 2 6.00 6.00 1.0 1.3 0.004 0.007 6.0913 5.5421 0.0157 12.09 590 900 
0.387 2 6.00 6.00 0.9 1.3 0.009 0.007 6.0913 5.5421 0.0157 12.09 560 870 
0.388 2 6.00 6.00 0.8 1.3 0.009 0.016 6.2317 5.5421 0.0196 12.09 570 890 
0.389 2 6.00 6.00 0.8 1.0 0.002 0.020 6.2317 6.0101 0.0054 12.09 560 870 
0.390 2 6.00 6.00 0.8 1.0 0.004 0.009 6.4089 6.0101 0.0110 12.09 560 890 
0.391 2 6.00 6.00 0.8 0.9 0.004 0.009 6.4089 6.1747 0.0069 12.10 590 900 
0.392 2 6.00 6.00 1.2 0.9 0.004 0.011 5.6818 6.1747 -0.0144 12.10 560 890 
0.393 2 6.00 6.00 1.2 0.8 0.018 0.007 5.6345 6.6944 -0.0298 12.10 560 880 
0.394 2 6.00 6.00 1.2 0.8 0.009 0.002 5.6345 6.6944 -0.0276 12.10 560 870 
0.395 2 6.00 6.00 1.6 1.2 0.009 0.002 4.9716 5.7300 -0.0170 12.10 560 880 
0.396 2 6.00 6.00 1.6 1.2 0.018 0.013 4.9716 5.7300 -0.0165 12.07 590 890 
0.397 2 6.00 6.00 1.6 0.8 0.049 0.011 4.9716 6.3190 -0.0339 12.07 560 890 
0.398 2 6.00 6.00 1.4 0.8 0.062 0.002 5.3661 6.3190 -0.0211 12.07 560 880 
0.399 2 6.00 6.00 1.4 0.8 0.054 0.002 5.3661 6.6944 -0.0316 12.07 560 880 
0.400 2 6.00 6.00 1.2 0.8 0.045 0.004 5.7789 6.6944 -0.0201 12.07 560 880 
0.401 4 14.00 14.00 6.8 6.6 0.022 0.002 5.7789 6.0369 -0.0013 12.09 590 910 
0.402 4 14.00 14.00 6.3 6.6 0.261 0.165 6.5013 6.0369 0.0180 12.09 570 880 
0.403 4 14.00 14.00 6.2 6.4 0.603 0.531 6.5013 6.0369 0.0147 12.09 560 870 
0.404 4 14.00 14.00 6.6 7.0 0.728 0.708 7.4711 5.3239 0.0210 12.09 560 830 
0.405 4 14.00 14.00 5.6 7.2 0.650 0.810 9.2621 5.3239 0.0699 12.09 560 840 
0.406 4 14.00 14.00 5.7 6.0 0.658 0.888 9.2621 8.8965 0.0109 11.28 590 810 
0.407 4 14.00 14.00 4.8 5.0 0.708 0.886 10.5646 10.3227 0.0072 11.28 560 780 
0.408 4 14.00 14.00 3.8 3.3 0.674 0.810 12.0738 12.8788 -0.0239 11.28 560 790 
0.409 4 14.00 14.00 3.2 2.8 0.567 0.417 13.0026 13.5227 -0.0155 11.28 570 780 
0.410 4 14.00 14.00 2.6 2.3 0.408 0.295 13.7987 14.2344 -0.0130 11.28 560 800 
0.411 4 14.00 14.00 2.1 1.5 0.263 0.194 14.5405 15.3667 -0.0246 12.04 590 820 
0.412 4 14.00 14.00 1.3 1.4 0.141 0.060 15.7241 15.5433 0.0054 12.04 560 790 
0.413 4 14.00 14.00 0.8 0.9 0.009 0.011 16.2924 16.0984 0.0058 12.04 560 790 
0.414 4 14.00 14.00 0.8 0.8 0.004 0.011 16.2924 16.0984 0.0058 12.04 570 790 
0.415 4 14.00 14.00 0.8 0.8 0.011 0.009 16.4911 16.4911 0.0000 12.04 560 790 
0.416 4 14.00 14.00 0.8 1.1 0.036 0.007 16.0984 15.3667 0.0218 12.10 590 820 
0.417 4 14.00 14.00 0.8 0.8 0.049 0.016 15.9091 15.7241 0.0055 12.10 560 800 
0.418 4 14.00 14.00 0.9 0.8 0.033 0.011 15.5433 15.9091 -0.0109 12.10 560 790 
0.419 4 14.00 14.00 0.9 1.3 0.022 0.022 15.3667 14.8601 0.0151 12.10 560 790 
0.420 4 14.00 14.00 1.2 1.2 0.009 0.025 14.8601 14.8601 0.0000 12.10 560 790 
0.421 4 14.00 14.00 1.4 1.6 0.025 0.013 14.5405 14.2344 0.0091 12.09 590 810 
0.422 4 14.00 14.00 1.5 1.5 0.016 0.016 14.3858 14.3858 0.0000 12.09 560 790 
0.423 4 14.00 14.00 1.7 2.4 0.018 0.009 14.0861 13.1288 0.0285 12.09 570 790 
0.424 4 14.00 14.00 1.8 2.1 0.016 0.009 13.9409 13.6593 0.0084 12.09 570 790 
0.425 4 14.00 14.00 2.3 2.4 0.013 0.036 13.2575 13.1288 0.0038 12.09 570 790 
0.426 4 14.00 14.00 2.0 1.9 0.016 0.049 13.6593 13.9409 -0.0084 12.04 590 820 
0.427 4 14.00 14.00 1.8 1.6 0.018 0.040 13.9409 14.3858 -0.0132 12.04 560 790 
0.428 4 14.00 14.00 1.7 1.5 0.016 0.011 14.0861 14.5405 -0.0135 12.04 560 790 
0.429 4 14.00 14.00 1.8 1.7 0.013 0.009 13.9409 14.2344 -0.0087 12.04 560 790 
0.430 4 14.00 14.00 1.7 1.3 0.013 0.009 14.0861 14.6986 -0.0182 12.04 570 800 
0.431 4 14.00 14.00 1.8 1.2 0.009 0.011 13.9409 14.8601 -0.0273 12.07 590 820 
0.432 4 14.00 14.00 1.7 1.1 0.009 0.013 14.0861 14.8601 -0.0230 12.07 560 800 
0.433 4 14.00 14.00 1.3 2.0 0.009 0.022 14.6986 13.5227 0.0350 12.07 560 800 
0.434 4 14.00 14.00 1.4 1.5 0.016 0.013 14.5405 14.3858 0.0046 12.07 570 800 
0.435 4 14.00 14.00 1.3 1.3 0.013 0.011 14.5405 14.5405 0.0000 12.07 570 790 
0.436 4 14.00 14.00 1.3 1.6 0.018 0.013 14.5405 14.0861 0.0135 12.07 590 810 
0.437 4 14.00 14.00 1.4 1.3 0.018 0.016 14.3858 14.5405 -0.0046 12.07 560 790 
0.438 4 14.00 14.00 2.7 1.4 0.025 0.011 12.5210 14.3858 -0.0555 12.07 560 790 
0.439 4 14.00 14.00 2.2 1.3 0.016 0.009 13.2575 14.5405 -0.0382 12.07 560 790 
0.440 4 14.00 14.00 1.7 1.5 0.036 0.007 14.0861 14.2344 -0.0044 12.07 560 790 
0.441 4 14.00 14.00 1.6 1.2 0.009 0.011 14.2344 14.5405 -0.0091 12.09 590 810 
0.442 4 14.00 14.00 2.3 1.5 0.007 0.016 13.2575 14.0861 -0.0247 12.09 560 790 
0.443 4 14.00 14.00 2.0 1.4 0.018 0.018 13.6593 14.2344 -0.0171 12.09 560 790 
0.444 4 14.00 14.00 1.5 1.5 0.038 0.013 14.3858 14.0861 0.0089 12.09 560 790 
0.445 4 14.00 14.00 1.5 1.3 0.007 0.013 14.3858 14.3858 0.0000 12.09 560 790 
0.446 4 14.00 14.00 1.7 2.5 0.009 0.011 14.0861 12.6380 0.0431 12.09 590 810 
0.447 4 14.00 14.00 1.6 2.0 0.009 0.018 14.2344 13.3888 0.0252 12.09 570 800 
0.448 4 14.00 14.00 1.7 1.4 0.016 0.038 14.0861 14.3858 -0.0089 12.09 560 790 
0.449 4 14.00 14.00 1.6 1.2 0.009 0.009 14.2344 14.5405 -0.0091 12.09 560 790 
0.450 4 14.00 14.00 1.4 2.7 0.007 0.013 14.5405 12.4061 0.0635 12.09 570 790 
0.451 4 14.00 14.00 1.4 2.1 0.009 0.016 14.3858 13.3888 0.0297 12.07 590 820 
0.452 4 14.00 14.00 1.5 2.0 0.016 0.040 14.2344 13.5227 0.0212 12.07 570 790 
0.453 4 14.00 14.00 1.5 1.6 0.013 0.042 14.2344 14.2344 0.0000 12.07 570 800 
0.454 4 14.00 14.00 1.6 1.2 0.013 0.011 14.0861 14.6986 -0.0182 12.07 570 800 
0.455 4 14.00 14.00 1.6 1.5 0.013 0.011 14.0861 14.2344 -0.0044 12.07 570 740 
0.456 4 14.00 14.00 1.6 1.2 0.013 0.013 14.0861 14.6986 -0.0182 12.09 590 820 
0.457 4 14.00 14.00 1.5 1.4 0.007 0.020 14.2344 14.3858 -0.0045 12.09 570 800 
0.458 4 14.00 14.00 2.0 1.2 0.013 0.016 13.5227 14.5405 -0.0303 12.09 560 790 
0.459 4 14.00 14.00 1.7 1.3 0.009 0.018 13.9409 14.3858 -0.0132 12.09 570 790 
0.460 4 14.00 14.00 1.6 1.1 0.013 0.016 14.0861 14.6986 -0.0182 12.09 560 790 
0.461 4 14.00 14.00 1.6 2.4 0.009 0.016 14.0861 12.7573 0.0395 12.09 590 810 
0.462 4 14.00 14.00 1.5 1.9 0.009 0.013 14.2344 13.5227 0.0212 12.09 560 780 
0.463 4 14.00 14.00 1.5 1.7 0.011 0.029 14.2344 13.9409 0.0087 12.09 560 790 
0.464 4 14.00 14.00 1.5 1.4 0.013 0.013 14.2344 14.3858 -0.0045 12.09 560 790 
0.465 4 14.00 14.00 1.5 2.0 0.011 0.009 14.2344 13.3888 0.0252 12.09 560 790 
0.466 4 14.00 14.00 1.5 1.7 0.011 0.009 14.2344 13.9409 0.0087 12.07 590 810 
0.469 4 14.00 14.00 1.5 1.8 0.009 0.007 14.2344 13.7987 0.0130 12.07 560 790 
0.469 4 14.00 14.00 1.5 2.1 0.018 0.004 14.0861 13.3888 0.0207 12.07 560 790 
0.470 4 14.00 14.00 1.5 1.6 0.016 0.009 14.0861 14.0861 0.0000 12.07 570 800 
0.471 4 14.00 14.00 2.1 2.0 0.013 0.013 13.2575 13.5227 -0.0079 12.07 560 790 
0.472 4 14.00 14.00 1.9 1.5 0.007 0.013 13.6593 14.2344 -0.0171 12.07 590 820 
0.473 4 14.00 14.00 1.7 1.1 0.013 0.007 13.9409 14.8601 -0.0273 12.07 560 740 
0.474 4 14.00 14.00 1.7 1.4 0.007 0.020 13.9409 14.3858 -0.0132 12.07 560 740 
0.475 4 14.00 14.00 2.0 1.1 0.011 0.018 13.5227 14.6986 -0.0350 12.07 560 730 
0.476 4 14.00 14.00 1.8 1.1 0.018 0.018 13.7987 14.6986 -0.0268 12.07 560 740 
0.477 4 14.00 14.00 2.1 1.1 0.020 0.011 13.3888 14.6986 -0.0390 12.09 590 760 
0.478 4 14.00 14.00 1.8 2.2 0.018 0.018 13.7987 13.1288 0.0199 12.09 560 740 
0.479 4 14.00 14.00 1.4 1.7 0.007 0.009 14.3858 13.7987 0.0175 12.09 560 740 
0.480 4 14.00 14.00 1.3 1.6 0.009 0.009 14.5405 13.9409 0.0178 12.09 560 740 
0.481 4 14.00 14.00 1.2 1.5 0.011 0.007 14.6986 14.0861 0.0182 12.09 560 800 
0.482 4 14.00 14.00 1.2 1.9 0.013 0.011 14.6986 13.5227 0.0350 12.09 590 810 
0.483 4 14.00 14.00 1.3 1.5 0.018 0.009 14.3858 14.0861 0.0089 12.09 560 790 
0.484 4 14.00 14.00 2.6 1.5 0.016 0.007 12.6380 14.0861 -0.0431 12.09 570 800 
0.485 4 14.00 14.00 2.3 1.3 0.011 0.009 13.1288 14.3858 -0.0374 12.09 570 790 
0.486 4 14.00 14.00 1.7 1.5 0.036 0.009 13.9409 14.0861 -0.0043 12.09 560 790 
0.487 4 14.00 14.00 1.6 1.2 0.011 0.013 14.0861 14.5405 -0.0135 12.09 590 820 
0.488 4 14.00 14.00 2.3 1.4 0.007 0.016 13.1288 14.2344 -0.0329 12.09 560 790 
0.489 4 14.00 14.00 2.0 1.3 0.027 0.018 13.6593 14.3858 -0.0216 12.09 560 790 
0.490 4 14.00 14.00 1.5 1.4 0.033 0.016 14.3858 14.2344 0.0045 12.09 560 790 
0.491 4 14.00 14.00 1.5 1.2 0.011 0.016 14.3858 14.3858 0.0000 12.09 560 790 
0.492 4 14.00 14.00 1.6 2.5 0.009 0.013 14.0861 12.6380 0.0431 12.09 590 820 
0.493 4 14.00 14.00 1.5 1.3 0.007 0.013 14.2344 14.3858 -0.0045 12.09 570 800 
0.494 4 14.00 14.00 1.6 1.2 0.009 0.009 14.0861 14.5405 -0.0135 12.09 560 740 
0.495 4 14.00 14.00 1.5 2.8 0.016 0.013 14.2344 12.1826 0.0610 12.09 560 740 
0.496 4 14.00 14.00 1.4 2.2 0.009 0.018 14.3858 13.1288 0.0374 12.09 570 740 
0.497 4 14.00 14.00 1.4 2.0 0.013 0.047 14.3858 13.5227 0.0257 12.07 590 750 
0.498 4 14.00 14.00 1.5 1.5 0.013 0.036 14.2344 14.2344 0.0000 12.07 560 730 
0.499 4 14.00 14.00 1.5 1.3 0.016 0.011 14.2344 14.5405 -0.0091 12.07 560 740 
0.500 4 14.00 14.00 1.7 1.1 0.020 0.011 13.9409 14.6986 -0.0225 12.07 560 740 
0.501 4 14.00 14.00 1.6 1.4 0.011 0.018 14.0861 14.2344 -0.0044 12.07 560 740 
0.502 4 14.00 14.00 1.6 1.1 0.013 0.016 14.0861 14.6986 -0.0182 12.09 590 760 
0.503 4 14.00 14.00 1.5 1.4 0.013 0.020 14.2344 14.2344 0.0000 12.09 560 730 
0.504 4 14.00 14.00 1.9 1.3 0.016 0.013 13.5227 14.3858 -0.0257 12.09 560 730 
0.505 4 14.00 14.00 1.8 1.5 0.011 0.018 13.7987 14.0861 -0.0086 12.09 560 740 
0.506 4 14.00 14.00 1.8 1.3 0.016 0.016 13.7987 14.3858 -0.0175 12.09 560 740 
0.507 4 14.00 14.00 1.7 2.5 0.009 0.011 13.9409 12.5210 0.0422 12.09 590 760 
0.508 4 14.00 14.00 1.6 2.0 0.013 0.022 14.0861 13.3888 0.0207 12.09 560 800 
0.509 4 14.00 14.00 1.5 1.7 0.011 0.038 14.2344 13.7987 0.0130 12.09 570 800 
0.510 4 14.00 14.00 1.5 1.4 0.013 0.022 14.2344 14.2344 0.0000 12.09 570 790 
0.511 4 14.00 14.00 1.5 2.1 0.013 0.009 14.2344 13.2575 0.0291 12.09 560 790 
0.512 4 14.00 14.00 1.5 1.8 0.016 0.007 14.2344 13.7987 0.0130 12.07 590 810 
0.513 4 14.00 14.00 1.4 1.8 0.007 0.007 14.2344 13.7987 0.0130 12.07 560 790 
0.514 4 14.00 14.00 1.4 1.4 0.011 0.009 14.2344 14.3858 -0.0045 12.07 560 790 
0.515 4 14.00 14.00 1.5 2.0 0.013 0.009 14.0861 13.5227 0.0168 12.07 570 790 
0.516 4 14.00 14.00 1.5 1.6 0.011 0.009 14.0861 14.0861 0.0000 12.07 560 790 
0.517 4 14.00 14.00 2.1 1.3 0.011 0.004 13.2575 14.5405 -0.0382 12.09 590 820 
0.518 4 14.00 14.00 1.9 1.0 0.009 0.009 13.6593 14.8601 -0.0357 12.09 560 740 
0.519 4 14.00 14.00 1.6 1.0 0.011 0.018 14.0861 14.8601 -0.0230 12.09 560 740 
0.520 4 14.00 14.00 1.6 1.3 0.007 0.018 14.0861 14.3858 -0.0089 12.09 560 740 
0.521 4 14.00 14.00 1.7 1.0 0.011 0.020 13.9409 14.6986 -0.0225 12.09 560 740 
0.522 4 14.00 14.00 1.6 1.1 0.013 0.022 14.0861 14.5405 -0.0135 12.09 590 760 
0.523 4 14.00 14.00 2.1 1.1 0.007 0.013 13.3888 14.5405 -0.0343 12.09 560 740 
0.524 4 14.00 14.00 1.8 2.2 0.007 0.013 13.7987 12.8788 0.0274 12.09 570 740 
0.525 4 14.00 14.00 1.4 1.7 0.009 0.009 14.3858 13.6593 0.0216 12.09 560 740 
0.526 4 14.00 14.00 1.4 1.7 0.013 0.009 14.3858 13.7987 0.0175 12.09 560 740 
0.527 4 14.00 14.00 1.2 1.6 0.011 0.011 14.5405 13.9409 0.0178 12.07 590 760 
0.528 4 14.00 14.00 1.3 2.0 0.022 0.009 14.3858 13.2575 0.0336 12.07 560 740 
0.529 4 14.00 14.00 1.3 1.7 0.013 0.007 14.3858 13.7987 0.0175 12.07 560 740 
0.530 4 14.00 14.00 1.4 1.6 0.022 0.009 14.2344 13.9409 0.0087 12.07 560 740 
0.531 4 14.00 14.00 2.6 1.5 0.016 0.011 12.5210 14.0861 -0.0466 12.07 560 740 
0.532 4 14.00 14.00 2.2 1.6 0.016 0.011 13.1288 13.9409 -0.0242 12.06 590 760 
0.533 4 14.00 14.00 1.8 1.4 0.033 0.009 13.7987 14.2344 -0.0130 12.06 560 740 
0.534 4 14.00 14.00 1.7 1.6 0.018 0.009 13.9409 13.9409 0.0000 12.06 560 740 
0.535 4 14.00 14.00 2.3 1.5 0.009 0.009 13.1288 14.0861 -0.0285 12.06 560 740 
0.536 4 14.00 14.00 1.9 1.6 0.022 0.007 13.6593 13.9409 -0.0084 12.06 560 800 
0.537 4 14.00 14.00 1.4 1.4 0.033 0.009 14.3858 14.2344 0.0045 12.09 590 820 
0.538 4 14.00 14.00 1.6 2.5 0.011 0.011 14.0861 12.6380 0.0431 12.09 560 790 
0.539 4 14.00 14.00 1.6 2.0 0.013 0.018 14.0861 13.3888 0.0207 12.09 560 790 
0.540 4 14.00 14.00 1.6 1.3 0.013 0.031 14.0861 14.5405 -0.0135 12.09 570 800 
0.541 4 14.00 14.00 1.5 2.1 0.013 0.007 14.2344 13.2575 0.0291 12.09 560 800 
0.542 4 14.00 14.00 1.3 2.1 0.011 0.007 14.5405 13.3888 0.0343 12.09 590 820 
0.543 4 14.00 14.00 1.4 1.9 0.013 0.020 14.3858 13.6593 0.0216 12.09 570 740 
0.544 4 14.00 14.00 1.5 1.4 0.016 0.018 14.2344 14.3858 -0.0045 12.09 570 740 
0.545 4 14.00 14.00 1.5 1.3 0.016 0.011 14.2344 14.5405 -0.0091 12.09 560 740 
0.546 4 14.00 14.00 1.7 1.2 0.016 0.007 13.9409 14.6986 -0.0225 12.09 570 740 
0.547 4 14.00 14.00 1.6 1.5 0.011 0.020 14.0861 14.2344 -0.0044 12.09 590 760 
0.548 4 14.00 14.00 1.6 1.1 0.009 0.013 14.0861 14.6986 -0.0182 12.09 560 740 
0.549 4 14.00 14.00 1.5 1.4 0.016 0.016 14.2344 14.2344 0.0000 12.09 560 740 
0.550 4 14.00 14.00 1.9 1.3 0.009 0.020 13.5227 14.3858 -0.0257 12.09 560 730 
0.551 4 14.00 14.00 1.8 1.5 0.009 0.016 13.7987 14.0861 -0.0086 12.09 570 740 
0.552 4 14.00 14.00 1.8 1.3 0.013 0.018 13.7987 14.3858 -0.0175 11.99 600 770 
0.553 4 14.00 14.00 1.6 2.5 0.007 0.011 14.0861 12.6380 0.0431 11.99 560 740 
0.554 4 14.00 14.00 1.6 2.0 0.007 0.027 14.0861 13.3888 0.0207 11.99 560 740 
0.555 4 14.00 14.00 1.5 1.7 0.013 0.049 14.2344 13.9409 0.0087 11.99 560 740 
0.556 4 14.00 14.00 1.5 1.3 0.016 0.020 14.2344 14.3858 -0.0045 11.99 560 740 
0.557 4 14.00 14.00 1.5 2.1 0.011 0.009 14.2344 13.2575 0.0291 12.09 590 760 
0.558 4 14.00 14.00 1.3 1.7 0.016 0.007 14.3858 13.9409 0.0132 12.09 560 740 
0.559 4 14.00 14.00 1.3 1.8 0.013 0.004 14.3858 13.7987 0.0175 12.09 560 800 
0.560 4 14.00 14.00 1.5 1.4 0.020 0.007 14.0861 14.3858 -0.0089 12.09 570 800 
0.561 4 14.00 14.00 1.5 2.0 0.018 0.007 14.0861 13.5227 0.0168 12.09 570 790 
0.562 4 14.00 14.00 1.5 1.7 0.013 0.007 14.0861 13.9409 0.0043 12.09 590 820 
0.563 4 14.00 14.00 2.1 1.5 0.013 0.007 13.2575 14.2344 -0.0291 12.09 570 740 
0.564 4 14.00 14.00 1.8 1.1 0.007 0.009 13.6593 14.6986 -0.0309 12.09 560 740 
0.565 4 14.00 14.00 1.7 1.0 0.020 0.016 13.9409 14.8601 -0.0273 12.09 560 740 
0.566 4 14.00 14.00 1.7 1.4 0.011 0.018 13.9409 14.2344 -0.0087 12.09 560 740 
0.567 4 14.00 14.00 1.8 1.1 0.009 0.020 13.7987 14.6986 -0.0268 12.09 590 760 
0.568 4 14.00 14.00 1.7 1.2 0.009 0.020 13.9409 14.5405 -0.0178 12.09 560 740 
0.569 4 14.00 14.00 2.1 1.1 0.011 0.018 13.3888 14.5405 -0.0343 12.09 560 740 
0.570 4 14.00 14.00 1.8 2.3 0.013 0.020 13.7987 12.8788 0.0274 12.09 560 740 
0.571 4 14.00 14.00 1.5 1.8 0.011 0.009 14.2344 13.6593 0.0171 12.09 560 740 
0.572 4 14.00 14.00 1.5 1.7 0.011 0.009 14.2344 13.7987 0.0130 12.07 590 760 
0.573 4 14.00 14.00 1.3 1.6 0.009 0.009 14.5405 13.9409 0.0178 12.07 560 740 
0.574 4 14.00 14.00 1.3 2.0 0.018 0.009 14.3858 13.3888 0.0297 12.07 560 740 
0.575 4 14.00 14.00 1.3 1.6 0.020 0.013 14.3858 13.9409 0.0132 12.07 560 740 
0.576 4 14.00 14.00 1.4 1.5 0.018 0.009 14.2344 14.0861 0.0044 12.07 560 740 
0.577 4 14.00 14.00 2.6 1.4 0.016 0.007 12.5210 14.2344 -0.0510 12.09 590 760 
0.578 4 14.00 14.00 2.2 1.5 0.013 0.007 13.1288 14.0861 -0.0285 12.09 560 740 
0.579 4 14.00 14.00 1.7 1.3 0.036 0.009 13.9409 14.3858 -0.0132 12.09 560 740 
0.580 4 14.00 14.00 1.6 1.4 0.013 0.013 14.0861 14.2344 -0.0044 12.09 560 740 
0.581 4 14.00 14.00 2.3 1.3 0.009 0.011 13.1288 14.3858 -0.0374 12.09 560 740 
0.582 4 14.00 14.00 2.0 1.1 0.022 0.016 13.6593 14.5405 -0.0262 12.09 590 830 
0.583 4 14.00 14.00 1.5 2.0 0.033 0.018 14.3858 13.2575 0.0336 12.09 560 800 
0.584 4 14.00 14.00 1.4 1.9 0.009 0.011 14.3858 13.5227 0.0257 12.09 560 790 
0.585 4 14.00 14.00 1.6 1.3 0.009 0.011 14.0861 14.3858 -0.0089 12.09 560 790 
0.586 4 14.00 14.00 1.5 1.2 0.013 0.009 14.2344 14.5405 -0.0091 12.09 560 800 
0.587 4 14.00 14.00 1.5 2.9 0.011 0.018 14.2344 12.0738 0.0643 12.09 590 760 
0.588 4 14.00 14.00 1.3 2.3 0.011 0.020 14.5405 13.0026 0.0458 12.09 560 740 
0.589 4 14.00 14.00 1.4 2.0 0.018 0.058 14.3858 13.5227 0.0257 12.09 560 730 
0.590 4 14.00 14.00 1.5 1.5 0.018 0.045 14.2344 14.2344 0.0000 12.09 560 730 
0.591 4 14.00 14.00 1.5 1.4 0.013 0.011 14.2344 14.3858 -0.0045 12.09 560 740 
0.592 4 14.00 14.00 1.9 1.3 0.011 0.007 13.5227 14.5405 -0.0303 12.09 590 750 
0.593 4 14.00 14.00 1.8 1.9 0.013 0.009 13.7987 13.5227 0.0082 12.09 560 730 
0.594 4 14.00 14.00 1.7 1.5 0.011 0.009 13.9409 14.2344 -0.0087 12.09 560 740 
0.595 4 14.00 14.00 1.6 1.6 0.016 0.009 14.0861 14.0861 0.0000 12.09 560 740 
0.596 4 14.00 14.00 2.0 1.4 0.011 0.011 13.5227 14.3858 -0.0257 12.09 560 730 
0.597 4 14.00 14.00 1.8 1.4 0.011 0.016 13.7987 14.2344 -0.0130 12.04 590 770 
0.598 4 14.00 14.00 1.8 1.1 0.016 0.018 13.7987 14.6986 -0.0268 12.04 570 740 
0.599 4 14.00 14.00 1.6 2.4 0.016 0.013 14.0861 12.8788 0.0359 12.04 570 740 
0.600 4 14.00 14.00 1.6 1.9 0.009 0.009 14.0861 13.6593 0.0127 12.04 560 740 
0.601 4 14.00 14.00 1.5 1.6 0.013 0.022 14.2344 14.0861 0.0044 12.04 560 740 
0.602 4 14.00 14.00 1.5 1.2 0.016 0.009 14.2344 14.5405 -0.0091 12.09 590 760 
0.603 4 14.00 14.00 1.4 2.0 0.007 0.009 14.3858 13.3888 0.0297 12.09 560 740 
0.604 4 14.00 14.00 1.4 1.7 0.011 0.013 14.3858 13.9409 0.0132 12.09 560 740 
0.605 4 14.00 14.00 1.3 1.4 0.016 0.009 14.3858 14.3858 0.0000 12.09 570 800 
0.606 4 14.00 14.00 1.3 1.9 0.013 0.011 14.3858 13.5227 0.0257 12.09 570 790 
0.607 4 14.00 14.00 1.3 1.6 0.016 0.007 14.3858 14.0861 0.0089 12.07 590 820 
0.608 4 14.00 14.00 1.5 2.1 0.022 0.009 14.0861 13.2575 0.0247 12.07 560 790 
0.609 4 14.00 14.00 1.5 1.6 0.020 0.018 14.0861 14.0861 0.0000 12.07 560 790 
0.610 4 14.00 14.00 2.0 1.3 0.018 0.011 13.3888 14.5405 -0.0343 12.07 560 790 
0.611 4 14.00 14.00 1.8 1.1 0.009 0.013 13.6593 14.6986 -0.0309 12.07 570 800 
0.612 4 14.00 14.00 1.7 1.4 0.007 0.018 13.7987 14.2344 -0.0130 12.09 590 760 
0.613 4 14.00 14.00 1.8 1.1 0.011 0.011 13.7987 14.6986 -0.0268 12.09 560 740 
0.614 4 14.00 14.00 1.8 1.1 0.011 0.018 13.7987 14.6986 -0.0268 12.09 570 740 
0.615 4 14.00 14.00 2.0 1.0 0.013 0.020 13.5227 14.6986 -0.0350 12.09 560 730 
0.616 4 14.00 14.00 1.9 2.2 0.013 0.020 13.6593 13.0026 0.0195 12.09 570 740 
0.617 4 14.00 14.00 1.5 1.7 0.016 0.009 14.2344 13.7987 0.0130 12.09 590 760 
0.618 4 14.00 14.00 1.4 1.6 0.009 0.007 14.3858 13.9409 0.0132 12.09 560 740 
0.619 4 14.00 14.00 1.3 1.5 0.020 0.011 14.5405 14.0861 0.0135 12.09 560 740 
0.620 4 14.00 14.00 1.3 2.0 0.022 0.011 14.3858 13.3888 0.0297 12.09 560 740 
0.621 4 14.00 14.00 1.2 1.6 0.013 0.009 14.5405 13.9409 0.0178 12.09 560 740 
0.622 4 14.00 14.00 1.4 1.6 0.025 0.009 14.2344 13.9409 0.0087 12.07 590 760 
0.623 4 14.00 14.00 2.7 1.4 0.013 0.009 12.4061 14.2344 -0.0544 12.07 560 740 
0.624 4 14.00 14.00 2.2 1.5 0.018 0.009 13.1288 14.0861 -0.0285 12.07 560 800 
0.625 4 14.00 14.00 1.7 1.5 0.047 0.009 13.9409 14.0861 -0.0043 12.07 560 790 
0.626 4 14.00 14.00 1.6 1.3 0.016 0.011 14.0861 14.3858 -0.0089 12.07 560 790 
0.627 4 14.00 14.00 2.3 1.3 0.009 0.016 13.1288 14.3858 -0.0374 12.09 590 810 
0.628 4 14.00 14.00 1.9 1.2 0.025 0.016 13.6593 14.5405 -0.0262 12.09 560 790 
0.629 4 14.00 14.00 1.4 2.3 0.031 0.018 14.3858 12.8788 0.0448 12.09 570 800 
0.630 4 14.00 14.00 1.4 1.8 0.013 0.007 14.3858 13.6593 0.0216 12.09 560 790 
0.631 4 14.00 14.00 1.6 1.2 0.011 0.013 14.0861 14.5405 -0.0135 12.09 570 800 
0.632 4 14.00 14.00 1.5 1.1 0.016 0.011 14.2344 14.6986 -0.0138 12.09 590 810 
0.633 4 14.00 14.00 1.6 2.6 0.018 0.020 14.0861 12.5210 0.0466 12.09 560 790 
0.634 4 14.00 14.00 1.5 2.0 0.011 0.009 14.2344 13.3888 0.0252 12.09 560 790 
0.635 4 14.00 14.00 1.4 1.9 0.011 0.020 14.3858 13.5227 0.0257 12.09 560 790 
0.636 4 14.00 14.00 1.4 1.5 0.009 0.022 14.3858 14.2344 0.0045 12.09 560 790 
0.637 4 14.00 14.00 1.5 1.4 0.016 0.007 14.2344 14.3858 -0.0045 12.09 590 820 
0.638 4 14.00 14.00 1.4 1.2 0.016 0.009 14.2344 14.5405 -0.0091 12.09 560 740 
0.639 4 14.00 14.00 1.6 1.5 0.018 0.018 13.9409 14.0861 -0.0043 12.09 560 740 
0.640 4 14.00 14.00 1.5 1.2 0.016 0.016 14.0861 14.5405 -0.0135 12.09 570 740 
0.641 4 14.00 14.00 1.5 1.4 0.016 0.018 14.0861 14.2344 -0.0044 12.09 560 740 
0.642 4 14.00 14.00 1.9 1.3 0.011 0.018 13.5227 14.3858 -0.0257 12.07 590 750 
0.643 4 14.00 14.00 1.8 1.4 0.009 0.011 13.7987 14.2344 -0.0130 12.07 560 740 
0.644 4 14.00 14.00 1.8 1.2 0.013 0.016 13.7987 14.3858 -0.0175 12.07 560 740 
0.645 4 14.00 14.00 1.6 2.5 0.013 0.013 14.0861 12.6380 0.0431 12.07 560 740 
0.646 4 14.00 14.00 1.6 2.0 0.013 0.020 14.0861 13.3888 0.0207 12.07 560 740 
0.647 4 14.00 14.00 1.5 1.4 0.007 0.033 14.2344 14.2344 0.0000 12.09 590 820 
0.648 4 14.00 14.00 1.5 2.1 0.016 0.009 14.2344 13.2575 0.0291 12.09 560 790 
0.649 4 14.00 14.00 1.4 1.8 0.018 0.009 14.2344 13.6593 0.0171 12.09 570 790 
0.650 4 14.00 14.00 1.4 1.9 0.013 0.013 14.2344 13.6593 0.0171 12.09 570 790 
0.651 4 14.00 14.00 1.4 1.5 0.013 0.009 14.2344 14.2344 0.0000 12.09 570 790 
0.652 4 14.00 14.00 1.4 2.0 0.007 0.007 14.2344 13.5227 0.0212 12.09 590 800 
0.653 4 14.00 14.00 1.5 1.6 0.016 0.011 14.0861 14.0861 0.0000 12.09 560 790 
0.654 4 14.00 14.00 1.6 2.0 0.016 0.007 13.9409 13.5227 0.0124 12.09 570 790 
0.655 4 14.00 14.00 1.6 1.4 0.016 0.007 13.9409 14.3858 -0.0132 12.09 560 790 
0.656 4 14.00 14.00 2.1 1.0 0.011 0.007 13.2575 14.8601 -0.0477 12.09 570 800 
0.657 4 14.00 14.00 1.9 1.0 0.009 0.020 13.5227 14.8601 -0.0398 12.07 590 800 
0.658 4 14.00 14.00 1.8 1.3 0.020 0.016 13.7987 14.3858 -0.0175 12.07 560 790 
0.659 4 14.00 14.00 1.7 1.1 0.018 0.016 13.9409 14.6986 -0.0225 12.07 560 790 
0.660 4 14.00 14.00 1.8 1.0 0.013 0.018 13.7987 14.6986 -0.0268 12.07 560 790 
0.661 4 14.00 14.00 1.7 1.1 0.011 0.020 13.9409 14.5405 -0.0178 12.07 560 790 
0.662 4 14.00 14.00 2.0 2.2 0.007 0.020 13.5227 13.0026 0.0155 12.09 590 810 
0.663 4 14.00 14.00 1.8 1.8 0.007 0.011 13.7987 13.6593 0.0041 12.09 560 790 
0.664 4 14.00 14.00 1.4 1.7 0.011 0.004 14.3858 13.7987 0.0175 12.09 560 800 
0.665 4 14.00 14.00 1.4 1.6 0.011 0.009 14.3858 13.9409 0.0132 12.09 560 800 
0.666 4 14.00 14.00 1.3 2.2 0.013 0.004 14.5405 13.1288 0.0420 12.09 560 800 
0.669 4 14.00 14.00 1.2 1.7 0.020 0.013 14.5405 13.7987 0.0221 12.09 590 760 
0.670 4 14.00 14.00 2.6 1.6 0.011 0.011 12.5210 13.9409 -0.0422 12.09 570 810 
0.671 4 14.00 14.00 2.2 1.3 0.013 0.011 13.2575 14.3858 -0.0336 12.09 560 800 
0.671 4 14.00 14.00 1.7 1.4 0.027 0.011 13.9409 14.2344 -0.0087 12.09 570 790 
0.672 4 14.00 14.00 1.6 1.3 0.011 0.016 14.0861 14.3858 -0.0089 12.09 560 790 
0.673 4 14.00 14.00 2.3 1.4 0.009 0.018 13.1288 14.2344 -0.0329 12.09 590 810 
0.674 4 14.00 14.00 2.0 1.2 0.022 0.018 13.6593 14.5405 -0.0262 12.09 560 790 
0.675 4 14.00 14.00 1.6 2.3 0.033 0.009 14.2344 12.8788 0.0403 12.09 560 790 
0.676 4 14.00 14.00 1.5 1.8 0.009 0.009 14.3858 13.6593 0.0216 12.09 560 790 
0.677 4 14.00 14.00 1.7 1.2 0.009 0.016 14.0861 14.5405 -0.0135 12.09 560 790 
0.678 4 14.00 14.00 1.5 1.1 0.011 0.007 14.2344 14.6986 -0.0138 12.09 580 810 
0.679 4 14.00 14.00 1.6 2.6 0.013 0.018 14.0861 12.4061 0.0500 12.09 570 790 
0.680 4 14.00 14.00 1.5 2.0 0.011 0.007 14.2344 13.3888 0.0252 12.09 570 800 
0.681 4 14.00 14.00 1.4 2.0 0.009 0.022 14.3858 13.5227 0.0257 12.09 570 790 
0.682 4 14.00 14.00 1.4 1.5 0.011 0.029 14.3858 14.2344 0.0045 12.09 560 790 
0.683 4 14.00 14.00 1.5 1.3 0.013 0.009 14.2344 14.5405 -0.0091 12.06 600 830 
0.684 4 14.00 14.00 1.5 1.1 0.013 0.007 14.2344 14.6986 -0.0138 12.06 570 790 
0.685 4 14.00 14.00 1.7 1.4 0.018 0.013 13.9409 14.2344 -0.0087 12.06 570 790 
0.686 4 14.00 14.00 1.6 1.1 0.013 0.018 14.0861 14.6986 -0.0182 12.06 560 800 
0.687 4 14.00 14.00 1.6 1.4 0.011 0.020 14.0861 14.2344 -0.0044 12.06 560 800 
0.688 4 14.00 14.00 1.6 1.4 0.016 0.020 14.0861 14.2344 -0.0044 12.07 590 810 
0.689 4 14.00 14.00 2.1 1.2 0.013 0.018 13.3888 14.3858 -0.0297 12.07 560 790 
0.690 4 14.00 14.00 1.8 2.4 0.016 0.018 13.7987 12.7573 0.0310 12.07 560 800 
0.691 4 14.00 14.00 1.8 2.0 0.022 0.016 13.7987 13.3888 0.0122 12.07 570 800 
0.692 4 14.00 14.00 1.6 1.7 0.013 0.038 14.0861 13.7987 0.0086 12.07 560 790 
0.693 4 14.00 14.00 1.6 1.4 0.009 0.018 14.0861 14.2344 -0.0044 12.07 590 820 
0.694 4 14.00 14.00 1.5 2.1 0.009 0.009 14.2344 13.2575 0.0291 12.07 560 790 
0.695 4 14.00 14.00 1.4 1.7 0.013 0.007 14.3858 13.9409 0.0132 12.07 570 790 
0.696 4 14.00 14.00 1.4 1.8 0.018 0.009 14.3858 13.7987 0.0175 12.07 560 790 
0.697 4 14.00 14.00 1.3 1.4 0.016 0.007 14.3858 14.3858 0.0000 12.07 560 790 
0.698 4 14.00 14.00 1.4 1.9 0.016 0.009 14.2344 13.5227 0.0212 12.09 590 800 
0.699 4 14.00 14.00 1.4 1.6 0.016 0.007 14.2344 14.0861 0.0044 12.09 570 790 
0.700 4 14.00 14.00 1.5 2.0 0.016 0.009 14.0861 13.3888 0.0207 12.09 560 790 
0.701 4 14.00 14.00 1.5 1.5 0.011 0.007 14.0861 14.2344 -0.0044 12.09 560 790 
0.702 4 14.00 14.00 2.1 1.1 0.016 0.009 13.2575 14.6986 -0.0429 12.09 560 790 
0.703 4 14.00 14.00 1.8 1.1 0.007 0.018 13.6593 14.6986 -0.0309 12.09 590 810 
0.704 4 14.00 14.00 1.7 1.4 0.018 0.011 13.9409 14.2344 -0.0087 12.09 560 790 
0.705 4 14.00 14.00 1.7 1.2 0.013 0.020 13.9409 14.5405 -0.0178 12.09 560 790 
0.706 4 14.00 14.00 1.8 1.2 0.009 0.018 13.7987 14.5405 -0.0221 12.09 560 790 
0.707 4 14.00 14.00 1.7 1.1 0.009 0.018 13.9409 14.5405 -0.0178 12.09 560 790 
0.708 4 14.00 14.00 2.0 2.1 0.009 0.016 13.5227 13.1288 0.0117 12.09 590 820 
0.709 4 14.00 14.00 1.8 1.6 0.011 0.009 13.7987 13.9409 -0.0042 12.09 570 800 
0.710 4 14.00 14.00 1.4 1.5 0.007 0.009 14.3858 14.0861 0.0089 12.09 570 790 
0.711 4 14.00 14.00 1.4 2.0 0.009 0.011 14.3858 13.3888 0.0297 12.09 570 800 
0.712 4 14.00 14.00 1.1 1.6 0.011 0.007 14.6986 13.9409 0.0225 12.09 560 790 
0.713 4 14.00 14.00 1.2 1.5 0.020 0.007 -0.0000 14.0861 0.0135 12.09 590 820 
0.714 4 14.00 14.00 1.2 1.4 0.020 0.009 14.5405 14.2344 0.0091 12.09 560 790 
0.715 4 14.00 14.00 1.3 1.5 0.016 0.007 14.3858 14.0861 0.0089 12.09 560 790 
0.716 4 14.00 14.00 2.6 1.3 0.020 0.007 12.5210 14.3858 -0.0555 12.09 560 790 
0.717 4 14.00 14.00 2.2 1.5 0.011 0.009 13.1288 14.0861 -0.0285 12.09 560 790 
0.718 4 14.00 14.00 1.7 1.4 0.025 0.016 13.9409 14.2344 -0.0087 12.07 590 820 
0.719 4 14.00 14.00 1.7 1.4 0.020 0.016 13.9409 14.2344 -0.0087 12.07 560 790 
0.720 4 14.00 14.00 2.3 1.2 0.007 0.013 13.0026 14.3858 -0.0412 12.07 570 800 
0.721 4 14.00 14.00 2.0 2.4 0.029 0.016 13.5227 12.7573 0.0228 12.07 560 790 
0.722 4 14.00 14.00 1.5 1.9 0.040 0.009 14.2344 13.5227 0.0212 12.07 570 790 
0.723 4 14.00 14.00 1.6 1.3 0.011 0.022 14.0861 14.3858 -0.0089 12.07 590 810 
0.724 4 14.00 14.00 1.5 1.2 0.011 0.007 14.2344 14.5405 -0.0091 12.07 560 790 
0.725 4 14.00 14.00 1.6 2.6 0.013 0.018 14.0861 12.4061 0.0500 12.07 560 790 
0.726 4 14.00 14.00 1.5 2.0 0.011 0.013 14.2344 13.3888 0.0252 12.07 560 790 
0.727 4 14.00 14.00 1.3 2.0 0.009 0.031 14.5405 13.5227 0.0303 12.07 560 780 
0.728 4 14.00 14.00 1.4 1.5 0.016 0.031 14.3858 14.2344 0.0045 12.07 590 820 
0.729 4 14.00 14.00 1.5 1.2 0.016 0.007 14.2344 14.5405 -0.0091 12.07 570 800 
0.730 4 14.00 14.00 1.5 1.1 0.016 0.011 14.2344 14.6986 -0.0138 12.07 560 790 
0.731 4 14.00 14.00 1.9 1.1 0.018 0.018 13.5227 14.6986 -0.0350 12.07 570 790 
0.732 4 14.00 14.00 1.8 1.3 0.011 0.011 13.7987 14.3858 -0.0175 12.07 570 790 
0.733 4 14.00 14.00 1.7 1.3 0.009 0.020 13.9409 14.3858 -0.0132 12.01 590 820 
0.734 4 14.00 14.00 1.6 1.5 0.011 0.018 14.0861 14.0861 0.0000 12.01 560 790 
0.735 4 14.00 14.00 2.0 1.2 0.009 0.020 13.5227 14.3858 -0.0257 12.01 560 780 
0.736 4 14.00 14.00 1.7 2.6 0.011 0.016 13.9409 12.4061 0.0457 12.01 570 790 
0.737 4 14.00 14.00 1.7 2.2 0.018 0.025 13.9409 13.1288 0.0242 12.01 560 790 
0.738 4 14.00 14.00 1.6 1.8 0.009 0.060 14.0861 13.6593 0.0127 12.07 590 810 
0.739 4 14.00 14.00 1.5 1.4 0.009 0.047 14.2344 14.2344 0.0000 12.07 560 790 
0.740 4 14.00 14.00 1.4 2.2 0.016 0.009 14.3858 13.1288 0.0374 12.07 560 790 
0.741 4 14.00 14.00 1.4 1.8 0.016 0.011 14.3858 13.7987 0.0175 12.07 560 790 
0.742 4 14.00 14.00 1.3 1.8 0.018 0.016 14.3858 13.7987 0.0175 12.07 560 790 
0.743 4 14.00 14.00 1.4 1.4 0.018 0.009 14.2344 14.3858 -0.0045 12.09 590 820 
0.744 4 14.00 14.00 1.4 2.0 0.013 0.007 14.2344 13.5227 0.0212 12.09 570 790 
0.745 4 14.00 14.00 1.4 1.5 0.018 0.007 14.2344 14.2344 0.0000 12.09 560 790 
0.746 4 14.00 14.00 1.5 2.0 0.016 0.007 14.0861 13.5227 0.0168 12.09 560 780 
0.747 4 14.00 14.00 1.5 1.4 0.018 0.007 14.0861 14.3858 -0.0089 12.09 560 790 
0.748 4 14.00 14.00 2.0 1.1 0.016 0.009 13.3888 14.8601 -0.0438 12.09 590 820 
0.749 4 14.00 14.00 1.8 1.0 0.013 0.018 13.6593 14.8601 -0.0357 12.09 560 790 
0.750 4 14.00 14.00 1.6 1.2 0.016 0.018 13.9409 14.5405 -0.0178 12.09 560 800 
0.751 4 14.00 14.00 1.6 1.1 0.009 0.018 13.9409 14.6986 -0.0225 12.09 570 790 
0.752 4 14.00 14.00 1.9 1.1 0.016 0.018 13.5227 14.5405 -0.0303 12.09 560 780 
0.753 4 14.00 14.00 1.8 2.2 0.011 0.016 13.7987 13.0026 0.0237 12.09 590 820 
0.754 4 14.00 14.00 2.0 1.8 0.016 0.009 13.5227 13.6593 -0.0041 12.09 560 780 
0.755 4 14.00 14.00 1.8 1.7 0.016 0.007 13.7987 13.7987 0.0000 12.09 560 790 
0.756 4 14.00 14.00 1.4 1.5 0.013 0.004 14.3858 14.0861 0.0089 12.09 560 790 
0.757 4 14.00 14.00 1.4 2.0 0.013 0.007 14.3858 13.3888 0.0297 12.09 560 790 
0.758 4 14.00 14.00 1.3 1.5 0.013 0.009 14.5405 14.0861 0.0135 12.09 590 810 
0.759 4 14.00 14.00 1.2 1.5 0.020 0.007 14.5405 14.0861 0.0135 12.09 560 790 
0.760 4 14.00 14.00 1.2 1.4 0.020 0.007 14.5405 14.2344 0.0091 12.09 560 790 
0.761 4 14.00 14.00 1.3 1.5 0.020 0.007 14.3858 14.0861 0.0089 12.09 560 790 
0.762 4 14.00 14.00 2.5 1.3 0.018 0.007 12.6380 14.3858 -0.0520 12.09 560 790 
0.763 4 14.00 14.00 2.1 1.5 0.011 0.013 13.2575 14.0861 -0.0247 12.09 590 810 
0.764 4 14.00 14.00 1.7 1.3 0.020 0.013 13.9409 14.3858 -0.0132 12.09 560 790 
0.765 4 14.00 14.00 1.6 1.4 0.011 0.016 14.0861 14.2344 -0.0044 12.09 560 790 
0.766 4 14.00 14.00 2.2 1.1 0.007 0.016 13.1288 14.5405 -0.0420 12.09 560 790 
0.767 4 14.00 14.00 1.9 2.4 0.020 0.018 13.6593 12.7573 0.0268 12.09 560 790 
0.768 4 14.00 14.00 1.5 1.9 0.029 0.007 14.2344 13.5227 0.0212 12.07 590 820 
0.769 4 14.00 14.00 1.5 1.3 0.011 0.020 14.2344 14.3858 -0.0045 12.07 560 800 
0.770 4 14.00 14.00 1.7 1.2 0.009 0.007 13.9409 14.5405 -0.0178 12.07 560 790 
0.771 4 14.00 14.00 1.7 2.7 0.013 0.020 13.9409 12.4061 0.0457 12.07 570 800 
0.772 4 14.00 14.00 1.5 2.0 0.009 0.013 14.2344 13.3888 0.0252 12.07 560 790 
0.773 4 14.00 14.00 1.4 2.0 0.011 0.027 14.3858 13.5227 0.0257 12.07 590 810 
0.774 4 14.00 14.00 1.4 1.3 0.013 0.025 14.3858 14.5405 -0.0046 12.07 560 800 
0.775 4 14.00 14.00 1.6 1.1 0.011 0.007 14.0861 14.6986 -0.0182 12.07 570 790 
0.776 4 14.00 14.00 1.5 1.4 0.011 0.016 14.2344 14.2344 0.0000 12.07 560 790 
0.777 4 14.00 14.00 1.7 1.1 0.013 0.016 13.9409 14.6986 -0.0225 12.07 560 790 
0.778 4 14.00 14.00 1.6 1.3 0.013 0.020 14.0861 14.3858 -0.0089 12.09 590 810 
0.779 4 14.00 14.00 1.6 1.2 0.013 0.020 14.0861 14.5405 -0.0135 12.09 560 790 
0.780 4 14.00 14.00 1.4 1.4 0.016 0.016 14.2344 14.2344 0.0000 12.09 560 790 
0.781 4 14.00 14.00 1.9 1.1 0.013 0.013 13.5227 14.5405 -0.0303 12.09 560 780 
0.782 4 14.00 14.00 1.8 2.4 0.007 0.020 13.7987 12.7573 0.0310 12.09 560 790 
0.783 4 14.00 14.00 1.8 2.0 0.018 0.009 13.7987 13.3888 0.0122 12.07 590 810 
0.784 4 14.00 14.00 1.6 1.7 0.013 0.036 14.0861 13.7987 0.0086 12.07 560 790 
0.785 4 14.00 14.00 1.6 1.4 0.009 0.022 14.0861 14.2344 -0.0044 12.07 560 790 
0.786 4 14.00 14.00 1.5 2.2 0.009 0.007 14.2344 13.1288 0.0329 12.07 560 790 
0.787 4 14.00 14.00 1.5 1.8 0.013 0.009 14.2344 13.6593 0.0171 12.07 560 790 
0.788 4 14.00 14.00 1.4 2.0 0.016 0.013 14.2344 13.3888 0.0252 12.09 590 810 
0.789 4 14.00 14.00 1.4 1.6 0.016 0.022 14.2344 14.0861 0.0044 12.09 560 790 
0.790 4 14.00 14.00 1.4 2.2 0.011 0.009 14.2344 13.2575 0.0291 12.09 560 790 
0.791 4 14.00 14.00 1.5 1.7 0.007 0.013 14.0861 13.9409 0.0043 12.09 560 790 
0.792 4 14.00 14.00 1.5 2.0 0.013 0.020 14.0861 13.5227 0.0168 12.09 560 790 
0.793 4 14.00 14.00 1.6 1.5 0.016 0.016 13.9409 14.2344 -0.0087 12.07 590 820 
0.794 4 14.00 14.00 1.6 1.2 0.011 0.007 13.9409 14.6986 -0.0225 12.07 560 800 
0.795 4 14.00 14.00 2.0 1.3 0.013 0.016 13.3888 14.5405 -0.0343 12.07 560 790 
0.796 4 14.00 14.00 1.8 1.0 0.009 0.020 13.6593 14.8601 -0.0357 12.07 570 800 
0.797 4 14.00 14.00 1.6 1.0 0.013 0.016 14.0861 14.8601 -0.0230 12.07 560 790 
0.798 4 14.00 14.00 1.7 1.0 0.009 0.016 13.9409 14.8601 -0.0273 12.09 590 820 
0.799 4 14.00 14.00 1.6 2.1 0.011 0.018 14.0861 13.1288 0.0285 12.09 570 790 
0.800 4 14.00 14.00 2.0 1.6 0.009 0.011 13.5227 13.9409 -0.0124 12.09 570 790 
0.801 4 14.00 14.00 1.8 1.5 0.009 0.009 13.7987 14.0861 -0.0086 12.09 560 790 
0.802 4 14.00 14.00 1.4 1.4 0.009 0.009 14.3858 14.2344 0.0045 12.09 560 790 
0.803 4 14.00 14.00 1.4 1.9 0.011 0.016 14.3858 13.5227 0.0257 12.09 590 800 
0.804 4 14.00 14.00 1.2 1.5 0.018 0.009 14.5405 14.0861 0.0135 12.09 560 790 
0.805 4 14.00 14.00 1.3 1.5 0.020 0.007 14.3858 14.0861 0.0089 12.09 570 800 
0.806 4 14.00 14.00 1.2 1.4 0.018 0.007 14.5405 14.2344 0.0091 12.09 560 790 
0.807 4 14.00 14.00 1.4 1.5 0.022 0.007 14.2344 14.0861 0.0044 12.09 560 790 
0.808 4 14.00 14.00 2.7 1.3 0.020 0.009 12.4061 14.3858 -0.0589 12.09 590 820 
0.809 4 14.00 14.00 2.3 1.5 0.016 0.009 13.0026 14.0861 -0.0322 12.09 560 790 
0.810 4 14.00 14.00 1.9 1.4 0.042 0.018 13.6593 14.2344 -0.0171 12.09 560 790 
0.811 4 14.00 14.00 1.8 1.5 0.027 0.018 13.7987 14.0861 -0.0086 12.09 560 790 
0.812 4 14.00 14.00 2.3 1.2 0.016 0.016 13.1288 14.3858 -0.0374 12.09 560 800 
0.813 4 14.00 14.00 1.9 2.4 0.033 0.013 13.6593 12.7573 0.0268 12.07 590 820 
0.814 4 14.00 14.00 1.5 1.3 0.038 0.009 14.3858 14.3858 0.0000 12.07 570 800 
0.815 4 14.00 14.00 1.4 1.2 0.011 0.009 14.3858 14.5405 -0.0046 12.07 560 790 
0.816 4 14.00 14.00 1.6 2.8 0.011 0.016 14.0861 12.1826 0.0566 12.07 560 800 
0.817 4 14.00 14.00 1.5 2.2 0.011 0.016 14.2344 13.1288 0.0329 12.07 560 790 
0.818 4 14.00 14.00 1.6 2.0 0.013 0.047 14.0861 13.3888 0.0207 12.07 590 820 
0.819 4 14.00 14.00 1.5 1.6 0.009 0.038 14.2344 14.0861 0.0044 12.07 560 790 
0.820 4 14.00 14.00 1.4 1.4 0.009 0.016 14.3858 14.3858 0.0000 12.07 560 790 
0.821 4 14.00 14.00 1.4 1.2 0.011 0.004 14.3858 14.5405 -0.0046 12.07 560 790 
0.822 4 14.00 14.00 1.5 1.4 0.013 0.011 14.2344 14.2344 0.0000 12.07 560 800 
0.823 4 14.00 14.00 1.7 1.1 0.018 0.016 13.9409 14.6986 -0.0225 12.09 590 820 
0.824 4 14.00 14.00 1.6 1.3 0.013 0.016 14.0861 14.3858 -0.0089 12.09 570 790 
0.825 4 14.00 14.00 1.6 1.2 0.013 0.018 14.0861 14.5405 -0.0135 12.09 560 790 
0.826 4 14.00 14.00 1.6 1.4 0.013 0.016 14.0861 14.2344 -0.0044 12.09 570 800 
0.827 4 14.00 14.00 1.9 1.1 0.007 0.018 13.5227 14.5405 -0.0303 12.09 560 780 
0.828 4 14.00 14.00 1.7 2.4 0.009 0.018 13.9409 12.7573 0.0352 12.09 590 810 
0.829 4 14.00 14.00 1.7 1.9 0.016 0.011 13.9409 13.5227 0.0124 12.09 560 780 
0.830 4 14.00 14.00 1.6 1.7 0.007 0.027 14.0861 13.7987 0.0086 12.09 560 790 
0.831 4 14.00 14.00 1.5 1.4 0.009 0.013 14.2344 14.2344 0.0000 12.09 570 790 
0.832 4 14.00 14.00 1.5 2.3 0.011 0.007 14.2344 13.0026 0.0366 12.09 560 790 
0.833 4 14.00 14.00 1.5 1.8 0.018 0.009 14.2344 13.6593 0.0171 12.07 590 820 
0.834 4 14.00 14.00 1.4 2.0 0.018 0.013 14.2344 13.5227 0.0212 12.07 560 790 
0.835 4 14.00 14.00 1.3 1.5 0.013 0.013 14.3858 14.2344 0.0045 12.07 560 800 
0.836 4 14.00 14.00 1.4 2.1 0.016 0.007 14.2344 13.3888 0.0252 12.07 560 790 
0.837 4 14.00 14.00 1.4 1.6 0.018 0.009 14.2344 14.0861 0.0044 12.07 570 800 
0.838 4 14.00 14.00 1.4 1.3 0.011 0.007 14.2344 14.5405 -0.0091 12.09 590 820 
0.839 4 14.00 14.00 1.5 1.0 0.018 0.009 14.0861 14.8601 -0.0230 12.09 560 790 
0.840 4 14.00 14.00 1.6 1.0 0.016 0.020 13.9409 14.8601 -0.0273 12.09 570 790 
0.841 4 14.00 14.00 2.1 1.3 0.009 0.020 13.2575 14.3858 -0.0336 12.09 560 790 
0.842 4 14.00 14.00 1.9 1.1 0.009 0.018 13.5227 14.6986 -0.0350 12.09 570 790 
0.843 4 14.00 14.00 1.7 1.0 0.016 0.018 13.7987 14.6986 -0.0268 12.09 590 810 
0.844 4 14.00 14.00 1.8 1.1 0.009 0.016 13.7987 14.5405 -0.0221 12.09 570 800 
0.845 4 14.00 14.00 2.0 2.2 0.018 0.016 13.5227 12.8788 0.0192 12.09 560 780 
0.846 4 14.00 14.00 1.9 1.7 0.020 0.007 13.6593 13.6593 0.0000 12.09 560 790 
0.847 4 14.00 14.00 2.2 1.8 0.016 0.011 13.2575 13.6593 -0.0120 12.09 560 790 
0.848 4 14.00 14.00 1.9 1.6 0.029 0.007 13.6593 13.9409 -0.0084 12.02 600 830 
0.849 4 14.00 14.00 1.5 2.1 0.020 0.007 14.2344 13.2575 0.0291 12.02 560 790 
0.850 4 14.00 14.00 1.4 1.6 0.004 0.013 14.3858 13.9409 0.0132 12.02 560 800 
0.851 4 14.00 14.00 1.3 1.6 0.011 0.016 14.5405 13.9409 0.0178 12.02 570 800 
0.852 4 14.00 14.00 1.2 1.4 0.011 0.011 14.6986 14.2344 0.0138 12.02 560 790 
0.853 4 14.00 14.00 1.2 1.5 0.020 0.007 14.5405 14.0861 0.0135 12.09 590 820 
0.854 4 14.00 14.00 2.6 1.3 0.022 0.009 12.6380 14.3858 -0.0520 12.09 560 800 
0.855 4 14.00 14.00 2.1 1.5 0.009 0.016 13.3888 14.0861 -0.0207 12.09 560 790 
0.856 4 14.00 14.00 1.6 1.4 0.020 0.018 14.0861 14.2344 -0.0044 12.09 560 800 
0.857 4 14.00 14.00 1.5 1.3 0.011 0.018 14.2344 14.3858 -0.0045 12.09 560 800 
0.858 4 14.00 14.00 2.2 2.0 0.004 0.016 13.2575 13.2575 0.0000 12.07 590 820 
0.859 4 14.00 14.00 1.9 1.9 0.016 0.007 13.6593 13.5227 0.0041 12.07 560 790 
0.860 4 14.00 14.00 1.4 1.3 0.022 0.013 14.3858 14.3858 0.0000 12.07 560 790 
0.861 4 14.00 14.00 1.4 1.2 0.011 0.011 14.3858 14.5405 -0.0046 12.07 560 790 
0.862 4 14.00 14.00 1.6 2.6 0.011 0.016 14.0861 12.4061 0.0500 12.07 560 790 
0.863 4 14.00 14.00 1.5 2.1 0.016 0.013 14.2344 13.2575 0.0291 12.06 590 820 
0.864 4 14.00 14.00 1.6 2.0 0.011 0.029 14.0861 13.5227 0.0168 12.06 560 780 
0.865 4 14.00 14.00 1.5 1.5 0.011 0.033 14.2344 14.2344 0.0000 12.06 560 790 
0.866 4 14.00 14.00 1.4 1.3 0.009 0.009 14.3858 14.5405 -0.0046 12.06 560 790 
0.867 4 14.00 14.00 1.4 1.1 0.011 0.007 14.3858 14.6986 -0.0093 12.06 560 790 
0.868 4 14.00 14.00 1.5 1.4 0.016 0.018 14.2344 14.2344 0.0000 12.09 590 810 
0.869 4 14.00 14.00 1.4 1.1 0.018 0.018 14.2344 14.6986 -0.0138 12.09 570 800 
0.870 4 14.00 14.00 1.6 1.4 0.013 0.016 13.9409 14.2344 -0.0087 12.09 560 790 
0.871 4 14.00 14.00 1.5 1.3 0.013 0.016 14.0861 14.3858 -0.0089 12.09 560 790 
0.872 4 14.00 14.00 1.5 1.5 0.018 0.016 14.0861 14.0861 0.0000 12.09 560 790 
0.873 4 14.00 14.00 1.5 1.4 0.011 0.018 14.0861 14.2344 -0.0044 12.06 590 820 
0.874 4 14.00 14.00 1.9 2.5 0.009 0.013 13.5227 12.5210 0.0298 12.06 560 790 
0.875 4 14.00 14.00 1.8 2.1 0.011 0.027 13.7987 13.2575 0.0161 12.06 560 790 
0.876 4 14.00 14.00 1.7 1.8 0.013 0.051 13.9409 13.6593 0.0084 12.06 560 790 
