%  1    time 0.000 sec
%  2    mission (0) state 2
%  3  4 Motor velocity ref left, right: 20.00 20.00
%  5  6 Motor voltage [V] left, right: 11.2 11.2
%  7  8 Motor current left, right [A]: 0.000 0.000
%  9 10 Wheel velocity [r/s] left, right: -0.0064 0.0000
% 11    Battery voltage [V]: 12.12
% 12 13 Get data time [us]: 560 +ctrl 800
0.001 2 20.00 20.00 10.4 11.2 0.536 0.533 -0.0064 0.0000 12.12 560 740 
0.002 2 20.00 20.00 8.9 11.2 1.132 1.279 -0.0064 0.0000 12.12 560 740 
0.003 2 20.00 20.00 7.6 11.2 1.283 1.703 0.0064 0.0000 12.12 560 800 
0.004 2 20.00 20.00 6.5 9.9 1.185 1.842 0.0064 0.0000 9.92 590 830 
0.005 2 20.00 20.00 5.4 9.9 1.092 1.877 6.2605 0.0000 9.92 560 800 
0.006 2 20.00 20.00 6.4 6.2 0.971 1.855 6.2605 9.0151 9.92 560 840 
0.007 2 20.00 20.00 5.5 3.8 0.931 1.420 10.0916 13.2575 9.92 560 730 
0.008 2 20.00 20.00 4.4 3.3 0.951 0.712 12.0738 14.0861 9.92 560 790 
0.009 2 20.00 20.00 3.9 2.7 0.830 0.467 13.0026 15.1940 11.83 590 820 
0.010 2 20.00 20.00 3.5 2.0 0.469 0.315 13.7987 16.4911 11.83 560 790 
0.011 2 20.00 20.00 2.5 1.6 0.339 0.145 15.5433 17.1173 11.83 570 800 
0.012 2 20.00 20.00 2.1 1.4 0.230 0.031 16.2924 17.5619 11.83 560 790 
0.013 2 20.00 20.00 1.7 1.0 0.109 0.011 16.9034 18.2739 11.83 560 780 
0.014 2 20.00 20.00 1.5 1.1 0.029 0.020 17.3368 18.0303 12.07 590 820 
0.015 2 20.00 20.00 1.4 1.2 0.016 0.011 17.5619 17.7930 12.07 560 790 
0.016 2 20.00 20.00 1.2 1.0 0.013 0.016 17.7930 18.2739 12.07 560 790 
0.017 2 20.00 20.00 1.4 1.2 0.020 0.018 17.5619 17.7930 12.07 560 800 
0.018 2 20.00 20.00 1.4 1.4 0.018 0.022 17.5619 17.5619 12.07 560 790 
0.019 2 20.00 20.00 1.5 1.4 0.016 0.016 17.3368 17.5619 12.07 590 810 
0.020 2 20.00 20.00 1.6 2.0 0.020 0.011 17.1173 16.4911 12.07 560 790 
0.021 2 20.00 20.00 1.9 1.7 0.013 0.009 16.6947 16.9034 12.07 570 800 
0.022 2 20.00 20.00 1.7 1.4 0.009 0.009 16.9034 17.5619 12.07 560 780 
0.023 2 20.00 20.00 1.9 2.2 0.007 0.016 16.6947 16.0984 12.07 560 790 
0.024 2 20.00 20.00 2.1 2.0 0.009 0.009 16.2924 16.4911 12.06 590 810 
0.025 2 20.00 20.00 2.0 2.1 0.007 0.007 16.4911 16.2924 12.06 560 790 
0.026 2 20.00 20.00 2.2 1.7 0.009 0.007 16.0984 16.9034 12.06 560 790 
0.027 2 20.00 20.00 1.7 1.6 0.007 0.007 16.9034 17.1173 12.06 560 780 
0.028 2 20.00 20.00 1.7 2.0 0.009 0.004 16.9034 16.4911 12.06 560 780 
0.029 2 20.00 20.00 1.6 1.6 0.009 0.009 17.1173 17.1173 12.09 590 810 
0.030 2 20.00 20.00 1.7 1.9 0.013 0.007 16.9034 16.6947 12.09 560 790 
0.031 2 20.00 20.00 1.7 1.9 0.011 0.013 16.9034 16.6947 12.09 560 780 
0.032 2 20.00 20.00 2.4 1.6 0.016 0.009 15.7241 17.1173 12.09 560 790 
0.033 2 20.00 20.00 2.2 2.1 0.011 0.007 16.0984 16.2924 12.09 560 790 
0.034 2 20.00 20.00 1.9 1.9 0.007 0.007 16.6947 16.6947 12.06 590 820 
0.035 2 20.00 20.00 1.9 1.5 0.009 0.007 16.6947 17.3368 12.06 560 800 
0.036 2 20.00 20.00 2.1 2.0 0.011 0.011 16.2924 16.4911 12.06 560 790 
0.037 2 20.00 20.00 1.7 1.7 0.007 0.013 16.9034 16.9034 12.06 560 770 
0.038 2 20.00 20.00 1.7 2.0 0.007 0.009 16.9034 16.4911 12.06 560 780 
0.039 2 20.00 20.00 2.1 2.3 0.011 0.009 16.2924 15.9091 12.07 590 820 
0.040 2 20.00 20.00 2.0 1.7 0.009 0.009 16.4911 16.9034 12.07 560 780 
0.041 2 20.00 20.00 2.1 2.1 0.009 0.007 16.2924 16.2924 12.07 560 790 
0.042 2 20.00 20.00 2.0 1.6 0.007 0.007 16.4911 17.1173 12.07 560 790 
0.043 2 20.00 20.00 2.0 1.5 0.009 0.009 16.4911 17.3368 12.07 560 800 
0.044 2 20.00 20.00 2.1 1.7 0.009 0.016 16.2924 16.9034 12.07 590 810 
0.045 2 20.00 20.00 2.1 1.5 0.004 0.016 16.2924 17.3368 12.07 560 800 
0.046 2 20.00 20.00 2.1 1.5 0.007 0.009 16.2924 17.3368 12.07 560 790 
0.047 2 20.00 20.00 2.0 2.1 0.007 0.011 16.4911 16.2924 12.07 560 800 
0.048 2 20.00 20.00 1.9 1.7 0.011 0.004 16.6947 16.9034 12.07 560 780 
0.049 2 20.00 20.00 2.1 1.7 0.007 0.009 16.2924 16.9034 12.07 590 810 
0.050 2 20.00 20.00 2.1 1.7 0.011 0.007 16.2924 16.9034 12.07 560 790 
0.051 2 20.00 20.00 2.0 2.1 0.018 0.009 16.4911 16.2924 12.07 560 790 
0.052 2 20.00 20.00 2.0 1.9 0.007 0.007 16.4911 16.6947 12.07 560 790 
0.053 2 20.00 20.00 2.0 1.9 0.009 0.007 16.4911 16.6947 12.07 560 790 
0.054 2 20.00 20.00 2.0 2.0 0.009 0.009 16.4911 16.4911 12.06 590 810 
0.055 2 20.00 20.00 1.9 1.7 0.009 0.002 16.6947 16.9034 12.06 560 790 
0.056 2 20.00 20.00 1.9 1.7 0.009 0.007 16.6947 16.9034 12.06 570 790 
0.057 2 20.00 20.00 1.9 1.9 0.004 0.009 16.6947 16.6947 12.06 560 790 
0.058 2 20.00 20.00 1.9 1.6 0.007 0.009 16.6947 17.1173 12.06 560 790 
0.059 2 20.00 20.00 2.0 2.2 0.011 0.004 16.4911 16.0984 12.07 590 820 
0.060 2 20.00 20.00 2.2 1.5 0.009 0.007 16.0984 17.3368 12.07 560 800 
0.061 2 20.00 20.00 2.0 1.5 0.009 0.007 16.4911 17.3368 12.07 560 790 
0.062 2 20.00 20.00 1.9 2.3 0.007 0.016 16.6947 15.9091 12.07 570 800 
0.063 2 20.00 20.00 1.9 2.0 0.004 0.011 16.6947 16.4911 12.07 570 790 
0.064 2 20.00 20.00 2.0 2.1 0.007 0.009 16.4911 16.2924 12.06 590 820 
0.065 2 20.00 20.00 2.1 1.7 0.007 0.004 16.2924 16.9034 12.06 560 790 
0.066 2 20.00 20.00 2.0 1.7 0.007 0.002 16.4911 16.9034 12.06 560 780 
0.067 2 20.00 20.00 1.6 2.0 0.007 0.004 17.1173 16.4911 12.06 560 790 
0.068 2 20.00 20.00 1.7 1.7 0.011 0.009 16.9034 16.9034 12.06 560 790 
0.069 2 20.00 20.00 1.7 1.7 0.011 0.009 16.9034 16.9034 12.07 590 800 
0.070 2 20.00 20.00 1.6 1.9 0.009 0.009 17.1173 16.6947 12.07 560 790 
0.071 2 20.00 20.00 1.7 1.6 0.011 0.009 16.9034 17.1173 12.07 560 780 
0.072 2 20.00 20.00 2.4 2.2 0.007 0.009 15.7241 16.0984 12.07 560 790 
0.073 2 20.00 20.00 1.9 2.0 0.004 0.007 16.6947 16.4911 12.07 560 800 
0.074 2 20.00 20.00 1.9 1.6 0.009 0.007 16.6947 17.1173 12.06 590 820 
0.075 2 20.00 20.00 2.2 2.0 0.009 0.009 16.0984 16.4911 12.06 560 790 
0.076 2 20.00 20.00 2.0 1.9 0.007 0.011 16.4911 16.6947 12.06 560 790 
0.077 2 20.00 20.00 1.7 2.1 0.013 0.009 16.9034 16.2924 12.06 560 790 
0.078 2 20.00 20.00 2.0 2.1 0.007 0.004 16.4911 16.2924 12.06 560 800 
0.079 2 20.00 20.00 2.0 1.9 0.009 0.009 16.4911 16.6947 12.06 590 810 
0.080 2 20.00 20.00 2.1 2.2 0.009 0.004 16.2924 16.0984 12.06 560 790 
0.081 2 20.00 20.00 2.0 1.7 0.002 0.007 16.4911 16.9034 12.06 570 790 
0.082 2 20.00 20.00 1.9 1.5 0.007 0.007 16.6947 17.3368 12.06 570 790 
0.083 2 20.00 20.00 2.0 1.9 0.007 0.007 16.4911 16.6947 12.06 560 790 
0.084 2 20.00 20.00 2.0 1.6 0.009 0.011 16.4911 17.1173 12.07 590 810 
0.085 2 20.00 20.00 2.1 1.5 0.007 0.004 16.2924 17.3368 12.07 570 800 
0.086 2 20.00 20.00 2.0 1.7 0.007 0.013 16.4911 16.9034 12.07 560 790 
0.087 2 20.00 20.00 1.9 1.7 0.007 0.016 16.6947 16.9034 12.07 560 780 
0.088 2 20.00 20.00 2.1 1.7 0.009 0.011 16.2924 16.9034 12.07 560 780 
0.089 2 20.00 20.00 2.0 1.7 0.007 0.007 16.4911 16.9034 12.06 590 800 
0.090 2 20.00 20.00 2.0 2.0 0.016 0.016 16.4911 16.4911 12.06 560 790 
0.091 2 20.00 20.00 1.9 1.9 0.007 0.009 16.6947 16.6947 12.06 560 790 
0.092 2 20.00 20.00 1.9 1.7 0.007 0.007 16.6947 16.9034 12.06 560 780 
0.093 2 20.00 20.00 1.9 1.9 0.011 0.007 16.6947 16.6947 12.06 560 790 
0.094 2 20.00 20.00 1.9 1.7 0.007 0.009 16.6947 16.9034 12.06 590 810 
0.095 2 20.00 20.00 1.9 1.7 0.009 0.011 16.6947 16.9034 12.06 570 790 
0.096 2 20.00 20.00 1.9 1.9 0.009 0.013 16.6947 16.6947 12.06 560 790 
0.097 2 20.00 20.00 1.9 1.6 0.009 0.011 16.6947 17.1173 12.06 560 790 
0.098 2 20.00 20.00 1.9 2.2 0.009 0.009 16.6947 16.0984 12.06 570 790 
0.099 2 20.00 20.00 1.9 1.5 0.016 0.004 16.6947 17.3368 12.06 590 820 
0.100 2 20.00 20.00 2.1 1.5 0.011 0.004 16.2924 17.3368 12.06 560 790 
0.101 2 20.00 20.00 1.9 2.3 0.007 0.011 16.6947 15.9091 12.06 560 790 
0.102 2 20.00 20.00 1.9 2.0 0.007 0.004 16.6947 16.4911 12.06 560 790 
0.103 2 20.00 20.00 2.1 2.1 0.004 0.009 16.2924 16.2924 12.06 560 790 
0.104 2 20.00 20.00 2.0 1.7 0.007 0.009 16.4911 16.9034 12.06 590 820 
0.105 2 20.00 20.00 2.1 1.7 0.002 0.007 16.2924 16.9034 12.06 560 790 
0.106 2 20.00 20.00 1.7 2.1 0.007 0.009 16.9034 16.2924 12.06 560 780 
0.107 2 20.00 20.00 1.7 1.7 0.004 0.004 16.9034 16.9034 12.06 570 770 
0.108 2 20.00 20.00 1.6 2.0 0.009 0.009 17.1173 16.4911 12.06 560 800 
0.109 2 20.00 20.00 1.7 2.0 0.011 0.007 16.9034 16.4911 12.07 590 810 
0.110 2 20.00 20.00 1.7 1.7 0.018 0.009 16.9034 16.9034 12.07 560 770 
0.111 2 20.00 20.00 2.4 2.3 0.013 0.007 15.7241 15.9091 12.07 560 790 
0.112 2 20.00 20.00 2.2 2.0 0.007 0.013 16.0984 16.4911 12.07 570 800 
0.113 2 20.00 20.00 1.9 1.6 0.004 0.013 16.6947 17.1173 12.07 570 800 
0.114 2 20.00 20.00 2.2 2.0 0.004 0.009 16.0984 16.4911 12.07 590 820 
0.115 2 20.00 20.00 2.1 1.7 0.004 0.009 16.2924 16.9034 12.07 560 780 
0.116 2 20.00 20.00 1.7 2.0 0.018 0.007 16.9034 16.4911 12.07 570 790 
0.117 2 20.00 20.00 1.7 1.7 0.009 0.007 16.9034 16.9034 12.07 560 780 
0.118 2 20.00 20.00 2.0 1.9 0.013 0.007 16.4911 16.6947 12.07 560 800 
0.119 2 20.00 20.00 2.1 2.2 0.011 0.009 16.2924 16.0984 12.06 590 820 
0.120 2 20.00 20.00 2.0 1.7 0.009 0.004 16.4911 16.9034 12.06 570 790 
0.121 2 20.00 20.00 1.9 1.5 0.002 0.007 16.6947 17.3368 12.06 570 800 
0.122 2 20.00 20.00 1.9 1.9 0.004 0.011 16.6947 16.6947 12.06 560 790 
0.123 2 20.00 20.00 2.0 1.6 0.007 0.013 16.4911 17.1173 12.06 570 800 
0.124 2 20.00 20.00 2.1 1.6 0.013 0.009 16.2924 17.1173 12.07 590 810 
0.125 2 20.00 20.00 2.0 1.6 0.004 0.011 16.4911 17.1173 12.07 570 790 
0.126 2 20.00 20.00 2.0 1.7 0.011 0.013 16.4911 16.9034 12.07 560 790 
0.127 2 20.00 20.00 1.9 1.7 0.007 0.016 16.6947 16.9034 12.07 560 780 
0.128 2 20.00 20.00 2.0 1.7 0.009 0.013 16.4911 16.9034 12.07 570 800 
0.129 2 20.00 20.00 2.1 2.0 0.007 0.011 16.2924 16.4911 12.07 590 810 
0.130 2 20.00 20.00 1.9 1.9 0.011 0.007 16.6947 16.6947 12.07 570 800 
0.131 2 20.00 20.00 1.9 1.7 0.013 0.007 16.6947 16.9034 12.07 560 780 
0.132 2 20.00 20.00 1.9 1.9 0.007 0.004 16.6947 16.6947 12.07 570 800 
0.133 2 20.00 20.00 1.7 1.7 0.009 0.004 16.9034 16.9034 12.07 560 770 
0.134 2 20.00 20.00 1.7 1.7 0.009 0.007 16.9034 16.9034 12.06 590 800 
0.135 2 20.00 20.00 1.7 1.9 0.011 0.013 16.9034 16.6947 12.06 570 780 
0.136 2 20.00 20.00 1.9 1.6 0.011 0.009 16.6947 17.1173 12.06 560 790 
0.137 2 20.00 20.00 1.9 2.2 0.011 0.009 16.6947 16.0984 12.06 560 790 
0.138 2 20.00 20.00 1.9 1.9 0.009 0.009 16.6947 16.6947 12.06 560 800 
0.139 2 20.00 20.00 2.1 1.5 0.007 0.002 16.2924 17.3368 12.07 590 810 
0.140 2 20.00 20.00 2.0 2.3 0.009 0.009 16.4911 15.9091 12.07 560 790 
0.141 2 20.00 20.00 1.9 2.0 0.002 0.007 16.6947 16.4911 12.07 560 800 
0.142 2 20.00 20.00 2.0 2.2 0.007 0.002 16.4911 16.0984 12.07 570 800 
0.143 2 20.00 20.00 1.9 1.7 0.007 0.016 16.6947 16.9034 12.07 560 790 
0.144 2 20.00 20.00 2.1 1.7 0.013 0.009 16.2924 16.9034 12.04 590 800 
0.145 2 20.00 20.00 2.0 2.0 0.009 0.007 16.4911 16.4911 12.04 560 790 
0.146 2 20.00 20.00 1.7 1.7 0.007 0.007 16.9034 16.9034 12.04 560 780 
0.147 2 20.00 20.00 1.6 2.0 0.007 0.009 17.1173 16.4911 12.04 570 790 
0.148 2 20.00 20.00 1.7 1.9 0.009 0.007 16.9034 16.6947 12.04 560 790 
0.149 2 20.00 20.00 1.7 1.6 0.011 0.004 16.9034 17.1173 12.06 590 810 
0.150 2 20.00 20.00 2.2 2.2 0.007 0.009 16.0984 16.0984 12.06 560 790 
0.151 2 20.00 20.00 2.2 1.9 0.004 0.004 16.0984 16.6947 12.06 560 800 
0.152 2 20.00 20.00 1.9 1.5 0.011 0.004 16.6947 17.3368 12.06 570 800 
0.153 2 20.00 20.00 2.0 2.0 0.009 0.013 16.4911 16.4911 12.06 560 790 
0.154 2 20.00 20.00 2.3 1.7 0.013 0.013 15.9091 16.9034 12.06 590 810 
0.155 2 20.00 20.00 2.2 2.0 0.020 0.011 16.0984 16.4911 12.06 570 810 
0.156 2 20.00 20.00 1.9 1.9 0.029 0.007 16.6947 16.6947 12.06 560 790 
0.157 2 20.00 20.00 2.1 1.7 0.011 0.004 16.2924 16.9034 12.06 560 790 
0.158 2 20.00 20.00 2.0 2.1 0.004 0.007 16.4911 16.2924 12.06 570 800 
0.159 2 20.00 20.00 2.1 1.7 0.007 0.009 16.2924 16.9034 12.07 590 810 
0.160 2 20.00 20.00 1.7 1.5 0.007 0.007 16.9034 17.3368 12.07 560 780 
0.161 2 20.00 20.00 1.7 1.9 0.007 0.011 16.9034 16.6947 12.07 560 780 
0.162 2 20.00 20.00 1.9 1.6 0.007 0.011 16.6947 17.1173 12.07 560 790 
0.163 2 20.00 20.00 1.9 1.6 0.007 0.007 16.6947 17.1173 12.07 560 790 
0.164 2 20.00 20.00 1.9 1.7 0.016 0.013 16.6947 16.9034 12.07 590 820 
0.165 2 20.00 20.00 1.9 1.7 0.013 0.013 16.6947 16.9034 12.07 560 790 
0.166 2 20.00 20.00 1.9 1.7 0.007 0.009 16.6947 16.9034 12.07 570 780 
0.167 2 20.00 20.00 2.0 1.6 0.009 0.013 16.4911 17.1173 12.07 560 790 
0.168 2 20.00 20.00 1.9 2.0 0.007 0.009 16.6947 16.4911 12.07 560 790 
0.169 2 20.00 20.00 1.9 1.9 0.004 0.009 16.6947 16.6947 12.07 590 810 
0.170 2 20.00 20.00 1.9 1.7 0.007 0.007 16.6947 16.9034 12.07 560 780 
0.171 2 20.00 20.00 1.9 1.9 0.009 0.007 16.6947 16.6947 12.07 570 790 
0.172 2 20.00 20.00 1.9 1.6 0.009 0.007 16.6947 17.1173 12.07 560 800 
0.173 2 20.00 20.00 1.9 1.7 0.013 0.011 16.6947 16.9034 12.07 570 790 
0.174 2 20.00 20.00 1.9 1.9 0.009 0.013 16.6947 16.6947 12.07 590 810 
0.175 2 20.00 20.00 2.0 1.6 0.011 0.009 16.4911 17.1173 12.07 560 790 
0.176 2 20.00 20.00 2.0 2.2 0.009 0.002 16.4911 16.0984 12.07 570 800 
0.177 2 20.00 20.00 2.0 1.9 0.011 0.009 16.4911 16.6947 12.07 570 800 
0.178 2 20.00 20.00 2.1 1.4 0.009 0.007 16.2924 17.5619 12.07 560 800 
0.179 2 20.00 20.00 2.0 2.3 0.009 0.013 16.4911 15.9091 12.07 590 810 
0.180 2 20.00 20.00 1.9 2.0 0.007 0.009 16.6947 16.4911 12.07 560 790 
0.181 2 20.00 20.00 1.9 2.1 0.004 0.009 16.6947 16.2924 12.07 560 790 
0.182 2 20.00 20.00 2.0 1.7 0.007 0.007 16.4911 16.9034 12.07 560 790 
0.183 2 20.00 20.00 2.1 1.6 0.009 0.004 16.2924 17.1173 12.07 570 800 
0.184 2 20.00 20.00 2.0 2.0 0.009 0.004 16.4911 16.4911 12.07 590 810 
0.185 2 20.00 20.00 1.6 1.6 0.007 0.007 17.1173 17.1173 12.07 570 790 
0.186 2 20.00 20.00 1.7 1.7 0.013 0.009 16.9034 16.9034 12.07 560 790 
0.187 2 20.00 20.00 1.7 2.0 0.013 0.013 16.9034 16.4911 12.07 570 790 
0.188 2 20.00 20.00 1.7 1.7 0.002 0.009 16.9034 16.9034 12.07 560 770 
0.189 2 20.00 20.00 1.7 2.3 0.013 0.009 16.9034 15.9091 12.07 590 810 
0.190 2 20.00 20.00 2.4 2.0 0.011 0.011 15.7241 16.4911 12.07 570 800 
0.191 2 20.00 20.00 2.2 1.6 0.011 0.013 16.0984 17.1173 12.07 560 800 
0.192 2 20.00 20.00 1.9 2.0 0.007 0.009 16.6947 16.4911 12.07 560 790 
0.193 2 20.00 20.00 2.2 1.9 0.004 0.011 16.0984 16.6947 12.07 560 790 
0.194 2 20.00 20.00 2.0 2.1 0.009 0.009 16.4911 16.2924 12.07 590 810 
0.195 2 20.00 20.00 1.7 1.9 0.018 0.004 16.9034 16.6947 12.07 560 790 
0.196 2 20.00 20.00 1.7 1.9 0.007 0.007 16.9034 16.6947 12.07 560 780 
0.197 2 20.00 20.00 2.0 2.2 0.004 0.011 16.4911 16.0984 12.07 570 790 
0.198 2 20.00 20.00 2.1 1.7 0.016 0.007 16.2924 16.9034 12.07 560 780 
0.199 2 20.00 20.00 2.0 1.5 0.004 0.009 16.4911 17.3368 12.06 590 820 
0.200 2 20.00 20.00 1.9 1.9 0.004 0.013 16.6947 16.6947 12.06 560 790 
0.201 2 20.00 20.00 2.0 1.5 0.007 0.009 16.4911 17.3368 12.06 570 800 
0.202 2 20.00 20.00 1.9 1.5 0.009 0.009 16.6947 17.3368 12.06 560 790 
0.203 2 20.00 20.00 2.1 1.9 0.004 0.011 16.2924 16.6947 12.06 560 790 
0.204 2 20.00 20.00 2.0 1.7 0.009 0.009 16.4911 16.9034 12.07 590 810 
0.205 2 20.00 20.00 2.0 1.7 0.009 0.009 16.4911 16.9034 12.07 560 780 
0.206 2 20.00 20.00 2.1 1.7 0.011 0.011 16.2924 16.9034 12.07 560 790 
0.207 2 20.00 20.00 2.0 2.0 0.009 0.011 16.4911 16.4911 12.07 560 790 
0.208 2 20.00 20.00 2.0 1.7 0.018 0.011 16.4911 16.9034 12.07 560 790 
0.209 2 20.00 20.00 1.9 1.7 0.011 0.011 16.6947 16.9034 12.06 590 810 
0.210 2 20.00 20.00 1.9 1.9 0.009 0.004 16.6947 16.6947 12.06 570 800 
0.211 2 20.00 20.00 1.9 1.6 0.009 0.007 16.6947 17.1173 12.06 560 790 
0.212 2 20.00 20.00 1.9 1.7 0.004 0.009 16.6947 16.9034 12.06 560 790 
0.213 2 20.00 20.00 1.9 1.9 0.011 0.011 16.6947 16.6947 12.06 560 790 
0.214 2 20.00 20.00 1.9 1.6 0.009 0.009 16.6947 17.1173 12.07 590 810 
0.215 2 20.00 20.00 1.9 2.2 0.009 0.004 16.6947 16.0984 12.07 560 800 
0.216 2 20.00 20.00 1.9 1.4 0.011 0.007 16.6947 17.5619 12.07 560 790 
0.217 2 20.00 20.00 1.9 1.4 0.009 0.009 16.6947 17.5619 12.07 560 790 
0.218 2 20.00 20.00 2.1 2.2 0.011 0.020 16.2924 16.0984 12.07 560 790 
0.219 2 20.00 20.00 1.9 2.0 0.007 0.009 16.6947 16.4911 12.02 600 830 
0.220 2 20.00 20.00 1.9 2.1 0.002 0.007 16.6947 16.2924 12.02 560 790 
0.221 2 20.00 20.00 2.0 1.7 0.007 0.009 16.4911 16.9034 12.02 560 790 
0.222 2 20.00 20.00 1.9 1.7 0.007 0.004 16.6947 16.9034 12.02 570 790 
0.223 2 20.00 20.00 2.1 2.0 0.011 0.009 16.2924 16.4911 12.02 560 790 
0.224 2 20.00 20.00 1.7 1.7 0.007 0.011 16.9034 16.9034 12.06 590 800 
0.225 2 20.00 20.00 1.7 1.7 0.009 0.009 16.9034 16.9034 12.06 560 780 
0.226 2 20.00 20.00 1.6 1.9 0.009 0.009 17.1173 16.6947 12.06 560 790 
0.227 2 20.00 20.00 1.7 1.6 0.013 0.007 16.9034 17.1173 12.06 560 780 
0.228 2 20.00 20.00 1.9 2.2 0.009 0.009 16.6947 16.0984 12.06 560 790 
0.229 2 20.00 20.00 2.4 2.0 0.011 0.004 15.7241 16.4911 12.06 590 820 
0.230 2 20.00 20.00 2.2 1.6 0.009 0.007 16.0984 17.1173 12.06 570 790 
0.231 2 20.00 20.00 1.7 2.0 0.007 0.009 16.9034 16.4911 12.06 560 780 
0.232 2 20.00 20.00 1.7 1.9 0.009 0.009 16.9034 16.6947 12.06 560 780 
0.233 2 20.00 20.00 2.0 2.1 0.009 0.004 16.4911 16.2924 12.06 570 800 
0.234 2 20.00 20.00 1.6 2.2 0.009 0.009 17.1173 16.0984 12.07 590 820 
0.235 2 20.00 20.00 1.7 2.0 0.009 0.016 16.9034 16.4911 12.07 560 780 
0.236 2 20.00 20.00 2.0 2.3 0.013 0.013 16.4911 15.9091 12.07 560 790 
0.237 2 20.00 20.00 2.0 1.9 0.007 0.020 16.4911 16.6947 12.07 560 800 
0.238 2 20.00 20.00 2.0 1.6 0.009 0.011 16.4911 17.1173 12.07 560 790 
0.239 2 20.00 20.00 1.9 1.9 0.009 0.009 16.6947 16.6947 12.06 590 810 
0.240 2 20.00 20.00 1.9 1.6 0.004 0.004 16.6947 17.1173 12.06 560 790 
0.241 2 20.00 20.00 2.0 1.6 0.013 0.011 16.4911 17.1173 12.06 560 800 
0.242 2 20.00 20.00 2.0 1.9 0.011 0.007 16.4911 16.6947 12.06 560 800 
0.243 2 20.00 20.00 2.1 1.7 0.007 0.013 16.2924 16.9034 12.06 570 790 
0.244 2 20.00 20.00 2.0 1.7 0.007 0.009 16.4911 16.9034 12.06 590 800 
0.245 2 20.00 20.00 1.9 1.7 0.004 0.009 16.6947 16.9034 12.06 570 790 
0.246 2 20.00 20.00 2.1 2.0 0.007 0.013 16.2924 16.4911 12.06 560 790 
0.247 2 20.00 20.00 2.1 1.9 0.007 0.011 16.2924 16.6947 12.06 560 790 
0.248 2 20.00 20.00 2.0 1.7 0.013 0.004 16.4911 16.9034 12.06 560 780 
0.249 2 20.00 20.00 1.9 1.9 0.009 0.007 16.6947 16.6947 12.07 590 820 
0.250 2 20.00 20.00 1.9 1.6 0.007 0.009 16.6947 17.1173 12.07 570 790 
0.251 2 20.00 20.00 1.9 1.6 0.013 0.011 16.6947 17.1173 12.07 560 790 
0.252 2 20.00 20.00 1.9 1.7 0.011 0.011 16.6947 16.9034 12.07 570 780 
0.253 2 20.00 20.00 1.9 1.5 0.007 0.007 16.6947 17.3368 12.07 570 800 
0.254 2 20.00 20.00 1.9 2.1 0.009 0.011 16.6947 16.2924 12.06 590 810 
0.255 2 20.00 20.00 1.9 1.4 0.011 0.004 16.6947 17.5619 12.06 560 800 
0.256 2 20.00 20.00 1.9 1.4 0.013 0.009 16.6947 17.5619 12.06 570 800 
0.257 2 20.00 20.00 2.1 2.2 0.011 0.020 16.2924 16.0984 12.06 570 790 
0.258 2 20.00 20.00 2.0 2.0 0.009 0.009 16.4911 16.4911 12.06 560 790 
0.259 2 20.00 20.00 1.9 1.7 0.009 0.007 16.6947 16.9034 12.06 590 810 
0.260 2 20.00 20.00 1.9 1.7 0.007 0.007 16.6947 16.9034 12.06 560 790 
0.261 2 20.00 20.00 1.9 1.7 0.009 0.007 16.6947 16.9034 12.06 560 780 
0.262 2 20.00 20.00 2.1 2.0 0.009 0.009 16.2924 16.4911 12.06 560 790 
0.263 2 20.00 20.00 2.0 1.7 0.011 0.009 16.4911 16.9034 12.06 560 780 
0.264 2 20.00 20.00 1.6 1.9 0.013 0.009 17.1173 16.6947 12.07 590 820 
0.265 2 20.00 20.00 1.6 1.9 0.011 0.007 17.1173 16.6947 12.07 560 790 
0.266 2 20.00 20.00 1.7 1.6 0.011 0.007 16.9034 17.1173 12.07 560 780 
0.267 2 20.00 20.00 1.7 2.2 0.007 0.009 16.9034 16.0984 12.07 560 780 
0.268 2 20.00 20.00 1.7 1.7 0.009 0.007 16.9034 16.9034 12.07 560 780 
0.269 2 20.00 20.00 2.3 1.5 0.013 0.009 15.9091 17.3368 12.07 590 820 
0.270 2 20.00 20.00 1.7 2.1 0.007 0.011 16.9034 16.2924 12.07 560 780 
0.271 2 20.00 20.00 1.9 1.9 0.007 0.011 16.6947 16.6947 12.07 560 790 
0.272 2 20.00 20.00 2.2 2.1 0.007 0.009 16.0984 16.2924 12.07 570 810 
0.273 2 20.00 20.00 2.1 2.2 0.007 0.004 16.2924 16.0984 12.07 560 790 
0.274 2 20.00 20.00 1.9 2.0 0.013 0.009 16.6947 16.4911 12.06 590 820 
0.275 2 20.00 20.00 2.1 2.2 0.009 0.016 16.2924 16.0984 12.06 560 790 
0.276 2 20.00 20.00 2.0 1.9 0.011 0.018 16.4911 16.6947 12.06 560 790 
0.277 2 20.00 20.00 2.1 1.6 0.007 0.009 16.2924 17.1173 12.06 560 790 
0.278 2 20.00 20.00 2.0 1.9 0.009 0.007 16.4911 16.6947 12.06 560 800 
0.279 2 20.00 20.00 1.7 1.6 0.004 0.009 16.9034 17.1173 12.07 590 800 
0.280 2 20.00 20.00 1.9 1.6 0.007 0.009 16.6947 17.1173 12.07 570 790 
0.281 2 20.00 20.00 1.9 2.1 0.011 0.011 16.6947 16.2924 12.07 560 800 
0.282 2 20.00 20.00 2.0 1.7 0.009 0.009 16.4911 16.9034 12.07 560 780 
0.283 2 20.00 20.00 2.0 1.7 0.004 0.007 16.4911 16.9034 12.07 570 790 
0.284 2 20.00 20.00 1.9 1.6 0.009 0.013 16.6947 17.1173 12.07 590 810 
0.285 2 20.00 20.00 2.0 1.6 0.004 0.016 16.4911 17.1173 12.07 570 800 
0.286 2 20.00 20.00 2.0 1.7 0.002 0.009 16.4911 16.9034 12.07 560 780 
0.287 2 20.00 20.00 2.0 1.6 0.013 0.007 16.4911 17.1173 12.07 570 800 
0.288 2 20.00 20.00 1.9 1.9 0.007 0.007 16.6947 16.6947 12.07 560 790 
0.289 2 20.00 20.00 1.9 1.9 0.007 0.009 16.6947 16.6947 12.07 590 820 
0.290 2 20.00 20.00 1.9 1.7 0.011 0.007 16.6947 16.9034 12.07 560 780 
0.291 2 20.00 20.00 1.7 1.9 0.011 0.009 16.9034 16.6947 12.07 560 790 
0.292 2 20.00 20.00 1.7 1.6 0.009 0.007 16.9034 17.1173 12.07 560 790 
0.293 2 20.00 20.00 1.7 2.2 0.007 0.002 16.9034 16.0984 12.07 560 780 
0.294 2 20.00 20.00 1.9 1.4 0.011 0.009 16.6947 17.5619 12.06 590 820 
0.295 2 20.00 20.00 1.9 1.4 0.009 0.007 16.6947 17.5619 12.06 560 790 
0.296 2 20.00 20.00 2.0 2.3 0.011 0.018 16.4911 15.9091 12.06 560 800 
0.297 2 20.00 20.00 2.1 2.0 0.011 0.013 16.2924 16.4911 12.06 560 790 
0.298 2 20.00 20.00 1.9 1.7 0.004 0.009 16.6947 16.9034 12.06 570 790 
0.299 2 20.00 20.00 2.0 1.7 0.007 0.007 16.4911 16.9034 12.04 600 810 
0.300 2 20.00 20.00 2.1 1.6 0.011 0.009 16.2924 17.1173 12.04 570 790 
0.301 2 20.00 20.00 2.1 2.0 0.011 0.011 16.2924 16.4911 12.04 570 800 
0.302 2 20.00 20.00 2.1 2.0 0.011 0.007 16.2924 16.4911 12.04 560 800 
0.303 2 20.00 20.00 1.7 1.9 0.009 0.009 16.9034 16.6947 12.04 560 780 
0.304 2 20.00 20.00 1.7 2.0 0.007 0.007 16.9034 16.4911 12.07 590 810 
0.305 2 20.00 20.00 1.6 1.7 0.013 0.007 17.1173 16.9034 12.07 560 790 
0.306 2 20.00 20.00 1.6 2.2 0.009 0.009 17.1173 16.0984 12.07 560 790 
0.307 2 20.00 20.00 1.7 1.7 0.011 0.007 16.9034 16.9034 12.07 560 780 
0.308 2 20.00 20.00 2.3 1.6 0.016 0.007 15.9091 17.1173 12.07 560 790 
0.309 2 20.00 20.00 2.2 2.0 0.009 0.011 16.0984 16.4911 12.07 590 810 
0.310 2 20.00 20.00 1.9 1.7 0.007 0.009 16.6947 16.9034 12.07 570 790 
0.311 2 20.00 20.00 2.2 1.7 0.007 0.009 16.0984 16.9034 12.07 570 790 
0.312 2 20.00 20.00 2.1 2.1 0.009 0.009 16.2924 16.2924 12.07 560 790 
0.313 2 20.00 20.00 1.7 1.9 0.018 0.007 16.9034 16.6947 12.07 560 780 
0.314 2 20.00 20.00 1.7 2.2 0.007 0.007 16.9034 16.0984 12.06 590 810 
0.315 2 20.00 20.00 2.0 1.9 0.013 0.011 16.4911 16.6947 12.06 560 800 
0.316 2 20.00 20.00 2.1 1.6 0.011 0.007 16.2924 17.1173 12.06 560 790 
0.317 2 20.00 20.00 2.0 2.0 0.007 0.004 16.4911 16.4911 12.06 560 790 
0.318 2 20.00 20.00 1.9 1.6 0.000 0.007 16.6947 17.1173 12.06 560 790 
0.319 2 20.00 20.00 1.9 1.5 0.007 0.007 16.6947 17.3368 12.07 590 820 
0.320 2 20.00 20.00 1.9 2.0 0.004 0.009 16.6947 16.4911 12.07 560 790 
0.321 2 20.00 20.00 2.1 1.6 0.004 0.009 16.2924 17.1173 12.07 560 790 
0.322 2 20.00 20.00 2.0 1.7 0.007 0.009 16.4911 16.9034 12.07 570 790 
0.323 2 20.00 20.00 2.0 1.6 0.009 0.011 16.4911 17.1173 12.07 560 800 
0.324 2 20.00 20.00 2.0 1.7 0.011 0.013 16.4911 16.9034 12.07 590 800 
0.325 2 20.00 20.00 1.9 1.7 0.007 0.007 16.6947 16.9034 12.07 560 780 
0.326 2 20.00 20.00 2.0 1.7 0.011 0.009 16.4911 16.9034 12.07 570 780 
0.327 2 20.00 20.00 1.9 1.9 0.007 0.004 16.6947 16.6947 12.07 560 790 
0.328 2 20.00 20.00 1.9 1.9 0.011 0.009 16.6947 16.6947 12.07 570 790 
0.329 2 20.00 20.00 1.9 1.7 0.009 0.007 16.6947 16.9034 12.07 590 800 
0.330 2 20.00 20.00 1.7 1.9 0.007 0.011 16.9034 16.6947 12.07 560 780 
0.331 2 20.00 20.00 1.7 1.6 0.009 0.009 16.9034 17.1173 12.07 560 780 
0.332 2 20.00 20.00 1.7 2.2 0.007 0.007 16.9034 16.0984 12.07 560 790 
0.333 2 20.00 20.00 1.7 1.5 0.007 0.007 16.9034 17.3368 12.07 560 780 
0.334 2 20.00 20.00 1.9 1.5 0.011 0.011 16.6947 17.3368 12.07 590 810 
0.335 2 20.00 20.00 1.9 2.3 0.009 0.011 16.6947 15.9091 12.07 570 800 
0.336 2 20.00 20.00 2.1 2.0 0.011 0.009 16.2924 16.4911 12.07 560 800 
0.337 2 20.00 20.00 2.0 1.7 0.007 0.004 16.4911 16.9034 12.07 560 780 
0.340 2 20.00 20.00 1.9 1.7 0.002 0.007 16.6947 16.9034 12.07 560 780 
0.341 2 20.00 20.00 2.1 1.7 0.009 0.007 16.2924 16.9034 12.10 600 810 
0.342 2 20.00 20.00 2.0 2.0 0.007 0.011 16.4911 16.4911 12.10 560 790 
0.342 2 20.00 20.00 1.7 1.9 0.007 0.007 16.9034 16.6947 12.10 560 780 
0.343 2 20.00 20.00 1.7 2.0 0.007 0.011 16.9034 16.4911 12.10 560 780 
0.344 2 20.00 20.00 1.6 1.7 0.011 0.004 17.1173 16.9034 12.10 570 790 
0.345 2 20.00 20.00 1.7 2.2 0.004 0.004 16.9034 16.0984 12.07 590 820 
0.346 2 20.00 20.00 1.9 1.9 0.009 0.007 16.6947 16.6947 12.07 560 790 
0.347 2 20.00 20.00 2.4 1.6 0.009 0.007 15.7241 17.1173 12.07 560 790 
0.348 2 20.00 20.00 2.2 2.1 0.009 0.009 16.0984 16.2924 12.07 560 790 
0.349 2 20.00 20.00 1.9 1.9 0.011 0.007 16.6947 16.6947 12.07 560 790 
0.350 2 20.00 20.00 1.9 1.7 0.002 0.009 16.6947 16.9034 12.07 590 820 
0.351 2 20.00 20.00 2.3 2.1 0.009 0.007 15.9091 16.2924 12.07 560 800 
0.352 2 20.00 20.00 1.7 1.9 0.020 0.007 16.9034 16.6947 12.07 560 780 
0.353 2 20.00 20.00 1.7 2.2 0.011 0.007 16.9034 16.0984 12.07 560 780 
0.354 2 20.00 20.00 2.0 1.7 0.004 0.004 16.4911 16.9034 12.07 560 790 
0.355 2 20.00 20.00 2.0 1.5 0.011 0.007 16.4911 17.3368 12.07 590 820 
0.356 2 20.00 20.00 2.0 1.9 0.009 0.013 16.4911 16.6947 12.07 570 800 
0.357 2 20.00 20.00 1.9 1.6 0.009 0.011 16.6947 17.1173 12.07 560 790 
0.358 2 20.00 20.00 1.9 1.5 0.004 0.007 16.6947 17.3368 12.07 560 790 
0.359 2 20.00 20.00 2.0 2.0 0.004 0.009 16.4911 16.4911 12.07 560 790 
0.360 2 20.00 20.00 2.0 1.6 0.011 0.009 16.4911 17.1173 12.07 590 820 
0.361 2 20.00 20.00 2.0 1.7 0.007 0.007 16.4911 16.9034 12.07 560 780 
0.362 2 20.00 20.00 2.0 1.6 0.004 0.011 16.4911 17.1173 12.07 560 790 
0.363 2 20.00 20.00 1.9 1.7 0.009 0.013 16.6947 16.9034 12.07 560 790 
0.364 2 20.00 20.00 2.0 1.9 0.007 0.007 16.4911 16.6947 12.07 560 790 
0.365 2 20.00 20.00 2.0 1.7 0.007 0.002 16.4911 16.9034 12.07 590 810 
0.366 2 20.00 20.00 1.9 1.9 0.007 0.011 16.6947 16.6947 12.07 560 790 
0.367 2 20.00 20.00 1.9 1.9 0.011 0.018 16.6947 16.6947 12.07 560 790 
0.368 2 20.00 20.00 1.9 1.7 0.009 0.007 16.6947 16.9034 12.07 560 780 
0.369 2 20.00 20.00 1.9 1.9 0.009 0.011 16.6947 16.6947 12.07 560 800 
0.370 2 20.00 20.00 1.7 1.6 0.007 0.009 16.9034 17.1173 12.07 590 810 
0.371 2 20.00 20.00 1.7 1.9 0.011 0.002 16.9034 16.6947 12.07 570 790 
0.372 2 20.00 20.00 1.9 1.4 0.007 0.007 16.6947 17.5619 12.07 560 790 
0.373 2 20.00 20.00 1.7 1.4 0.009 0.013 16.9034 17.5619 12.07 570 790 
0.374 2 20.00 20.00 1.9 2.3 0.007 0.013 16.6947 15.9091 12.07 570 800 
0.375 2 20.00 20.00 2.1 2.0 0.011 0.009 16.2924 16.4911 12.07 590 810 
0.376 2 20.00 20.00 2.0 1.9 0.007 0.002 16.4911 16.6947 12.07 570 800 
0.377 2 20.00 20.00 1.9 1.9 0.004 0.007 16.6947 16.6947 12.07 560 790 
0.378 2 20.00 20.00 1.9 1.7 0.004 0.004 16.6947 16.9034 12.07 560 780 
0.379 2 20.00 20.00 2.0 2.1 0.011 0.007 16.4911 16.2924 12.07 570 800 
0.380 2 20.00 20.00 2.1 2.0 0.009 0.002 16.2924 16.4911 12.06 590 820 
0.381 2 20.00 20.00 2.0 1.9 0.009 0.007 16.4911 16.6947 12.06 560 790 
0.382 2 20.00 20.00 1.7 2.0 0.011 0.007 16.9034 16.4911 12.06 560 780 
0.383 2 20.00 20.00 1.6 1.7 0.011 0.004 17.1173 16.9034 12.06 570 790 
0.384 2 20.00 20.00 1.7 2.2 0.013 0.007 16.9034 16.0984 12.06 560 780 
0.385 2 20.00 20.00 1.7 1.7 0.009 0.004 16.9034 16.9034 12.07 590 800 
0.386 2 20.00 20.00 1.7 1.6 0.007 0.009 16.9034 17.1173 12.07 560 780 
0.387 2 20.00 20.00 2.4 2.0 0.018 0.013 15.7241 16.4911 12.07 560 790 
0.388 2 20.00 20.00 1.9 1.7 0.007 0.011 16.6947 16.9034 12.07 560 790 
0.389 2 20.00 20.00 1.9 1.6 0.011 0.009 16.6947 17.1173 12.07 560 790 
0.390 2 20.00 20.00 2.2 2.0 0.009 0.009 16.0984 16.4911 12.07 590 810 
0.391 2 20.00 20.00 2.1 1.9 0.007 0.007 16.2924 16.6947 12.07 560 790 
0.392 2 20.00 20.00 1.7 2.2 0.013 0.004 16.9034 16.0984 12.07 560 790 
0.393 2 20.00 20.00 2.0 1.6 0.007 0.004 16.4911 17.1173 12.07 570 800 
0.394 2 20.00 20.00 2.0 1.6 0.011 0.002 16.4911 17.1173 12.07 560 790 
0.395 2 20.00 20.00 2.1 2.0 0.004 0.011 16.2924 16.4911 12.06 590 820 
0.396 2 20.00 20.00 2.0 1.6 0.004 0.009 16.4911 17.1173 12.06 560 800 
0.397 2 20.00 20.00 1.9 1.6 0.009 0.009 16.6947 17.1173 12.06 570 790 
0.398 2 20.00 20.00 2.0 2.1 0.002 0.011 16.4911 16.2924 12.06 560 790 
0.399 2 20.00 20.00 1.9 1.7 0.009 0.009 16.6947 16.9034 12.06 560 780 
0.400 2 20.00 20.00 2.0 1.7 0.007 0.007 16.4911 16.9034 12.06 590 820 
0.401 4 30.00 30.00 7.5 7.3 0.009 0.009 16.6947 16.9034 12.06 560 790 
0.402 4 30.00 30.00 7.3 7.2 0.259 0.266 16.9034 17.1173 12.06 560 790 
0.403 4 30.00 30.00 7.5 7.2 0.612 0.484 16.6947 17.1173 12.06 560 790 
0.404 4 30.00 30.00 7.1 6.8 0.634 0.654 17.3368 17.7930 12.06 560 790 
0.405 4 30.00 30.00 6.3 6.1 0.743 0.748 18.7815 19.0460 11.34 590 810 
0.406 4 30.00 30.00 5.8 5.8 0.746 0.734 19.5981 19.5981 11.34 560 790 
0.407 4 30.00 30.00 5.0 4.6 0.703 0.692 21.1292 21.8108 11.34 560 750 
0.408 4 30.00 30.00 4.0 4.4 0.594 0.571 22.9198 22.1684 11.34 560 760 
0.409 4 30.00 30.00 3.7 3.0 0.310 0.326 23.3150 24.5867 11.34 570 770 
0.410 4 30.00 30.00 3.3 2.8 0.243 0.210 24.1477 25.0420 11.93 590 800 
0.411 4 30.00 30.00 3.0 3.3 0.163 0.094 24.5867 24.1477 11.93 570 760 
0.412 4 30.00 30.00 2.8 2.8 0.080 0.074 25.0420 25.0420 11.93 560 750 
0.413 4 30.00 30.00 2.5 2.5 0.031 0.047 25.5145 25.5145 11.93 560 750 
0.414 4 30.00 30.00 2.5 2.5 0.018 0.025 25.5145 25.5145 11.93 560 750 
0.415 4 30.00 30.00 2.8 2.5 0.007 0.009 25.0420 25.5145 12.06 590 780 
0.416 4 30.00 30.00 2.2 2.8 0.009 0.007 26.0052 25.0420 12.06 560 760 
0.417 4 30.00 30.00 2.2 3.3 0.007 0.007 26.0052 24.1477 12.06 570 770 
0.418 4 30.00 30.00 2.2 2.5 0.016 0.036 26.0052 25.5145 12.06 560 760 
0.419 4 30.00 30.00 3.3 2.8 0.018 0.011 24.1477 25.0420 12.06 560 750 
0.420 4 30.00 30.00 2.5 2.8 0.007 0.009 25.5145 25.0420 12.06 590 780 
0.421 4 30.00 30.00 3.0 2.8 0.004 0.004 24.5867 25.0420 12.06 570 760 
0.422 4 30.00 30.00 3.0 2.8 0.016 0.009 24.5867 25.0420 12.06 570 780 
0.423 4 30.00 30.00 2.8 2.5 0.036 0.009 25.0420 25.5145 12.06 560 770 
0.424 4 30.00 30.00 3.0 2.2 0.020 0.009 24.5867 26.0052 12.06 560 760 
0.425 4 30.00 30.00 2.8 2.2 0.022 0.011 25.0420 26.0052 12.06 590 780 
0.426 4 30.00 30.00 2.5 2.2 0.013 0.007 25.5145 26.0052 12.06 560 760 
0.427 4 30.00 30.00 2.8 2.5 0.007 0.013 25.0420 25.5145 12.06 570 760 
0.428 4 30.00 30.00 3.0 2.2 0.004 0.013 24.5867 26.0052 12.06 570 770 
0.429 4 30.00 30.00 2.8 2.2 0.011 0.013 25.0420 26.0052 12.06 560 760 
0.430 4 30.00 30.00 3.0 2.5 0.016 0.007 24.5867 25.5145 12.06 590 780 
0.431 4 30.00 30.00 3.0 2.8 0.031 0.009 24.5867 25.0420 12.06 560 760 
0.432 4 30.00 30.00 2.8 2.8 0.036 0.009 25.0420 25.0420 12.06 560 760 
0.433 4 30.00 30.00 2.8 2.8 0.020 0.004 25.0420 25.0420 12.06 560 760 
0.434 4 30.00 30.00 2.5 3.3 0.011 0.011 25.5145 24.1477 12.06 560 760 
0.435 4 30.00 30.00 2.5 2.2 0.007 0.027 25.5145 26.0052 12.06 590 790 
0.436 4 30.00 30.00 2.5 3.3 0.004 0.011 25.5145 24.1477 12.06 560 760 
0.437 4 30.00 30.00 2.5 2.8 0.009 0.011 25.5145 25.0420 12.06 560 760 
0.438 4 30.00 30.00 2.8 2.5 0.004 0.025 25.0420 25.5145 12.06 560 760 
0.439 4 30.00 30.00 2.8 2.5 0.009 0.011 25.0420 25.5145 12.06 560 760 
0.440 4 30.00 30.00 2.8 2.2 0.013 0.007 25.0420 26.0052 12.07 590 780 
0.441 4 30.00 30.00 3.0 2.5 0.011 0.016 24.5867 25.5145 12.07 560 760 
0.442 4 30.00 30.00 2.5 2.5 0.011 0.011 25.5145 25.5145 12.07 560 760 
0.443 4 30.00 30.00 2.2 2.8 0.004 0.009 26.0052 25.0420 12.07 570 760 
0.444 4 30.00 30.00 2.5 2.2 0.013 0.004 25.5145 26.0052 12.07 560 760 
0.445 4 30.00 30.00 3.5 3.0 0.013 0.011 23.7240 24.5867 12.06 590 790 
0.446 4 30.00 30.00 2.8 3.0 0.018 0.009 25.0420 24.5867 12.06 570 760 
0.447 4 30.00 30.00 2.8 3.0 0.011 0.020 25.0420 24.5867 12.06 570 770 
0.448 4 30.00 30.00 3.0 3.3 0.007 0.025 24.5867 24.1477 12.06 570 770 
0.449 4 30.00 30.00 2.8 2.5 0.029 0.054 25.0420 25.5145 12.06 570 760 
0.450 4 30.00 30.00 3.0 3.0 0.016 0.016 24.5867 24.5867 12.06 590 780 
0.451 4 30.00 30.00 3.0 2.5 0.011 0.020 24.5867 25.5145 12.06 560 760 
0.452 4 30.00 30.00 2.8 2.5 0.020 0.007 25.0420 25.5145 12.06 580 770 
0.453 4 30.00 30.00 2.8 2.8 0.025 0.007 25.0420 25.0420 12.06 560 760 
0.454 4 30.00 30.00 3.0 2.5 0.009 0.009 24.5867 25.5145 12.06 560 750 
0.455 4 30.00 30.00 2.8 2.5 0.016 0.007 25.0420 25.5145 12.06 590 780 
0.456 4 30.00 30.00 3.0 2.5 0.013 0.004 24.5867 25.5145 12.06 570 760 
0.457 4 30.00 30.00 3.0 2.8 0.027 0.004 24.5867 25.0420 12.06 570 770 
0.458 4 30.00 30.00 2.8 2.8 0.040 0.004 25.0420 25.0420 12.06 570 770 
0.459 4 30.00 30.00 2.8 2.5 0.013 0.004 25.0420 25.5145 12.06 560 770 
0.460 4 30.00 30.00 2.5 3.0 0.007 0.004 25.5145 24.5867 12.07 590 790 
0.461 4 30.00 30.00 2.5 2.2 0.002 0.009 25.5145 26.0052 12.07 560 760 
0.462 4 30.00 30.00 2.5 3.3 0.009 0.007 25.5145 24.1477 12.07 560 760 
0.463 4 30.00 30.00 2.8 3.0 0.007 0.009 25.0420 24.5867 12.07 570 760 
0.464 4 30.00 30.00 3.0 2.2 0.007 0.027 24.5867 26.0052 12.07 570 770 
0.465 4 30.00 30.00 2.5 2.2 0.013 0.009 25.5145 26.0052 12.01 590 790 
0.466 4 30.00 30.00 2.8 2.2 0.016 0.009 25.0420 26.0052 12.01 560 760 
0.467 4 30.00 30.00 3.0 2.5 0.007 0.011 24.5867 25.5145 12.01 570 760 
0.468 4 30.00 30.00 2.5 2.2 0.013 0.016 25.5145 26.0052 12.01 560 750 
0.469 4 30.00 30.00 2.5 2.8 0.011 0.011 25.5145 25.0420 12.01 560 760 
0.470 4 30.00 30.00 2.5 2.2 0.009 0.007 25.5145 26.0052 12.06 590 780 
0.471 4 30.00 30.00 2.8 2.8 0.011 0.011 25.0420 25.0420 12.06 580 780 
0.472 4 30.00 30.00 3.3 3.0 0.007 0.007 24.1477 24.5867 12.06 570 780 
0.473 4 30.00 30.00 2.8 3.0 0.013 0.020 25.0420 24.5867 12.06 560 750 
0.474 4 30.00 30.00 3.0 3.3 0.018 0.036 24.5867 24.1477 12.06 570 760 
0.475 4 30.00 30.00 2.5 2.2 0.033 0.049 25.5145 26.0052 12.04 590 780 
0.476 4 30.00 30.00 2.8 2.8 0.009 0.011 25.0420 25.0420 12.04 560 760 
0.477 4 30.00 30.00 3.0 2.2 0.007 0.007 24.5867 26.0052 12.04 570 770 
0.478 4 30.00 30.00 2.5 3.5 0.020 0.004 25.5145 23.7240 12.04 570 770 
0.479 4 30.00 30.00 2.8 2.5 0.004 0.027 25.0420 25.5145 12.04 570 770 
0.480 4 30.00 30.00 3.0 2.2 0.004 0.013 24.5867 26.0052 12.07 590 780 
0.481 4 30.00 30.00 2.8 2.5 0.009 0.009 25.0420 25.5145 12.07 570 760 
0.482 4 30.00 30.00 2.8 2.5 0.007 0.009 25.0420 25.5145 12.07 560 760 
0.483 4 30.00 30.00 2.8 2.5 0.007 0.004 25.0420 25.5145 12.07 570 770 
0.484 4 30.00 30.00 2.8 2.5 0.016 0.007 25.0420 25.5145 12.07 570 760 
0.485 4 30.00 30.00 2.8 2.5 0.007 0.007 25.0420 25.5145 12.06 590 780 
0.486 4 30.00 30.00 2.8 3.3 0.007 0.004 25.0420 24.1477 12.06 570 770 
0.487 4 30.00 30.00 2.8 2.2 0.004 0.025 25.0420 26.0052 12.06 560 760 
0.488 4 30.00 30.00 2.8 3.5 0.004 0.009 25.0420 23.7240 12.06 580 770 
0.489 4 30.00 30.00 2.8 3.3 0.007 0.018 25.0420 24.1477 12.06 560 760 
0.490 4 30.00 30.00 3.0 2.5 0.007 0.049 24.5867 25.5145 12.09 590 790 
0.491 4 30.00 30.00 2.8 3.0 0.013 0.031 25.0420 24.5867 12.09 570 770 
0.492 4 30.00 30.00 3.0 2.5 0.027 0.020 24.5867 25.5145 12.09 560 760 
0.493 4 30.00 30.00 3.0 2.5 0.029 0.007 24.5867 25.5145 12.09 570 770 
0.494 4 30.00 30.00 3.0 2.2 0.029 0.007 24.5867 26.0052 12.09 570 770 
0.495 4 30.00 30.00 2.5 2.5 0.025 0.009 25.5145 25.5145 12.02 600 790 
0.496 4 30.00 30.00 2.5 2.2 0.009 0.007 25.5145 26.0052 12.02 570 770 
0.497 4 30.00 30.00 2.5 2.5 0.009 0.018 25.5145 25.5145 12.02 570 760 
0.498 4 30.00 30.00 3.0 2.5 0.004 0.016 24.5867 25.5145 12.02 570 760 
0.499 4 30.00 30.00 2.5 3.0 0.009 0.007 25.5145 24.5867 12.02 570 770 
0.500 4 30.00 30.00 2.8 3.3 0.004 0.011 25.0420 24.1477 12.10 590 790 
0.501 4 30.00 30.00 2.5 2.2 0.011 0.036 25.5145 26.0052 12.10 570 770 
0.502 4 30.00 30.00 2.8 2.8 0.004 0.007 25.0420 25.0420 12.10 560 760 
0.503 4 30.00 30.00 3.0 2.2 0.007 0.007 24.5867 26.0052 12.10 570 760 
0.504 4 30.00 30.00 2.5 3.0 0.016 0.007 25.5145 24.5867 12.10 560 750 
0.505 4 30.00 30.00 2.8 2.5 0.009 0.004 25.0420 25.5145 12.06 590 780 
0.506 4 30.00 30.00 3.0 2.5 0.004 0.007 24.5867 25.5145 12.06 580 780 
0.507 4 30.00 30.00 3.0 2.2 0.007 0.004 24.5867 26.0052 12.06 570 780 
0.508 4 30.00 30.00 2.8 2.2 0.018 0.007 25.0420 26.0052 12.06 560 750 
0.509 4 30.00 30.00 2.8 2.2 0.016 0.011 25.0420 26.0052 12.06 570 760 
0.510 4 30.00 30.00 2.8 2.5 0.020 0.013 25.0420 25.5145 12.13 590 790 
0.511 4 30.00 30.00 2.8 2.5 0.007 0.011 25.0420 25.5145 12.13 570 760 
0.512 4 30.00 30.00 2.8 2.8 0.007 0.007 25.0420 25.0420 12.13 580 770 
0.513 4 30.00 30.00 2.8 2.2 0.007 0.004 25.0420 26.0052 12.13 570 770 
0.514 4 30.00 30.00 3.0 3.5 0.016 0.009 24.5867 23.7240 12.13 560 770 
0.515 4 30.00 30.00 2.8 3.0 0.016 0.013 25.0420 24.5867 12.04 590 790 
0.516 4 30.00 30.00 3.0 2.5 0.013 0.031 24.5867 25.5145 12.04 560 750 
0.517 4 30.00 30.00 2.5 3.0 0.020 0.020 25.5145 24.5867 12.04 570 760 
0.518 4 30.00 30.00 3.0 2.8 0.007 0.011 24.5867 25.0420 12.04 570 770 
0.519 4 30.00 30.00 2.8 2.5 0.020 0.013 25.0420 25.5145 12.04 560 760 
0.520 4 30.00 30.00 2.8 2.5 0.013 0.002 25.0420 25.5145 12.04 590 790 
0.521 4 30.00 30.00 2.5 2.8 0.007 0.004 25.5145 25.0420 12.04 560 760 
0.522 4 30.00 30.00 2.5 2.2 0.007 0.004 25.5145 26.0052 12.04 560 750 
0.523 4 30.00 30.00 2.5 2.8 0.007 0.013 25.5145 25.0420 12.04 560 760 
0.524 4 30.00 30.00 3.5 2.8 0.009 0.004 23.7240 25.0420 12.04 570 770 
0.525 4 30.00 30.00 2.5 3.3 0.016 0.011 25.5145 24.1477 12.04 590 790 
0.526 4 30.00 30.00 3.3 3.5 0.009 0.038 24.1477 23.7240 12.04 560 760 
0.527 4 30.00 30.00 2.5 2.5 0.040 0.065 25.5145 25.5145 12.04 560 750 
0.528 4 30.00 30.00 3.0 3.0 0.018 0.029 24.5867 24.5867 12.04 570 760 
0.529 4 30.00 30.00 3.0 2.5 0.011 0.029 24.5867 25.5145 12.04 570 760 
0.530 4 30.00 30.00 2.5 3.0 0.027 0.013 25.5145 24.5867 12.06 590 780 
0.531 4 30.00 30.00 2.8 2.5 0.007 0.011 25.0420 25.5145 12.06 580 770 
0.532 4 30.00 30.00 2.8 2.5 0.004 0.004 25.0420 25.5145 12.06 570 780 
0.533 4 30.00 30.00 3.0 2.2 0.002 0.007 24.5867 26.0052 12.06 560 760 
0.534 4 30.00 30.00 2.8 2.2 0.009 0.007 25.0420 26.0052 12.06 570 770 
0.535 4 30.00 30.00 2.8 2.2 0.004 0.009 25.0420 26.0052 12.06 590 790 
0.536 4 30.00 30.00 3.0 2.5 0.020 0.007 24.5867 25.5145 12.06 570 770 
0.537 4 30.00 30.00 2.8 2.2 0.022 0.011 25.0420 26.0052 12.06 570 770 
0.539 4 30.00 30.00 2.8 2.8 0.009 0.004 25.0420 25.0420 12.06 560 750 
0.540 4 30.00 30.00 2.5 3.5 0.009 0.011 25.5145 23.7240 12.06 570 770 
0.541 4 30.00 30.00 2.5 3.0 0.004 0.020 25.5145 24.5867 12.01 590 790 
0.542 4 30.00 30.00 2.5 2.5 0.009 0.045 25.5145 25.5145 12.01 570 780 
0.543 4 30.00 30.00 3.0 2.2 0.011 0.018 24.5867 26.0052 12.01 580 770 
0.543 4 30.00 30.00 2.8 2.8 0.004 0.011 25.0420 25.0420 12.01 560 760 
0.544 4 30.00 30.00 2.5 2.8 0.016 0.002 25.5145 25.0420 12.01 570 770 
0.545 4 30.00 30.00 2.8 2.8 0.009 0.004 25.0420 25.0420 12.06 600 790 
0.546 4 30.00 30.00 3.0 3.7 0.007 0.009 24.5867 23.3150 12.06 570 770 
0.547 4 30.00 30.00 2.5 2.5 0.009 0.065 25.5145 25.5145 12.06 570 770 
0.548 4 30.00 30.00 2.8 2.2 0.007 0.038 25.0420 26.0052 12.06 570 760 
0.549 4 30.00 30.00 2.5 2.5 0.007 0.013 25.5145 25.5145 12.06 570 770 
0.550 4 30.00 30.00 3.5 2.2 0.002 0.011 23.7240 26.0052 12.06 590 780 
0.551 4 30.00 30.00 2.5 2.5 0.018 0.011 25.5145 25.5145 12.06 560 750 
0.552 4 30.00 30.00 3.3 2.5 0.016 0.009 24.1477 25.5145 12.06 570 760 
0.553 4 30.00 30.00 2.5 2.2 0.036 0.009 25.5145 26.0052 12.06 570 760 
0.554 4 30.00 30.00 2.8 3.0 0.022 0.011 25.0420 24.5867 12.06 570 780 
0.555 4 30.00 30.00 2.8 2.5 0.009 0.009 25.0420 25.5145 12.06 590 790 
0.556 4 30.00 30.00 2.8 3.3 0.007 0.011 25.0420 24.1477 12.06 570 760 
0.557 4 30.00 30.00 2.8 2.8 0.004 0.027 25.0420 25.0420 12.06 570 760 
0.558 4 30.00 30.00 2.8 3.0 0.011 0.018 25.0420 24.5867 12.06 570 760 
0.559 4 30.00 30.00 2.8 2.5 0.007 0.018 25.0420 25.5145 12.06 570 760 
0.560 4 30.00 30.00 2.8 2.8 0.007 0.022 25.0420 25.0420 12.06 600 790 
0.561 4 30.00 30.00 3.0 2.2 0.009 0.013 24.5867 26.0052 12.06 560 760 
0.562 4 30.00 30.00 3.0 2.2 0.033 0.009 24.5867 26.0052 12.06 560 760 
0.563 4 30.00 30.00 2.8 2.2 0.038 0.011 25.0420 26.0052 12.06 560 760 
0.564 4 30.00 30.00 2.8 2.5 0.016 0.009 25.0420 25.5145 12.06 560 760 
0.565 4 30.00 30.00 2.5 2.2 0.009 0.007 25.5145 26.0052 12.06 590 790 
0.566 4 30.00 30.00 2.5 2.8 0.009 0.016 25.5145 25.0420 12.06 560 760 
0.567 4 30.00 30.00 2.5 2.5 0.009 0.004 25.5145 25.5145 12.06 570 770 
0.568 4 30.00 30.00 2.8 2.5 0.009 0.007 25.0420 25.5145 12.06 570 770 
0.569 4 30.00 30.00 2.8 3.0 0.007 0.004 25.0420 24.5867 12.06 570 770 
0.570 4 30.00 30.00 2.8 2.8 0.007 0.007 25.0420 25.0420 11.99 590 790 
0.571 4 30.00 30.00 2.8 2.8 0.018 0.009 25.0420 25.0420 11.99 570 760 
0.572 4 30.00 30.00 3.0 3.3 0.009 0.020 24.5867 24.1477 11.99 570 770 
0.573 4 30.00 30.00 2.5 2.5 0.013 0.036 25.5145 25.5145 11.99 570 770 
0.574 4 30.00 30.00 2.2 2.8 0.004 0.018 26.0052 25.0420 11.99 570 760 
0.575 4 30.00 30.00 2.5 2.8 0.007 0.004 25.5145 25.0420 12.09 590 790 
0.576 4 30.00 30.00 3.5 2.2 0.011 0.004 23.7240 26.0052 12.09 570 770 
0.577 4 30.00 30.00 2.8 2.5 0.016 0.004 25.0420 25.5145 12.09 570 760 
0.578 4 30.00 30.00 2.8 2.5 0.018 0.004 25.0420 25.5145 12.09 560 760 
0.579 4 30.00 30.00 3.0 2.2 0.009 0.007 24.5867 26.0052 12.09 560 760 
0.580 4 30.00 30.00 2.5 2.5 0.031 0.011 25.5145 25.5145 12.04 590 790 
0.581 4 30.00 30.00 2.8 2.5 0.009 0.004 25.0420 25.5145 12.04 560 760 
0.582 4 30.00 30.00 2.8 3.3 0.007 0.009 25.0420 24.1477 12.04 560 760 
0.583 4 30.00 30.00 2.8 2.8 0.007 0.013 25.0420 25.0420 12.04 570 770 
0.584 4 30.00 30.00 2.8 3.0 0.011 0.011 25.0420 24.5867 12.04 570 770 
0.585 4 30.00 30.00 3.0 2.5 0.009 0.025 24.5867 25.5145 12.04 590 790 
0.586 4 30.00 30.00 2.8 2.8 0.013 0.020 25.0420 25.0420 12.04 560 760 
0.587 4 30.00 30.00 3.0 2.8 0.016 0.009 24.5867 25.0420 12.04 560 760 
0.588 4 30.00 30.00 3.0 2.5 0.036 0.002 24.5867 25.5145 12.04 570 760 
0.589 4 30.00 30.00 2.8 3.0 0.042 0.004 25.0420 24.5867 12.04 570 780 
0.590 4 30.00 30.00 2.8 2.5 0.018 0.013 25.0420 25.5145 12.06 590 790 
0.591 4 30.00 30.00 2.5 2.0 0.009 0.007 25.5145 26.5151 12.06 570 770 
0.592 4 30.00 30.00 2.5 2.8 0.007 0.011 25.5145 25.0420 12.06 570 760 
0.593 4 30.00 30.00 2.8 2.5 0.009 0.009 25.0420 25.5145 12.06 560 760 
0.594 4 30.00 30.00 2.8 2.2 0.004 0.002 25.0420 26.0052 12.06 570 760 
0.595 4 30.00 30.00 3.0 2.5 0.009 0.007 24.5867 25.5145 12.07 600 790 
0.596 4 30.00 30.00 2.5 2.8 0.016 0.004 25.5145 25.0420 12.07 570 770 
0.597 4 30.00 30.00 3.0 2.8 0.016 0.007 24.5867 25.0420 12.07 560 760 
0.598 4 30.00 30.00 3.0 3.3 0.016 0.011 24.5867 24.1477 12.07 560 760 
0.599 4 30.00 30.00 2.5 2.8 0.020 0.038 25.5145 25.0420 12.07 570 760 
0.600 4 30.00 30.00 2.2 3.0 0.004 0.025 26.0052 24.5867 12.04 590 790 
0.601 4 30.00 30.00 2.5 3.0 0.009 0.013 25.5145 24.5867 12.04 570 760 
0.602 4 30.00 30.00 3.3 3.0 0.011 0.027 24.1477 24.5867 12.04 570 780 
0.603 4 30.00 30.00 3.3 2.5 0.009 0.033 24.1477 25.5145 12.04 570 780 
0.604 4 30.00 30.00 2.8 2.5 0.031 0.016 25.0420 25.5145 12.04 560 760 
0.605 4 30.00 30.00 3.0 2.0 0.022 0.009 24.5867 26.5151 12.06 590 780 
0.606 4 30.00 30.00 2.5 2.2 0.036 0.016 25.5145 26.0052 12.06 560 760 
0.607 4 30.00 30.00 2.8 2.2 0.009 0.007 25.0420 26.0052 12.06 570 760 
0.608 4 30.00 30.00 3.0 2.5 0.007 0.013 24.5867 25.5145 12.06 570 770 
0.609 4 30.00 30.00 2.5 2.2 0.009 0.007 25.5145 26.0052 12.06 570 770 
0.610 4 30.00 30.00 2.8 2.5 0.009 0.016 25.0420 25.5145 12.07 590 780 
0.611 4 30.00 30.00 3.0 2.5 0.007 0.007 24.5867 25.5145 12.07 570 770 
0.612 4 30.00 30.00 2.8 2.8 0.009 0.004 25.0420 25.0420 12.07 570 770 
0.613 4 30.00 30.00 3.0 2.8 0.009 0.004 24.5867 25.0420 12.07 570 760 
0.614 4 30.00 30.00 2.8 2.8 0.029 0.007 25.0420 25.0420 12.07 560 760 
0.615 4 30.00 30.00 2.8 3.3 0.029 0.011 25.0420 24.1477 12.07 590 790 
0.616 4 30.00 30.00 2.8 2.2 0.009 0.027 25.0420 26.0052 12.07 570 760 
0.617 4 30.00 30.00 2.5 3.5 0.007 0.009 25.5145 23.7240 12.07 570 770 
0.618 4 30.00 30.00 2.5 2.8 0.009 0.018 25.5145 25.0420 12.07 570 770 
0.619 4 30.00 30.00 2.5 2.5 0.009 0.029 25.5145 25.5145 12.07 570 760 
0.620 4 30.00 30.00 2.8 2.5 0.009 0.011 25.0420 25.5145 12.10 590 780 
0.621 4 30.00 30.00 3.0 2.5 0.009 0.004 24.5867 25.5145 12.10 570 770 
0.622 4 30.00 30.00 2.8 2.5 0.013 0.007 25.0420 25.5145 12.10 560 760 
0.623 4 30.00 30.00 3.0 2.5 0.027 0.007 24.5867 25.5145 12.10 570 760 
0.624 4 30.00 30.00 3.0 3.3 0.031 0.007 24.5867 24.1477 12.10 560 760 
0.625 4 30.00 30.00 2.5 2.5 0.027 0.020 25.5145 25.5145 12.02 590 790 
0.626 4 30.00 30.00 2.2 2.8 0.007 0.009 26.0052 25.0420 12.02 570 760 
0.627 4 30.00 30.00 2.5 2.8 0.011 0.007 25.5145 25.0420 12.02 570 770 
0.628 4 30.00 30.00 2.5 3.0 0.009 0.004 25.5145 24.5867 12.02 570 770 
0.629 4 30.00 30.00 3.3 3.3 0.011 0.025 24.1477 24.1477 12.02 570 760 
0.630 4 30.00 30.00 2.8 2.2 0.007 0.045 25.0420 26.0052 12.02 600 790 
0.631 4 30.00 30.00 3.0 2.2 0.013 0.009 24.5867 26.0052 12.02 570 770 
0.632 4 30.00 30.00 2.5 2.2 0.033 0.007 25.5145 26.0052 12.02 570 760 
0.633 4 30.00 30.00 3.0 2.2 0.009 0.007 24.5867 26.0052 12.02 570 770 
0.634 4 30.00 30.00 3.0 2.5 0.011 0.013 24.5867 25.5145 12.02 560 760 
0.635 4 30.00 30.00 2.5 2.2 0.031 0.007 25.5145 26.0052 12.06 590 780 
0.636 4 30.00 30.00 2.8 2.5 0.009 0.011 25.0420 25.5145 12.06 570 760 
0.637 4 30.00 30.00 3.0 2.5 0.004 0.004 24.5867 25.5145 12.06 570 760 
0.638 4 30.00 30.00 3.0 2.8 0.004 0.002 24.5867 25.0420 12.06 570 770 
0.639 4 30.00 30.00 2.8 2.8 0.018 0.009 25.0420 25.0420 12.06 560 760 
0.640 4 30.00 30.00 2.8 2.8 0.020 0.007 25.0420 25.0420 12.06 590 780 
0.641 4 30.00 30.00 2.8 3.3 0.022 0.009 25.0420 24.1477 12.06 570 760 
0.642 4 30.00 30.00 2.8 2.2 0.009 0.031 25.0420 26.0052 12.06 570 760 
0.643 4 30.00 30.00 2.8 3.3 0.007 0.007 25.0420 24.1477 12.06 570 760 
0.644 4 30.00 30.00 2.5 3.0 0.009 0.009 25.5145 24.5867 12.06 570 770 
0.645 4 30.00 30.00 2.8 2.5 0.007 0.038 25.0420 25.5145 12.07 590 790 
0.646 4 30.00 30.00 2.8 2.2 0.007 0.018 25.0420 26.0052 12.07 560 760 
0.647 4 30.00 30.00 3.0 2.2 0.007 0.007 24.5867 26.0052 12.07 570 760 
0.648 4 30.00 30.00 2.5 2.5 0.018 0.013 25.5145 25.5145 12.07 570 760 
0.649 4 30.00 30.00 2.8 2.5 0.013 0.011 25.0420 25.5145 12.07 570 760 
0.650 4 30.00 30.00 2.8 2.8 0.007 0.004 25.0420 25.0420 12.06 590 780 
0.651 4 30.00 30.00 2.8 2.2 0.004 0.004 25.0420 26.0052 12.06 570 780 
0.652 4 30.00 30.00 2.5 3.0 0.009 0.009 25.5145 24.5867 12.06 560 770 
0.653 4 30.00 30.00 2.5 3.0 0.009 0.004 25.5145 24.5867 12.06 560 760 
0.654 4 30.00 30.00 2.8 3.0 0.007 0.022 25.0420 24.5867 12.06 570 760 
0.655 4 30.00 30.00 3.3 3.3 0.009 0.033 24.1477 24.1477 12.09 600 790 
0.656 4 30.00 30.00 2.8 2.2 0.013 0.051 25.0420 26.0052 12.09 570 770 
0.657 4 30.00 30.00 3.3 3.0 0.011 0.009 24.1477 24.5867 12.09 570 770 
0.658 4 30.00 30.00 2.5 2.2 0.040 0.011 25.5145 26.0052 12.09 570 780 
0.659 4 30.00 30.00 2.8 2.2 0.018 0.007 25.0420 26.0052 12.09 570 770 
0.660 4 30.00 30.00 3.0 2.5 0.007 0.013 24.5867 25.5145 12.06 590 780 
0.661 4 30.00 30.00 2.5 2.2 0.016 0.013 25.5145 26.0052 12.06 570 760 
0.662 4 30.00 30.00 2.5 2.2 0.004 0.011 25.5145 26.0052 12.06 570 770 
0.663 4 30.00 30.00 2.8 2.5 0.009 0.004 25.0420 25.5145 12.06 570 770 
0.664 4 30.00 30.00 2.8 2.5 0.007 0.007 25.0420 25.5145 12.06 570 760 
0.665 4 30.00 30.00 2.8 2.8 0.004 0.009 25.0420 25.0420 12.06 600 790 
0.666 4 30.00 30.00 2.8 2.8 0.004 0.009 25.0420 25.0420 12.06 570 760 
0.667 4 30.00 30.00 2.8 3.3 0.022 0.004 25.0420 24.1477 12.06 570 770 
0.668 4 30.00 30.00 2.8 2.2 0.011 0.029 25.0420 26.0052 12.06 570 770 
0.669 4 30.00 30.00 2.8 3.5 0.004 0.009 25.0420 23.7240 12.06 570 760 
0.670 4 30.00 30.00 2.8 3.0 0.009 0.022 25.0420 24.5867 12.04 600 790 
0.671 4 30.00 30.00 2.8 2.5 0.009 0.045 25.0420 25.5145 12.04 580 770 
0.672 4 30.00 30.00 2.8 2.2 0.007 0.020 25.0420 26.0052 12.04 570 770 
0.673 4 30.00 30.00 3.0 2.2 0.004 0.011 24.5867 26.0052 12.04 580 770 
0.674 4 30.00 30.00 2.8 2.2 0.016 0.011 25.0420 26.0052 12.04 570 760 
0.675 4 30.00 30.00 2.5 2.2 0.020 0.016 25.5145 26.0052 12.06 590 780 
0.676 4 30.00 30.00 2.8 2.8 0.011 0.011 25.0420 25.0420 12.06 570 760 
0.677 4 30.00 30.00 2.8 2.2 0.002 0.002 25.0420 26.0052 12.06 570 760 
0.678 4 30.00 30.00 2.5 2.8 0.004 0.009 25.5145 25.0420 12.06 570 770 
0.679 4 30.00 30.00 2.5 3.0 0.007 0.007 25.5145 24.5867 12.06 570 770 
0.680 4 30.00 30.00 2.5 3.0 0.009 0.011 25.5145 24.5867 12.01 600 790 
0.681 4 30.00 30.00 3.5 3.3 0.011 0.031 23.7240 24.1477 12.01 560 760 
0.682 4 30.00 30.00 2.5 2.2 0.016 0.047 25.5145 26.0052 12.01 570 770 
0.683 4 30.00 30.00 3.3 2.8 0.011 0.009 24.1477 25.0420 12.01 570 760 
0.684 4 30.00 30.00 2.5 2.2 0.038 0.007 25.5145 26.0052 12.01 570 760 
0.685 4 30.00 30.00 2.8 3.7 0.022 0.007 25.0420 23.3150 12.04 590 790 
0.686 4 30.00 30.00 3.0 2.5 0.004 0.036 24.5867 25.5145 12.04 560 770 
0.687 4 30.00 30.00 2.8 2.2 0.018 0.016 25.0420 26.0052 12.04 570 770 
0.688 4 30.00 30.00 2.5 2.2 0.009 0.004 25.5145 26.0052 12.04 570 770 
0.689 4 30.00 30.00 2.8 2.2 0.009 0.007 25.0420 26.0052 12.04 570 760 
0.690 4 30.00 30.00 2.8 2.2 0.007 0.011 25.0420 26.0052 11.99 590 790 
0.691 4 30.00 30.00 2.8 2.5 0.007 0.018 25.0420 25.5145 11.99 560 760 
0.692 4 30.00 30.00 2.8 2.2 0.007 0.011 25.0420 26.0052 11.99 570 760 
0.693 4 30.00 30.00 3.0 3.0 0.022 0.004 24.5867 24.5867 11.99 570 770 
0.694 4 30.00 30.00 2.8 2.2 0.025 0.009 25.0420 26.0052 11.99 560 760 
0.695 4 30.00 30.00 2.8 3.5 0.016 0.007 25.0420 23.7240 12.07 590 780 
0.696 4 30.00 30.00 2.5 3.3 0.011 0.016 25.5145 24.1477 12.07 570 760 
0.697 4 30.00 30.00 2.5 2.5 0.004 0.042 25.5145 25.5145 12.07 560 760 
0.698 4 30.00 30.00 2.5 3.0 0.007 0.038 25.5145 24.5867 12.07 570 760 
0.699 4 30.00 30.00 2.8 2.8 0.009 0.031 25.0420 25.0420 12.07 560 760 
0.700 4 30.00 30.00 2.8 2.5 0.007 0.013 25.0420 25.5145 12.07 590 790 
0.701 4 30.00 30.00 2.5 2.2 0.009 0.009 25.5145 26.0052 12.07 570 760 
0.702 4 30.00 30.00 2.8 2.5 0.007 0.007 25.0420 25.5145 12.07 570 760 
0.703 4 30.00 30.00 3.0 2.2 0.009 0.009 24.5867 26.0052 12.07 570 760 
0.704 4 30.00 30.00 2.5 2.5 0.011 0.011 25.5145 25.5145 12.07 570 760 
0.705 4 30.00 30.00 2.5 2.5 0.004 0.016 25.5145 25.5145 12.04 600 790 
0.706 4 30.00 30.00 2.5 3.0 0.009 0.009 25.5145 24.5867 12.04 570 770 
0.707 4 30.00 30.00 3.5 3.3 0.009 0.013 23.7240 24.1477 12.04 560 760 
0.708 4 30.00 30.00 2.5 2.2 0.020 0.038 25.5145 26.0052 12.04 570 760 
0.709 4 30.00 30.00 3.3 2.8 0.013 0.007 24.1477 25.0420 12.04 570 760 
0.710 4 30.00 30.00 2.5 2.2 0.036 0.009 25.5145 26.0052 12.02 600 790 
0.711 4 30.00 30.00 2.5 3.0 0.020 0.002 25.5145 24.5867 12.02 570 770 
0.712 4 30.00 30.00 2.8 2.5 0.009 0.007 25.0420 25.5145 12.02 570 760 
0.713 4 30.00 30.00 2.8 2.2 0.009 0.009 25.0420 26.0052 12.02 570 770 
0.714 4 30.00 30.00 2.8 2.5 0.007 0.007 25.0420 25.5145 12.02 570 770 
0.715 4 30.00 30.00 2.8 2.5 0.013 0.007 25.0420 25.5145 12.06 600 790 
0.716 4 30.00 30.00 3.0 2.2 0.007 0.007 24.5867 26.0052 12.06 570 770 
0.717 4 30.00 30.00 3.0 2.5 0.013 0.013 24.5867 25.5145 12.06 570 770 
0.718 4 30.00 30.00 3.0 2.5 0.022 0.009 24.5867 25.5145 12.06 570 760 
0.719 4 30.00 30.00 3.0 2.8 0.040 0.002 24.5867 25.0420 12.06 570 770 
0.720 4 30.00 30.00 2.8 2.2 0.040 0.004 25.0420 26.0052 12.02 600 790 
0.721 4 30.00 30.00 2.8 3.5 0.013 0.004 25.0420 23.7240 12.02 570 770 
0.722 4 30.00 30.00 2.5 3.0 0.009 0.016 25.5145 24.5867 12.02 570 760 
0.723 4 30.00 30.00 2.5 2.5 0.007 0.033 25.5145 25.5145 12.02 570 770 
0.724 4 30.00 30.00 2.5 3.0 0.009 0.031 25.5145 24.5867 12.02 570 770 
0.725 4 30.00 30.00 2.8 2.8 0.009 0.027 25.0420 25.0420 12.02 600 790 
0.726 4 30.00 30.00 2.8 2.5 0.009 0.011 25.0420 25.5145 12.02 570 770 
0.727 4 30.00 30.00 2.8 2.2 0.009 0.007 25.0420 26.0052 12.02 560 760 
0.728 4 30.00 30.00 2.8 2.8 0.022 0.009 25.0420 25.0420 12.02 580 770 
0.729 4 30.00 30.00 3.0 2.2 0.009 0.002 24.5867 26.0052 12.02 570 770 
0.730 4 30.00 30.00 2.5 2.5 0.011 0.009 25.5145 25.5145 12.06 590 790 
0.731 4 30.00 30.00 2.2 2.5 0.004 0.013 26.0052 25.5145 12.06 570 760 
0.732 4 30.00 30.00 2.5 2.8 0.007 0.007 25.5145 25.0420 12.06 570 770 
0.733 4 30.00 30.00 3.5 3.3 0.011 0.007 23.7240 24.1477 12.06 570 770 
0.734 4 30.00 30.00 2.8 2.2 0.018 0.029 25.0420 26.0052 12.06 570 770 
0.735 4 30.00 30.00 2.8 2.8 0.020 0.004 25.0420 25.0420 12.09 590 790 
0.736 4 30.00 30.00 3.0 2.5 0.011 0.009 24.5867 25.5145 12.09 570 770 
0.737 4 30.00 30.00 2.8 3.0 0.031 0.004 25.0420 24.5867 12.09 570 760 
0.740 4 30.00 30.00 2.8 2.5 0.018 0.011 25.0420 25.5145 12.09 560 760 
0.741 4 30.00 30.00 2.8 2.5 0.007 0.004 25.0420 25.5145 12.09 560 760 
0.742 4 30.00 30.00 2.8 2.8 0.016 0.002 25.0420 25.0420 12.06 580 780 
0.742 4 30.00 30.00 3.0 2.2 0.004 0.009 24.5867 26.0052 12.06 560 760 
0.743 4 30.00 30.00 2.8 2.5 0.009 0.007 25.0420 25.5145 12.06 560 760 
0.744 4 30.00 30.00 3.0 2.2 0.013 0.004 24.5867 26.0052 12.06 570 760 
0.745 4 30.00 30.00 2.8 2.8 0.033 0.007 25.0420 25.0420 12.06 570 760 
0.746 4 30.00 30.00 2.8 2.2 0.020 0.004 25.0420 26.0052 12.06 600 790 
0.747 4 30.00 30.00 2.8 3.5 0.011 0.011 25.0420 23.7240 12.06 560 760 
0.748 4 30.00 30.00 2.8 3.0 0.004 0.013 25.0420 24.5867 12.06 570 770 
0.749 4 30.00 30.00 2.5 2.5 0.007 0.036 25.5145 25.5145 12.06 570 760 
0.750 4 30.00 30.00 2.5 3.0 0.004 0.029 25.5145 24.5867 12.06 570 760 
0.751 4 30.00 30.00 2.8 2.8 0.009 0.018 25.0420 25.0420 12.06 590 780 
0.752 4 30.00 30.00 2.8 2.5 0.007 0.011 25.0420 25.5145 12.06 570 770 
0.753 4 30.00 30.00 2.5 2.5 0.004 0.007 25.5145 25.5145 12.06 570 770 
0.754 4 30.00 30.00 3.0 2.5 0.007 0.007 24.5867 25.5145 12.06 570 780 
0.755 4 30.00 30.00 3.0 2.2 0.013 0.007 24.5867 26.0052 12.06 570 760 
0.756 4 30.00 30.00 2.5 2.5 0.020 0.013 25.5145 25.5145 12.02 590 780 
0.757 4 30.00 30.00 2.2 2.5 0.007 0.011 26.0052 25.5145 12.02 570 760 
0.758 4 30.00 30.00 2.5 2.8 0.011 0.007 25.5145 25.0420 12.02 570 760 
0.759 4 30.00 30.00 4.0 2.5 0.011 0.007 22.9198 25.5145 12.02 580 770 
0.760 4 30.00 30.00 3.3 2.2 0.040 0.004 24.1477 26.0052 12.02 570 780 
0.761 4 30.00 30.00 2.5 2.8 0.060 0.011 25.5145 25.0420 12.04 600 800 
0.762 4 30.00 30.00 2.8 2.2 0.018 0.004 25.0420 26.0052 12.04 570 770 
0.763 4 30.00 30.00 2.2 3.0 0.013 0.007 26.0052 24.5867 12.04 570 760 
0.764 4 30.00 30.00 2.8 2.5 0.009 0.004 25.0420 25.5145 12.04 570 760 
0.765 4 30.00 30.00 2.8 3.0 0.009 0.007 25.0420 24.5867 12.04 570 760 
0.766 4 30.00 30.00 2.5 2.5 0.007 0.011 25.5145 25.5145 11.98 600 790 
0.767 4 30.00 30.00 2.8 2.5 0.007 0.020 25.0420 25.5145 11.98 570 770 
0.768 4 30.00 30.00 3.0 2.2 0.004 0.004 24.5867 26.0052 11.98 560 760 
0.769 4 30.00 30.00 2.8 2.5 0.011 0.007 25.0420 25.5145 11.98 570 770 
0.770 4 30.00 30.00 3.0 2.2 0.011 0.007 24.5867 26.0052 11.98 570 760 
0.771 4 30.00 30.00 3.0 2.8 0.031 0.011 24.5867 25.0420 12.06 590 780 
0.772 4 30.00 30.00 2.8 2.0 0.042 0.007 25.0420 26.5151 12.06 570 770 
0.773 4 30.00 30.00 2.5 2.8 0.018 0.013 25.5145 25.0420 12.06 580 770 
0.774 4 30.00 30.00 2.5 3.0 0.007 0.004 25.5145 24.5867 12.06 570 770 
0.775 4 30.00 30.00 2.5 2.5 0.007 0.016 25.5145 25.5145 12.06 570 770 
0.776 4 30.00 30.00 2.5 3.0 0.007 0.025 25.5145 24.5867 12.06 600 790 
0.777 4 30.00 30.00 2.8 2.8 0.011 0.020 25.0420 25.0420 12.06 570 760 
0.778 4 30.00 30.00 3.0 2.8 0.009 0.011 24.5867 25.0420 12.06 570 770 
0.779 4 30.00 30.00 2.5 3.3 0.013 0.013 25.5145 24.1477 12.06 560 760 
0.780 4 30.00 30.00 3.0 2.8 0.013 0.038 24.5867 25.0420 12.06 570 770 
0.781 4 30.00 30.00 3.0 2.2 0.016 0.036 24.5867 26.0052 12.02 590 790 
0.782 4 30.00 30.00 2.5 2.5 0.025 0.007 25.5145 25.5145 12.02 570 760 
0.783 4 30.00 30.00 2.2 2.5 0.009 0.007 26.0052 25.5145 12.02 570 760 
0.784 4 30.00 30.00 2.5 2.8 0.009 0.004 25.5145 25.0420 12.02 570 770 
0.785 4 30.00 30.00 2.5 2.8 0.007 0.007 25.5145 25.0420 12.02 570 770 
0.786 4 30.00 30.00 3.0 2.5 0.011 0.007 24.5867 25.5145 12.01 600 790 
0.787 4 30.00 30.00 2.5 2.8 0.009 0.004 25.5145 25.0420 12.01 570 770 
0.788 4 30.00 30.00 3.0 2.2 0.004 0.009 24.5867 26.0052 12.01 570 770 
0.789 4 30.00 30.00 2.8 3.0 0.025 0.004 25.0420 24.5867 12.01 570 760 
0.790 4 30.00 30.00 3.0 2.5 0.018 0.004 24.5867 25.5145 12.01 570 770 
0.791 4 30.00 30.00 3.0 3.0 0.016 0.004 24.5867 24.5867 12.06 590 790 
0.792 4 30.00 30.00 2.8 2.5 0.036 0.013 25.0420 25.5145 12.06 570 760 
0.793 4 30.00 30.00 3.0 2.8 0.020 0.013 24.5867 25.0420 12.06 560 760 
0.794 4 30.00 30.00 3.0 2.2 0.022 0.011 24.5867 26.0052 12.06 560 760 
0.795 4 30.00 30.00 2.8 2.2 0.022 0.007 25.0420 26.0052 12.06 570 770 
0.796 4 30.00 30.00 2.5 2.2 0.011 0.007 25.5145 26.0052 12.07 590 790 
0.797 4 30.00 30.00 2.8 2.5 0.009 0.007 25.0420 25.5145 12.07 570 760 
0.798 4 30.00 30.00 2.8 2.0 0.009 0.011 25.0420 26.5151 12.07 570 760 
0.799 4 30.00 30.00 2.8 2.8 0.007 0.016 25.0420 25.0420 12.07 570 760 
0.800 4 30.00 30.00 2.8 2.5 0.004 0.013 25.0420 25.5145 12.07 570 760 
0.801 4 30.00 30.00 2.5 2.5 0.007 0.004 25.5145 25.5145 12.04 590 790 
0.802 4 30.00 30.00 2.8 3.0 0.002 0.004 25.0420 24.5867 12.04 560 760 
0.803 4 30.00 30.00 2.8 2.8 0.007 0.011 25.0420 25.0420 12.04 570 770 
0.804 4 30.00 30.00 3.0 2.8 0.007 0.009 24.5867 25.0420 12.04 570 760 
0.805 4 30.00 30.00 2.5 3.3 0.013 0.016 25.5145 24.1477 12.04 570 760 
0.806 4 30.00 30.00 2.8 2.8 0.013 0.040 25.0420 25.0420 12.06 590 780 
0.807 4 30.00 30.00 3.0 2.2 0.009 0.033 24.5867 26.0052 12.06 560 770 
0.808 4 30.00 30.00 3.0 2.5 0.013 0.007 24.5867 25.5145 12.06 570 770 
0.809 4 30.00 30.00 2.5 2.2 0.016 0.007 25.5145 26.0052 12.06 570 770 
0.810 4 30.00 30.00 2.5 2.5 0.009 0.007 25.5145 25.5145 12.06 570 770 
0.811 4 30.00 30.00 2.5 2.5 0.007 0.007 25.5145 25.5145 12.06 590 790 
0.812 4 30.00 30.00 3.0 2.2 0.011 0.009 24.5867 26.0052 12.06 570 760 
0.813 4 30.00 30.00 2.5 2.5 0.009 0.016 25.5145 25.5145 12.06 580 770 
0.814 4 30.00 30.00 3.0 2.5 0.009 0.007 24.5867 25.5145 12.06 560 770 
0.815 4 30.00 30.00 2.5 3.3 0.022 0.004 25.5145 24.1477 12.06 560 770 
0.816 4 30.00 30.00 3.0 2.8 0.007 0.020 24.5867 25.0420 12.02 590 780 
0.817 4 30.00 30.00 3.0 3.3 0.007 0.022 24.5867 24.1477 12.02 570 760 
0.818 4 30.00 30.00 2.5 2.8 0.029 0.040 25.5145 25.0420 12.02 570 760 
0.819 4 30.00 30.00 2.8 2.8 0.004 0.047 25.0420 25.0420 12.02 570 770 
0.820 4 30.00 30.00 3.3 2.5 0.004 0.033 24.1477 25.5145 12.02 560 770 
0.821 4 30.00 30.00 3.0 2.5 0.022 0.004 24.5867 25.5145 12.04 590 800 
0.822 4 30.00 30.00 2.8 2.2 0.029 0.004 25.0420 26.0052 12.04 570 770 
0.823 4 30.00 30.00 2.8 2.8 0.020 0.011 25.0420 25.0420 12.04 560 760 
0.824 4 30.00 30.00 2.8 2.2 0.022 0.002 25.0420 26.0052 12.04 570 760 
0.825 4 30.00 30.00 2.8 2.8 0.009 0.009 25.0420 25.0420 12.04 570 760 
0.826 4 30.00 30.00 2.8 2.5 0.004 0.009 25.0420 25.5145 12.07 600 790 
0.827 4 30.00 30.00 2.5 2.5 0.011 0.004 25.5145 25.5145 12.07 570 760 
0.828 4 30.00 30.00 2.8 3.0 0.007 0.007 25.0420 24.5867 12.07 560 760 
0.829 4 30.00 30.00 2.8 2.8 0.007 0.007 25.0420 25.0420 12.07 570 760 
0.830 4 30.00 30.00 3.0 2.8 0.007 0.009 24.5867 25.0420 12.07 570 760 
0.831 4 30.00 30.00 2.5 3.3 0.018 0.013 25.5145 24.1477 12.02 590 790 
0.832 4 30.00 30.00 3.0 2.5 0.011 0.045 24.5867 25.5145 12.02 570 760 
0.833 4 30.00 30.00 2.8 2.8 0.020 0.020 25.0420 25.0420 12.02 570 770 
0.834 4 30.00 30.00 2.8 2.5 0.013 0.004 25.0420 25.5145 12.02 560 760 
0.835 4 30.00 30.00 2.5 2.2 0.007 0.007 25.5145 26.0052 12.02 570 770 
0.836 4 30.00 30.00 2.5 2.5 0.009 0.009 25.5145 25.5145 12.07 600 790 
0.837 4 30.00 30.00 2.5 2.5 0.007 0.009 25.5145 25.5145 12.07 560 760 
0.838 4 30.00 30.00 3.0 2.2 0.011 0.009 24.5867 26.0052 12.07 560 760 
0.839 4 30.00 30.00 2.5 2.5 0.009 0.013 25.5145 25.5145 12.07 570 760 
0.840 4 30.00 30.00 3.0 2.2 0.004 0.009 24.5867 26.0052 12.07 570 770 
0.841 4 30.00 30.00 2.5 3.0 0.022 0.009 25.5145 24.5867 12.06 590 790 
0.842 4 30.00 30.00 2.8 2.5 0.011 0.004 25.0420 25.5145 12.06 570 770 
0.843 4 30.00 30.00 3.0 3.0 0.009 0.009 24.5867 24.5867 12.06 560 760 
0.844 4 30.00 30.00 2.5 2.8 0.018 0.009 25.5145 25.0420 12.06 570 760 
0.845 4 30.00 30.00 2.8 2.8 0.004 0.033 25.0420 25.0420 12.06 570 760 
0.846 4 30.00 30.00 2.8 2.8 0.007 0.020 25.0420 25.0420 12.06 590 790 
0.847 4 30.00 30.00 3.0 2.5 0.009 0.007 24.5867 25.5145 12.06 570 760 
0.848 4 30.00 30.00 2.8 2.2 0.011 0.004 25.0420 26.0052 12.06 570 770 
0.849 4 30.00 30.00 2.8 2.5 0.013 0.007 25.0420 25.5145 12.06 570 770 
0.850 4 30.00 30.00 2.8 2.0 0.022 0.007 25.0420 26.5151 12.06 570 760 
0.851 4 30.00 30.00 2.8 2.8 0.009 0.013 25.0420 25.0420 12.06 600 790 
0.852 4 30.00 30.00 2.8 2.5 0.004 0.013 25.0420 25.5145 12.06 570 770 
0.853 4 30.00 30.00 2.5 2.5 0.011 0.004 25.5145 25.5145 12.06 570 770 
0.854 4 30.00 30.00 2.8 2.5 0.007 0.004 25.0420 25.5145 12.06 570 770 
0.855 4 30.00 30.00 2.8 2.8 0.007 0.004 25.0420 25.0420 12.06 570 770 
0.856 4 30.00 30.00 3.0 2.8 0.004 0.004 24.5867 25.0420 12.06 590 790 
0.857 4 30.00 30.00 2.5 3.3 0.013 0.016 25.5145 24.1477 12.06 570 760 
0.858 4 30.00 30.00 2.5 2.5 0.004 0.042 25.5145 25.5145 12.06 570 760 
0.859 4 30.00 30.00 2.8 2.8 0.007 0.018 25.0420 25.0420 12.06 570 770 
0.860 4 30.00 30.00 3.0 3.0 0.004 0.002 24.5867 24.5867 12.06 570 770 
0.861 4 30.00 30.00 2.5 2.5 0.009 0.013 25.5145 25.5145 12.01 590 780 
0.862 4 30.00 30.00 2.5 2.8 0.009 0.009 25.5145 25.0420 12.01 570 760 
0.863 4 30.00 30.00 2.5 2.5 0.007 0.007 25.5145 25.5145 12.01 570 760 
0.864 4 30.00 30.00 3.3 2.2 0.009 0.004 24.1477 26.0052 12.01 570 770 
0.865 4 30.00 30.00 2.5 2.5 0.007 0.013 25.5145 25.5145 12.01 570 770 
0.866 4 30.00 30.00 3.3 2.2 0.009 0.007 24.1477 26.0052 12.06 590 780 
0.867 4 30.00 30.00 2.5 2.5 0.038 0.004 25.5145 25.5145 12.06 570 770 
0.868 4 30.00 30.00 2.8 2.5 0.020 0.009 25.0420 25.5145 12.06 570 770 
0.869 4 30.00 30.00 3.0 2.8 0.007 0.011 24.5867 25.0420 12.06 570 770 
0.870 4 30.00 30.00 2.8 2.5 0.018 0.011 25.0420 25.5145 12.06 570 770 
0.871 4 30.00 30.00 2.8 2.8 0.009 0.009 25.0420 25.0420 12.04 590 780 
0.872 4 30.00 30.00 2.8 2.8 0.013 0.004 25.0420 25.0420 12.04 570 760 
0.873 4 30.00 30.00 2.8 2.5 0.007 0.004 25.0420 25.5145 12.04 570 760 
0.874 4 30.00 30.00 2.8 3.7 0.007 0.004 25.0420 23.3150 12.04 570 770 
0.875 4 30.00 30.00 2.8 2.8 0.009 0.047 25.0420 25.0420 12.04 560 760 
0.876 4 30.00 30.00 3.0 2.0 0.016 0.045 24.5867 26.5151 12.06 590 800 
0.877 4 30.00 30.00 2.8 2.8 0.022 0.009 25.0420 25.0420 12.06 570 770 
0.878 4 30.00 30.00 2.8 2.5 0.013 0.004 25.0420 25.5145 12.06 570 760 
0.879 4 30.00 30.00 2.5 2.2 0.011 0.002 25.5145 26.0052 12.06 570 760 
0.880 4 30.00 30.00 2.5 2.5 0.007 0.007 25.5145 25.5145 12.06 570 760 
0.881 4 30.00 30.00 2.5 2.5 0.007 0.013 25.5145 25.5145 12.07 590 790 
0.882 4 30.00 30.00 2.5 2.8 0.011 0.004 25.5145 25.0420 12.07 570 770 
0.883 4 30.00 30.00 2.8 3.3 0.011 0.009 25.0420 24.1477 12.07 570 770 
0.884 4 30.00 30.00 2.5 2.5 0.007 0.042 25.5145 25.5145 12.07 570 760 
0.885 4 30.00 30.00 2.8 3.0 0.007 0.013 25.0420 24.5867 12.07 560 760 
0.886 4 30.00 30.00 3.0 3.0 0.002 0.007 24.5867 24.5867 12.06 590 780 
0.887 4 30.00 30.00 2.5 3.0 0.007 0.022 25.5145 24.5867 12.06 580 770 
0.888 4 30.00 30.00 2.5 2.8 0.009 0.029 25.5145 25.0420 12.06 570 780 
0.889 4 30.00 30.00 2.5 2.5 0.007 0.022 25.5145 25.5145 12.06 560 770 
0.890 4 30.00 30.00 3.5 2.2 0.009 0.004 23.7240 26.0052 12.06 570 770 
0.891 4 30.00 30.00 2.5 2.2 0.018 0.007 25.5145 26.0052 12.02 590 790 
0.892 4 30.00 30.00 3.3 2.2 0.016 0.009 24.1477 26.0052 12.02 570 760 
0.893 4 30.00 30.00 2.5 2.5 0.036 0.011 25.5145 25.5145 12.02 570 760 
0.894 4 30.00 30.00 2.5 2.2 0.022 0.011 25.5145 26.0052 12.02 570 770 
0.895 4 30.00 30.00 2.8 2.2 0.007 0.011 25.0420 26.0052 12.02 570 770 
0.896 4 30.00 30.00 2.8 2.5 0.007 0.011 25.0420 25.5145 12.09 590 780 
0.897 4 30.00 30.00 2.8 2.8 0.004 0.004 25.0420 25.0420 12.09 570 770 
0.898 4 30.00 30.00 2.8 2.8 0.011 0.009 25.0420 25.0420 12.09 570 770 
0.899 4 30.00 30.00 2.8 2.5 0.002 0.002 25.0420 25.5145 12.09 570 770 
0.900 4 30.00 30.00 2.8 3.3 0.007 0.007 25.0420 24.1477 12.09 560 760 
0.901 4 30.00 30.00 3.0 2.2 0.007 0.029 24.5867 26.0052 12.04 590 790 
0.902 4 30.00 30.00 3.0 3.3 0.031 0.007 24.5867 24.1477 12.04 580 770 
0.903 4 30.00 30.00 2.8 3.0 0.036 0.009 25.0420 24.5867 12.04 570 770 
0.904 4 30.00 30.00 2.8 2.5 0.016 0.036 25.0420 25.5145 12.04 570 760 
0.905 4 30.00 30.00 2.5 2.5 0.009 0.022 25.5145 25.5145 12.04 570 760 
0.906 4 30.00 30.00 2.5 2.5 0.004 0.004 25.5145 25.5145 12.06 590 790 
0.907 4 30.00 30.00 2.8 2.5 0.007 0.004 25.0420 25.5145 12.06 570 770 
0.908 4 30.00 30.00 2.8 2.2 0.007 0.007 25.0420 26.0052 12.06 570 760 
0.909 4 30.00 30.00 3.0 2.8 0.009 0.007 24.5867 25.0420 12.06 560 760 
0.910 4 30.00 30.00 2.8 2.5 0.018 0.007 25.0420 25.5145 12.06 570 770 
0.911 4 30.00 30.00 2.8 2.8 0.031 0.007 25.0420 25.0420 12.06 600 790 
0.912 4 30.00 30.00 3.0 2.8 0.016 0.007 24.5867 25.0420 12.06 570 760 
0.913 4 30.00 30.00 2.5 3.0 0.018 0.007 25.5145 24.5867 12.06 560 760 
0.914 4 30.00 30.00 2.2 3.0 0.007 0.027 26.0052 24.5867 12.06 570 760 
0.915 4 30.00 30.00 2.5 2.2 0.009 0.022 25.5145 26.0052 12.06 570 760 
0.916 4 30.00 30.00 3.5 2.8 0.009 0.004 23.7240 25.0420 12.07 600 790 
0.917 4 30.00 30.00 2.5 2.5 0.018 0.002 25.5145 25.5145 12.07 570 770 
0.918 4 30.00 30.00 2.5 2.2 0.004 0.002 25.5145 26.0052 12.07 570 780 
0.919 4 30.00 30.00 3.0 2.5 0.004 0.007 24.5867 25.5145 12.07 570 770 
0.920 4 30.00 30.00 2.5 2.5 0.018 0.013 25.5145 25.5145 12.07 570 760 
0.921 4 30.00 30.00 2.8 2.5 0.002 0.011 25.0420 25.5145 12.07 590 790 
0.922 4 30.00 30.00 2.8 2.2 0.002 0.007 25.0420 26.0052 12.07 570 760 
0.923 4 30.00 30.00 2.8 2.5 0.007 0.007 25.0420 25.5145 12.07 570 770 
0.924 4 30.00 30.00 2.8 2.8 0.011 0.009 25.0420 25.0420 12.07 570 780 
0.925 4 30.00 30.00 3.0 2.8 0.009 0.007 24.5867 25.0420 12.07 570 780 
0.926 4 30.00 30.00 2.8 3.3 0.009 0.011 25.0420 24.1477 12.06 590 790 
0.927 4 30.00 30.00 3.0 2.2 0.016 0.036 24.5867 26.0052 12.06 570 760 
0.928 4 30.00 30.00 3.0 3.5 0.036 0.016 24.5867 23.7240 12.06 570 760 
0.929 4 30.00 30.00 2.8 3.0 0.040 0.018 25.0420 24.5867 12.06 580 770 
0.930 4 30.00 30.00 2.8 2.5 0.018 0.049 25.0420 25.5145 12.06 580 780 
0.931 4 30.00 30.00 2.5 2.5 0.007 0.018 25.5145 25.5145 11.99 590 800 
0.932 4 30.00 30.00 2.5 2.5 0.004 0.009 25.5145 25.5145 11.99 570 770 
0.933 4 30.00 30.00 2.5 2.5 0.007 0.011 25.5145 25.5145 11.99 570 760 
0.934 4 30.00 30.00 2.5 2.2 0.007 0.011 25.5145 26.0052 11.99 570 760 
0.935 4 30.00 30.00 2.8 2.8 0.011 0.004 25.0420 25.0420 11.99 570 760 
0.936 4 30.00 30.00 2.5 2.2 0.004 0.004 25.5145 26.0052 12.06 600 790 
0.937 4 30.00 30.00 2.8 2.5 0.007 0.011 25.0420 25.5145 12.06 570 770 
0.938 4 30.00 30.00 3.0 2.8 0.004 0.016 24.5867 25.0420 12.06 570 780 
0.939 4 30.00 30.00 2.5 3.0 0.011 0.009 25.5145 24.5867 12.06 570 770 
0.940 4 30.00 30.00 2.2 3.3 0.007 0.027 26.0052 24.1477 12.06 570 760 
0.941 4 30.00 30.00 2.5 2.2 0.011 0.042 25.5145 26.0052 12.06 590 790 
0.942 4 30.00 30.00 3.5 2.8 0.009 0.007 23.7240 25.0420 12.06 570 770 
0.943 4 30.00 30.00 3.3 2.2 0.018 0.007 24.1477 26.0052 12.06 570 770 
0.944 4 30.00 30.00 2.5 3.0 0.038 0.009 25.5145 24.5867 12.06 570 760 
0.945 4 30.00 30.00 2.8 2.5 0.013 0.007 25.0420 25.5145 12.06 570 770 
0.946 4 30.00 30.00 2.5 2.5 0.011 0.009 25.5145 25.5145 12.09 590 790 
0.947 4 30.00 30.00 2.8 2.2 0.007 0.009 25.0420 26.0052 12.09 570 760 
0.948 4 30.00 30.00 2.8 2.2 0.009 0.002 25.0420 26.0052 12.09 570 770 
0.949 4 30.00 30.00 2.8 2.2 0.009 0.011 25.0420 26.0052 12.09 570 770 
0.950 4 30.00 30.00 3.0 2.5 0.009 0.013 24.5867 25.5145 12.09 570 770 
0.951 4 30.00 30.00 3.0 2.5 0.020 0.013 24.5867 25.5145 12.04 590 790 
0.952 4 30.00 30.00 2.8 3.3 0.025 0.009 25.0420 24.1477 12.04 570 770 
0.953 4 30.00 30.00 3.0 2.2 0.018 0.027 24.5867 26.0052 12.04 570 770 
0.954 4 30.00 30.00 3.0 3.5 0.031 0.009 24.5867 23.7240 12.04 560 760 
0.955 4 30.00 30.00 2.8 3.3 0.045 0.025 25.0420 24.1477 12.04 570 770 
0.956 4 30.00 30.00 2.5 2.5 0.020 0.051 25.5145 25.5145 12.06 590 790 
0.957 4 30.00 30.00 2.5 3.0 0.004 0.033 25.5145 24.5867 12.06 570 760 
0.958 4 30.00 30.00 2.5 2.8 0.007 0.025 25.5145 25.0420 12.06 580 770 
0.959 4 30.00 30.00 2.5 2.5 0.007 0.016 25.5145 25.5145 12.06 570 770 
0.960 4 30.00 30.00 2.5 2.2 0.009 0.011 25.5145 26.0052 12.06 570 770 
0.961 4 30.00 30.00 3.0 2.5 0.011 0.007 24.5867 25.5145 12.07 590 780 
0.962 4 30.00 30.00 2.5 2.2 0.009 0.009 25.5145 26.0052 12.07 570 770 
0.963 4 30.00 30.00 2.8 2.5 0.013 0.009 25.0420 25.5145 12.07 570 760 
0.964 4 30.00 30.00 3.0 2.5 0.007 0.009 24.5867 25.5145 12.07 570 760 
0.965 4 30.00 30.00 2.5 2.8 0.013 0.009 25.5145 25.0420 12.07 580 770 
0.966 4 30.00 30.00 2.5 3.3 0.007 0.004 25.5145 24.1477 12.06 590 790 
0.967 4 30.00 30.00 2.5 2.2 0.007 0.025 25.5145 26.0052 12.06 570 770 
0.968 4 30.00 30.00 2.5 2.8 0.009 0.004 25.5145 25.0420 12.06 570 770 
0.969 4 30.00 30.00 3.3 2.2 0.011 0.009 24.1477 26.0052 12.06 560 760 
0.970 4 30.00 30.00 2.8 3.0 0.009 0.004 25.0420 24.5867 12.06 570 760 
0.971 4 30.00 30.00 3.0 2.5 0.009 0.002 24.5867 25.5145 12.06 600 790 
0.972 4 30.00 30.00 2.5 2.8 0.033 0.007 25.5145 25.0420 12.06 570 760 
