%  1    time 0.000 sec
%  2    mission (0) state 2
%  3  4 Motor velocity ref left, right: 35.00 35.00
%  5  6 Motor voltage [V] left, right: 12.2 12.2
%  7  8 Motor current left, right [A]: 0.000 0.000
%  9 10 Wheel velocity [r/s] left, right: -0.0046 -0.0045
% 11    Battery voltage [V]: 12.15
% 12 13 Get data time [us]: 570 +ctrl 890
0.001 2 35.00 35.00 12.2 12.2 0.643 0.513 -0.0046 -0.0045 12.15 570 830 
0.002 2 35.00 35.00 12.2 12.2 1.623 1.259 -0.0046 -0.0045 12.15 570 830 
0.003 2 35.00 35.00 12.2 12.2 1.435 1.607 0.0046 -0.0045 12.15 560 870 
0.004 2 35.00 35.00 8.7 8.7 1.507 1.661 0.0046 0.0045 8.67 600 910 
0.005 2 35.00 35.00 8.7 8.7 1.536 1.594 6.8643 0.0045 8.67 570 840 
0.006 2 35.00 35.00 8.7 8.7 1.507 1.538 10.7323 9.7286 8.67 570 790 
0.007 2 35.00 35.00 8.7 8.7 1.478 1.058 10.7323 12.1826 8.67 560 790 
0.008 2 35.00 35.00 8.7 8.7 1.491 1.158 11.3636 13.1288 8.67 560 740 
0.009 2 35.00 35.00 8.3 8.3 1.467 1.268 14.8601 13.7987 8.32 590 820 
0.010 2 35.00 35.00 8.3 8.3 1.426 1.301 16.6947 16.4911 8.32 560 800 
0.011 2 35.00 35.00 8.3 8.3 1.007 1.335 19.3181 18.2739 8.32 570 810 
0.012 2 35.00 35.00 8.3 8.3 1.045 1.433 21.1292 21.4646 8.32 570 770 
0.013 2 35.00 35.00 8.3 8.3 1.174 1.141 22.9198 23.3150 8.32 570 710 
0.014 2 35.00 35.00 9.1 9.1 1.333 1.049 25.0420 25.5145 9.07 590 730 
0.015 2 35.00 35.00 9.1 9.1 1.484 1.167 27.0454 26.5151 9.07 580 710 
0.016 2 35.00 35.00 8.6 8.6 0.971 1.348 28.1723 28.1723 9.07 570 710 
0.017 2 35.00 35.00 7.6 7.6 1.105 1.337 30.0504 30.0504 9.07 560 760 
0.018 2 35.00 35.00 6.9 6.9 1.163 0.915 31.4481 31.4481 9.07 570 780 
0.019 2 35.00 35.00 6.1 5.6 0.781 0.938 32.9822 33.8067 11.17 590 790 
0.020 2 35.00 35.00 5.2 4.2 0.674 0.696 34.6736 36.5478 11.17 570 780 
0.021 2 35.00 35.00 4.2 4.2 0.509 0.328 36.5478 36.5478 11.17 570 780 
0.022 2 35.00 35.00 3.6 3.6 0.234 0.179 37.5630 37.5630 11.17 560 770 
0.023 2 35.00 35.00 3.6 3.0 0.096 0.076 37.5630 38.6363 11.17 570 780 
0.024 2 35.00 35.00 3.5 2.9 0.031 0.022 37.5630 38.6363 12.06 590 730 
0.025 2 35.00 35.00 2.9 2.8 0.011 0.016 38.6363 38.6363 12.06 570 710 
0.026 2 35.00 35.00 2.8 2.8 0.016 0.013 38.6363 38.6363 12.06 570 780 
0.027 2 35.00 35.00 2.8 2.7 0.022 0.020 38.6363 38.6363 12.06 570 770 
0.028 2 35.00 35.00 2.7 2.7 0.018 0.018 38.6363 38.6363 12.06 570 710 
0.029 2 35.00 35.00 3.2 3.7 0.018 0.018 37.5630 36.5478 12.07 600 800 
0.030 2 35.00 35.00 3.2 2.6 0.018 0.013 37.5630 38.6363 12.07 570 780 
0.031 2 35.00 35.00 3.2 2.5 0.009 0.011 37.5630 38.6363 12.07 570 710 
0.032 2 35.00 35.00 3.1 3.0 0.013 0.020 37.5630 37.5630 12.07 580 780 
0.033 2 35.00 35.00 3.6 3.6 0.016 0.018 36.5478 36.5478 12.07 570 780 
0.034 2 35.00 35.00 3.6 3.0 0.009 0.013 36.5478 37.5630 12.07 590 730 
0.035 2 35.00 35.00 3.6 3.5 0.007 0.011 36.5478 36.5478 12.07 570 720 
0.036 2 35.00 35.00 3.5 2.9 0.009 0.011 36.5478 37.5630 12.07 570 710 
0.037 2 35.00 35.00 4.0 3.4 0.007 0.016 35.5860 36.5478 12.07 570 720 
0.038 2 35.00 35.00 3.5 3.4 0.018 0.004 36.5478 36.5478 12.07 570 710 
0.039 2 35.00 35.00 3.5 3.4 0.007 0.007 36.5478 36.5478 12.02 600 740 
0.040 2 35.00 35.00 3.5 3.9 0.004 0.007 36.5478 35.5860 12.02 570 720 
0.041 2 35.00 35.00 3.4 3.3 0.007 0.016 36.5478 36.5478 12.02 570 710 
0.042 2 35.00 35.00 3.9 3.3 0.009 0.009 35.5860 36.5478 12.02 570 720 
0.043 2 35.00 35.00 3.9 3.3 0.018 0.002 35.5860 36.5478 12.02 570 720 
0.044 2 35.00 35.00 3.9 3.8 0.038 0.002 35.5860 35.5860 12.09 590 730 
0.045 2 35.00 35.00 3.4 3.3 0.029 0.004 36.5478 36.5478 12.09 570 720 
0.046 2 35.00 35.00 3.4 3.7 0.009 0.007 36.5478 35.5860 12.09 570 720 
0.047 2 35.00 35.00 3.3 3.2 0.007 0.011 36.5478 36.5478 12.09 570 780 
0.048 2 35.00 35.00 3.8 3.2 0.011 0.007 35.5860 36.5478 12.09 570 780 
0.049 2 35.00 35.00 4.3 3.2 0.004 0.009 34.6736 36.5478 12.06 590 730 
0.050 2 35.00 35.00 3.8 3.7 0.056 0.009 35.5860 35.5860 12.06 570 720 
0.051 2 35.00 35.00 3.8 3.1 0.045 0.004 35.5860 36.5478 12.06 570 720 
0.052 2 35.00 35.00 3.8 3.6 0.038 0.007 35.5860 35.5860 12.06 570 720 
0.053 2 35.00 35.00 4.3 3.6 0.031 0.009 34.6736 35.5860 12.06 560 710 
0.054 2 35.00 35.00 3.8 4.1 0.049 0.011 35.5860 34.6736 11.98 590 740 
0.055 2 35.00 35.00 3.8 3.1 0.040 0.022 35.5860 36.5478 11.98 580 720 
0.056 2 35.00 35.00 3.8 3.1 0.042 0.009 35.5860 36.5478 11.98 570 770 
0.057 2 35.00 35.00 3.8 3.6 0.031 0.007 35.5860 35.5860 11.98 570 780 
0.058 2 35.00 35.00 3.8 3.6 0.018 0.007 35.5860 35.5860 11.98 560 770 
0.059 2 35.00 35.00 3.8 3.5 0.020 0.004 35.5860 35.5860 12.04 590 790 
0.060 2 35.00 35.00 3.7 3.5 0.020 0.022 35.5860 35.5860 12.04 560 770 
0.061 2 35.00 35.00 3.7 3.5 0.007 0.009 35.5860 35.5860 12.04 570 780 
0.062 2 35.00 35.00 3.7 3.5 0.022 0.002 35.5860 35.5860 12.04 570 780 
0.063 2 35.00 35.00 3.7 4.0 0.020 0.007 35.5860 34.6736 12.04 570 780 
0.064 2 35.00 35.00 3.2 4.0 0.007 0.018 36.5478 34.6736 11.96 600 740 
0.065 2 35.00 35.00 3.2 4.0 0.007 0.031 36.5478 34.6736 11.96 570 720 
0.066 2 35.00 35.00 3.7 3.5 0.009 0.060 35.5860 35.5860 11.96 570 710 
0.067 2 35.00 35.00 3.6 3.5 0.009 0.036 35.5860 35.5860 11.96 570 780 
0.068 2 35.00 35.00 4.1 3.5 0.007 0.007 34.6736 35.5860 11.96 570 780 
0.069 2 35.00 35.00 3.6 4.0 0.042 0.007 35.5860 34.6736 11.96 590 800 
0.070 2 35.00 35.00 3.6 3.5 0.031 0.020 35.5860 35.5860 11.96 570 780 
0.071 2 35.00 35.00 3.6 4.0 0.027 0.007 35.5860 34.6736 11.96 570 770 
0.072 2 35.00 35.00 3.6 3.5 0.018 0.031 35.5860 35.5860 11.96 570 780 
0.073 2 35.00 35.00 3.6 3.5 0.007 0.018 35.5860 35.5860 11.96 570 780 
0.074 2 35.00 35.00 3.6 3.0 0.007 0.007 35.5860 36.5478 12.01 590 800 
0.075 2 35.00 35.00 3.6 2.9 0.020 0.004 35.5860 36.5478 12.01 570 780 
0.076 2 35.00 35.00 3.6 3.4 0.011 0.011 35.5860 35.5860 12.01 570 780 
0.077 2 35.00 35.00 3.6 3.4 0.004 0.009 35.5860 35.5860 12.01 570 780 
0.078 2 35.00 35.00 3.6 3.4 0.009 0.007 35.5860 35.5860 12.01 570 780 
0.079 2 35.00 35.00 3.5 3.4 0.007 0.009 35.5860 35.5860 12.02 590 800 
0.080 2 35.00 35.00 4.0 3.4 0.004 0.004 34.6736 35.5860 12.02 570 770 
0.081 2 35.00 35.00 3.5 3.4 0.031 0.007 35.5860 35.5860 12.02 560 760 
0.082 2 35.00 35.00 4.0 2.9 0.031 0.007 34.6736 36.5478 12.02 570 760 
0.083 2 35.00 35.00 3.5 3.8 0.033 0.011 35.5860 34.6736 12.02 570 770 
0.084 2 35.00 35.00 3.5 3.4 0.020 0.004 35.5860 35.5860 12.02 600 800 
0.085 2 35.00 35.00 3.5 3.3 0.011 0.016 35.5860 35.5860 12.02 570 770 
0.086 2 35.00 35.00 3.5 3.3 0.007 0.002 35.5860 35.5860 12.02 580 770 
0.087 2 35.00 35.00 4.0 3.3 0.007 0.007 34.6736 35.5860 12.02 570 780 
0.088 2 35.00 35.00 3.5 3.8 0.040 0.002 35.5860 34.6736 12.02 570 780 
0.089 2 35.00 35.00 4.0 3.3 0.020 0.013 34.6736 35.5860 12.04 590 790 
0.090 2 35.00 35.00 4.0 3.8 0.031 0.007 34.6736 34.6736 12.04 570 770 
0.091 2 35.00 35.00 4.0 3.8 0.047 0.011 34.6736 34.6736 12.04 560 770 
0.092 2 35.00 35.00 4.0 4.3 0.054 0.038 34.6736 33.8067 12.04 580 770 
0.093 2 35.00 35.00 4.0 3.3 0.049 0.051 34.6736 35.5860 12.04 570 770 
0.094 2 35.00 35.00 4.9 3.3 0.054 0.033 32.9822 35.5860 11.96 600 800 
0.095 2 35.00 35.00 4.0 3.8 0.112 0.013 34.6736 34.6736 11.96 570 770 
0.096 2 35.00 35.00 4.1 3.3 0.096 0.007 34.6736 35.5860 11.96 570 780 
0.097 2 35.00 35.00 4.1 3.3 0.058 0.007 34.6736 35.5860 11.96 560 770 
0.098 2 35.00 35.00 4.1 3.3 0.058 0.009 34.6736 35.5860 11.96 580 770 
0.099 2 35.00 35.00 4.1 3.3 0.054 0.004 34.6736 35.5860 12.01 590 800 
0.100 2 35.00 35.00 3.6 3.3 0.047 0.004 35.5860 35.5860 12.01 570 770 
0.101 2 35.00 35.00 3.6 3.8 0.040 0.007 35.5860 34.6736 12.01 570 780 
0.102 2 35.00 35.00 3.6 4.2 0.009 0.004 35.5860 33.8067 12.01 570 760 
0.103 2 35.00 35.00 3.0 3.8 0.009 0.027 36.5478 34.6736 12.01 570 780 
0.104 2 35.00 35.00 3.0 3.3 0.007 0.047 36.5478 35.5860 12.01 590 790 
0.105 2 35.00 35.00 3.5 3.3 0.011 0.029 35.5860 35.5860 12.01 570 780 
0.106 2 35.00 35.00 4.0 3.3 0.009 0.007 34.6736 35.5860 12.01 570 770 
0.107 2 35.00 35.00 3.5 3.8 0.029 0.007 35.5860 34.6736 12.01 570 780 
0.108 2 35.00 35.00 3.5 3.3 0.009 0.007 35.5860 35.5860 12.01 570 770 
0.109 2 35.00 35.00 3.5 3.8 0.007 0.004 35.5860 34.6736 12.04 590 800 
0.110 2 35.00 35.00 3.5 3.8 0.007 0.009 35.5860 34.6736 12.04 570 770 
0.111 2 35.00 35.00 3.5 4.2 0.004 0.022 35.5860 33.8067 12.04 570 760 
0.112 2 35.00 35.00 3.5 3.3 0.004 0.045 35.5860 35.5860 12.04 560 760 
0.113 2 35.00 35.00 3.9 3.3 0.007 0.027 34.6736 35.5860 12.04 570 780 
0.114 2 35.00 35.00 3.9 3.8 0.027 0.004 34.6736 34.6736 12.06 600 790 
0.115 2 35.00 35.00 3.9 3.3 0.031 0.004 34.6736 35.5860 12.06 560 770 
0.116 2 35.00 35.00 4.0 3.3 0.033 0.004 34.6736 35.5860 12.06 570 770 
0.117 2 35.00 35.00 4.0 4.2 0.045 0.004 34.6736 33.8067 12.06 570 780 
0.118 2 35.00 35.00 4.0 3.3 0.040 0.033 34.6736 35.5860 12.06 570 780 
0.119 2 35.00 35.00 4.0 3.3 0.042 0.009 34.6736 35.5860 11.96 600 800 
0.120 2 35.00 35.00 4.0 3.3 0.060 0.007 34.6736 35.5860 11.96 570 780 
0.121 2 35.00 35.00 4.0 3.8 0.051 0.004 34.6736 34.6736 11.96 580 780 
0.122 2 35.00 35.00 3.5 3.8 0.049 0.007 35.5860 34.6736 11.96 560 770 
0.123 2 35.00 35.00 3.5 3.3 0.022 0.022 35.5860 35.5860 11.96 570 770 
0.124 2 35.00 35.00 4.0 3.3 0.007 0.020 34.6736 35.5860 12.01 600 800 
0.125 2 35.00 35.00 3.5 3.3 0.013 0.007 35.5860 35.5860 12.01 570 770 
0.126 2 35.00 35.00 3.5 3.7 0.013 0.002 35.5860 34.6736 12.01 570 780 
0.127 2 35.00 35.00 3.5 3.3 0.004 0.009 35.5860 35.5860 12.01 570 780 
0.128 2 35.00 35.00 3.5 3.7 0.007 0.004 35.5860 34.6736 12.01 560 770 
0.129 2 35.00 35.00 3.9 3.7 0.007 0.004 34.6736 34.6736 11.94 600 800 
0.130 2 35.00 35.00 3.4 4.2 0.020 0.027 35.5860 33.8067 11.94 570 770 
0.131 2 35.00 35.00 3.4 3.3 0.011 0.051 35.5860 35.5860 11.94 570 780 
0.132 2 35.00 35.00 3.9 3.3 0.007 0.027 34.6736 35.5860 11.94 560 770 
0.133 2 35.00 35.00 3.9 3.7 0.033 0.004 34.6736 34.6736 11.94 570 780 
0.134 2 35.00 35.00 3.9 3.3 0.036 0.002 34.6736 35.5860 11.98 590 800 
0.135 2 35.00 35.00 3.9 3.2 0.049 0.007 34.6736 35.5860 11.98 570 770 
0.136 2 35.00 35.00 3.9 3.2 0.047 0.004 34.6736 35.5860 11.98 570 780 
0.137 2 35.00 35.00 3.9 3.2 0.042 0.004 34.6736 35.5860 11.98 570 780 
0.138 2 35.00 35.00 3.5 3.2 0.049 0.007 35.5860 35.5860 11.98 570 780 
0.139 2 35.00 35.00 3.9 3.7 0.027 0.004 34.6736 34.6736 12.02 600 800 
0.140 2 35.00 35.00 3.9 3.7 0.025 0.004 34.6736 34.6736 12.02 560 760 
0.141 2 35.00 35.00 3.5 3.7 0.027 0.007 35.5860 34.6736 12.02 560 760 
0.142 2 35.00 35.00 3.5 3.2 0.007 0.025 35.5860 35.5860 12.02 560 770 
0.143 2 35.00 35.00 3.9 3.7 0.004 0.018 34.6736 34.6736 12.02 570 770 
0.144 2 35.00 35.00 3.4 3.7 0.004 0.004 35.5860 34.6736 11.98 600 800 
0.145 2 35.00 35.00 3.4 3.7 0.013 0.027 35.5860 34.6736 11.98 560 760 
0.146 2 35.00 35.00 3.4 3.7 0.007 0.025 35.5860 34.6736 11.98 570 780 
0.147 2 35.00 35.00 3.9 3.7 0.009 0.016 34.6736 34.6736 11.98 560 760 
0.148 2 35.00 35.00 3.9 3.2 0.013 0.013 34.6736 35.5860 11.98 570 770 
0.149 2 35.00 35.00 3.9 4.2 0.038 0.007 34.6736 33.8067 11.99 600 790 
0.150 2 35.00 35.00 3.9 3.3 0.036 0.025 34.6736 35.5860 11.99 570 770 
0.151 2 35.00 35.00 3.9 3.2 0.038 0.004 34.6736 35.5860 11.99 570 780 
0.152 2 35.00 35.00 3.9 4.6 0.060 0.002 34.6736 32.9822 11.99 570 780 
0.153 2 35.00 35.00 3.9 3.3 0.047 0.049 34.6736 35.5860 11.99 570 780 
0.154 2 35.00 35.00 3.9 3.3 0.047 0.020 34.6736 35.5860 12.01 590 790 
0.155 2 35.00 35.00 4.0 3.2 0.047 0.004 34.6736 35.5860 12.01 560 770 
0.156 2 35.00 35.00 4.0 3.2 0.047 0.007 34.6736 35.5860 12.01 570 770 
0.157 2 35.00 35.00 4.0 3.2 0.045 0.009 34.6736 35.5860 12.01 570 780 
0.158 2 35.00 35.00 3.5 3.7 0.051 0.004 35.5860 34.6736 12.01 570 770 
0.159 2 35.00 35.00 3.5 3.2 0.027 0.002 35.5860 35.5860 12.02 590 800 
0.160 2 35.00 35.00 3.5 3.7 0.007 0.007 35.5860 34.6736 12.02 570 780 
0.161 2 35.00 35.00 3.4 3.2 0.007 0.011 35.5860 35.5860 12.02 580 780 
0.162 2 35.00 35.00 3.9 3.2 0.004 0.013 34.6736 35.5860 12.02 570 780 
0.163 2 35.00 35.00 3.9 3.2 0.007 0.004 34.6736 35.5860 12.02 570 770 
0.164 2 35.00 35.00 3.9 3.7 0.031 0.009 34.6736 34.6736 11.98 590 800 
0.165 2 35.00 35.00 4.4 3.7 0.049 0.007 33.8067 34.6736 11.98 570 780 
0.166 2 35.00 35.00 3.5 3.7 0.067 0.007 35.5860 34.6736 11.98 570 770 
0.167 2 35.00 35.00 3.5 3.2 0.038 0.013 35.5860 35.5860 11.98 580 780 
0.168 2 35.00 35.00 3.5 4.2 0.011 0.004 35.5860 33.8067 11.98 580 770 
0.169 2 35.00 35.00 3.4 3.2 0.007 0.027 35.5860 35.5860 12.01 590 790 
0.170 2 35.00 35.00 3.4 3.2 0.004 0.011 35.5860 35.5860 12.01 570 780 
0.171 2 35.00 35.00 3.4 3.2 0.009 0.004 35.5860 35.5860 12.01 570 780 
0.172 2 35.00 35.00 3.4 3.2 0.007 0.002 35.5860 35.5860 12.01 570 780 
0.173 2 35.00 35.00 3.4 3.7 0.007 0.009 35.5860 34.6736 12.01 570 780 
0.174 2 35.00 35.00 3.4 3.2 0.002 0.009 35.5860 35.5860 12.04 590 800 
0.175 2 35.00 35.00 3.4 3.2 0.007 0.011 35.5860 35.5860 12.04 570 780 
0.176 2 35.00 35.00 3.9 3.2 0.007 0.011 34.6736 35.5860 12.04 570 780 
0.177 2 35.00 35.00 5.2 3.6 0.025 0.004 32.1969 34.6736 12.04 560 770 
0.178 2 35.00 35.00 3.9 3.2 0.114 0.016 34.6736 35.5860 12.04 570 780 
0.179 2 35.00 35.00 3.4 3.6 0.098 0.004 35.5860 34.6736 11.98 600 800 
0.180 2 35.00 35.00 3.4 3.6 0.029 0.004 35.5860 34.6736 11.98 570 780 
0.181 2 35.00 35.00 3.9 4.1 0.004 0.038 34.6736 33.8067 11.98 570 770 
0.182 2 35.00 35.00 3.4 3.7 0.009 0.047 35.5860 34.6736 11.98 560 770 
0.183 2 35.00 35.00 3.9 3.7 0.009 0.036 34.6736 34.6736 11.98 570 770 
0.184 2 35.00 35.00 3.4 3.7 0.027 0.031 35.5860 34.6736 11.96 590 800 
0.185 2 35.00 35.00 3.4 3.7 0.011 0.013 35.5860 34.6736 11.96 570 780 
0.186 2 35.00 35.00 3.4 3.2 0.004 0.016 35.5860 35.5860 11.96 570 780 
0.187 2 35.00 35.00 3.4 3.2 0.004 0.007 35.5860 35.5860 11.96 570 780 
0.188 2 35.00 35.00 3.4 3.2 0.007 0.007 35.5860 35.5860 11.96 570 780 
0.189 2 35.00 35.00 3.9 3.7 0.007 0.007 34.6736 34.6736 12.02 600 800 
0.190 2 35.00 35.00 3.9 3.2 0.027 0.007 34.6736 35.5860 12.02 570 780 
0.191 2 35.00 35.00 4.3 3.7 0.036 0.007 33.8067 34.6736 12.02 570 770 
0.192 2 35.00 35.00 3.9 3.7 0.056 0.007 34.6736 34.6736 12.02 570 780 
0.193 2 35.00 35.00 4.4 3.2 0.040 0.016 33.8067 35.5860 12.02 570 770 
0.194 2 35.00 35.00 3.9 3.2 0.069 0.004 34.6736 35.5860 12.01 590 800 
0.195 2 35.00 35.00 3.9 3.2 0.060 0.009 34.6736 35.5860 12.01 570 780 
0.196 2 35.00 35.00 3.4 3.6 0.045 0.011 35.5860 34.6736 12.01 570 780 
0.197 2 35.00 35.00 4.8 3.2 0.029 0.004 32.9822 35.5860 12.01 570 780 
0.198 2 35.00 35.00 3.5 3.6 0.062 0.013 35.5860 34.6736 12.01 570 780 
0.199 2 35.00 35.00 3.4 3.6 0.049 0.004 35.5860 34.6736 12.04 590 790 
0.200 2 35.00 35.00 3.4 4.1 0.009 0.029 35.5860 33.8067 12.04 570 770 
0.201 2 35.00 35.00 3.4 3.7 0.007 0.049 35.5860 34.6736 12.04 570 780 
0.202 2 35.00 35.00 3.9 3.2 0.007 0.033 34.6736 35.5860 12.04 570 780 
0.203 2 35.00 35.00 3.4 3.7 0.027 0.004 35.5860 34.6736 12.04 570 780 
0.204 2 35.00 35.00 3.4 3.7 0.013 0.007 35.5860 34.6736 12.06 590 790 
0.205 2 35.00 35.00 3.4 4.1 0.004 0.004 35.5860 33.8067 12.06 570 770 
0.206 2 35.00 35.00 3.4 3.7 0.004 0.056 35.5860 34.6736 12.06 570 780 
0.207 2 35.00 35.00 3.9 3.7 0.007 0.040 34.6736 34.6736 12.06 570 770 
0.208 2 35.00 35.00 3.9 3.7 0.007 0.027 34.6736 34.6736 12.06 570 780 
0.209 2 35.00 35.00 3.9 3.2 0.038 0.040 34.6736 35.5860 11.99 600 800 
0.210 2 35.00 35.00 3.9 3.2 0.047 0.009 34.6736 35.5860 11.99 570 780 
0.211 2 35.00 35.00 3.9 3.2 0.038 0.004 34.6736 35.5860 11.99 570 780 
0.212 2 35.00 35.00 3.9 3.2 0.033 0.011 34.6736 35.5860 11.99 580 780 
0.213 2 35.00 35.00 3.9 3.2 0.047 0.004 34.6736 35.5860 11.99 570 780 
0.214 2 35.00 35.00 3.9 3.2 0.038 0.007 34.6736 35.5860 11.98 600 800 
0.215 2 35.00 35.00 3.4 3.2 0.036 0.007 35.5860 35.5860 11.98 570 780 
0.216 2 35.00 35.00 3.4 3.2 0.027 0.004 35.5860 35.5860 11.98 580 780 
0.217 2 35.00 35.00 3.4 4.1 0.004 0.009 35.5860 33.8067 11.98 570 770 
0.218 2 35.00 35.00 3.4 4.1 0.007 0.011 35.5860 33.8067 11.98 560 760 
0.219 2 35.00 35.00 3.4 3.7 0.007 0.062 35.5860 34.6736 12.04 590 780 
0.220 2 35.00 35.00 3.9 3.7 0.011 0.067 34.6736 34.6736 12.04 560 770 
0.221 2 35.00 35.00 3.9 3.7 0.004 0.036 34.6736 34.6736 12.04 560 760 
0.222 2 35.00 35.00 3.4 4.2 0.038 0.031 35.5860 33.8067 12.04 560 760 
0.223 2 35.00 35.00 3.9 3.2 0.011 0.051 34.6736 35.5860 12.04 570 770 
0.224 2 35.00 35.00 3.9 3.7 0.016 0.009 34.6736 34.6736 12.02 590 800 
0.225 2 35.00 35.00 3.9 3.7 0.033 0.009 34.6736 34.6736 12.02 570 770 
0.226 2 35.00 35.00 3.9 4.2 0.040 0.022 34.6736 33.8067 12.02 570 770 
0.227 2 35.00 35.00 3.9 3.2 0.033 0.045 34.6736 35.5860 12.02 570 770 
0.228 2 35.00 35.00 3.9 3.2 0.036 0.016 34.6736 35.5860 12.02 570 770 
0.231 2 35.00 35.00 3.9 3.7 0.051 0.004 34.6736 34.6736 12.06 590 790 
0.232 2 35.00 35.00 3.9 3.2 0.038 0.018 34.6736 35.5860 12.06 560 770 
0.233 2 35.00 35.00 3.9 3.2 0.042 0.020 34.6736 35.5860 12.06 570 780 
0.233 2 35.00 35.00 3.9 3.2 0.029 0.007 34.6736 35.5860 12.06 560 760 
0.234 2 35.00 35.00 3.4 3.2 0.033 0.007 35.5860 35.5860 12.06 570 780 
0.235 2 35.00 35.00 3.4 3.2 0.029 0.009 35.5860 35.5860 12.02 590 800 
0.236 2 35.00 35.00 3.4 3.7 0.007 0.007 35.5860 34.6736 12.02 570 780 
0.237 2 35.00 35.00 3.4 3.7 0.007 0.002 35.5860 34.6736 12.02 570 780 
0.238 2 35.00 35.00 3.4 3.2 0.007 0.018 35.5860 35.5860 12.02 560 770 
0.239 2 35.00 35.00 3.9 3.2 0.009 0.011 34.6736 35.5860 12.02 570 780 
0.240 2 35.00 35.00 3.4 3.2 0.007 0.009 35.5860 35.5860 12.02 600 800 
0.241 2 35.00 35.00 3.4 3.7 0.016 0.007 35.5860 34.6736 12.02 570 780 
0.242 2 35.00 35.00 3.4 3.2 0.004 0.004 35.5860 35.5860 12.02 570 780 
0.243 2 35.00 35.00 3.9 3.6 0.009 0.004 34.6736 34.6736 12.02 570 780 
0.244 2 35.00 35.00 3.9 4.1 0.013 0.007 34.6736 33.8067 12.02 570 780 
0.245 2 35.00 35.00 3.9 4.1 0.029 0.047 34.6736 33.8067 12.02 590 780 
0.246 2 35.00 35.00 3.9 3.2 0.031 0.067 34.6736 35.5860 12.02 570 780 
0.247 2 35.00 35.00 3.9 3.2 0.031 0.027 34.6736 35.5860 12.02 570 780 
0.248 2 35.00 35.00 3.9 5.0 0.047 0.007 34.6736 32.1969 12.02 560 770 
0.249 2 35.00 35.00 3.9 3.2 0.033 0.067 34.6736 35.5860 12.02 570 780 
0.250 2 35.00 35.00 3.9 3.2 0.047 0.033 34.6736 35.5860 11.99 600 800 
0.251 2 35.00 35.00 3.9 3.2 0.042 0.007 34.6736 35.5860 11.99 560 770 
0.252 2 35.00 35.00 3.9 3.2 0.033 0.007 34.6736 35.5860 11.99 570 770 
0.253 2 35.00 35.00 3.4 3.2 0.042 0.007 35.5860 35.5860 11.99 570 780 
0.254 2 35.00 35.00 3.4 3.7 0.025 0.002 35.5860 34.6736 11.99 570 780 
0.255 2 35.00 35.00 3.4 3.2 0.007 0.004 35.5860 35.5860 11.96 600 800 
0.256 2 35.00 35.00 3.4 3.7 0.007 0.009 35.5860 34.6736 11.96 580 780 
0.257 2 35.00 35.00 3.4 3.2 0.009 0.009 35.5860 35.5860 11.96 570 780 
0.258 2 35.00 35.00 3.9 3.2 0.007 0.016 34.6736 35.5860 11.96 570 770 
0.259 2 35.00 35.00 3.4 3.2 0.009 0.007 35.5860 35.5860 11.96 570 780 
0.260 2 35.00 35.00 3.9 3.6 0.009 0.009 34.6736 34.6736 12.09 590 800 
0.261 2 35.00 35.00 3.4 3.6 0.020 0.004 35.5860 34.6736 12.09 570 780 
0.262 2 35.00 35.00 3.9 3.7 0.007 0.007 34.6736 34.6736 12.09 570 770 
0.263 2 35.00 35.00 3.9 3.2 0.011 0.002 34.6736 35.5860 12.09 570 780 
0.264 2 35.00 35.00 3.9 5.4 0.036 0.007 34.6736 31.4481 12.09 570 780 
0.265 2 35.00 35.00 3.9 3.2 0.027 0.092 34.6736 35.5860 11.96 590 790 
0.266 2 35.00 35.00 3.9 3.2 0.033 0.060 34.6736 35.5860 11.96 570 780 
0.267 2 35.00 35.00 3.9 3.2 0.051 0.009 34.6736 35.5860 11.96 570 780 
0.268 2 35.00 35.00 3.9 3.2 0.040 0.009 34.6736 35.5860 11.96 570 780 
0.269 2 35.00 35.00 3.9 3.2 0.040 0.009 34.6736 35.5860 11.96 570 780 
0.270 2 35.00 35.00 3.9 3.2 0.045 0.007 34.6736 35.5860 11.99 590 800 
0.271 2 35.00 35.00 3.9 3.2 0.042 0.004 34.6736 35.5860 11.99 570 780 
0.272 2 35.00 35.00 3.9 3.1 0.038 0.009 34.6736 35.5860 11.99 570 780 
0.273 2 35.00 35.00 3.4 3.6 0.045 0.009 35.5860 34.6736 11.99 570 780 
0.274 2 35.00 35.00 3.4 3.1 0.020 0.004 35.5860 35.5860 11.99 570 780 
0.275 2 35.00 35.00 3.4 3.6 0.007 0.004 35.5860 34.6736 12.07 590 800 
0.276 2 35.00 35.00 3.4 3.1 0.007 0.004 35.5860 35.5860 12.07 560 770 
0.277 2 35.00 35.00 3.9 3.6 0.004 0.009 34.6736 34.6736 12.07 570 780 
0.278 2 35.00 35.00 3.4 3.6 0.007 0.004 35.5860 34.6736 12.07 560 770 
0.279 2 35.00 35.00 3.9 3.1 0.007 0.009 34.6736 35.5860 12.07 570 780 
0.280 2 35.00 35.00 3.4 3.6 0.025 0.007 35.5860 34.6736 12.04 600 800 
0.281 2 35.00 35.00 3.9 4.1 0.009 0.002 34.6736 33.8067 12.04 570 770 
0.282 2 35.00 35.00 3.9 3.6 0.022 0.022 34.6736 34.6736 12.04 570 780 
0.283 2 35.00 35.00 3.9 4.1 0.036 0.036 34.6736 33.8067 12.04 570 770 
0.284 2 35.00 35.00 3.9 4.1 0.029 0.049 34.6736 33.8067 12.04 570 780 
0.285 2 35.00 35.00 3.9 3.7 0.038 0.067 34.6736 34.6736 12.01 590 790 
0.286 2 35.00 35.00 3.9 3.7 0.051 0.051 34.6736 34.6736 12.01 570 780 
0.287 2 35.00 35.00 3.9 3.7 0.040 0.042 34.6736 34.6736 12.01 560 770 
0.288 2 35.00 35.00 3.9 4.6 0.038 0.022 34.6736 32.9822 12.01 570 780 
0.289 2 35.00 35.00 3.9 3.2 0.036 0.065 34.6736 35.5860 12.01 570 780 
0.290 2 35.00 35.00 3.9 3.2 0.038 0.054 34.6736 35.5860 11.96 600 800 
0.291 2 35.00 35.00 3.9 3.2 0.036 0.009 34.6736 35.5860 11.96 570 770 
0.292 2 35.00 35.00 3.9 3.7 0.045 0.009 34.6736 34.6736 11.96 570 770 
0.293 2 35.00 35.00 3.9 2.7 0.051 0.007 34.6736 36.5478 11.96 570 770 
0.294 2 35.00 35.00 3.4 3.7 0.042 0.011 35.5860 34.6736 11.96 570 760 
0.295 2 35.00 35.00 3.4 3.2 0.016 0.004 35.5860 35.5860 12.07 590 790 
0.296 2 35.00 35.00 3.9 3.7 0.007 0.011 34.6736 34.6736 12.07 570 760 
0.297 2 35.00 35.00 3.4 3.2 0.004 0.007 35.5860 35.5860 12.07 560 770 
0.298 2 35.00 35.00 3.9 3.2 0.009 0.004 34.6736 35.5860 12.07 560 760 
0.299 2 35.00 35.00 3.4 3.7 0.027 0.009 35.5860 34.6736 12.07 560 770 
0.300 2 35.00 35.00 3.4 3.7 0.007 0.007 35.5860 34.6736 12.01 600 800 
0.301 2 35.00 35.00 3.4 3.7 0.002 0.002 35.5860 34.6736 12.01 570 780 
0.302 2 35.00 35.00 3.4 3.7 0.007 0.031 35.5860 34.6736 12.01 570 770 
0.303 2 35.00 35.00 3.4 3.7 0.009 0.029 35.5860 34.6736 12.01 570 780 
0.304 2 35.00 35.00 3.4 3.7 0.007 0.018 35.5860 34.6736 12.01 570 770 
0.305 2 35.00 35.00 3.4 3.2 0.004 0.020 35.5860 35.5860 11.98 600 800 
0.306 2 35.00 35.00 3.4 3.2 0.007 0.009 35.5860 35.5860 11.98 570 770 
0.307 2 35.00 35.00 3.4 3.2 0.009 0.004 35.5860 35.5860 11.98 570 770 
0.308 2 35.00 35.00 3.3 3.2 0.004 0.011 35.5860 35.5860 11.98 570 770 
0.309 2 35.00 35.00 3.3 3.2 0.007 0.007 35.5860 35.5860 11.98 570 770 
0.310 2 35.00 35.00 3.8 3.2 0.009 0.009 34.6736 35.5860 12.07 590 780 
0.311 2 35.00 35.00 3.8 4.1 0.016 0.007 34.6736 33.8067 12.07 570 770 
0.312 2 35.00 35.00 3.8 3.2 0.038 0.013 34.6736 35.5860 12.07 570 770 
0.313 2 35.00 35.00 3.8 3.7 0.031 0.011 34.6736 34.6736 12.07 570 780 
0.314 2 35.00 35.00 3.3 3.2 0.036 0.004 35.5860 35.5860 12.07 560 760 
0.315 2 35.00 35.00 3.3 3.7 0.013 0.007 35.5860 34.6736 12.06 590 800 
0.316 2 35.00 35.00 3.8 3.2 0.011 0.007 34.6736 35.5860 12.06 580 780 
0.317 2 35.00 35.00 4.3 3.2 0.016 0.009 33.8067 35.5860 12.06 560 760 
0.318 2 35.00 35.00 3.8 3.6 0.060 0.009 34.6736 34.6736 12.06 560 770 
0.319 2 35.00 35.00 3.8 4.1 0.056 0.004 34.6736 33.8067 12.06 570 770 
0.320 2 35.00 35.00 3.9 3.7 0.047 0.022 34.6736 34.6736 11.94 590 790 
0.321 2 35.00 35.00 3.9 3.7 0.040 0.038 34.6736 34.6736 11.94 570 770 
0.322 2 35.00 35.00 3.9 3.7 0.045 0.031 34.6736 34.6736 11.94 570 780 
0.323 2 35.00 35.00 3.9 3.7 0.036 0.020 34.6736 34.6736 11.94 570 780 
0.324 2 35.00 35.00 3.9 3.2 0.042 0.027 34.6736 35.5860 11.94 570 780 
0.325 2 35.00 35.00 3.9 3.2 0.049 0.004 34.6736 35.5860 12.01 600 790 
0.326 2 35.00 35.00 3.9 3.2 0.040 0.009 34.6736 35.5860 12.01 570 770 
0.327 2 35.00 35.00 3.9 3.2 0.033 0.009 34.6736 35.5860 12.01 570 760 
0.328 2 35.00 35.00 3.9 3.2 0.045 0.004 34.6736 35.5860 12.01 570 780 
0.329 2 35.00 35.00 3.9 3.1 0.036 0.007 34.6736 35.5860 12.01 570 760 
0.330 2 35.00 35.00 3.9 3.1 0.033 0.011 34.6736 35.5860 12.01 590 800 
0.331 2 35.00 35.00 3.4 3.1 0.051 0.007 35.5860 35.5860 12.01 570 780 
0.332 2 35.00 35.00 3.4 3.6 0.018 0.007 35.5860 34.6736 12.01 560 770 
0.333 2 35.00 35.00 3.4 3.1 0.007 0.004 35.5860 35.5860 12.01 580 780 
0.334 2 35.00 35.00 3.4 3.1 0.007 0.009 35.5860 35.5860 12.01 570 780 
0.335 2 35.00 35.00 3.9 3.6 0.009 0.007 34.6736 34.6736 11.99 600 800 
0.336 2 35.00 35.00 3.9 3.6 0.009 0.007 34.6736 34.6736 11.99 570 780 
0.337 2 35.00 35.00 3.4 4.1 0.038 0.011 35.5860 33.8067 11.99 570 770 
0.338 2 35.00 35.00 3.4 3.6 0.011 0.040 35.5860 34.6736 11.99 570 770 
0.339 2 35.00 35.00 3.4 3.6 0.007 0.033 35.5860 34.6736 11.99 570 780 
0.340 2 35.00 35.00 3.4 4.1 0.004 0.029 35.5860 33.8067 12.04 590 780 
0.341 2 35.00 35.00 3.4 4.1 0.004 0.045 35.5860 33.8067 12.04 570 770 
0.342 2 35.00 35.00 3.3 3.2 0.009 0.069 35.5860 35.5860 12.04 570 770 
0.343 2 35.00 35.00 3.8 3.2 0.004 0.020 34.6736 35.5860 12.04 570 780 
0.344 2 35.00 35.00 4.3 3.7 0.018 0.007 33.8067 34.6736 12.04 560 760 
0.345 2 35.00 35.00 3.8 3.7 0.047 0.002 34.6736 34.6736 11.93 600 800 
0.346 2 35.00 35.00 3.9 3.7 0.054 0.007 34.6736 34.6736 11.93 580 780 
0.347 2 35.00 35.00 3.9 3.7 0.049 0.040 34.6736 34.6736 11.93 570 770 
0.348 2 35.00 35.00 3.9 3.7 0.038 0.033 34.6736 34.6736 11.93 570 770 
0.349 2 35.00 35.00 3.4 3.7 0.040 0.020 35.5860 34.6736 11.93 570 780 
0.350 2 35.00 35.00 3.9 3.7 0.027 0.031 34.6736 34.6736 11.99 600 800 
0.351 2 35.00 35.00 3.9 5.0 0.020 0.018 34.6736 32.1969 11.99 570 770 
0.352 2 35.00 35.00 3.4 3.7 0.029 0.080 35.5860 34.6736 11.99 570 770 
0.353 2 35.00 35.00 3.4 3.3 0.009 0.062 35.5860 35.5860 11.99 560 770 
0.354 2 35.00 35.00 3.9 3.2 0.007 0.033 34.6736 35.5860 11.99 570 780 
0.355 2 35.00 35.00 3.4 3.2 0.007 0.007 35.5860 35.5860 12.01 600 810 
0.356 2 35.00 35.00 3.8 3.7 0.013 0.004 34.6736 34.6736 12.01 560 770 
0.357 2 35.00 35.00 3.4 3.2 0.020 0.011 35.5860 35.5860 12.01 570 780 
0.358 2 35.00 35.00 3.8 3.7 0.004 0.004 34.6736 34.6736 12.01 570 780 
0.359 2 35.00 35.00 3.8 3.7 0.016 0.007 34.6736 34.6736 12.01 580 780 
0.360 2 35.00 35.00 3.9 3.7 0.033 0.020 34.6736 34.6736 12.01 590 800 
0.361 2 35.00 35.00 3.9 2.7 0.033 0.016 34.6736 36.5478 12.01 560 770 
0.362 2 35.00 35.00 3.9 3.2 0.029 0.011 34.6736 35.5860 12.01 570 780 
0.363 2 35.00 35.00 3.9 3.7 0.051 0.004 34.6736 34.6736 12.01 570 770 
0.364 2 35.00 35.00 3.9 3.2 0.040 0.007 34.6736 35.5860 12.01 570 780 
0.365 2 35.00 35.00 3.9 3.2 0.042 0.009 34.6736 35.5860 12.02 600 790 
0.366 2 35.00 35.00 3.9 3.2 0.040 0.007 34.6736 35.5860 12.02 570 780 
0.367 2 35.00 35.00 3.9 3.2 0.031 0.004 34.6736 35.5860 12.02 570 770 
0.368 2 35.00 35.00 3.9 3.2 0.036 0.009 34.6736 35.5860 12.02 570 770 
0.369 2 35.00 35.00 3.9 3.7 0.047 0.007 34.6736 34.6736 12.02 560 760 
0.370 2 35.00 35.00 3.9 6.1 0.047 0.004 34.6736 30.0504 12.06 590 790 
0.371 2 35.00 35.00 3.4 3.7 0.036 0.136 35.5860 34.6736 12.06 570 770 
0.372 2 35.00 35.00 3.4 3.2 0.007 0.094 35.5860 35.5860 12.06 580 770 
0.373 2 35.00 35.00 3.9 3.2 0.007 0.033 34.6736 35.5860 12.06 570 770 
0.374 2 35.00 35.00 3.4 3.2 0.007 0.007 35.5860 35.5860 12.06 570 770 
0.375 2 35.00 35.00 3.9 3.2 0.007 0.009 34.6736 35.5860 12.06 590 800 
0.376 2 35.00 35.00 3.4 3.2 0.020 0.004 35.5860 35.5860 12.06 580 770 
0.377 2 35.00 35.00 3.4 3.7 0.007 0.007 35.5860 34.6736 12.06 570 780 
0.378 2 35.00 35.00 3.4 3.7 0.007 0.009 35.5860 34.6736 12.06 580 770 
0.379 2 35.00 35.00 3.4 3.7 0.004 0.016 35.5860 34.6736 12.06 560 770 
0.380 2 35.00 35.00 3.4 3.2 0.004 0.018 35.5860 35.5860 12.04 590 790 
0.381 2 35.00 35.00 3.4 3.2 0.009 0.007 35.5860 35.5860 12.04 570 780 
0.382 2 35.00 35.00 3.8 3.7 0.007 0.004 34.6736 34.6736 12.04 580 770 
0.383 2 35.00 35.00 3.8 3.2 0.009 0.004 34.6736 35.5860 12.04 560 770 
0.384 2 35.00 35.00 3.8 3.2 0.025 0.007 34.6736 35.5860 12.04 570 770 
0.385 2 35.00 35.00 3.9 3.2 0.033 0.004 34.6736 35.5860 12.02 590 800 
0.386 2 35.00 35.00 3.9 3.2 0.038 0.013 34.6736 35.5860 12.02 570 770 
0.387 2 35.00 35.00 3.9 3.2 0.029 0.016 34.6736 35.5860 12.02 570 770 
0.388 2 35.00 35.00 3.9 3.6 0.038 0.004 34.6736 34.6736 12.02 570 770 
0.389 2 35.00 35.00 3.9 3.7 0.047 0.007 34.6736 34.6736 12.02 570 770 
0.390 2 35.00 35.00 3.4 3.7 0.038 0.002 35.5860 34.6736 12.01 600 790 
0.391 2 35.00 35.00 3.4 3.2 0.013 0.016 35.5860 35.5860 12.01 570 780 
0.392 2 35.00 35.00 5.2 3.2 0.007 0.016 32.1969 35.5860 12.01 570 770 
0.393 2 35.00 35.00 3.4 3.2 0.069 0.002 35.5860 35.5860 12.01 570 780 
0.394 2 35.00 35.00 3.9 3.6 0.047 0.004 34.6736 34.6736 12.01 570 770 
0.395 2 35.00 35.00 3.4 3.6 0.040 0.007 35.5860 34.6736 12.07 590 790 
0.396 2 35.00 35.00 4.4 3.6 0.013 0.011 33.8067 34.6736 12.07 570 770 
0.397 2 35.00 35.00 3.4 3.7 0.045 0.007 35.5860 34.6736 12.07 570 780 
0.398 2 35.00 35.00 3.4 4.1 0.027 0.022 35.5860 33.8067 12.07 570 760 
0.399 2 35.00 35.00 3.4 3.2 0.009 0.047 35.5860 35.5860 12.07 570 770 
0.400 2 35.00 35.00 3.4 3.2 0.009 0.013 35.5860 35.5860 12.02 590 790 
0.401 4 40.00 40.00 6.1 5.9 0.004 0.004 35.5860 35.5860 12.02 560 770 
0.402 4 40.00 40.00 6.1 6.4 0.132 0.112 35.5860 34.6736 12.02 570 770 
0.403 4 40.00 40.00 6.2 6.5 0.263 0.263 35.5860 34.6736 12.02 560 770 
0.404 4 40.00 40.00 6.3 6.1 0.261 0.315 35.5860 35.5860 12.02 570 770 
0.405 4 40.00 40.00 6.4 5.7 0.328 0.373 35.5860 36.5478 11.71 590 800 
0.406 4 40.00 40.00 6.4 5.7 0.368 0.348 35.5860 36.5478 11.71 560 770 
0.407 4 40.00 40.00 6.0 5.2 0.326 0.321 36.5478 37.5630 11.71 570 770 
0.408 4 40.00 40.00 5.5 5.3 0.364 0.228 37.5630 37.5630 11.71 570 770 
0.409 4 40.00 40.00 5.0 4.7 0.324 0.217 38.6363 38.6363 11.71 570 780 
0.410 4 40.00 40.00 5.0 4.7 0.185 0.165 38.6363 38.6363 11.88 590 800 
0.411 4 40.00 40.00 5.0 4.8 0.156 0.143 38.6363 38.6363 11.88 570 770 
0.412 4 40.00 40.00 4.4 4.2 0.145 0.127 39.7726 39.7726 11.88 570 760 
0.413 4 40.00 40.00 3.8 4.2 0.092 0.080 40.9779 39.7726 11.88 580 770 
0.414 4 40.00 40.00 3.7 4.2 0.036 0.047 40.9779 39.7726 11.88 570 770 
0.415 4 40.00 40.00 3.7 4.2 0.009 0.036 40.9779 39.7726 12.04 590 790 
0.416 4 40.00 40.00 3.7 4.8 0.007 0.020 40.9779 38.6363 12.04 570 780 
0.417 4 40.00 40.00 3.7 3.6 0.004 0.051 40.9779 40.9779 12.04 570 770 
0.418 4 40.00 40.00 3.7 3.5 0.009 0.029 40.9779 40.9779 12.04 570 770 
0.419 4 40.00 40.00 3.7 4.2 0.009 0.007 40.9779 39.7726 12.04 570 760 
0.420 4 40.00 40.00 3.7 4.2 0.007 0.007 40.9779 39.7726 12.09 590 790 
0.421 4 40.00 40.00 3.6 3.5 0.009 0.011 40.9779 40.9779 12.09 570 770 
0.422 4 40.00 40.00 3.6 3.5 0.009 0.007 40.9779 40.9779 12.09 570 780 
0.423 4 40.00 40.00 4.3 3.5 0.013 0.011 39.7726 40.9779 12.09 560 760 
0.424 4 40.00 40.00 4.3 4.1 0.025 0.011 39.7726 39.7726 12.09 570 770 
0.425 4 40.00 40.00 4.3 4.1 0.040 0.002 39.7726 39.7726 11.99 600 790 
0.426 4 40.00 40.00 4.3 3.5 0.036 0.011 39.7726 40.9779 11.99 570 780 
0.427 4 40.00 40.00 4.3 4.1 0.040 0.004 39.7726 39.7726 11.99 570 760 
0.428 4 40.00 40.00 4.9 4.1 0.042 0.016 38.6363 39.7726 11.99 570 770 
0.431 4 40.00 40.00 4.9 3.5 0.071 0.016 38.6363 40.9779 11.99 570 780 
0.431 4 40.00 40.00 4.3 4.1 0.114 0.007 39.7726 39.7726 11.98 590 790 
0.432 4 40.00 40.00 4.3 4.1 0.109 0.002 39.7726 39.7726 11.98 570 780 
0.433 4 40.00 40.00 4.3 4.1 0.060 0.020 39.7726 39.7726 11.98 580 770 
0.434 4 40.00 40.00 4.3 4.1 0.045 0.022 39.7726 39.7726 11.98 560 770 
0.435 4 40.00 40.00 4.3 4.1 0.036 0.033 39.7726 39.7726 11.98 570 770 
0.436 4 40.00 40.00 4.3 4.1 0.054 0.038 39.7726 39.7726 11.93 600 800 
0.437 4 40.00 40.00 4.3 4.1 0.042 0.031 39.7726 39.7726 11.93 570 780 
0.438 4 40.00 40.00 4.3 4.1 0.036 0.038 39.7726 39.7726 11.93 570 770 
0.439 4 40.00 40.00 4.3 4.1 0.047 0.049 39.7726 39.7726 11.93 570 770 
0.440 4 40.00 40.00 4.3 3.5 0.036 0.040 39.7726 40.9779 11.93 580 780 
0.441 4 40.00 40.00 4.4 4.1 0.051 0.016 39.7726 39.7726 11.96 600 790 
0.442 4 40.00 40.00 4.4 4.1 0.049 0.002 39.7726 39.7726 11.96 570 780 
0.443 4 40.00 40.00 3.7 3.5 0.045 0.009 40.9779 40.9779 11.96 560 760 
0.444 4 40.00 40.00 3.7 4.1 0.011 0.016 40.9779 39.7726 11.96 580 770 
0.445 4 40.00 40.00 4.3 4.1 0.007 0.007 39.7726 39.7726 11.96 570 780 
0.446 4 40.00 40.00 4.3 4.7 0.013 0.025 39.7726 38.6363 11.96 590 790 
0.447 4 40.00 40.00 3.7 4.2 0.047 0.058 40.9779 39.7726 11.96 560 770 
0.448 4 40.00 40.00 3.7 4.2 0.011 0.047 40.9779 39.7726 11.96 570 770 
0.449 4 40.00 40.00 3.7 4.2 0.007 0.040 40.9779 39.7726 11.96 560 760 
0.450 4 40.00 40.00 3.6 4.2 0.009 0.038 40.9779 39.7726 11.96 580 780 
0.451 4 40.00 40.00 4.3 4.2 0.011 0.025 39.7726 39.7726 12.02 590 790 
0.452 4 40.00 40.00 3.6 3.5 0.013 0.036 40.9779 40.9779 12.02 570 780 
0.453 4 40.00 40.00 3.6 4.2 0.009 0.009 40.9779 39.7726 12.02 570 770 
0.454 4 40.00 40.00 3.6 3.5 0.009 0.002 40.9779 40.9779 12.02 580 770 
0.455 4 40.00 40.00 3.6 4.1 0.007 0.009 40.9779 39.7726 12.02 570 770 
0.456 4 40.00 40.00 3.6 3.5 0.009 0.004 40.9779 40.9779 12.01 600 800 
0.457 4 40.00 40.00 4.2 3.5 0.013 0.004 39.7726 40.9779 12.01 570 780 
0.458 4 40.00 40.00 4.2 3.5 0.022 0.004 39.7726 40.9779 12.01 570 770 
0.459 4 40.00 40.00 4.2 4.1 0.029 0.016 39.7726 39.7726 12.01 570 770 
0.460 4 40.00 40.00 4.2 4.1 0.036 0.007 39.7726 39.7726 12.01 570 770 
0.461 4 40.00 40.00 4.2 4.1 0.036 0.033 39.7726 39.7726 12.06 590 780 
0.462 4 40.00 40.00 4.8 4.1 0.031 0.020 38.6363 39.7726 12.06 570 780 
0.463 4 40.00 40.00 4.8 4.7 0.060 0.020 38.6363 38.6363 12.06 570 770 
0.464 4 40.00 40.00 4.3 3.5 0.096 0.049 39.7726 40.9779 12.06 570 780 
0.465 4 40.00 40.00 4.3 4.1 0.069 0.007 39.7726 39.7726 12.06 570 770 
0.466 4 40.00 40.00 4.3 4.1 0.045 0.018 39.7726 39.7726 11.99 590 790 
0.467 4 40.00 40.00 4.9 3.5 0.042 0.022 38.6363 40.9779 11.99 570 770 
0.468 4 40.00 40.00 4.3 3.5 0.069 0.016 39.7726 40.9779 11.99 570 780 
0.469 4 40.00 40.00 4.3 4.1 0.054 0.002 39.7726 39.7726 11.99 570 770 
0.470 4 40.00 40.00 4.3 3.5 0.051 0.009 39.7726 40.9779 11.99 570 780 
0.471 4 40.00 40.00 4.3 3.4 0.042 0.009 39.7726 40.9779 11.98 600 800 
0.472 4 40.00 40.00 4.3 3.4 0.038 0.009 39.7726 40.9779 11.98 570 770 
0.473 4 40.00 40.00 4.3 3.4 0.045 0.004 39.7726 40.9779 11.98 580 780 
0.474 4 40.00 40.00 4.3 4.0 0.040 0.016 39.7726 39.7726 11.98 570 780 
0.475 4 40.00 40.00 4.3 3.4 0.054 0.002 39.7726 40.9779 11.98 570 770 
0.476 4 40.00 40.00 4.3 4.0 0.047 0.007 39.7726 39.7726 12.01 590 800 
0.477 4 40.00 40.00 3.7 4.0 0.047 0.013 40.9779 39.7726 12.01 570 780 
0.478 4 40.00 40.00 3.7 4.0 0.009 0.036 40.9779 39.7726 12.01 570 760 
0.479 4 40.00 40.00 4.3 4.0 0.009 0.022 39.7726 39.7726 12.01 570 770 
0.480 4 40.00 40.00 4.9 4.7 0.011 0.027 38.6363 38.6363 12.01 570 770 
0.481 4 40.00 40.00 4.3 4.7 0.071 0.056 39.7726 38.6363 11.91 590 800 
0.482 4 40.00 40.00 4.3 4.7 0.062 0.067 39.7726 38.6363 11.91 560 770 
0.483 4 40.00 40.00 4.3 4.1 0.045 0.089 39.7726 39.7726 11.91 570 770 
0.484 4 40.00 40.00 4.3 3.5 0.049 0.060 39.7726 40.9779 11.91 570 770 
0.485 4 40.00 40.00 4.3 3.5 0.038 0.004 39.7726 40.9779 11.91 570 770 
0.486 4 40.00 40.00 4.3 4.1 0.049 0.007 39.7726 39.7726 12.02 600 790 
0.487 4 40.00 40.00 4.3 3.4 0.049 0.004 39.7726 40.9779 12.02 570 770 
0.488 4 40.00 40.00 4.3 4.1 0.040 0.007 39.7726 39.7726 12.02 570 770 
0.489 4 40.00 40.00 4.3 4.1 0.040 0.020 39.7726 39.7726 12.02 570 780 
0.490 4 40.00 40.00 4.4 4.1 0.036 0.013 39.7726 39.7726 12.02 560 770 
0.491 4 40.00 40.00 4.4 4.1 0.045 0.031 39.7726 39.7726 11.96 590 800 
0.492 4 40.00 40.00 4.4 3.4 0.054 0.009 39.7726 40.9779 11.96 570 770 
0.493 4 40.00 40.00 3.7 4.1 0.042 0.009 40.9779 39.7726 11.96 570 760 
0.494 4 40.00 40.00 3.7 3.4 0.018 0.013 40.9779 40.9779 11.96 570 770 
0.495 4 40.00 40.00 4.3 4.1 0.007 0.009 39.7726 39.7726 11.96 570 780 
0.496 4 40.00 40.00 4.3 4.1 0.007 0.007 39.7726 39.7726 12.10 590 800 
0.497 4 40.00 40.00 3.7 4.7 0.027 0.011 40.9779 38.6363 12.10 570 780 
0.498 4 40.00 40.00 3.7 4.1 0.011 0.042 40.9779 39.7726 12.10 570 770 
0.499 4 40.00 40.00 3.7 3.4 0.011 0.031 40.9779 40.9779 12.10 560 760 
0.500 4 40.00 40.00 3.6 4.1 0.009 0.011 40.9779 39.7726 12.10 570 770 
0.501 4 40.00 40.00 3.6 3.4 0.011 0.004 40.9779 40.9779 11.98 600 790 
0.502 4 40.00 40.00 3.6 4.1 0.011 0.002 40.9779 39.7726 11.98 580 780 
0.503 4 40.00 40.00 4.2 4.7 0.007 0.011 39.7726 38.6363 11.98 570 780 
0.504 4 40.00 40.00 4.2 4.1 0.007 0.042 39.7726 39.7726 11.98 570 780 
0.505 4 40.00 40.00 4.3 3.4 0.029 0.029 39.7726 40.9779 11.98 560 760 
0.506 4 40.00 40.00 4.3 3.4 0.036 0.013 39.7726 40.9779 12.07 590 780 
0.507 4 40.00 40.00 4.3 3.4 0.031 0.004 39.7726 40.9779 12.07 580 770 
0.508 4 40.00 40.00 4.3 4.0 0.036 0.004 39.7726 39.7726 12.07 570 770 
0.509 4 40.00 40.00 4.3 4.0 0.051 0.004 39.7726 39.7726 12.07 560 770 
0.510 4 40.00 40.00 4.3 4.7 0.038 0.009 39.7726 38.6363 12.07 570 770 
0.511 4 40.00 40.00 3.6 4.1 0.029 0.056 40.9779 39.7726 11.91 590 800 
0.512 4 40.00 40.00 4.3 4.1 0.011 0.062 39.7726 39.7726 11.91 560 760 
0.513 4 40.00 40.00 4.3 4.1 0.004 0.033 39.7726 39.7726 11.91 570 770 
0.514 4 40.00 40.00 4.9 4.7 0.038 0.031 38.6363 38.6363 11.91 570 780 
0.515 4 40.00 40.00 4.3 4.1 0.074 0.058 39.7726 39.7726 11.91 560 770 
0.516 4 40.00 40.00 4.3 4.1 0.067 0.049 39.7726 39.7726 11.94 590 800 
0.517 4 40.00 40.00 4.3 4.7 0.049 0.038 39.7726 38.6363 11.94 570 770 
0.518 4 40.00 40.00 4.3 3.5 0.047 0.058 39.7726 40.9779 11.94 570 770 
0.519 4 40.00 40.00 4.3 3.5 0.038 0.027 39.7726 40.9779 11.94 570 770 
0.520 4 40.00 40.00 4.3 3.5 0.051 0.007 39.7726 40.9779 11.94 570 770 
0.521 4 40.00 40.00 4.3 4.1 0.047 0.011 39.7726 39.7726 11.98 600 800 
0.522 4 40.00 40.00 4.3 3.4 0.049 0.009 39.7726 40.9779 11.98 570 780 
0.523 4 40.00 40.00 4.3 3.4 0.045 0.011 39.7726 40.9779 11.98 570 780 
0.524 4 40.00 40.00 4.3 3.4 0.038 0.009 39.7726 40.9779 11.98 570 770 
0.525 4 40.00 40.00 4.3 4.0 0.038 0.007 39.7726 39.7726 11.98 560 760 
0.526 4 40.00 40.00 4.3 4.0 0.054 0.002 39.7726 39.7726 11.98 600 800 
0.527 4 40.00 40.00 3.7 3.4 0.040 0.007 40.9779 40.9779 11.98 580 770 
0.528 4 40.00 40.00 3.7 4.0 0.013 0.009 40.9779 39.7726 11.98 580 770 
0.529 4 40.00 40.00 4.3 4.0 0.009 0.002 39.7726 39.7726 11.98 560 770 
0.530 4 40.00 40.00 3.7 3.4 0.007 0.009 40.9779 40.9779 11.98 560 770 
0.531 4 40.00 40.00 3.6 4.0 0.007 0.009 40.9779 39.7726 11.99 600 800 
0.532 4 40.00 40.00 3.6 4.0 0.007 0.004 40.9779 39.7726 11.99 570 770 
0.533 4 40.00 40.00 3.6 4.6 0.007 0.009 40.9779 38.6363 11.99 570 760 
0.534 4 40.00 40.00 4.2 4.1 0.009 0.054 39.7726 39.7726 11.99 570 770 
0.535 4 40.00 40.00 4.2 4.1 0.007 0.038 39.7726 39.7726 11.99 570 770 
0.536 4 40.00 40.00 4.2 3.4 0.027 0.040 39.7726 40.9779 12.07 590 790 
0.537 4 40.00 40.00 4.3 3.4 0.042 0.009 39.7726 40.9779 12.07 570 770 
0.538 4 40.00 40.00 4.3 4.0 0.031 0.011 39.7726 39.7726 12.07 570 770 
0.539 4 40.00 40.00 4.3 3.4 0.038 0.004 39.7726 40.9779 12.07 570 770 
0.540 4 40.00 40.00 4.3 4.0 0.038 0.004 39.7726 39.7726 12.07 580 780 
0.541 4 40.00 40.00 4.3 4.0 0.031 0.007 39.7726 39.7726 12.04 590 790 
0.542 4 40.00 40.00 4.3 4.0 0.033 0.011 39.7726 39.7726 12.04 560 770 
0.543 4 40.00 40.00 4.3 4.0 0.049 0.007 39.7726 39.7726 12.04 570 770 
0.544 4 40.00 40.00 4.3 4.0 0.038 0.009 39.7726 39.7726 12.04 570 770 
0.545 4 40.00 40.00 4.3 4.7 0.031 0.040 39.7726 38.6363 12.04 580 770 
0.546 4 40.00 40.00 4.9 4.1 0.033 0.058 38.6363 39.7726 11.98 600 800 
0.547 4 40.00 40.00 4.3 4.1 0.058 0.054 39.7726 39.7726 11.98 570 770 
0.548 4 40.00 40.00 4.3 4.1 0.065 0.031 39.7726 39.7726 11.98 570 770 
0.549 4 40.00 40.00 4.3 4.1 0.049 0.018 39.7726 39.7726 11.98 570 770 
0.550 4 40.00 40.00 4.3 4.1 0.049 0.018 39.7726 39.7726 11.98 560 760 
0.551 4 40.00 40.00 4.3 4.1 0.047 0.029 39.7726 39.7726 11.98 590 790 
0.552 4 40.00 40.00 4.3 4.1 0.036 0.016 39.7726 39.7726 11.98 570 770 
0.553 4 40.00 40.00 4.3 4.1 0.038 0.029 39.7726 39.7726 11.98 570 780 
0.554 4 40.00 40.00 4.3 4.1 0.054 0.022 39.7726 39.7726 11.98 570 780 
0.555 4 40.00 40.00 4.3 4.1 0.040 0.016 39.7726 39.7726 11.98 570 780 
0.556 4 40.00 40.00 4.3 4.1 0.036 0.031 39.7726 39.7726 11.96 590 800 
0.557 4 40.00 40.00 4.3 4.1 0.045 0.040 39.7726 39.7726 11.96 560 760 
0.558 4 40.00 40.00 4.3 3.5 0.033 0.020 39.7726 40.9779 11.96 560 760 
0.559 4 40.00 40.00 4.3 3.4 0.047 0.013 39.7726 40.9779 11.96 570 760 
0.560 4 40.00 40.00 4.4 4.1 0.051 0.009 39.7726 39.7726 11.96 570 770 
0.561 4 40.00 40.00 3.7 3.4 0.047 0.009 40.9779 40.9779 12.04 590 800 
0.562 4 40.00 40.00 3.7 4.1 0.009 0.011 40.9779 39.7726 12.04 570 780 
0.563 4 40.00 40.00 4.3 4.1 0.009 0.004 39.7726 39.7726 12.04 560 770 
0.564 4 40.00 40.00 4.3 4.7 0.009 0.020 39.7726 38.6363 12.04 560 760 
0.565 4 40.00 40.00 4.3 4.1 0.038 0.060 39.7726 39.7726 12.04 570 770 
0.566 4 40.00 40.00 4.3 5.8 0.031 0.040 39.7726 36.5478 12.06 590 790 
0.567 4 40.00 40.00 3.7 4.2 0.040 0.145 40.9779 39.7726 12.06 570 780 
0.568 4 40.00 40.00 3.7 4.2 0.011 0.094 40.9779 39.7726 12.06 570 780 
0.569 4 40.00 40.00 3.7 3.5 0.009 0.054 40.9779 40.9779 12.06 570 770 
0.570 4 40.00 40.00 3.6 3.5 0.007 0.007 40.9779 40.9779 12.06 570 770 
0.571 4 40.00 40.00 3.6 3.5 0.007 0.004 40.9779 40.9779 12.06 590 790 
0.572 4 40.00 40.00 3.6 3.5 0.009 0.013 40.9779 40.9779 12.06 570 770 
0.573 4 40.00 40.00 3.6 3.4 0.007 0.009 40.9779 40.9779 12.06 580 770 
0.574 4 40.00 40.00 3.6 3.4 0.011 0.016 40.9779 40.9779 12.06 570 770 
0.575 4 40.00 40.00 4.2 3.4 0.013 0.018 39.7726 40.9779 12.06 570 770 
0.576 4 40.00 40.00 4.2 3.4 0.022 0.011 39.7726 40.9779 11.98 590 800 
0.577 4 40.00 40.00 4.2 4.0 0.027 0.013 39.7726 39.7726 11.98 570 770 
0.578 4 40.00 40.00 4.2 3.4 0.029 0.007 39.7726 40.9779 11.98 570 770 
0.579 4 40.00 40.00 4.2 4.0 0.036 0.009 39.7726 39.7726 11.98 570 760 
0.580 4 40.00 40.00 4.8 4.0 0.029 0.004 38.6363 39.7726 11.98 560 770 
0.581 4 40.00 40.00 4.9 4.6 0.062 0.018 38.6363 38.6363 11.94 590 800 
0.582 4 40.00 40.00 4.3 4.0 0.100 0.056 39.7726 39.7726 11.94 570 770 
0.583 4 40.00 40.00 4.3 4.1 0.074 0.033 39.7726 39.7726 11.94 570 760 
0.584 4 40.00 40.00 4.3 4.1 0.054 0.040 39.7726 39.7726 11.94 570 770 
0.585 4 40.00 40.00 4.9 3.4 0.049 0.027 38.6363 40.9779 11.94 560 770 
0.586 4 40.00 40.00 4.3 4.0 0.071 0.007 39.7726 39.7726 12.01 590 800 
0.587 4 40.00 40.00 4.3 4.0 0.058 0.009 39.7726 39.7726 12.01 570 770 
0.588 4 40.00 40.00 4.3 4.1 0.054 0.018 39.7726 39.7726 12.01 570 770 
0.589 4 40.00 40.00 4.3 4.1 0.038 0.013 39.7726 39.7726 12.01 570 770 
0.590 4 40.00 40.00 4.3 4.1 0.036 0.038 39.7726 39.7726 12.01 570 770 
0.591 4 40.00 40.00 4.3 3.4 0.040 0.022 39.7726 40.9779 11.94 600 790 
0.592 4 40.00 40.00 3.7 5.2 0.040 0.009 40.9779 37.5630 11.94 580 780 
0.593 4 40.00 40.00 3.7 3.4 0.022 0.083 40.9779 40.9779 11.94 570 780 
0.594 4 40.00 40.00 3.7 4.1 0.007 0.022 40.9779 39.7726 11.94 560 770 
0.595 4 40.00 40.00 3.6 4.1 0.004 0.013 40.9779 39.7726 11.94 570 780 
0.596 4 40.00 40.00 3.6 4.1 0.007 0.045 40.9779 39.7726 11.94 590 790 
0.597 4 40.00 40.00 3.6 4.1 0.011 0.022 40.9779 39.7726 11.94 570 770 
0.598 4 40.00 40.00 4.2 4.1 0.009 0.022 39.7726 39.7726 11.94 580 770 
0.599 4 40.00 40.00 4.2 4.7 0.013 0.025 39.7726 38.6363 11.94 580 780 
0.600 4 40.00 40.00 4.2 4.1 0.025 0.045 39.7726 39.7726 11.94 570 780 
0.601 4 40.00 40.00 4.2 4.1 0.031 0.047 39.7726 39.7726 12.04 590 790 
0.602 4 40.00 40.00 4.3 3.5 0.036 0.025 39.7726 40.9779 12.04 570 780 
0.603 4 40.00 40.00 4.3 3.5 0.029 0.007 39.7726 40.9779 12.04 570 770 
0.604 4 40.00 40.00 4.3 4.1 0.038 0.009 39.7726 39.7726 12.04 570 760 
0.605 4 40.00 40.00 4.3 3.4 0.045 0.004 39.7726 40.9779 12.04 570 780 
0.606 4 40.00 40.00 4.3 3.4 0.038 0.007 39.7726 40.9779 11.98 600 800 
0.607 4 40.00 40.00 4.3 3.4 0.040 0.009 39.7726 40.9779 11.98 560 770 
0.608 4 40.00 40.00 4.3 3.4 0.038 0.011 39.7726 40.9779 11.98 570 780 
0.609 4 40.00 40.00 3.6 4.0 0.042 0.009 40.9779 39.7726 11.98 570 770 
0.610 4 40.00 40.00 4.3 3.4 0.018 0.002 39.7726 40.9779 11.98 580 780 
0.611 4 40.00 40.00 4.3 4.0 0.013 0.011 39.7726 39.7726 12.04 590 790 
0.612 4 40.00 40.00 4.3 4.0 0.033 0.011 39.7726 39.7726 12.04 570 780 
0.613 4 40.00 40.00 4.3 4.0 0.033 0.025 39.7726 39.7726 12.04 580 770 
0.614 4 40.00 40.00 4.3 4.0 0.025 0.011 39.7726 39.7726 12.04 570 780 
0.615 4 40.00 40.00 4.9 4.0 0.027 0.020 38.6363 39.7726 12.04 570 770 
0.616 4 40.00 40.00 4.3 4.0 0.074 0.009 39.7726 39.7726 11.96 590 790 
0.617 4 40.00 40.00 4.3 4.0 0.060 0.016 39.7726 39.7726 11.96 570 760 
0.618 4 40.00 40.00 4.3 4.7 0.038 0.025 39.7726 38.6363 11.96 570 780 
0.619 4 40.00 40.00 4.3 4.1 0.045 0.045 39.7726 39.7726 11.96 570 780 
0.620 4 40.00 40.00 4.3 4.1 0.036 0.045 39.7726 39.7726 11.96 570 780 
0.621 4 40.00 40.00 4.3 4.7 0.049 0.033 39.7726 38.6363 11.94 590 800 
0.622 4 40.00 40.00 4.3 4.1 0.040 0.049 39.7726 39.7726 11.94 570 760 
0.623 4 40.00 40.00 4.3 3.4 0.042 0.033 39.7726 40.9779 11.94 570 770 
0.624 4 40.00 40.00 4.3 3.4 0.040 0.020 39.7726 40.9779 11.94 580 770 
0.625 4 40.00 40.00 4.3 3.4 0.042 0.007 39.7726 40.9779 11.94 570 770 
0.626 4 40.00 40.00 4.3 4.0 0.045 0.007 39.7726 39.7726 12.09 590 790 
0.627 4 40.00 40.00 4.3 3.4 0.049 0.004 39.7726 40.9779 12.09 570 780 
0.628 4 40.00 40.00 3.7 4.0 0.040 0.007 40.9779 39.7726 12.09 570 780 
0.631 4 40.00 40.00 3.7 3.4 0.016 0.013 40.9779 40.9779 12.09 570 770 
0.632 4 40.00 40.00 4.3 4.6 0.007 0.009 39.7726 38.6363 12.09 580 780 
0.633 4 40.00 40.00 3.7 4.7 0.009 0.013 40.9779 38.6363 12.02 600 810 
0.633 4 40.00 40.00 3.7 4.7 0.007 0.051 40.9779 38.6363 12.02 570 770 
0.634 4 40.00 40.00 3.6 4.1 0.007 0.076 40.9779 39.7726 12.02 570 770 
0.635 4 40.00 40.00 3.6 4.7 0.009 0.054 40.9779 38.6363 12.02 570 760 
0.636 4 40.00 40.00 3.6 3.5 0.009 0.065 40.9779 40.9779 12.02 570 770 
0.637 4 40.00 40.00 4.2 3.5 0.007 0.018 39.7726 40.9779 12.06 600 790 
0.638 4 40.00 40.00 4.2 4.1 0.020 0.004 39.7726 39.7726 12.06 570 780 
0.639 4 40.00 40.00 4.2 3.4 0.029 0.007 39.7726 40.9779 12.06 570 770 
0.640 4 40.00 40.00 4.2 4.1 0.038 0.007 39.7726 39.7726 12.06 570 780 
0.641 4 40.00 40.00 4.3 4.1 0.040 0.016 39.7726 39.7726 12.06 570 780 
0.642 4 40.00 40.00 4.9 4.1 0.031 0.007 38.6363 39.7726 11.93 590 790 
0.643 4 40.00 40.00 4.3 4.1 0.065 0.045 39.7726 39.7726 11.93 570 770 
0.644 4 40.00 40.00 4.3 4.1 0.080 0.016 39.7726 39.7726 11.93 570 780 
0.645 4 40.00 40.00 4.3 4.1 0.054 0.011 39.7726 39.7726 11.93 570 780 
0.646 4 40.00 40.00 4.3 3.4 0.033 0.038 39.7726 40.9779 11.93 570 780 
0.647 4 40.00 40.00 4.9 3.4 0.045 0.011 38.6363 40.9779 12.02 590 800 
0.648 4 40.00 40.00 4.3 3.4 0.058 0.004 39.7726 40.9779 12.02 570 770 
0.649 4 40.00 40.00 4.3 4.0 0.056 0.007 39.7726 39.7726 12.02 570 770 
0.650 4 40.00 40.00 4.3 4.1 0.049 0.004 39.7726 39.7726 12.02 570 760 
0.651 4 40.00 40.00 4.3 4.1 0.047 0.007 39.7726 39.7726 12.02 560 770 
0.652 4 40.00 40.00 3.7 4.7 0.042 0.018 40.9779 38.6363 11.98 590 800 
0.653 4 40.00 40.00 3.7 4.1 0.013 0.047 40.9779 39.7726 11.98 570 770 
0.654 4 40.00 40.00 3.7 4.1 0.007 0.054 40.9779 39.7726 11.98 570 780 
0.655 4 40.00 40.00 3.6 4.1 0.004 0.045 40.9779 39.7726 11.98 570 770 
0.656 4 40.00 40.00 3.6 4.1 0.011 0.016 40.9779 39.7726 11.98 580 770 
0.657 4 40.00 40.00 3.6 3.4 0.007 0.027 40.9779 40.9779 12.01 600 790 
0.658 4 40.00 40.00 3.6 3.4 0.007 0.007 40.9779 40.9779 12.01 570 770 
0.659 4 40.00 40.00 4.2 3.4 0.013 0.013 39.7726 40.9779 12.01 570 770 
0.660 4 40.00 40.00 4.2 4.0 0.016 0.009 39.7726 39.7726 12.01 560 770 
0.661 4 40.00 40.00 4.2 4.1 0.040 0.007 39.7726 39.7726 12.01 570 760 
0.662 4 40.00 40.00 4.2 3.4 0.033 0.002 39.7726 40.9779 11.96 590 790 
0.663 4 40.00 40.00 4.2 4.0 0.031 0.004 39.7726 39.7726 11.96 570 760 
0.664 4 40.00 40.00 4.8 4.7 0.038 0.004 38.6363 38.6363 11.96 570 780 
0.665 4 40.00 40.00 4.3 4.1 0.060 0.042 39.7726 39.7726 11.96 570 780 
0.666 4 40.00 40.00 4.3 4.7 0.060 0.047 39.7726 38.6363 11.96 570 780 
0.667 4 40.00 40.00 4.3 4.1 0.051 0.054 39.7726 39.7726 11.96 600 790 
0.668 4 40.00 40.00 4.3 4.1 0.040 0.054 39.7726 39.7726 11.96 570 770 
0.669 4 40.00 40.00 4.3 4.1 0.042 0.036 39.7726 39.7726 11.96 570 770 
0.670 4 40.00 40.00 4.3 4.1 0.042 0.020 39.7726 39.7726 11.96 560 770 
0.671 4 40.00 40.00 4.3 3.5 0.051 0.027 39.7726 40.9779 11.96 570 770 
0.672 4 40.00 40.00 4.3 3.4 0.054 0.004 39.7726 40.9779 11.98 600 790 
0.673 4 40.00 40.00 4.3 4.1 0.045 0.009 39.7726 39.7726 11.98 570 770 
0.674 4 40.00 40.00 4.3 3.4 0.047 0.011 39.7726 40.9779 11.98 570 770 
0.675 4 40.00 40.00 4.3 3.4 0.045 0.007 39.7726 40.9779 11.98 570 780 
0.676 4 40.00 40.00 4.3 3.4 0.038 0.011 39.7726 40.9779 11.98 560 760 
0.677 4 40.00 40.00 4.3 3.4 0.042 0.009 39.7726 40.9779 12.07 590 790 
0.678 4 40.00 40.00 4.3 4.0 0.051 0.016 39.7726 39.7726 12.07 560 770 
0.679 4 40.00 40.00 4.3 3.4 0.040 0.007 39.7726 40.9779 12.07 570 770 
0.680 4 40.00 40.00 4.3 4.0 0.033 0.002 39.7726 39.7726 12.07 570 770 
0.681 4 40.00 40.00 4.9 4.0 0.033 0.004 38.6363 39.7726 12.07 570 770 
0.682 4 40.00 40.00 4.3 4.6 0.062 0.009 39.7726 38.6363 12.04 590 790 
0.683 4 40.00 40.00 3.7 4.6 0.062 0.045 40.9779 38.6363 12.04 570 770 
0.684 4 40.00 40.00 3.7 4.1 0.013 0.062 40.9779 39.7726 12.04 570 780 
0.685 4 40.00 40.00 3.7 4.1 0.007 0.049 40.9779 39.7726 12.04 570 780 
0.686 4 40.00 40.00 3.6 4.1 0.007 0.031 40.9779 39.7726 12.04 570 770 
0.687 4 40.00 40.00 3.6 4.1 0.011 0.018 40.9779 39.7726 11.98 600 790 
0.688 4 40.00 40.00 3.6 4.1 0.009 0.031 40.9779 39.7726 11.98 570 770 
0.689 4 40.00 40.00 3.6 4.1 0.011 0.031 40.9779 39.7726 11.98 560 770 
0.690 4 40.00 40.00 3.6 4.1 0.011 0.016 40.9779 39.7726 11.98 570 780 
0.691 4 40.00 40.00 3.6 3.4 0.007 0.027 40.9779 40.9779 11.98 570 770 
0.692 4 40.00 40.00 3.6 3.4 0.009 0.013 40.9779 40.9779 12.01 590 800 
0.693 4 40.00 40.00 4.2 3.4 0.016 0.009 39.7726 40.9779 12.01 560 760 
0.694 4 40.00 40.00 5.9 3.4 0.018 0.009 36.5478 40.9779 12.01 570 770 
0.695 4 40.00 40.00 4.2 4.0 0.125 0.011 39.7726 39.7726 12.01 570 780 
0.696 4 40.00 40.00 4.2 4.0 0.114 0.002 39.7726 39.7726 12.01 570 780 
0.697 4 40.00 40.00 3.6 4.6 0.054 0.029 40.9779 38.6363 11.96 600 800 
0.698 4 40.00 40.00 4.2 4.0 0.016 0.054 39.7726 39.7726 11.96 570 770 
0.699 4 40.00 40.00 4.2 4.7 0.011 0.051 39.7726 38.6363 11.96 570 770 
0.700 4 40.00 40.00 4.2 4.1 0.040 0.071 39.7726 39.7726 11.96 580 770 
0.701 4 40.00 40.00 4.2 4.1 0.036 0.047 39.7726 39.7726 11.96 570 770 
0.702 4 40.00 40.00 4.3 4.1 0.042 0.040 39.7726 39.7726 12.02 590 790 
0.703 4 40.00 40.00 4.3 4.1 0.042 0.036 39.7726 39.7726 12.02 570 780 
0.704 4 40.00 40.00 4.3 4.1 0.031 0.011 39.7726 39.7726 12.02 570 770 
0.705 4 40.00 40.00 4.3 3.4 0.033 0.027 39.7726 40.9779 12.02 570 770 
0.706 4 40.00 40.00 4.3 3.4 0.049 0.004 39.7726 40.9779 12.02 570 770 
0.707 4 40.00 40.00 4.3 3.4 0.038 0.009 39.7726 40.9779 12.01 600 800 
0.708 4 40.00 40.00 4.3 3.4 0.036 0.007 39.7726 40.9779 12.01 570 780 
0.709 4 40.00 40.00 4.3 3.4 0.036 0.004 39.7726 40.9779 12.01 570 770 
0.710 4 40.00 40.00 4.3 3.4 0.033 0.016 39.7726 40.9779 12.01 560 760 
0.711 4 40.00 40.00 4.3 3.3 0.042 0.011 39.7726 40.9779 12.01 570 770 
0.712 4 40.00 40.00 4.3 4.6 0.045 0.009 39.7726 38.6363 12.01 600 790 
0.713 4 40.00 40.00 4.3 4.0 0.040 0.020 39.7726 39.7726 12.01 560 770 
0.714 4 40.00 40.00 4.3 4.6 0.038 0.051 39.7726 38.6363 12.01 560 770 
0.715 4 40.00 40.00 4.9 4.0 0.031 0.058 38.6363 39.7726 12.01 560 770 
0.716 4 40.00 40.00 4.3 4.6 0.071 0.054 39.7726 38.6363 12.01 570 770 
0.717 4 40.00 40.00 4.3 4.1 0.065 0.060 39.7726 39.7726 11.91 590 790 
0.718 4 40.00 40.00 4.3 4.1 0.042 0.033 39.7726 39.7726 11.91 570 770 
0.719 4 40.00 40.00 4.3 4.1 0.047 0.045 39.7726 39.7726 11.91 570 780 
0.720 4 40.00 40.00 4.3 4.1 0.049 0.033 39.7726 39.7726 11.91 570 770 
0.721 4 40.00 40.00 4.3 4.1 0.040 0.018 39.7726 39.7726 11.91 570 780 
0.722 4 40.00 40.00 4.3 3.4 0.042 0.031 39.7726 40.9779 11.93 590 790 
0.723 4 40.00 40.00 4.3 3.4 0.051 0.007 39.7726 40.9779 11.93 560 760 
0.724 4 40.00 40.00 4.4 4.0 0.042 0.004 39.7726 39.7726 11.93 570 770 
0.725 4 40.00 40.00 3.7 4.0 0.045 0.018 40.9779 39.7726 11.93 570 770 
0.726 4 40.00 40.00 3.7 4.0 0.013 0.016 40.9779 39.7726 11.93 570 780 
0.727 4 40.00 40.00 3.7 4.0 0.009 0.018 40.9779 39.7726 11.98 590 790 
0.728 4 40.00 40.00 3.7 3.4 0.004 0.016 40.9779 40.9779 11.98 570 770 
0.729 4 40.00 40.00 3.6 4.0 0.009 0.004 40.9779 39.7726 11.98 570 770 
0.730 4 40.00 40.00 3.6 3.4 0.007 0.004 40.9779 40.9779 11.98 570 780 
0.731 4 40.00 40.00 3.6 4.0 0.007 0.007 40.9779 39.7726 11.98 570 770 
0.732 4 40.00 40.00 4.2 4.0 0.013 0.004 39.7726 39.7726 11.98 590 800 
0.733 4 40.00 40.00 4.9 4.0 0.009 0.013 38.6363 39.7726 11.98 570 780 
0.734 4 40.00 40.00 4.3 4.0 0.067 0.020 39.7726 39.7726 11.98 560 760 
0.735 4 40.00 40.00 4.3 4.0 0.058 0.007 39.7726 39.7726 11.98 570 770 
0.736 4 40.00 40.00 4.3 4.0 0.040 0.025 39.7726 39.7726 11.98 570 770 
0.737 4 40.00 40.00 4.3 3.4 0.042 0.022 39.7726 40.9779 12.04 590 800 
0.738 4 40.00 40.00 4.3 4.0 0.033 0.007 39.7726 39.7726 12.04 570 780 
0.739 4 40.00 40.00 4.3 4.0 0.038 0.007 39.7726 39.7726 12.04 570 770 
0.740 4 40.00 40.00 4.3 4.0 0.038 0.009 39.7726 39.7726 12.04 570 770 
0.741 4 40.00 40.00 4.3 4.0 0.038 0.009 39.7726 39.7726 12.04 560 760 
0.742 4 40.00 40.00 4.3 4.0 0.040 0.033 39.7726 39.7726 11.98 600 790 
0.743 4 40.00 40.00 4.9 4.1 0.031 0.022 38.6363 39.7726 11.98 570 770 
0.744 4 40.00 40.00 3.7 4.7 0.067 0.025 40.9779 38.6363 11.98 560 770 
0.745 4 40.00 40.00 3.7 4.1 0.042 0.054 40.9779 39.7726 11.98 570 770 
0.746 4 40.00 40.00 3.6 4.7 0.009 0.036 40.9779 38.6363 11.98 570 780 
0.747 4 40.00 40.00 3.6 4.1 0.009 0.049 40.9779 39.7726 12.01 600 800 
0.748 4 40.00 40.00 4.3 3.5 0.009 0.071 39.7726 40.9779 12.01 570 770 
0.749 4 40.00 40.00 3.6 3.4 0.007 0.007 40.9779 40.9779 12.01 570 770 
0.750 4 40.00 40.00 4.3 4.1 0.002 0.007 39.7726 39.7726 12.01 580 770 
0.751 4 40.00 40.00 4.3 5.3 0.011 0.004 39.7726 37.5630 12.01 570 780 
0.752 4 40.00 40.00 4.3 4.1 0.022 0.051 39.7726 39.7726 11.96 590 800 
0.753 4 40.00 40.00 4.3 4.1 0.036 0.071 39.7726 39.7726 11.96 570 770 
0.754 4 40.00 40.00 4.3 3.5 0.033 0.042 39.7726 40.9779 11.96 570 770 
0.755 4 40.00 40.00 4.3 3.5 0.038 0.007 39.7726 40.9779 11.96 570 760 
0.756 4 40.00 40.00 4.3 4.1 0.051 0.007 39.7726 39.7726 11.96 570 760 
0.757 4 40.00 40.00 5.5 3.4 0.040 0.004 37.5630 40.9779 11.94 600 790 
0.758 4 40.00 40.00 4.3 4.1 0.116 0.020 39.7726 39.7726 11.94 580 780 
0.759 4 40.00 40.00 4.3 4.1 0.085 0.013 39.7726 39.7726 11.94 570 770 
0.760 4 40.00 40.00 4.3 4.1 0.051 0.013 39.7726 39.7726 11.94 570 780 
0.761 4 40.00 40.00 3.7 4.1 0.045 0.027 40.9779 39.7726 11.94 570 770 
0.762 4 40.00 40.00 3.7 3.4 0.025 0.022 40.9779 40.9779 12.09 590 790 
0.763 4 40.00 40.00 3.6 4.1 0.009 0.009 40.9779 39.7726 12.09 560 760 
0.764 4 40.00 40.00 3.6 3.4 0.007 0.013 40.9779 40.9779 12.09 570 770 
0.765 4 40.00 40.00 4.3 4.1 0.009 0.007 39.7726 39.7726 12.09 570 770 
0.766 4 40.00 40.00 4.3 4.1 0.007 0.004 39.7726 39.7726 12.09 580 780 
0.767 4 40.00 40.00 4.3 4.1 0.031 0.013 39.7726 39.7726 11.93 590 800 
0.768 4 40.00 40.00 4.3 4.1 0.036 0.013 39.7726 39.7726 11.93 570 770 
0.769 4 40.00 40.00 4.3 4.1 0.040 0.011 39.7726 39.7726 11.93 570 770 
0.770 4 40.00 40.00 4.3 4.7 0.042 0.022 39.7726 38.6363 11.93 570 770 
0.771 4 40.00 40.00 4.3 3.5 0.038 0.049 39.7726 40.9779 11.93 560 760 
0.772 4 40.00 40.00 4.3 3.4 0.036 0.025 39.7726 40.9779 12.02 590 790 
0.773 4 40.00 40.00 4.3 3.4 0.049 0.004 39.7726 40.9779 12.02 570 780 
0.774 4 40.00 40.00 4.3 4.1 0.038 0.013 39.7726 39.7726 12.02 560 770 
0.775 4 40.00 40.00 4.3 4.1 0.036 0.007 39.7726 39.7726 12.02 570 770 
0.776 4 40.00 40.00 4.3 3.4 0.042 0.022 39.7726 40.9779 12.02 570 770 
0.777 4 40.00 40.00 4.3 3.4 0.031 0.007 39.7726 40.9779 11.98 600 790 
0.778 4 40.00 40.00 4.3 4.0 0.042 0.004 39.7726 39.7726 11.98 570 770 
0.779 4 40.00 40.00 4.3 4.0 0.045 0.007 39.7726 39.7726 11.98 570 770 
0.780 4 40.00 40.00 3.7 4.0 0.038 0.002 40.9779 39.7726 11.98 570 770 
0.781 4 40.00 40.00 3.7 4.7 0.007 0.031 40.9779 38.6363 11.98 570 780 
0.782 4 40.00 40.00 4.3 4.1 0.011 0.062 39.7726 39.7726 12.04 590 790 
0.783 4 40.00 40.00 4.3 3.4 0.011 0.047 39.7726 40.9779 12.04 560 760 
0.784 4 40.00 40.00 4.3 4.1 0.033 0.007 39.7726 39.7726 12.04 560 760 
0.785 4 40.00 40.00 4.3 4.1 0.029 0.002 39.7726 39.7726 12.04 570 770 
0.786 4 40.00 40.00 4.3 4.7 0.038 0.009 39.7726 38.6363 12.04 570 770 
0.787 4 40.00 40.00 4.3 4.7 0.040 0.049 39.7726 38.6363 11.90 590 800 
0.788 4 40.00 40.00 4.3 3.5 0.036 0.069 39.7726 40.9779 11.90 570 780 
0.789 4 40.00 40.00 4.3 3.4 0.038 0.042 39.7726 40.9779 11.90 560 770 
0.790 4 40.00 40.00 4.3 4.1 0.049 0.007 39.7726 39.7726 11.90 570 780 
0.791 4 40.00 40.00 4.3 4.1 0.045 0.007 39.7726 39.7726 11.90 560 760 
0.792 4 40.00 40.00 4.3 4.1 0.042 0.022 39.7726 39.7726 12.02 590 780 
0.793 4 40.00 40.00 4.3 3.4 0.045 0.040 39.7726 40.9779 12.02 580 770 
0.794 4 40.00 40.00 4.3 3.4 0.036 0.004 39.7726 40.9779 12.02 580 770 
0.795 4 40.00 40.00 4.3 4.1 0.051 0.002 39.7726 39.7726 12.02 570 770 
0.796 4 40.00 40.00 4.3 4.1 0.045 0.002 39.7726 39.7726 12.02 570 770 
0.797 4 40.00 40.00 3.7 4.1 0.045 0.004 40.9779 39.7726 11.96 590 800 
0.798 4 40.00 40.00 3.7 4.1 0.009 0.038 40.9779 39.7726 11.96 570 770 
0.799 4 40.00 40.00 3.7 3.4 0.009 0.022 40.9779 40.9779 11.96 570 760 
0.800 4 40.00 40.00 3.6 4.1 0.011 0.007 40.9779 39.7726 11.96 580 770 
0.801 4 40.00 40.00 3.6 3.4 0.009 0.009 40.9779 40.9779 11.96 580 770 
0.802 4 40.00 40.00 4.3 4.0 0.011 0.007 39.7726 39.7726 12.04 590 800 
0.803 4 40.00 40.00 4.3 4.0 0.007 0.004 39.7726 39.7726 12.04 570 780 
0.804 4 40.00 40.00 4.3 4.1 0.027 0.011 39.7726 39.7726 12.04 570 770 
0.805 4 40.00 40.00 4.3 4.1 0.027 0.004 39.7726 39.7726 12.04 570 770 
0.806 4 40.00 40.00 4.3 4.1 0.042 0.027 39.7726 39.7726 12.04 570 770 
0.807 4 40.00 40.00 4.3 4.1 0.040 0.013 39.7726 39.7726 11.96 590 790 
0.808 4 40.00 40.00 4.3 3.4 0.038 0.009 39.7726 40.9779 11.96 570 770 
0.809 4 40.00 40.00 4.3 4.0 0.042 0.007 39.7726 39.7726 11.96 570 780 
0.810 4 40.00 40.00 4.3 3.4 0.036 0.004 39.7726 40.9779 11.96 570 780 
0.811 4 40.00 40.00 3.6 3.4 0.038 0.004 40.9779 40.9779 11.96 570 770 
0.812 4 40.00 40.00 3.6 3.4 0.022 0.004 40.9779 40.9779 12.06 590 790 
0.813 4 40.00 40.00 3.6 4.0 0.009 0.011 40.9779 39.7726 12.06 560 760 
0.814 4 40.00 40.00 3.6 3.4 0.009 0.004 40.9779 40.9779 12.06 570 770 
0.815 4 40.00 40.00 4.2 4.0 0.009 0.007 39.7726 39.7726 12.06 570 770 
0.816 4 40.00 40.00 4.2 4.0 0.007 0.011 39.7726 39.7726 12.06 580 780 
0.817 4 40.00 40.00 4.2 4.6 0.027 0.016 39.7726 38.6363 11.94 600 800 
0.818 4 40.00 40.00 4.2 4.0 0.036 0.051 39.7726 39.7726 11.94 570 780 
0.819 4 40.00 40.00 4.2 4.0 0.036 0.036 39.7726 39.7726 11.94 570 770 
0.820 4 40.00 40.00 4.3 4.0 0.033 0.042 39.7726 39.7726 11.94 570 760 
0.821 4 40.00 40.00 4.3 4.0 0.036 0.031 39.7726 39.7726 11.94 560 770 
0.822 4 40.00 40.00 4.3 4.0 0.036 0.018 39.7726 39.7726 11.94 600 800 
0.823 4 40.00 40.00 4.3 3.4 0.047 0.025 39.7726 40.9779 11.94 570 780 
0.824 4 40.00 40.00 4.3 3.4 0.042 0.009 39.7726 40.9779 11.94 570 770 
0.825 4 40.00 40.00 4.3 4.0 0.042 0.011 39.7726 39.7726 11.94 560 760 
0.826 4 40.00 40.00 4.3 4.0 0.040 0.011 39.7726 39.7726 11.94 580 770 
0.827 4 40.00 40.00 4.3 4.0 0.031 0.013 39.7726 39.7726 11.98 590 790 
0.828 4 40.00 40.00 4.3 4.0 0.031 0.013 39.7726 39.7726 11.98 570 780 
0.829 4 40.00 40.00 4.3 3.4 0.051 0.011 39.7726 40.9779 11.98 570 780 
0.830 4 40.00 40.00 3.6 4.0 0.038 0.009 40.9779 39.7726 11.98 570 780 
0.831 4 40.00 40.00 3.6 4.0 0.013 0.004 40.9779 39.7726 11.98 570 770 
0.832 4 40.00 40.00 4.3 4.0 0.009 0.031 39.7726 39.7726 11.98 600 800 
0.833 4 40.00 40.00 3.6 4.0 0.007 0.020 40.9779 39.7726 11.98 570 780 
0.834 4 40.00 40.00 3.6 4.6 0.007 0.029 40.9779 38.6363 11.98 570 770 
0.835 4 40.00 40.00 3.6 4.0 0.009 0.051 40.9779 39.7726 11.98 570 770 
0.836 4 40.00 40.00 3.6 4.0 0.011 0.038 40.9779 39.7726 11.98 570 770 
0.837 4 40.00 40.00 4.2 4.1 0.004 0.042 39.7726 39.7726 12.02 600 800 
0.838 4 40.00 40.00 4.2 3.4 0.011 0.025 39.7726 40.9779 12.02 580 770 
0.839 4 40.00 40.00 4.2 4.0 0.022 0.004 39.7726 39.7726 12.02 570 770 
0.840 4 40.00 40.00 4.2 4.0 0.045 0.011 39.7726 39.7726 12.02 570 780 
0.841 4 40.00 40.00 4.2 4.0 0.033 0.016 39.7726 39.7726 12.02 570 770 
0.842 4 40.00 40.00 4.2 3.4 0.045 0.007 39.7726 40.9779 12.04 590 800 
0.843 4 40.00 40.00 4.2 3.4 0.040 0.007 39.7726 40.9779 12.04 570 770 
0.844 4 40.00 40.00 4.2 3.4 0.033 0.007 39.7726 40.9779 12.04 570 770 
0.845 4 40.00 40.00 4.2 4.0 0.036 0.013 39.7726 39.7726 12.04 570 770 
0.846 4 40.00 40.00 4.2 3.4 0.049 0.002 39.7726 40.9779 12.04 580 770 
0.847 4 40.00 40.00 4.2 4.6 0.036 0.009 39.7726 38.6363 11.98 590 800 
0.848 4 40.00 40.00 4.2 4.0 0.029 0.020 39.7726 39.7726 11.98 570 780 
0.849 4 40.00 40.00 4.9 4.0 0.036 0.054 38.6363 39.7726 11.98 570 770 
0.850 4 40.00 40.00 4.3 4.0 0.056 0.022 39.7726 39.7726 11.98 570 770 
0.851 4 40.00 40.00 3.6 4.6 0.056 0.025 40.9779 38.6363 11.98 570 770 
0.852 4 40.00 40.00 3.6 4.0 0.016 0.060 40.9779 39.7726 11.96 600 800 
0.853 4 40.00 40.00 4.2 4.1 0.009 0.045 39.7726 39.7726 11.96 560 770 
0.854 4 40.00 40.00 4.2 4.1 0.013 0.036 39.7726 39.7726 11.96 570 780 
0.855 4 40.00 40.00 4.2 3.4 0.027 0.027 39.7726 40.9779 11.96 570 770 
0.856 4 40.00 40.00 4.2 4.0 0.031 0.009 39.7726 39.7726 11.96 570 770 
0.857 4 40.00 40.00 4.2 6.3 0.049 0.018 39.7726 35.5860 12.02 590 790 
0.858 4 40.00 40.00 4.3 4.1 0.042 0.143 39.7726 39.7726 12.02 580 780 
0.859 4 40.00 40.00 4.3 3.5 0.038 0.123 39.7726 40.9779 12.02 570 780 
0.860 4 40.00 40.00 4.3 3.5 0.040 0.031 39.7726 40.9779 12.02 560 770 
0.861 4 40.00 40.00 4.3 3.4 0.031 0.007 39.7726 40.9779 12.02 570 780 
0.862 4 40.00 40.00 4.3 4.1 0.038 0.009 39.7726 39.7726 12.01 600 790 
0.863 4 40.00 40.00 4.3 3.4 0.049 0.007 39.7726 40.9779 12.01 570 770 
0.864 4 40.00 40.00 3.6 4.1 0.036 0.011 40.9779 39.7726 12.01 580 770 
0.865 4 40.00 40.00 3.6 3.4 0.011 0.009 40.9779 40.9779 12.01 570 770 
0.866 4 40.00 40.00 4.2 3.4 0.009 0.007 39.7726 40.9779 12.01 560 770 
0.867 4 40.00 40.00 3.6 3.4 0.007 0.013 40.9779 40.9779 11.98 590 800 
0.868 4 40.00 40.00 4.2 4.0 0.007 0.007 39.7726 39.7726 11.98 570 770 
0.869 4 40.00 40.00 4.2 4.0 0.009 0.002 39.7726 39.7726 11.98 570 770 
0.870 4 40.00 40.00 4.2 3.4 0.027 0.002 39.7726 40.9779 11.98 570 770 
0.871 4 40.00 40.00 4.2 5.7 0.042 0.004 39.7726 36.5478 11.98 570 770 
0.872 4 40.00 40.00 4.9 4.1 0.033 0.071 38.6363 39.7726 11.91 590 800 
0.873 4 40.00 40.00 4.3 3.4 0.065 0.094 39.7726 40.9779 11.91 570 780 
0.874 4 40.00 40.00 4.3 4.1 0.076 0.013 39.7726 39.7726 11.91 570 770 
0.875 4 40.00 40.00 4.3 3.4 0.054 0.004 39.7726 40.9779 11.91 570 770 
0.876 4 40.00 40.00 4.3 3.4 0.040 0.004 39.7726 40.9779 11.91 570 770 
0.877 4 40.00 40.00 4.3 3.4 0.049 0.002 39.7726 40.9779 12.01 590 790 
0.878 4 40.00 40.00 4.3 3.4 0.036 0.020 39.7726 40.9779 12.01 570 770 
0.879 4 40.00 40.00 4.3 4.0 0.042 0.007 39.7726 39.7726 12.01 560 770 
0.880 4 40.00 40.00 4.3 3.3 0.049 0.004 39.7726 40.9779 12.01 570 770 
0.881 4 40.00 40.00 3.6 4.0 0.040 0.007 40.9779 39.7726 12.01 570 770 
0.882 4 40.00 40.00 3.6 4.0 0.007 0.011 40.9779 39.7726 11.98 590 790 
0.883 4 40.00 40.00 4.3 4.0 0.011 0.027 39.7726 39.7726 11.98 570 770 
0.884 4 40.00 40.00 4.3 4.0 0.009 0.018 39.7726 39.7726 11.98 570 770 
0.885 4 40.00 40.00 4.3 4.6 0.040 0.018 39.7726 38.6363 11.98 570 780 
0.886 4 40.00 40.00 4.3 4.0 0.033 0.036 39.7726 39.7726 11.98 570 780 
0.887 4 40.00 40.00 4.3 4.0 0.047 0.036 39.7726 39.7726 11.93 600 800 
0.888 4 40.00 40.00 4.3 4.6 0.045 0.018 39.7726 38.6363 11.93 560 760 
0.889 4 40.00 40.00 4.3 3.4 0.038 0.049 39.7726 40.9779 11.93 570 770 
0.890 4 40.00 40.00 4.3 4.0 0.038 0.013 39.7726 39.7726 11.93 580 770 
0.891 4 40.00 40.00 4.3 4.6 0.054 0.018 39.7726 38.6363 11.93 570 770 
0.892 4 40.00 40.00 4.3 4.1 0.042 0.038 39.7726 39.7726 11.94 600 800 
0.893 4 40.00 40.00 4.3 4.1 0.033 0.036 39.7726 39.7726 11.94 570 780 
0.894 4 40.00 40.00 4.3 4.1 0.042 0.042 39.7726 39.7726 11.94 570 770 
0.895 4 40.00 40.00 4.3 4.1 0.033 0.022 39.7726 39.7726 11.94 570 770 
0.896 4 40.00 40.00 3.7 4.1 0.047 0.033 40.9779 39.7726 11.94 570 770 
0.897 4 40.00 40.00 3.6 4.1 0.013 0.013 40.9779 39.7726 11.94 600 790 
0.898 4 40.00 40.00 3.6 4.1 0.009 0.009 40.9779 39.7726 11.94 570 780 
0.899 4 40.00 40.00 3.6 4.1 0.009 0.038 40.9779 39.7726 11.94 570 770 
0.900 4 40.00 40.00 3.6 4.1 0.013 0.040 40.9779 39.7726 11.94 570 770 
0.901 4 40.00 40.00 4.2 4.1 0.009 0.018 39.7726 39.7726 11.94 570 780 
0.902 4 40.00 40.00 4.2 4.1 0.013 0.029 39.7726 39.7726 11.98 590 790 
0.903 4 40.00 40.00 4.2 4.1 0.022 0.016 39.7726 39.7726 11.98 570 770 
0.904 4 40.00 40.00 4.2 4.1 0.020 0.018 39.7726 39.7726 11.98 580 770 
0.905 4 40.00 40.00 4.2 4.1 0.038 0.027 39.7726 39.7726 11.98 570 780 
0.906 4 40.00 40.00 4.3 3.5 0.025 0.020 39.7726 40.9779 11.98 570 770 
0.907 4 40.00 40.00 4.9 3.4 0.033 0.007 38.6363 40.9779 11.98 590 800 
0.908 4 40.00 40.00 4.3 3.4 0.069 0.009 39.7726 40.9779 11.98 570 780 
0.909 4 40.00 40.00 4.3 3.4 0.062 0.016 39.7726 40.9779 11.98 570 780 
0.910 4 40.00 40.00 4.3 3.4 0.047 0.009 39.7726 40.9779 11.98 570 770 
0.911 4 40.00 40.00 4.3 3.4 0.040 0.009 39.7726 40.9779 11.98 570 770 
0.912 4 40.00 40.00 3.6 3.4 0.042 0.016 40.9779 40.9779 11.98 600 790 
0.913 4 40.00 40.00 3.6 4.0 0.020 0.004 40.9779 39.7726 11.98 570 770 
0.914 4 40.00 40.00 3.6 4.0 0.009 0.004 40.9779 39.7726 11.98 570 780 
0.915 4 40.00 40.00 3.6 4.0 0.004 0.004 40.9779 39.7726 11.98 570 780 
0.916 4 40.00 40.00 3.6 4.6 0.009 0.036 40.9779 38.6363 11.98 570 780 
0.917 4 40.00 40.00 3.6 4.0 0.016 0.058 40.9779 39.7726 11.91 590 790 
0.918 4 40.00 40.00 4.2 6.3 0.011 0.049 39.7726 35.5860 11.91 570 780 
0.919 4 40.00 40.00 4.2 4.1 0.011 0.165 39.7726 39.7726 11.91 570 780 
0.920 4 40.00 40.00 4.2 4.1 0.018 0.125 39.7726 39.7726 11.91 580 770 
0.921 4 40.00 40.00 4.2 4.1 0.029 0.071 39.7726 39.7726 11.91 570 780 
0.922 4 40.00 40.00 4.2 3.5 0.033 0.036 39.7726 40.9779 11.91 590 800 
0.923 4 40.00 40.00 4.2 3.5 0.027 0.002 39.7726 40.9779 11.91 570 770 
0.924 4 40.00 40.00 4.2 3.4 0.047 0.007 39.7726 40.9779 11.91 570 760 
0.925 4 40.00 40.00 4.2 3.4 0.042 0.004 39.7726 40.9779 11.91 570 770 
0.926 4 40.00 40.00 4.2 3.4 0.042 0.018 39.7726 40.9779 11.91 580 770 
0.927 4 40.00 40.00 4.2 3.4 0.042 0.007 39.7726 40.9779 11.96 590 800 
0.928 4 40.00 40.00 4.2 3.4 0.033 0.011 39.7726 40.9779 11.96 560 770 
0.929 4 40.00 40.00 4.2 3.4 0.036 0.013 39.7726 40.9779 11.96 570 770 
0.930 4 40.00 40.00 4.2 3.3 0.047 0.009 39.7726 40.9779 11.96 570 770 
0.931 4 40.00 40.00 4.2 4.0 0.040 0.018 39.7726 39.7726 11.96 560 760 
0.932 4 40.00 40.00 4.3 4.0 0.042 0.007 39.7726 39.7726 11.94 600 790 
0.933 4 40.00 40.00 6.5 4.0 0.040 0.029 35.5860 39.7726 11.94 570 780 
0.934 4 40.00 40.00 4.3 4.0 0.154 0.016 39.7726 39.7726 11.94 570 770 
0.935 4 40.00 40.00 4.3 4.6 0.109 0.025 39.7726 38.6363 11.94 570 770 
0.936 4 40.00 40.00 3.7 4.0 0.067 0.060 40.9779 39.7726 11.94 570 770 
0.937 4 40.00 40.00 3.7 4.0 0.016 0.031 40.9779 39.7726 11.98 590 790 
0.938 4 40.00 40.00 3.7 4.0 0.009 0.033 40.9779 39.7726 11.98 580 770 
0.939 4 40.00 40.00 3.6 4.0 0.011 0.025 40.9779 39.7726 11.98 570 770 
0.940 4 40.00 40.00 3.6 4.0 0.016 0.013 40.9779 39.7726 11.98 570 780 
0.941 4 40.00 40.00 3.6 3.4 0.004 0.022 40.9779 40.9779 11.98 580 770 
0.942 4 40.00 40.00 4.2 3.4 0.011 0.007 39.7726 40.9779 12.06 600 800 
0.943 4 40.00 40.00 3.6 4.0 0.011 0.013 40.9779 39.7726 12.06 560 770 
0.944 4 40.00 40.00 3.6 4.0 0.007 0.016 40.9779 39.7726 12.06 570 770 
0.945 4 40.00 40.00 4.2 4.0 0.016 0.011 39.7726 39.7726 12.06 570 770 
0.946 4 40.00 40.00 4.2 5.7 0.011 0.009 39.7726 36.5478 12.06 570 780 
0.947 4 40.00 40.00 4.2 3.4 0.031 0.098 39.7726 40.9779 11.93 590 790 
0.948 4 40.00 40.00 4.2 4.0 0.036 0.047 39.7726 39.7726 11.93 570 780 
0.949 4 40.00 40.00 4.2 3.4 0.031 0.022 39.7726 40.9779 11.93 560 770 
0.950 4 40.00 40.00 4.8 3.4 0.033 0.009 38.6363 40.9779 11.93 570 770 
0.951 4 40.00 40.00 4.3 3.4 0.058 0.016 39.7726 40.9779 11.93 570 770 
0.952 4 40.00 40.00 4.3 4.0 0.060 0.009 39.7726 39.7726 11.99 600 790 
0.953 4 40.00 40.00 4.3 4.6 0.047 0.000 39.7726 38.6363 11.99 570 770 
0.954 4 40.00 40.00 4.3 4.0 0.042 0.013 39.7726 39.7726 11.99 570 780 
0.955 4 40.00 40.00 4.3 4.0 0.040 0.033 39.7726 39.7726 11.99 570 780 
0.956 4 40.00 40.00 4.3 3.4 0.031 0.018 39.7726 40.9779 11.99 570 780 
0.957 4 40.00 40.00 4.3 4.0 0.040 0.007 39.7726 39.7726 11.99 590 800 
0.958 4 40.00 40.00 4.3 4.6 0.047 0.009 39.7726 38.6363 11.99 570 770 
0.959 4 40.00 40.00 4.3 4.0 0.033 0.038 39.7726 39.7726 11.99 570 760 
0.960 4 40.00 40.00 4.3 4.1 0.036 0.038 39.7726 39.7726 11.99 570 770 
0.961 4 40.00 40.00 4.3 4.1 0.033 0.042 39.7726 39.7726 11.99 570 770 
0.962 4 40.00 40.00 4.3 4.1 0.025 0.020 39.7726 39.7726 11.94 590 800 
0.963 4 40.00 40.00 3.6 4.7 0.045 0.025 40.9779 38.6363 11.94 570 780 
0.964 4 40.00 40.00 3.6 3.4 0.016 0.040 40.9779 40.9779 11.94 570 770 
0.965 4 40.00 40.00 3.6 4.1 0.009 0.009 40.9779 39.7726 11.94 570 770 
0.966 4 40.00 40.00 3.6 4.1 0.004 0.011 40.9779 39.7726 11.94 570 770 
0.967 4 40.00 40.00 4.2 4.1 0.011 0.036 39.7726 39.7726 11.94 590 790 
0.968 4 40.00 40.00 4.2 4.1 0.004 0.020 39.7726 39.7726 11.94 560 770 
0.969 4 40.00 40.00 4.2 4.1 0.038 0.027 39.7726 39.7726 11.94 570 770 
0.970 4 40.00 40.00 4.2 4.1 0.038 0.020 39.7726 39.7726 11.94 570 780 
0.971 4 40.00 40.00 4.2 3.4 0.045 0.009 39.7726 40.9779 11.94 570 770 
0.972 4 40.00 40.00 4.2 4.7 0.038 0.004 39.7726 38.6363 12.01 590 790 
0.973 4 40.00 40.00 4.3 3.4 0.033 0.020 39.7726 40.9779 12.01 570 760 
