%% logfile from robot 20
%  1    time 0.000 sec
%  2    mission (5) state 2
%  3  4 Motor velocity ref left, right: 0.00 0.00
%  5  6 Motor voltage [V] left, right: 0.0 0.0
%  7  8 Wheel velocity [m/s] left, right: 0.0000 0.0000
%  9 10 11 12 Pose x,y,h,tilt [m,m,rad,rad]: 0.0000 0.0000 0.000000 0.905165
% 13 .. 27 Line sensor: left 0.052174 1, right 4.180000 0, values 476 569 636 504 227 138 114 89, white 0, used 1
% 29    Battery voltage [V]: 12.12
%% Configuration as seen in client (assumed updated from robot)
% [main]
% version = 2.201
% mission = 5
% statusinterval = 50
% usbdevicename = /dev/ttyACM0
% connect = True
% 
% [show]
% debug = True
% z = False
% log = True
% robot = True
% edge = True
% imu = False
% velocity = True
% turn = True
% balance = True
% ss = True
% follow_edge = True
% mission = True
% 
% [log]
% interval = 5
% mission_state = True
% acceleration = False
% gyro = False
% encoder = False
% motorref = True
% motorvoltage = True
% motorcurrent = False
% wheelvelocity = True
% robotpose = True
% linesensor = True
% batteryvoltage = True
% balancectrl = False
% controltime = False
% extrainfo = False
% logfilename = /home/jca/svnregbot/matlab/line_sensor/step_05_cm_kp01.txt
% allow = True
% 
% [wheelVel]
% reguse = True
% usevelest = False
% usevelleadfwd = False
% acclimit = 2.0
% kp = 20.0
% taui = 0.0
% taud = 0.0
% alpha = 0.5
% imax = 8.0
% steptime = 0.3
% stepfromreg = -0.15
% steptoreg = 0.2
% stepfromv = 2.1
% steptov = 4.1
% motorvoltlimit = 8.0
% 
% [turn]
% reguse = True
% leadfwd = False
% kp = 1.0
% taui = 0.0
% taud = 0.0
% alpha = 0.1
% imax = 0.4
% outmax = 15.0
% stepontime = 1.0
% stepofftime = 2.6
% stepvaluereg = 1.0
% stepvaluemotreg = 5.0
% stepvaluemotv = 1.0
% stepvelocitymotreg = 0.2
% stepvelocitymotv = 0.2
% 
% [mission]
% mission = # demo mission
% 	vel=0.2, acc=1   : dist = 0.3
% 	tr=0.3 : turn=45
% 	vel=0.7, acc=3   : dist = 0.3
% 	vel=0.15, tr=-0.1,bal=0,log=3 : turn=-45,time=8,dist=0.75
% 	# go straight
% 	: dist = 0.3
% 	vel=0 : time=1
% filename = mission_1.mis
% 
% [balance]
% use = True
% kp = -6.0
% taui = 0.07
% taud = 0.025
% alpha = 0.2
% imax = 1.0
% outmax = 6.0
% leadfwd = True
% leadgyro = True
% 
% [balanceVel]
% use = True
% kp = 0.3
% taui = 0.0
% taud = 0.007
% alpha = 10.0
% zeta = 10.0
% imax = 0.2
% leadfwd = True
% outmax = 0.075
% steptime = 5.0
% stepfrom = 0.0
% stepto = 0.0
% stepfromvel = 0.0
% steptovel = 0.0
% stepfrommsec = 0.0
% steptomsec = 0.0
% stepfrommotvolt = 0.0
% steptomotvolt = 0.0
% 
% [balanceSS]
% use = False
% k_tilt = 0.0
% k_gyro = 0.0
% k_pos = 0.0
% k_vel = 0.0
% k_motor = 0.0
% outmax = 0.0
% steptime = 0.0
% stepfrom = 0.0
% stepto = 0.0
% steppos = 0
% 
% [lineSensor]
% maximum = 1280
% use = True
% white = False
% leadfwd = False
% kp = 0.1
% taui = 0.0
% taud = 0.0
% alpha = 0.1
% imax = 1.0
% outmax = 0.5
% stepontime = 0.5
% stepfrom = 0.0
% stepto = 0.5
% basevel = 0.3
% 
% [robot0]
% version = 2.201.13
% robotbase = 0.0
% gear = 0.0
% encoderppr = 0
% wheelradiusleft = 0.0
% wheelradiusright = 0.0
% balanceoffset = 0.0
% 
% [robot1]
% version = 2.201.13
% robotbase = 0.1551
% gear = 9.681
% encoderppr = 48.01
% wheelradiusleft = 0.0307
% wheelradiusright = 0.6297
% balanceoffset = 0.01
% 
% [robot5]
% version = 2.201.13
% robotbase = 0.1555
% gear = 9.685
% encoderppr = 48.05
% wheelradiusleft = 0.0307
% wheelradiusright = 0.7297
% balanceoffset = 0.05
% 
% [robot20]
% version = 2.201.13
% robotbase = 0.155
% gear = 9.68
% encoderppr = 48
% wheelradiusleft = 0.0297
% wheelradiusright = 0.0297
% balanceoffset = 0.0
% 
%% data log
0.005 2 0.01 0.01 0.2 0.2 0.0000 0.0000 0.0000 0.0000 0.000000 0.905152 0.0551 1 4.1800 0  482 568 640 509 227 139 109 100  0 1 12.13 
0.010 2 0.02 0.02 0.4 0.4 0.0000 0.0000 0.0000 0.0000 0.000000 0.905162 0.0501 1 4.1800 0  470 573 633 512 216 139 106 95  0 1 12.09 
0.015 2 0.03 0.03 0.6 0.6 0.0000 0.0000 0.0000 0.0000 0.000000 0.905137 0.0278 1 4.1800 0  471 578 629 503 217 139 114 100  0 1 12.10 
0.020 2 0.04 0.04 0.8 0.8 0.0000 0.0000 0.0000 0.0000 0.000000 0.905153 0.0374 1 4.1800 0  468 576 638 505 219 131 111 91  0 1 12.13 
0.025 2 0.05 0.05 1.0 1.0 0.0000 0.0000 0.0000 0.0000 0.000000 0.905170 0.0169 1 4.1800 0  489 580 627 495 219 131 111 99  0 1 12.08 
0.030 2 0.06 0.06 1.2 1.2 0.0000 0.0000 0.0002 -0.0000 -0.002591 0.905153 0.0830 1 4.1800 0  456 578 629 538 214 126 109 92  0 1 12.08 
0.035 2 0.07 0.07 1.4 1.4 0.0000 0.0000 0.0004 -0.0000 0.000000 0.904732 0.0698 1 4.1800 0  487 569 622 504 217 123 121 90  0 1 12.05 
0.040 2 0.08 0.08 0.6 1.6 0.0502 0.0000 0.0006 -0.0000 -0.002591 0.903941 0.0255 1 4.1800 0  488 568 626 468 218 141 113 98  0 1 12.11 
0.045 2 0.09 0.09 0.8 1.0 0.0502 0.0422 0.0008 -0.0000 0.000000 0.902194 0.0367 1 4.1800 0  451 570 635 507 213 126 108 92  0 1 12.08 
0.050 2 0.10 0.10 1.4 1.2 0.0313 0.0422 0.0008 -0.0000 0.000000 0.901448 0.0197 1 4.1800 0  448 562 629 502 216 85 110 92  0 1 12.10 
0.055 2 0.11 0.11 1.8 1.5 0.0225 0.0365 0.0008 -0.0000 0.000000 0.901629 0.0484 1 4.1800 0  447 568 632 501 217 108 109 98  0 1 12.09 
0.060 2 0.12 0.12 2.0 1.9 0.0213 0.0249 0.0010 -0.0000 -0.002591 0.900986 0.0790 1 4.1800 0  448 566 637 470 225 116 113 110  0 1 12.06 
0.065 2 0.13 0.13 1.5 2.1 0.0590 0.0245 0.0014 -0.0000 -0.002591 0.900805 0.0163 1 4.1800 0  485 568 627 491 207 126 111 93  0 1 12.07 
0.070 2 0.14 0.14 1.7 1.9 0.0562 0.0494 0.0016 -0.0000 0.000000 0.900036 0.0665 1 4.1800 0  455 580 630 486 212 110 114 100  0 1 12.08 
0.075 2 0.15 0.15 2.1 1.8 0.0474 0.0602 0.0020 -0.0000 0.000000 0.898639 0.1125 1 4.1800 0  494 568 629 538 218 91 109 95  0 1 12.07 
0.080 2 0.16 0.16 1.8 2.0 0.0699 0.0602 0.0022 -0.0000 -0.002591 0.896052 0.0109 1 4.1800 0  444 571 628 530 211 107 117 106  0 1 12.08 
0.085 2 0.17 0.17 1.9 2.1 0.0755 0.0667 0.0026 -0.0000 -0.002591 0.895629 0.0949 1 4.1800 0  474 563 624 529 214 109 128 84  0 1 12.07 
0.090 2 0.18 0.18 1.9 2.1 0.0888 0.0763 0.0030 -0.0000 -0.002591 0.896592 0.1016 1 4.1800 0  486 572 627 533 210 96 112 107  0 1 12.07 
0.095 2 0.19 0.19 1.5 2.2 0.1185 0.0823 0.0036 -0.0000 -0.005182 0.894060 -0.0074 1 4.1800 0  484 564 631 512 221 103 113 100  0 1 12.05 
0.100 2 0.20 0.20 2.2 2.6 0.0944 0.0735 0.0040 -0.0000 -0.005182 0.893138 0.1004 1 4.1800 0  483 567 630 531 210 85 116 96  0 1 12.06 
0.105 2 0.21 0.21 1.8 2.0 0.1217 0.1104 0.0046 -0.0000 -0.002591 0.891666 0.0086 1 4.1800 0  492 561 627 512 206 111 111 96  0 1 12.07 
0.110 2 0.22 0.22 1.3 1.7 0.1574 0.1390 0.0052 -0.0000 -0.005182 0.890217 -0.0311 1 4.1800 0  501 569 630 511 210 109 118 101  0 1 12.10 
0.115 2 0.23 0.23 1.8 2.3 0.1438 0.1161 0.0060 -0.0000 -0.005182 0.889388 0.0841 1 4.1800 0  453 575 629 549 205 95 123 98  0 1 12.06 
0.120 2 0.24 0.24 1.9 3.0 0.1450 0.0908 0.0066 -0.0000 -0.007773 0.886970 0.0647 1 4.1800 0  495 573 633 524 207 98 108 108  0 1 12.00 
0.125 2 0.25 0.25 1.9 2.4 0.1566 0.1341 0.0074 -0.0000 -0.007773 0.884913 0.0690 1 4.1800 0  494 590 644 517 212 126 115 99  0 1 12.05 
0.130 2 0.26 0.26 1.9 2.3 0.1687 0.1470 0.0080 -0.0000 -0.010364 0.883164 0.0535 1 4.1800 0  500 594 643 517 206 117 117 79  0 1 12.08 
0.135 2 0.27 0.27 2.8 2.3 0.1329 0.1586 0.0086 -0.0000 -0.007773 0.883489 -0.0389 1 4.1800 0  506 602 650 526 201 143 112 91  0 1 12.05 
0.140 2 0.28 0.28 1.6 2.0 0.2028 0.1839 0.0098 -0.0000 -0.007773 0.882625 0.0389 1 4.1800 0  540 611 645 532 207 99 120 95  0 1 12.08 
0.145 2 0.29 0.29 2.4 2.9 0.1699 0.1454 0.0106 -0.0001 -0.007773 0.879805 0.0713 1 4.1800 0  479 604 653 509 208 110 113 102  0 1 12.02 
0.150 2 0.30 0.30 2.1 3.1 0.1912 0.1402 0.0112 -0.0001 -0.010364 0.880876 0.0454 1 4.1800 0  527 607 657 518 214 100 120 99  0 1 12.00 
0.155 2 0.30 0.30 1.4 2.1 0.2293 0.1956 0.0125 -0.0001 -0.010364 0.878332 -0.0299 1 4.1800 0  528 618 653 536 200 114 121 102  0 1 12.08 
0.160 2 0.30 0.30 1.5 1.5 0.2281 0.2241 0.0135 -0.0001 -0.012956 0.878495 0.0287 1 4.1800 0  541 616 655 504 211 101 112 83  0 1 12.10 
0.165 2 0.30 0.30 1.8 2.7 0.2088 0.1699 0.0145 -0.0001 -0.010364 0.877851 -0.0658 1 4.1800 0  544 621 650 482 199 146 116 116  0 1 12.08 
0.170 2 0.29 0.31 1.8 2.7 0.2016 0.1715 0.0155 -0.0001 -0.012956 0.875877 -0.2243 1 4.1800 0  557 626 636 521 193 102 120 110  0 1 12.05 
0.175 2 0.29 0.31 1.9 1.6 0.1968 0.2305 0.0163 -0.0001 -0.012956 0.876531 -0.1680 1 4.1800 0  540 624 633 442 195 130 123 112  0 1 12.09 
0.180 2 0.29 0.31 1.7 2.1 0.2088 0.2048 0.0175 -0.0001 -0.012956 0.874363 -0.0751 1 4.1800 0  532 633 632 449 187 179 116 110  0 1 12.10 
0.185 2 0.29 0.31 1.7 2.3 0.2036 0.1928 0.0183 -0.0001 -0.012956 0.876490 -0.0603 1 4.1800 0  504 613 617 467 180 105 117 108  0 1 12.07 
0.190 2 0.29 0.31 1.8 2.1 0.2036 0.2048 0.0195 -0.0002 -0.012956 0.873913 -0.1558 1 4.1800 0  532 615 614 495 175 99 124 102  0 1 12.08 
0.195 2 0.29 0.31 0.8 1.5 0.2522 0.2362 0.0205 -0.0002 -0.015547 0.873843 -0.0883 1 4.1800 0  502 605 612 453 181 132 129 97  0 1 12.11 
0.200 2 0.28 0.32 1.6 2.4 0.2056 0.1956 0.0215 -0.0002 -0.012956 0.876545 -0.1575 1 4.1800 0  521 598 611 478 175 115 117 96  0 1 12.08 
0.205 2 0.28 0.32 2.1 2.9 0.1775 0.1743 0.0225 -0.0002 -0.015547 0.877197 -0.1934 1 4.1800 0  562 602 591 461 170 100 113 96  0 1 12.07 
0.210 2 0.29 0.31 1.3 1.3 0.2281 0.2418 0.0237 -0.0002 -0.015547 0.877042 -0.0746 1 4.1800 0  510 601 589 452 168 97 116 79  0 1 12.09 
0.215 2 0.28 0.32 1.4 2.4 0.2169 0.1940 0.0247 -0.0002 -0.012956 0.879938 -0.2048 1 4.1800 0  553 597 592 404 172 124 112 98  0 1 12.09 
0.220 2 0.28 0.32 2.0 2.2 0.1847 0.2068 0.0257 -0.0002 -0.015547 0.881538 -0.2785 1 4.1800 0  568 597 590 451 174 81 113 92  0 1 12.09 
0.225 2 0.28 0.32 1.3 1.8 0.2193 0.2265 0.0267 -0.0003 -0.012956 0.885415 -0.2109 1 4.1800 0  523 598 590 443 166 93 110 110  0 1 12.07 
0.230 2 0.29 0.31 1.2 1.8 0.2241 0.2217 0.0279 -0.0003 -0.012956 0.885924 -0.1537 1 4.1800 0  524 607 587 414 168 128 110 110  0 1 12.09 
0.235 2 0.28 0.32 1.1 2.4 0.2265 0.2008 0.0289 -0.0003 -0.015547 0.892585 -0.2110 1 4.1800 0  547 608 603 436 174 99 106 100  0 1 12.08 
0.240 2 0.28 0.32 0.8 1.5 0.2446 0.2418 0.0301 -0.0003 -0.015547 0.886606 -0.1672 1 4.1800 0  519 595 600 415 173 112 106 90  0 1 12.10 
0.245 2 0.29 0.31 1.4 1.2 0.2193 0.2538 0.0313 -0.0003 -0.010364 0.885751 -0.1280 1 4.1800 0  498 586 595 436 175 118 109 93  0 1 12.11 
0.250 2 0.29 0.31 1.9 1.4 0.1940 0.2434 0.0325 -0.0003 -0.010364 0.885158 -0.0863 1 4.1800 0  480 584 584 416 167 140 98 108  0 1 12.10 
0.255 2 0.28 0.32 0.6 1.3 0.2538 0.2522 0.0337 -0.0004 -0.010364 0.888355 -0.1813 1 4.1800 0  491 575 587 436 173 65 111 93  0 1 12.11 
0.260 2 0.28 0.32 1.1 1.9 0.2241 0.2217 0.0349 -0.0004 -0.010364 0.888945 -0.3728 1 4.1800 0  528 581 580 426 154 86 109 115  0 1 12.10 
0.265 2 0.28 0.32 0.8 1.3 0.2434 0.2510 0.0361 -0.0004 -0.010364 0.891370 -0.0858 1 4.1800 0  481 581 579 422 169 98 107 81  0 1 12.10 
0.270 2 0.28 0.32 1.5 1.4 0.2048 0.2478 0.0371 -0.0004 -0.007773 0.888545 -0.2145 1 4.1800 0  520 572 576 423 146 119 107 73  0 1 12.11 
0.275 2 0.28 0.32 1.1 1.2 0.2265 0.2554 0.0384 -0.0004 -0.007773 0.888035 -0.0731 1 4.1800 0  472 566 565 412 159 90 112 98  0 1 12.10 
0.280 2 0.28 0.32 0.9 1.7 0.2390 0.2333 0.0396 -0.0004 -0.007773 0.890518 -0.1687 1 4.1800 0  479 564 561 418 148 107 108 104  0 1 12.10 
0.285 2 0.28 0.32 1.9 1.4 0.1884 0.2446 0.0408 -0.0004 -0.007773 0.891528 -0.1175 1 4.1800 0  457 566 569 418 150 94 114 75  0 1 12.12 
0.290 2 0.28 0.32 1.6 1.5 0.2028 0.2402 0.0418 -0.0004 -0.005182 0.891063 -0.1095 1 4.1800 0  462 552 555 396 159 90 108 94  0 1 12.09 
0.295 2 0.28 0.32 0.8 1.7 0.2402 0.2305 0.0430 -0.0004 -0.005182 0.889300 -0.1767 1 4.1800 0  477 539 544 411 143 101 101 114  0 1 12.10 
0.300 2 0.28 0.32 1.8 1.6 0.1948 0.2362 0.0440 -0.0004 -0.007773 0.890355 -0.1601 1 4.1800 0  454 552 540 405 145 100 121 87  0 1 12.10 
0.305 2 0.28 0.32 0.6 2.0 0.2478 0.2205 0.0452 -0.0004 -0.007773 0.889923 -0.2766 1 4.1800 0  460 535 535 377 141 79 110 105  0 1 12.07 
0.310 2 0.28 0.32 0.5 1.6 0.2522 0.2434 0.0464 -0.0005 -0.007773 0.890458 -0.2817 1 4.1800 0  484 545 536 352 148 110 111 108  0 1 12.10 
0.315 2 0.27 0.33 1.9 2.1 0.1799 0.2217 0.0474 -0.0005 -0.005182 0.892304 -0.1372 1 4.1800 0  474 550 535 417 152 76 108 104  0 1 12.07 
0.320 2 0.28 0.32 0.9 1.5 0.2293 0.2510 0.0486 -0.0005 -0.005182 0.891183 -0.1864 1 4.1800 0  499 551 536 374 141 82 104 97  0 1 12.10 
0.325 2 0.27 0.33 0.8 2.3 0.2293 0.2125 0.0496 -0.0005 -0.002591 0.890934 -0.3003 1 4.1800 0  545 574 539 352 137 118 101 109  0 1 12.10 
0.330 2 0.27 0.33 1.3 1.8 0.2080 0.2374 0.0508 -0.0005 -0.002591 0.889943 -0.2596 1 4.1800 0  545 569 545 403 144 89 101 107  0 1 12.08 
0.335 2 0.27 0.33 0.8 1.9 0.2333 0.2293 0.0520 -0.0005 -0.002591 0.889841 -0.2533 1 4.1800 0  498 583 563 402 150 82 107 99  0 1 12.10 
0.340 2 0.27 0.33 0.9 2.0 0.2281 0.2229 0.0530 -0.0005 -0.000000 0.891407 -0.2539 1 4.1800 0  503 604 565 388 141 97 104 82  0 1 12.09 
0.345 2 0.27 0.33 1.7 1.5 0.1847 0.2574 0.0542 -0.0005 -0.000000 0.891431 -0.3680 1 4.1800 0  505 597 578 427 147 80 114 104  0 1 12.07 
0.350 2 0.27 0.33 0.7 1.5 0.2333 0.2538 0.0554 -0.0005 -0.000000 0.891443 -0.3013 1 4.1800 0  553 612 583 403 145 90 101 105  0 1 12.08 
0.355 2 0.27 0.33 1.1 2.6 0.2157 0.1956 0.0564 -0.0005 0.002591 0.891553 -0.2703 1 4.1800 0  515 613 576 420 138 118 109 96  0 1 12.10 
0.360 2 0.27 0.33 2.1 2.0 0.1671 0.2281 0.0574 -0.0005 -0.000000 0.889951 -0.3587 1 4.1800 0  544 597 579 428 143 124 103 96  0 1 12.09 
0.365 2 0.27 0.33 1.0 1.5 0.2229 0.2554 0.0584 -0.0005 0.002591 0.890276 -0.4355 1 4.1800 0  513 601 577 397 144 90 109 101  0 1 12.07 
0.370 2 0.27 0.33 1.1 2.4 0.2205 0.2080 0.0596 -0.0005 0.002591 0.889809 -0.3333 1 4.1800 0  503 592 572 345 142 89 104 101  0 1 12.10 
0.375 2 0.27 0.33 1.8 1.6 0.1856 0.2446 0.0606 -0.0005 0.005182 0.889727 -0.2613 1 4.1800 0  507 595 568 405 138 85 103 107  0 1 12.08 
0.380 2 0.27 0.33 1.2 2.1 0.2088 0.2265 0.0618 -0.0005 0.005182 0.890932 -0.3354 1 4.1800 0  519 585 554 342 141 153 105 116  0 1 12.09 
0.385 2 0.26 0.34 0.7 1.9 0.2293 0.2402 0.0631 -0.0005 0.005182 0.889577 -0.4661 1 4.1800 0  515 595 549 374 144 131 115 98  0 1 12.10 
0.390 2 0.27 0.33 1.5 1.9 0.1940 0.2345 0.0641 -0.0004 0.007773 0.890827 -0.3045 1 4.1800 0  557 584 548 341 137 123 101 99  0 1 12.11 
0.395 2 0.27 0.33 1.6 1.8 0.1847 0.2462 0.0653 -0.0004 0.007773 0.889667 -0.4991 1 4.1800 0  537 582 540 353 148 123 101 104  0 1 12.08 
0.400 2 0.27 0.33 0.7 1.6 0.2321 0.2538 0.0665 -0.0004 0.007773 0.890301 -0.3283 1 4.1800 0  540 577 540 368 144 86 104 123  0 1 12.09 
0.405 2 0.26 0.34 0.7 1.9 0.2229 0.2462 0.0675 -0.0004 0.010364 0.889968 -0.3996 1 4.1800 0  526 572 537 370 134 105 103 107  0 1 12.10 
0.410 2 0.26 0.34 1.6 1.8 0.1807 0.2462 0.0685 -0.0004 0.012956 0.890179 -0.3148 1 4.1800 0  516 564 528 349 150 116 110 106  0 1 12.09 
0.415 2 0.26 0.34 1.1 1.7 0.2036 0.2522 0.0697 -0.0004 0.012956 0.889338 -0.4961 1 4.1800 0  501 555 534 361 135 86 102 120  0 1 12.10 
0.420 2 0.27 0.33 0.9 2.0 0.2241 0.2293 0.0709 -0.0004 0.012956 0.889124 -0.2750 1 4.1800 0  469 549 538 341 140 123 110 107  0 1 12.10 
0.425 2 0.27 0.33 1.1 1.5 0.2181 0.2510 0.0719 -0.0004 0.015547 0.887523 -0.0163 1 4.1800 0  442 526 522 416 131 55 104 116  0 1 12.07 
0.430 2 0.28 0.32 1.8 2.1 0.1900 0.2157 0.0731 -0.0003 0.015547 0.888223 -0.2781 1 4.1800 0  474 524 516 348 142 126 104 82  0 1 12.10 
0.435 2 0.28 0.32 0.7 1.7 0.2494 0.2321 0.0743 -0.0003 0.015547 0.888158 -0.1815 1 4.1800 0  429 497 507 376 137 117 108 109  0 1 12.10 
0.440 2 0.28 0.32 1.2 1.5 0.2181 0.2462 0.0753 -0.0003 0.018138 0.887467 -0.1637 1 4.1800 0  411 484 502 387 143 124 106 101  0 1 12.10 
0.445 2 0.29 0.31 1.9 1.5 0.1912 0.2402 0.0765 -0.0003 0.018138 0.886383 -0.0655 1 4.1800 0  415 474 487 396 136 98 105 98  0 1 12.10 
0.450 2 0.29 0.31 0.9 2.0 0.2418 0.2100 0.0777 -0.0003 0.018138 0.888192 -0.1252 1 4.1800 0  398 480 488 366 153 94 100 104  0 1 12.10 
0.455 2 0.28 0.32 1.0 1.5 0.2321 0.2434 0.0789 -0.0002 0.018138 0.887017 -0.1886 1 4.1800 0  440 482 496 351 134 118 107 119  0 1 12.10 
0.460 2 0.28 0.32 1.7 1.8 0.1920 0.2305 0.0797 -0.0002 0.018138 0.885957 -0.2061 1 4.1800 0  458 500 504 383 139 168 116 100  0 1 12.10 
0.465 2 0.28 0.32 0.9 1.5 0.2293 0.2478 0.0809 -0.0002 0.018138 0.885791 -0.2377 1 4.1800 0  471 519 519 365 145 126 108 89  0 1 12.10 
0.470 2 0.28 0.32 1.3 1.6 0.2113 0.2462 0.0819 -0.0002 0.020729 0.888774 -0.1905 1 4.1800 0  468 531 534 373 154 139 108 103  0 1 12.10 
0.475 2 0.27 0.33 1.9 2.1 0.1775 0.2217 0.0831 -0.0002 0.020729 0.886571 -0.2438 1 4.1800 0  498 556 552 413 137 113 105 102  0 1 12.09 
0.480 2 0.28 0.32 1.0 1.7 0.2253 0.2374 0.0843 -0.0001 0.020729 0.886455 -0.2887 1 4.1800 0  498 562 565 386 146 109 108 91  0 1 12.09 
0.485 2 0.28 0.32 1.1 1.8 0.2241 0.2345 0.0853 -0.0001 0.023320 0.886270 -0.2296 1 4.1800 0  521 586 565 409 158 130 112 103  0 1 12.09 
0.490 2 0.27 0.33 1.3 2.1 0.2080 0.2193 0.0865 -0.0001 0.023320 0.887459 -0.2358 1 4.1800 0  518 593 581 409 147 138 110 98  0 1 12.09 
0.495 2 0.27 0.33 0.5 1.8 0.2446 0.2434 0.0877 -0.0001 0.023320 0.887142 -0.2287 1 4.1800 0  524 592 590 394 153 136 103 95  0 1 12.10 
0.500 2 0.27 0.33 1.4 1.6 0.1976 0.2538 0.0888 -0.0000 0.025911 0.886530 -0.2935 1 4.1800 0  521 584 590 370 145 125 111 122  0 1 12.10 
0.505 6 0.26 0.34 1.1 2.4 0.2028 0.2241 0.0898 -0.0000 0.023320 0.887127 -0.3708 1 4.1800 0  550 596 590 385 143 130 103 84  0 1 12.09 
0.510 6 0.25 0.35 1.4 1.9 0.1783 0.2590 0.0910 0.0000 0.028502 0.886039 -0.2677 1 4.1800 0  513 601 593 386 149 114 104 78  0 1 12.10 
0.515 6 0.24 0.36 0.8 2.2 0.1976 0.2538 0.0922 0.0001 0.028502 0.886025 -0.1961 1 4.1800 0  526 612 591 423 165 117 112 114  0 1 12.10 
0.520 6 0.23 0.37 0.9 2.4 0.1876 0.2478 0.0932 0.0001 0.031093 0.886567 -0.2000 1 4.1800 0  528 595 591 478 139 93 109 104  0 1 12.07 
0.525 6 0.23 0.37 0.8 2.4 0.1856 0.2510 0.0942 0.0001 0.033685 0.886311 -0.2204 1 4.1800 0  525 590 610 434 143 112 98 94  0 1 12.10 
0.530 6 0.23 0.37 1.2 2.2 0.1663 0.2639 0.0952 0.0001 0.036276 0.884339 -0.3667 1 4.1800 0  574 615 596 396 157 139 115 100  0 1 12.09 
0.535 6 0.22 0.38 0.8 2.6 0.1783 0.2538 0.0964 0.0002 0.036276 0.881810 -0.4680 1 4.1800 0  553 612 610 369 146 151 112 112  0 1 12.08 
0.540 6 0.22 0.38 1.0 2.5 0.1651 0.2590 0.0976 0.0002 0.041458 0.884598 -0.3368 1 4.1800 0  518 617 609 381 148 157 102 98  0 1 12.10 
0.545 6 0.22 0.38 0.7 1.9 0.1831 0.2888 0.0986 0.0003 0.044049 0.883221 -0.4089 1 4.1800 0  563 621 598 436 149 90 117 99  0 1 12.11 
0.550 6 0.22 0.38 1.8 2.2 0.1353 0.2639 0.0998 0.0003 0.049231 0.880222 -0.1573 1 4.1800 0  504 611 600 423 160 88 104 99  0 1 12.10 
0.555 6 0.22 0.38 0.7 2.4 0.1884 0.2590 0.1010 0.0004 0.049231 0.883066 -0.3009 1 4.1800 0  573 614 620 431 152 84 107 110  0 1 12.10 
0.560 6 0.23 0.37 0.6 1.7 0.2008 0.2807 0.1020 0.0005 0.051822 0.880056 -0.1696 1 4.1800 0  512 609 608 454 150 114 97 104  0 1 12.08 
0.565 6 0.23 0.37 0.5 1.8 0.2016 0.2807 0.1032 0.0005 0.057005 0.878788 -0.1074 1 4.1800 0  509 615 607 438 154 118 107 72  0 1 12.11 
0.570 6 0.23 0.37 1.3 1.7 0.1631 0.2848 0.1042 0.0006 0.059596 0.879106 -0.1991 1 4.1800 0  487 606 616 439 150 76 104 95  0 1 12.08 
0.575 6 0.24 0.36 1.0 1.9 0.1839 0.2675 0.1054 0.0006 0.064778 0.878183 -0.1028 1 4.1800 0  496 605 605 445 163 83 104 116  0 1 12.08 
0.580 6 0.23 0.37 0.6 1.6 0.2016 0.2848 0.1066 0.0007 0.064778 0.878579 -0.1958 1 4.1800 0  506 605 614 387 152 152 120 109  0 1 12.11 
0.585 6 0.23 0.37 1.5 2.3 0.1554 0.2554 0.1076 0.0008 0.067369 0.877670 -0.1841 1 4.1800 0  515 603 607 439 165 59 111 85  0 1 12.10 
0.590 6 0.23 0.37 1.5 2.5 0.1578 0.2434 0.1088 0.0009 0.072551 0.874415 -0.1725 1 4.1800 0  497 612 603 394 162 131 114 82  0 1 12.11 
0.595 6 0.24 0.36 0.6 1.3 0.2080 0.2972 0.1100 0.0010 0.072551 0.874947 -0.1361 1 4.1800 0  548 600 599 461 160 119 104 109  0 1 12.10 
0.600 6 0.24 0.36 0.6 1.9 0.2056 0.2659 0.1112 0.0011 0.077734 0.874557 -0.1851 1 4.1800 0  539 602 604 457 166 97 108 94  0 1 12.11 
0.605 6 0.24 0.36 1.4 1.9 0.1671 0.2695 0.1122 0.0011 0.080325 0.873356 -0.2259 1 4.1800 0  559 604 615 409 162 111 113 111  0 1 12.10 
0.610 6 0.24 0.36 0.7 1.8 0.2048 0.2731 0.1132 0.0012 0.082916 0.870886 -0.0787 1 4.1800 0  501 607 601 447 172 126 111 81  0 1 12.10 
0.615 6 0.24 0.36 1.4 1.6 0.1671 0.2827 0.1146 0.0013 0.085507 0.868356 -0.1042 1 4.1800 0  496 608 626 403 178 127 115 94  0 1 12.11 
0.620 6 0.24 0.36 1.1 1.8 0.1856 0.2695 0.1156 0.0014 0.088098 0.868009 -0.1006 1 4.1800 0  504 613 618 414 174 110 112 100  0 1 12.08 
0.625 6 0.24 0.36 1.5 2.0 0.1663 0.2607 0.1166 0.0015 0.090689 0.863270 -0.1100 1 4.1800 0  506 608 620 486 186 148 125 104  0 1 12.06 
0.630 6 0.24 0.36 0.9 1.7 0.2008 0.2711 0.1180 0.0016 0.093280 0.864294 -0.0403 1 4.1800 0  508 619 616 474 192 88 112 104  0 1 12.08 
0.635 6 0.25 0.35 1.0 2.3 0.1976 0.2402 0.1190 0.0017 0.095872 0.861173 -0.0461 1 4.1800 0  520 612 618 477 184 93 110 101  0 1 12.10 
0.640 6 0.24 0.36 1.6 2.0 0.1651 0.2538 0.1200 0.0018 0.098463 0.857931 -0.2776 1 4.1800 0  556 620 616 433 187 137 115 90  0 1 12.08 
0.645 6 0.24 0.36 1.0 2.2 0.1956 0.2446 0.1210 0.0019 0.101054 0.861626 -0.0168 1 4.1800 0  499 625 621 468 188 81 113 105  0 1 12.07 
0.650 6 0.25 0.35 1.1 2.2 0.1928 0.2418 0.1220 0.0020 0.103645 0.856355 -0.1206 1 4.1800 0  508 610 627 458 192 128 111 103  0 1 12.09 
0.655 6 0.25 0.35 2.1 1.9 0.1422 0.2574 0.1232 0.0022 0.103645 0.862401 -0.0064 1 4.1800 0  505 614 622 445 190 130 112 96  0 1 12.07 
0.660 6 0.25 0.35 1.3 1.7 0.1807 0.2659 0.1242 0.0023 0.106236 0.865042 -0.0209 1 4.1800 0  501 615 627 440 198 163 119 74  0 1 12.08 
0.665 6 0.25 0.35 1.7 2.5 0.1598 0.2281 0.1252 0.0024 0.108827 0.869103 -0.0426 1 4.1800 0  533 617 619 477 202 106 114 68  0 1 12.10 
0.670 6 0.25 0.35 1.0 2.0 0.1968 0.2538 0.1264 0.0025 0.114009 0.866647 -0.0229 1 4.1800 0  518 613 624 497 200 83 108 100  0 1 12.10 
0.675 6 0.25 0.35 1.4 1.4 0.1799 0.2787 0.1276 0.0026 0.114009 0.869074 0.0270 1 4.1800 0  493 622 626 487 215 164 108 77  0 1 12.10 
0.680 6 0.25 0.35 1.0 1.9 0.2036 0.2538 0.1286 0.0028 0.116600 0.864578 0.0182 1 4.1800 0  504 614 624 514 204 104 109 94  0 1 12.08 
0.685 6 0.25 0.35 1.2 1.8 0.1920 0.2574 0.1296 0.0029 0.119192 0.867885 -0.0183 1 4.1800 0  544 623 625 472 213 104 106 75  0 1 12.11 
0.690 6 0.25 0.35 1.0 1.6 0.1996 0.2731 0.1308 0.0030 0.124374 0.867445 -0.0363 1 4.1800 0  531 613 613 507 211 139 112 89  0 1 12.10 
0.695 6 0.25 0.35 1.2 1.9 0.1884 0.2538 0.1320 0.0032 0.124374 0.868130 0.0018 1 4.1800 0  556 620 624 488 210 106 106 68  0 1 12.10 
0.700 6 0.25 0.35 1.1 1.8 0.1912 0.2623 0.1330 0.0033 0.126965 0.868422 0.0229 1 4.1800 0  531 605 617 519 218 127 109 96  0 1 12.10 
0.705 6 0.25 0.35 0.5 1.5 0.2193 0.2807 0.1342 0.0035 0.126965 0.866947 -0.1542 1 4.1800 0  528 621 624 494 216 107 118 102  0 1 12.11 
0.710 6 0.25 0.35 1.5 2.0 0.1767 0.2494 0.1352 0.0036 0.129556 0.865884 0.0852 1 4.1800 0  543 629 618 539 242 140 112 93  0 1 12.08 
0.715 6 0.26 0.34 1.3 1.5 0.1920 0.2675 0.1366 0.0038 0.132147 0.868367 0.1094 1 4.1800 0  497 603 618 522 231 100 107 88  0 1 12.11 
0.720 6 0.26 0.34 1.7 2.1 0.1751 0.2374 0.1376 0.0039 0.134738 0.868338 0.1053 1 4.1800 0  528 621 621 543 225 138 116 83  0 1 12.10 
0.725 6 0.26 0.34 1.1 1.9 0.2056 0.2462 0.1388 0.0041 0.134738 0.866427 0.0487 1 4.1800 0  533 613 622 548 244 106 111 98  0 1 12.09 
0.730 6 0.26 0.34 0.8 1.5 0.2217 0.2675 0.1398 0.0042 0.137329 0.867097 0.1537 1 4.1800 0  505 617 625 552 236 129 114 116  0 1 12.08 
0.735 6 0.26 0.34 0.9 1.8 0.2145 0.2510 0.1409 0.0044 0.137329 0.867111 0.1655 1 4.1800 0  528 614 623 518 242 158 113 70  0 1 12.10 
0.740 6 0.26 0.34 1.8 2.5 0.1715 0.2113 0.1419 0.0045 0.139921 0.865558 0.1646 1 4.1800 0  504 623 621 578 238 121 112 91  0 1 12.10 
0.745 6 0.26 0.34 0.7 1.4 0.2265 0.2695 0.1431 0.0047 0.139921 0.867002 0.1183 1 4.1800 0  530 607 626 484 253 156 106 98  0 1 12.09 
0.750 6 0.26 0.34 0.9 1.8 0.2217 0.2434 0.1441 0.0048 0.142512 0.867609 0.1517 1 4.1800 0  530 609 631 531 246 132 111 64  0 1 12.11 
0.755 6 0.27 0.33 2.1 1.9 0.1586 0.2374 0.1453 0.0050 0.142512 0.866083 0.1541 1 4.1800 0  500 615 620 523 250 142 114 104  0 1 12.09 
0.760 6 0.26 0.34 1.1 2.0 0.2068 0.2362 0.1463 0.0051 0.145103 0.865914 0.1297 1 4.1800 0  535 623 631 537 260 140 117 96  0 1 12.10 
0.765 6 0.27 0.33 1.2 2.0 0.2080 0.2305 0.1475 0.0053 0.145103 0.867379 0.1814 1 4.1800 0  493 615 629 554 259 162 108 106  0 1 12.09 
0.770 6 0.27 0.33 0.9 2.1 0.2229 0.2265 0.1485 0.0054 0.147694 0.865676 0.1770 1 4.1800 0  541 628 637 568 263 137 101 100  0 1 12.10 
0.775 6 0.27 0.33 1.2 1.6 0.2088 0.2510 0.1497 0.0056 0.147694 0.864523 0.1556 1 4.1800 0  546 622 619 524 260 152 114 88  0 1 12.10 
0.780 6 0.27 0.33 1.6 2.4 0.1876 0.2113 0.1507 0.0058 0.150285 0.868095 0.1811 1 4.1800 0  560 622 619 561 271 116 106 88  0 1 12.09 
0.785 6 0.27 0.33 0.8 1.7 0.2253 0.2510 0.1519 0.0059 0.150285 0.867062 0.1435 1 4.1800 0  563 615 628 536 270 164 102 81  0 1 12.11 
0.790 6 0.27 0.33 1.4 1.9 0.2008 0.2321 0.1529 0.0061 0.152876 0.866140 0.2308 1 4.1800 0  528 622 631 578 270 111 121 89  0 1 12.10 
0.795 6 0.27 0.33 1.5 1.9 0.1996 0.2321 0.1541 0.0063 0.152876 0.867223 0.2566 1 4.1800 0  529 618 625 606 281 150 112 87  0 1 12.09 
0.800 6 0.28 0.32 1.0 1.9 0.2265 0.2293 0.1553 0.0065 0.152876 0.866593 0.2574 1 4.1800 0  530 613 635 551 287 127 109 104  0 1 12.11 
0.805 6 0.27 0.33 1.6 1.7 0.1940 0.2402 0.1562 0.0066 0.155467 0.866092 0.2143 1 4.1800 0  565 610 633 565 277 127 113 70  0 1 12.09 
0.810 6 0.28 0.32 1.3 1.8 0.2125 0.2321 0.1572 0.0068 0.152876 0.867219 0.2917 1 4.1800 0  510 615 639 591 291 121 119 82  0 1 12.08 
0.815 6 0.28 0.32 0.8 2.0 0.2402 0.2205 0.1584 0.0070 0.152876 0.866401 0.3320 1 4.1800 0  506 616 641 588 296 126 113 89  0 1 12.07 
0.820 6 0.27 0.33 0.9 1.8 0.2293 0.2374 0.1594 0.0071 0.155467 0.867555 0.2370 1 4.1800 0  565 618 646 602 293 165 115 94  0 1 12.10 
0.825 6 0.28 0.32 2.0 1.7 0.1847 0.2305 0.1606 0.0073 0.155467 0.865625 0.3318 1 4.1800 0  541 625 651 593 297 220 111 66  0 1 12.10 
0.830 6 0.28 0.32 0.8 1.6 0.2390 0.2402 0.1618 0.0075 0.155467 0.867435 0.3063 1 4.1800 0  544 636 657 526 306 184 116 89  0 1 12.10 
0.835 6 0.28 0.32 1.4 2.1 0.2113 0.2145 0.1628 0.0076 0.158059 0.867566 0.3192 1 4.1800 0  569 633 659 619 313 166 116 86  0 1 12.08 
0.840 6 0.28 0.32 1.8 1.7 0.1940 0.2281 0.1640 0.0078 0.158059 0.868123 0.3454 1 4.1800 0  543 625 651 609 312 151 115 93  0 1 12.10 
0.845 6 0.28 0.32 0.7 1.9 0.2462 0.2241 0.1650 0.0080 0.155467 0.867722 0.2864 1 4.1800 0  571 629 648 576 308 248 111 91  0 1 12.10 
0.850 6 0.28 0.32 1.0 1.4 0.2333 0.2478 0.1662 0.0082 0.155467 0.868504 0.3428 1 4.1800 0  568 622 632 537 315 205 119 92  0 1 12.10 
0.855 6 0.29 0.31 1.8 1.7 0.1940 0.2293 0.1672 0.0083 0.158059 0.869791 0.2666 1 4.1800 0  575 613 619 581 309 160 120 85  0 1 12.10 
0.860 6 0.28 0.32 0.9 2.0 0.2390 0.2157 0.1683 0.0085 0.158059 0.866991 0.2949 1 4.1800 0  557 594 612 570 303 158 118 85  0 1 12.10 
0.865 6 0.28 0.32 1.3 2.0 0.2181 0.2157 0.1693 0.0087 0.155467 0.869875 0.3452 1 4.1800 0  515 588 596 572 300 234 118 90  0 1 12.10 
0.870 6 0.29 0.31 2.1 1.5 0.1847 0.2362 0.1703 0.0088 0.158059 0.870209 0.3093 1 4.1800 0  534 579 580 560 302 146 114 84  0 1 12.10 
0.875 6 0.29 0.31 1.0 2.3 0.2418 0.1900 0.1715 0.0090 0.158059 0.869636 0.4283 1 4.1800 0  478 554 579 577 296 173 113 82  0 1 12.08 
0.880 6 0.29 0.31 1.4 1.6 0.2181 0.2333 0.1727 0.0092 0.158059 0.872630 0.2598 1 4.1800 0  536 549 565 512 294 205 117 92  0 1 12.08 
0.885 6 0.29 0.31 0.7 1.3 0.2554 0.2434 0.1737 0.0094 0.155467 0.871190 0.4053 1 4.1800 0  485 548 564 544 296 191 113 105  0 1 12.11 
0.890 6 0.30 0.30 2.3 2.0 0.1807 0.2028 0.1749 0.0096 0.155467 0.872550 0.5036 1 4.1800 0  455 550 565 541 302 185 115 85  0 1 12.08 
0.895 6 0.30 0.30 0.9 1.6 0.2554 0.2217 0.1761 0.0097 0.155467 0.873713 0.5539 1 4.1800 0  465 551 573 552 305 196 111 67  0 1 12.09 
0.900 6 0.30 0.30 1.8 1.5 0.2080 0.2281 0.1769 0.0099 0.155467 0.871828 0.4732 1 4.1800 0  474 543 570 542 305 185 111 92  0 1 12.09 
0.905 6 0.30 0.30 1.1 2.1 0.2434 0.1996 0.1783 0.0101 0.152876 0.874650 0.4652 1 4.1800 0  461 556 569 552 306 159 113 94  0 1 12.08 
0.910 6 0.30 0.30 1.1 2.4 0.2446 0.1791 0.1791 0.0102 0.152876 0.873798 0.5077 1 4.1800 0  452 554 577 541 303 165 115 75  0 1 12.08 
0.915 6 0.30 0.30 0.9 1.2 0.2510 0.2446 0.1802 0.0104 0.152876 0.875180 0.4122 1 4.1800 0  502 548 570 549 306 194 110 90  0 1 12.11 
0.920 6 0.30 0.30 1.0 1.9 0.2462 0.2048 0.1814 0.0106 0.152876 0.874719 0.4810 1 4.1800 0  460 549 567 549 301 193 110 91  0 1 12.10 
0.925 6 0.30 0.30 1.8 2.4 0.2133 0.1767 0.1824 0.0107 0.150285 0.877131 0.3873 1 4.1800 0  516 550 559 566 302 194 124 78  0 1 12.10 
0.930 6 0.30 0.30 1.0 1.4 0.2538 0.2281 0.1836 0.0109 0.150285 0.877051 0.5414 1 4.1800 0  478 541 560 530 303 224 108 68  0 1 12.10 
0.935 6 0.30 0.30 1.1 2.2 0.2478 0.1892 0.1848 0.0111 0.150285 0.876917 0.3989 1 4.1800 0  485 543 552 545 297 195 108 93  0 1 12.10 
0.940 6 0.30 0.30 1.0 1.9 0.2478 0.2080 0.1858 0.0112 0.147694 0.877477 0.4789 1 4.1800 0  464 532 559 534 301 186 119 107  0 1 12.09 
0.945 6 0.30 0.30 2.0 1.5 0.2036 0.2241 0.1870 0.0114 0.147694 0.879827 0.5088 1 4.1800 0  456 532 556 548 301 186 110 85  0 1 12.11 
0.950 6 0.31 0.29 0.8 1.4 0.2695 0.2205 0.1880 0.0116 0.145103 0.877335 0.5699 1 4.1800 0  431 534 543 515 298 200 107 81  0 1 12.10 
0.955 6 0.31 0.29 1.0 2.2 0.2590 0.1807 0.1892 0.0117 0.145103 0.880851 0.6050 1 4.1800 0  456 523 547 531 305 211 106 68  0 1 12.11 
0.960 6 0.30 0.30 1.1 1.6 0.2462 0.2205 0.1902 0.0119 0.142512 0.881765 0.4954 1 4.1800 0  468 531 552 539 295 186 107 92  0 1 12.10 
0.965 6 0.30 0.30 1.7 1.4 0.2157 0.2281 0.1914 0.0120 0.142512 0.880525 0.5307 1 4.1800 0  421 536 539 524 300 199 115 95  0 1 12.12 
0.970 6 0.31 0.29 1.1 2.0 0.2538 0.1940 0.1926 0.0122 0.142512 0.881405 0.5745 1 4.1800 0  440 531 546 489 304 209 128 79  0 1 12.10 
0.975 6 0.31 0.29 1.7 1.8 0.2265 0.1988 0.1936 0.0124 0.139921 0.882902 0.6067 1 4.1800 0  464 535 534 508 309 223 109 78  0 1 12.09 
0.980 6 0.31 0.29 0.8 1.5 0.2747 0.2145 0.1948 0.0125 0.139921 0.883096 0.6399 1 4.1800 0  441 512 526 538 310 205 94 91  0 1 12.10 
0.985 6 0.31 0.29 0.9 1.7 0.2623 0.2080 0.1957 0.0127 0.137329 0.882701 0.5371 1 4.1800 0  425 506 523 546 306 192 101 93  0 1 12.10 
0.990 6 0.31 0.29 1.1 1.6 0.2590 0.2088 0.1969 0.0128 0.137329 0.884277 0.4755 1 4.1800 0  487 503 514 477 302 249 113 84  0 1 12.10 
0.995 6 0.31 0.29 1.2 2.0 0.2522 0.1900 0.1979 0.0130 0.134738 0.884822 0.4502 1 4.1800 0  496 496 507 505 302 215 111 90  0 1 12.08 
1.000 6 0.31 0.29 1.3 1.5 0.2478 0.2125 0.1991 0.0131 0.134738 0.882881 0.5275 1 4.1800 0  450 487 502 528 315 182 107 92  0 1 12.09 
1.005 6 0.31 0.29 2.0 1.6 0.2133 0.2080 0.2001 0.0133 0.132147 0.886340 0.6593 1 4.1800 0  457 501 502 517 321 240 113 71  0 1 12.09 
1.010 6 0.31 0.29 0.7 2.2 0.2747 0.1799 0.2013 0.0134 0.132147 0.884691 0.4875 1 4.1800 0  459 493 509 575 314 214 115 88  0 1 12.11 
1.015 6 0.31 0.29 1.1 1.9 0.2522 0.1940 0.2023 0.0135 0.129556 0.886812 0.5886 1 4.1800 0  481 506 506 558 328 225 113 87  0 1 12.08 
1.020 6 0.31 0.29 0.9 1.5 0.2639 0.2125 0.2035 0.0137 0.129556 0.888257 0.5196 1 4.1800 0  487 511 530 532 309 195 108 104  0 1 12.10 
1.025 6 0.31 0.29 2.0 1.6 0.2125 0.2048 0.2045 0.0138 0.126965 0.887854 0.6286 1 4.1800 0  466 518 532 546 318 193 112 66  0 1 12.12 
1.030 6 0.31 0.29 1.5 2.2 0.2345 0.1807 0.2057 0.0140 0.126965 0.889367 0.5985 1 4.1800 0  444 535 551 562 319 215 112 91  0 1 12.10 
1.035 6 0.31 0.29 0.8 1.3 0.2659 0.2265 0.2069 0.0141 0.121783 0.887890 0.5767 1 4.1800 0  477 550 563 594 335 258 114 92  0 1 12.09 
1.040 6 0.31 0.29 1.2 1.8 0.2434 0.2048 0.2079 0.0143 0.124374 0.891839 0.5059 1 4.1800 0  506 555 570 532 326 220 111 93  0 1 12.10 
1.045 6 0.31 0.29 1.6 2.1 0.2253 0.1876 0.2089 0.0144 0.121783 0.890511 0.5516 1 4.1800 0  466 566 573 578 324 188 111 85  0 1 12.08 
1.050 6 0.31 0.29 2.1 1.9 0.2048 0.1956 0.2099 0.0145 0.119192 0.891549 0.5852 1 4.1800 0  493 571 587 534 325 232 119 70  0 1 12.11 
1.055 6 0.31 0.29 1.8 1.2 0.2193 0.2321 0.2111 0.0146 0.119192 0.892487 0.6110 1 4.1800 0  488 577 584 580 337 211 116 62  0 1 12.11 
1.060 6 0.31 0.29 1.5 2.1 0.2321 0.1876 0.2123 0.0148 0.119192 0.893565 0.5822 1 4.1800 0  499 567 599 592 337 202 113 108  0 1 12.11 
1.065 6 0.31 0.29 1.1 2.1 0.2574 0.1868 0.2135 0.0149 0.114009 0.893795 0.5763 1 4.1800 0  511 576 593 566 339 220 114 83  0 1 12.09 
1.070 6 0.31 0.29 2.0 1.2 0.2113 0.2305 0.2145 0.0150 0.116600 0.893995 0.4994 1 4.1800 0  530 578 589 575 339 211 112 82  0 1 12.10 
1.075 6 0.31 0.29 0.7 1.7 0.2731 0.2080 0.2157 0.0152 0.111418 0.895677 0.5582 1 4.1800 0  488 558 578 574 337 220 117 90  0 1 12.11 
1.080 6 0.31 0.29 1.4 2.2 0.2402 0.1791 0.2169 0.0153 0.111418 0.896238 0.5487 1 4.1800 0  513 554 574 581 334 204 112 83  0 1 12.08 
1.085 6 0.31 0.29 0.9 1.7 0.2675 0.2056 0.2179 0.0154 0.108827 0.895545 0.7700 1 4.1800 0  473 545 554 576 332 234 111 60  0 1 12.08 
1.090 6 0.31 0.29 2.1 1.9 0.2048 0.1968 0.2191 0.0155 0.108827 0.895767 0.5787 1 4.1800 0  453 556 556 588 325 190 115 82  0 1 12.11 
1.095 6 0.30 0.30 0.7 2.2 0.2675 0.1876 0.2201 0.0157 0.106236 0.897430 0.5375 1 4.1800 0  464 534 556 576 321 171 116 95  0 1 12.11 
1.100 6 0.31 0.29 0.9 2.6 0.2607 0.1639 0.2211 0.0158 0.103645 0.898320 0.5610 1 4.1800 0  472 539 553 540 329 198 112 87  0 1 12.11 
1.105 6 0.30 0.30 1.2 1.2 0.2434 0.2374 0.2223 0.0159 0.103645 0.897201 0.5100 1 4.1800 0  507 544 552 525 326 218 108 88  0 1 12.11 
1.110 6 0.31 0.29 1.9 1.8 0.2113 0.2048 0.2235 0.0160 0.103645 0.899216 0.5078 1 4.1800 0  515 549 563 571 333 246 111 97  0 1 12.11 
1.115 6 0.31 0.29 0.7 2.5 0.2731 0.1691 0.2245 0.0161 0.101054 0.898591 0.5391 1 4.1800 0  511 555 575 567 334 235 117 83  0 1 12.10 
1.120 6 0.31 0.29 1.5 1.5 0.2321 0.2181 0.2257 0.0162 0.101054 0.899228 0.5710 1 4.1800 0  475 567 580 585 336 173 109 84  0 1 12.09 
1.125 6 0.31 0.29 0.9 1.7 0.2623 0.2088 0.2267 0.0163 0.098463 0.899566 0.5707 1 4.1800 0  476 584 589 563 339 219 110 83  0 1 12.06 
1.130 6 0.30 0.30 2.2 2.2 0.1928 0.1900 0.2277 0.0164 0.095872 0.901598 0.4654 1 4.1800 0  543 579 592 578 338 185 115 87  0 1 12.09 
1.135 6 0.30 0.30 0.9 2.2 0.2574 0.1868 0.2288 0.0165 0.095872 0.901913 0.5920 1 4.1800 0  483 573 595 559 332 200 113 79  0 1 12.10 
1.140 6 0.30 0.30 1.7 1.4 0.2181 0.2241 0.2300 0.0167 0.095872 0.900677 0.5637 1 4.1800 0  504 572 574 530 339 223 118 68  0 1 12.12 
1.145 6 0.30 0.30 1.1 2.0 0.2462 0.1976 0.2310 0.0168 0.093280 0.904365 0.4855 1 4.1800 0  528 575 572 588 318 187 116 76  0 1 12.09 
1.150 6 0.30 0.30 1.9 1.6 0.2080 0.2181 0.2322 0.0169 0.093280 0.902267 0.4485 1 4.1800 0  512 550 563 570 319 184 106 83  0 1 12.11 
1.155 6 0.30 0.30 0.6 1.7 0.2711 0.2133 0.2332 0.0170 0.090689 0.905032 0.5913 1 4.1800 0  446 535 546 539 322 169 106 89  0 1 12.08 
1.160 6 0.30 0.30 1.3 1.9 0.2418 0.2016 0.2344 0.0171 0.090689 0.903631 0.5445 1 4.1800 0  452 511 540 506 302 184 106 86  0 1 12.10 
1.165 6 0.30 0.30 1.1 1.9 0.2462 0.2016 0.2354 0.0172 0.088098 0.905649 0.4146 1 4.1800 0  479 503 528 509 296 158 112 91  0 1 12.10 
1.170 6 0.30 0.30 2.1 2.2 0.1976 0.1876 0.2366 0.0173 0.088098 0.905715 0.5534 1 4.1800 0  435 489 514 461 302 225 113 98  0 1 12.10 
1.175 6 0.31 0.29 0.6 1.9 0.2747 0.2008 0.2376 0.0174 0.085507 0.906717 0.6022 1 4.1800 0  398 488 506 518 290 148 105 97  0 1 12.07 
1.180 6 0.31 0.29 0.8 1.7 0.2695 0.2080 0.2388 0.0175 0.085507 0.910651 0.6317 1 4.1800 0  394 483 497 493 303 141 112 61  0 1 12.11 
1.185 6 0.30 0.30 1.3 2.0 0.2362 0.1976 0.2398 0.0175 0.082916 0.906077 0.5563 1 4.1800 0  388 476 486 475 292 158 111 99  0 1 12.07 
1.190 6 0.30 0.30 2.0 1.8 0.2028 0.2068 0.2411 0.0176 0.082916 0.910238 0.4604 1 4.1800 0  440 475 487 476 286 168 113 98  0 1 12.11 
1.195 6 0.31 0.29 0.8 2.0 0.2695 0.1884 0.2421 0.0177 0.080325 0.910174 0.5213 1 4.1800 0  413 480 484 523 277 193 114 86  0 1 12.10 
1.200 6 0.30 0.30 1.4 1.8 0.2281 0.2113 0.2433 0.0178 0.080325 0.910964 0.3828 1 4.1800 0  450 478 489 468 274 170 115 82  0 1 12.09 
1.205 6 0.31 0.29 1.0 2.0 0.2554 0.1940 0.2443 0.0179 0.077734 0.911884 0.6159 1 4.1800 0  387 482 490 476 290 176 111 72  0 1 12.09 
1.210 6 0.31 0.29 2.1 2.0 0.1988 0.1968 0.2455 0.0180 0.077734 0.910458 0.6370 1 4.1800 0  409 487 492 507 263 188 117 80  0 1 12.10 
1.215 6 0.30 0.30 0.7 1.6 0.2659 0.2169 0.2465 0.0181 0.075143 0.913953 0.5405 1 4.1800 0  387 486 491 485 277 164 110 80  0 1 12.09 
1.220 6 0.30 0.30 1.7 2.3 0.2157 0.1839 0.2477 0.0182 0.075143 0.912596 0.5043 1 4.1800 0  388 482 494 488 273 169 108 107  0 1 12.10 
1.225 6 0.30 0.30 1.0 1.9 0.2522 0.2036 0.2487 0.0182 0.072551 0.913919 0.4354 1 4.1800 0  424 485 489 482 265 203 110 84  0 1 12.10 
1.230 6 0.30 0.30 1.8 1.9 0.2056 0.2088 0.2499 0.0183 0.072551 0.913038 0.4103 1 4.1800 0  445 485 491 444 271 221 109 85  0 1 12.12 
1.235 6 0.30 0.30 0.7 1.9 0.2623 0.2068 0.2509 0.0184 0.069960 0.914703 0.5451 1 4.1800 0  402 496 497 431 284 181 99 90  0 1 12.10 
1.240 6 0.30 0.30 1.3 2.3 0.2362 0.1831 0.2521 0.0185 0.069960 0.915363 0.5061 1 4.1800 0  398 477 492 504 268 166 104 81  0 1 12.08 
1.245 6 0.30 0.30 0.9 1.6 0.2554 0.2205 0.2531 0.0185 0.067369 0.914097 0.4270 1 4.1800 0  434 479 487 446 268 200 107 93  0 1 12.09 
1.250 6 0.30 0.30 2.0 2.0 0.1940 0.2068 0.2543 0.0186 0.067369 0.915996 0.3691 1 4.1800 0  459 486 490 448 262 216 114 76  0 1 12.11 
1.255 6 0.30 0.30 0.8 2.5 0.2590 0.1751 0.2553 0.0187 0.064778 0.916597 0.4894 1 4.1800 0  394 484 496 488 275 173 107 108  0 1 12.08 
1.260 6 0.30 0.30 0.9 1.5 0.2538 0.2229 0.2565 0.0188 0.064778 0.916600 0.4995 1 4.1800 0  393 475 485 476 268 153 113 84  0 1 12.08 
1.265 6 0.30 0.30 1.9 1.6 0.2056 0.2169 0.2575 0.0188 0.067369 0.915189 0.4641 1 4.1800 0  409 478 485 441 266 188 110 93  0 1 12.11 
1.270 6 0.30 0.30 0.8 2.1 0.2574 0.1928 0.2585 0.0189 0.064778 0.917815 0.4548 1 4.1800 0  381 472 483 510 264 158 111 93  0 1 12.09 
1.275 6 0.30 0.30 1.0 2.6 0.2510 0.1663 0.2595 0.0190 0.062187 0.917718 0.5616 1 4.1800 0  401 473 484 463 263 154 108 56  0 1 12.09 
1.280 6 0.30 0.30 1.2 1.2 0.2418 0.2362 0.2607 0.0190 0.062187 0.916570 0.5944 1 4.1800 0  376 470 483 451 275 187 110 80  0 1 12.10 
1.285 6 0.30 0.30 1.4 1.9 0.2281 0.2068 0.2619 0.0191 0.062187 0.918828 0.4829 1 4.1800 0  381 473 474 461 272 204 115 88  0 1 12.08 
1.290 6 0.30 0.30 1.4 2.7 0.2253 0.1687 0.2629 0.0192 0.059596 0.916472 0.4440 1 4.1800 0  405 459 479 457 262 138 101 82  0 1 12.09 
1.295 6 0.30 0.30 1.7 1.3 0.2133 0.2362 0.2641 0.0193 0.059596 0.918851 0.4722 1 4.1800 0  363 446 476 465 258 169 109 90  0 1 12.08 
1.300 6 0.30 0.30 0.8 1.7 0.2574 0.2169 0.2653 0.0193 0.059596 0.918170 0.3535 1 4.1800 0  435 466 481 483 255 134 111 83  0 1 12.10 
1.305 6 0.30 0.30 1.3 2.3 0.2390 0.1831 0.2663 0.0194 0.057005 0.918097 0.6286 1 4.1800 0  386 465 478 476 270 142 101 71  0 1 12.09 
1.310 6 0.29 0.31 0.7 1.7 0.2607 0.2205 0.2675 0.0195 0.057005 0.917745 0.4104 1 4.1800 0  401 463 475 499 254 224 100 80  0 1 12.09 
1.315 6 0.30 0.30 0.9 2.0 0.2478 0.2048 0.2687 0.0195 0.057005 0.916377 0.4744 1 4.1800 0  385 467 483 487 266 166 101 79  0 1 12.10 
1.320 6 0.29 0.31 1.2 1.6 0.2345 0.2281 0.2697 0.0196 0.054414 0.920174 0.4463 1 4.1800 0  410 472 478 503 254 177 110 89  0 1 12.08 
1.325 6 0.29 0.31 1.6 2.0 0.2113 0.2088 0.2709 0.0196 0.054414 0.917610 0.3271 1 4.1800 0  447 468 480 470 254 157 101 90  0 1 12.11 
1.330 6 0.29 0.31 0.8 1.7 0.2522 0.2193 0.2721 0.0197 0.054414 0.918242 0.4597 1 4.1800 0  382 474 481 478 261 135 103 106  0 1 12.08 
1.335 6 0.29 0.31 1.1 2.1 0.2345 0.2048 0.2731 0.0198 0.051822 0.919057 0.3971 1 4.1800 0  399 479 491 418 250 189 106 87  0 1 12.06 
1.340 6 0.29 0.31 1.7 1.7 0.2068 0.2229 0.2741 0.0198 0.054414 0.917232 0.3952 1 4.1800 0  392 480 490 482 248 138 103 85  0 1 12.07 
1.345 6 0.29 0.31 1.1 1.9 0.2362 0.2125 0.2753 0.0199 0.054414 0.919202 0.2963 1 4.1800 0  441 483 489 465 253 190 109 87  0 1 12.10 
1.350 6 0.29 0.31 1.4 2.0 0.2157 0.2133 0.2763 0.0199 0.051822 0.917625 0.3502 1 4.1800 0  431 493 497 481 247 182 106 76  0 1 12.10 
1.355 6 0.28 0.32 0.8 1.9 0.2462 0.2193 0.2775 0.0200 0.051822 0.918460 0.3256 1 4.1800 0  429 485 494 452 248 169 100 84  0 1 12.09 
1.360 6 0.28 0.32 1.6 2.1 0.2036 0.2125 0.2787 0.0201 0.051822 0.919039 0.3077 1 4.1800 0  437 504 504 465 248 165 104 80  0 1 12.10 
1.365 6 0.28 0.32 0.8 1.5 0.2446 0.2390 0.2799 0.0201 0.051822 0.916720 0.3963 1 4.1800 0  429 495 507 494 250 177 100 64  0 1 12.10 
1.370 6 0.28 0.32 0.6 1.8 0.2522 0.2253 0.2809 0.0202 0.049231 0.918608 0.2659 1 4.1800 0  438 506 513 455 245 160 106 93  0 1 12.10 
1.375 6 0.28 0.32 1.9 2.0 0.1868 0.2145 0.2819 0.0202 0.051822 0.918290 0.3425 1 4.1800 0  418 507 518 502 250 131 105 86  0 1 12.06 
1.380 6 0.28 0.32 0.8 1.5 0.2446 0.2446 0.2831 0.0203 0.051822 0.916989 0.2228 1 4.1800 0  480 509 515 498 249 150 102 80  0 1 12.08 
1.385 6 0.29 0.31 1.7 2.0 0.2048 0.2133 0.2843 0.0203 0.051822 0.919068 0.2441 1 4.1800 0  476 505 524 455 257 166 105 82  0 1 12.11 
1.390 6 0.29 0.31 0.9 2.3 0.2390 0.1988 0.2853 0.0204 0.049231 0.918190 0.3453 1 4.1800 0  416 507 520 500 250 144 104 89  0 1 12.08 
1.395 6 0.29 0.31 1.3 1.5 0.2205 0.2390 0.2863 0.0204 0.051822 0.916866 0.3814 1 4.1800 0  415 509 520 474 253 152 103 75  0 1 12.10 
1.400 6 0.29 0.31 0.8 1.8 0.2462 0.2253 0.2875 0.0205 0.051822 0.918776 0.3518 1 4.1800 0  428 507 519 496 257 163 105 90  0 1 12.13 
1.405 6 0.29 0.31 1.3 2.1 0.2217 0.2088 0.2888 0.0206 0.051822 0.915738 0.4105 1 4.1800 0  411 503 521 474 259 167 104 69  0 1 12.08 
1.410 6 0.29 0.31 1.6 1.5 0.2080 0.2362 0.2898 0.0206 0.049231 0.918047 0.3989 1 4.1800 0  454 509 507 488 270 154 102 68  0 1 12.11 
1.415 6 0.29 0.31 0.8 1.7 0.2478 0.2253 0.2910 0.0207 0.049231 0.918003 0.3929 1 4.1800 0  408 498 515 457 257 170 103 84  0 1 12.07 
1.420 6 0.29 0.31 1.0 2.2 0.2374 0.2016 0.2922 0.0207 0.049231 0.916799 0.3483 1 4.1800 0  443 488 510 507 253 170 97 80  0 1 12.09 
1.425 6 0.29 0.31 0.8 1.3 0.2478 0.2478 0.2934 0.0208 0.049231 0.917969 0.3382 1 4.1800 0  436 488 514 451 253 189 105 81  0 1 12.09 
1.430 6 0.28 0.32 1.2 1.6 0.2229 0.2345 0.2944 0.0209 0.051822 0.915858 0.4354 1 4.1800 0  412 498 509 437 262 158 97 82  0 1 12.09 
1.435 6 0.29 0.31 1.7 2.1 0.2036 0.2080 0.2954 0.0209 0.049231 0.916722 0.3379 1 4.1800 0  435 489 506 463 253 131 105 82  0 1 12.09 
1.440 6 0.29 0.31 0.8 1.7 0.2494 0.2281 0.2966 0.0210 0.049231 0.918578 0.3439 1 4.1800 0  440 487 513 475 251 143 99 81  0 1 12.09 
1.445 6 0.29 0.31 1.7 1.4 0.2016 0.2434 0.2978 0.0210 0.049231 0.914378 0.3110 1 4.1800 0  453 504 507 494 257 123 111 89  0 1 12.10 
1.450 6 0.28 0.32 1.7 2.1 0.1976 0.2125 0.2986 0.0211 0.049231 0.917364 0.3495 1 4.1800 0  403 489 511 454 252 166 107 85  0 1 12.10 
1.455 6 0.28 0.32 1.0 1.8 0.2333 0.2293 0.2998 0.0211 0.049231 0.917299 0.3905 1 4.1800 0  402 493 506 463 264 112 120 97  0 1 12.07 
1.460 6 0.28 0.32 2.4 1.5 0.1639 0.2402 0.3008 0.0212 0.051822 0.914471 0.3312 1 4.1800 0  384 478 512 478 249 116 121 93  0 1 12.10 
1.465 6 0.28 0.32 1.9 2.6 0.1856 0.1900 0.3020 0.0212 0.051822 0.914496 0.2252 1 4.1800 0  452 489 499 458 251 152 134 102  0 1 12.07 
1.470 6 0.28 0.32 1.1 2.2 0.2217 0.2133 0.3030 0.0213 0.049231 0.913802 0.2712 1 4.1800 0  424 488 508 474 248 150 135 124  0 1 12.11 
1.475 6 0.28 0.32 1.0 1.4 0.2293 0.2510 0.3040 0.0213 0.051822 0.913921 0.3258 1 4.1800 0  398 497 507 438 248 189 135 119  0 1 12.10 
1.480 6 0.28 0.32 1.6 2.2 0.1968 0.2133 0.3052 0.0214 0.051822 0.912252 0.2618 1 4.1800 0  393 493 514 484 251 157 137 115  0 1 12.09 
1.485 6 0.27 0.33 1.9 2.0 0.1791 0.2281 0.3062 0.0215 0.054414 0.913203 0.2176 1 4.1800 0  476 507 514 498 266 154 132 115  0 1 12.08 
1.490 6 0.28 0.32 1.2 2.0 0.2193 0.2169 0.3074 0.0215 0.054414 0.912109 0.3132 1 4.1800 0  414 505 523 470 259 168 133 115  0 1 12.08 
1.495 6 0.28 0.32 1.3 1.5 0.2169 0.2402 0.3084 0.0216 0.057005 0.911844 0.3310 1 4.1800 0  456 522 524 463 263 170 134 82  0 1 12.10 
1.500 6 0.28 0.32 1.9 2.0 0.1868 0.2193 0.3094 0.0216 0.054414 0.910166 0.3044 1 4.1800 0  451 511 523 530 262 166 122 95  0 1 12.09 
1.505 6 0.28 0.32 1.4 1.9 0.2080 0.2265 0.3106 0.0217 0.054414 0.912555 0.2192 1 4.1800 0  475 533 527 499 257 141 127 94  0 1 12.10 
1.510 6 0.28 0.32 1.1 1.6 0.2205 0.2418 0.3116 0.0218 0.057005 0.912621 0.2561 1 4.1800 0  460 534 531 504 247 145 119 96  0 1 12.05 
1.515 6 0.28 0.32 1.6 1.9 0.2028 0.2217 0.3128 0.0218 0.057005 0.909019 0.3478 1 4.1800 0  443 521 539 510 270 139 109 85  0 1 12.11 
1.520 6 0.28 0.32 0.7 1.8 0.2462 0.2293 0.3140 0.0219 0.057005 0.912054 0.3296 1 4.1800 0  461 532 536 477 267 217 112 101  0 1 12.10 
1.525 6 0.28 0.32 1.2 1.5 0.2169 0.2446 0.3150 0.0220 0.059596 0.910286 0.2837 1 4.1800 0  484 523 530 489 268 122 118 69  0 1 12.07 
1.530 6 0.28 0.32 1.8 1.7 0.1892 0.2362 0.3162 0.0220 0.059596 0.908650 0.2193 1 4.1800 0  493 520 526 512 251 133 131 87  0 1 12.09 
1.535 6 0.28 0.32 0.8 2.2 0.2345 0.2145 0.3174 0.0221 0.059596 0.909216 0.3091 1 4.1800 0  462 511 524 478 264 130 107 93  0 1 12.11 
1.540 6 0.27 0.33 1.6 1.9 0.1912 0.2362 0.3184 0.0222 0.062187 0.908482 0.1680 1 4.1800 0  487 508 515 498 258 134 101 85  0 1 12.09 
1.545 6 0.27 0.33 1.4 2.2 0.2036 0.2181 0.3194 0.0222 0.059596 0.908870 0.2003 1 4.1800 0  467 508 499 479 250 148 109 92  0 1 12.09 
1.550 6 0.27 0.33 0.6 2.4 0.2434 0.2048 0.3206 0.0223 0.059596 0.909395 0.2395 1 4.1800 0  449 498 498 485 243 144 111 97  0 1 12.11 
1.555 6 0.27 0.33 1.5 1.6 0.1988 0.2462 0.3216 0.0223 0.062187 0.907856 0.2798 1 4.1800 0  435 491 486 468 252 123 120 111  0 1 12.10 
1.560 6 0.27 0.33 1.3 2.2 0.2056 0.2181 0.3228 0.0224 0.062187 0.908840 0.1369 1 4.1800 0  474 477 459 463 253 139 109 78  0 1 12.09 
1.565 6 0.28 0.32 1.7 1.6 0.1912 0.2418 0.3238 0.0225 0.064778 0.909025 0.3732 1 4.1800 0  402 457 448 452 235 135 103 83  0 1 12.09 
1.570 6 0.28 0.32 1.4 1.9 0.2100 0.2281 0.3248 0.0225 0.062187 0.908316 0.3508 1 4.1800 0  402 436 437 442 238 162 109 84  0 1 12.10 
1.575 6 0.28 0.32 1.7 2.5 0.2016 0.1884 0.3258 0.0226 0.064778 0.907291 0.3856 1 4.1800 0  401 433 427 459 234 125 101 66  0 1 12.09 
1.580 6 0.29 0.31 1.5 1.6 0.2088 0.2321 0.3270 0.0227 0.064778 0.909650 0.4125 1 4.1800 0  374 422 423 455 242 110 114 76  0 1 12.06 
1.585 6 0.29 0.31 1.1 1.6 0.2345 0.2281 0.3283 0.0228 0.064778 0.907561 0.4203 1 4.1800 0  406 419 423 432 252 118 106 90  0 1 12.09 
1.590 6 0.29 0.31 1.6 1.9 0.2113 0.2145 0.3293 0.0228 0.062187 0.907825 0.4710 1 4.1800 0  369 414 434 452 255 106 98 87  0 1 12.10 
1.595 6 0.30 0.30 1.3 1.6 0.2305 0.2229 0.3303 0.0229 0.064778 0.909548 0.4681 1 4.1800 0  380 429 434 477 249 133 109 85  0 1 12.09 
1.600 6 0.29 0.31 1.5 1.5 0.2181 0.2333 0.3315 0.0230 0.064778 0.908044 0.4132 1 4.1800 0  370 433 460 471 243 113 113 86  0 1 12.02 
1.605 6 0.29 0.31 1.9 1.9 0.1968 0.2125 0.3327 0.0231 0.064778 0.908876 0.2946 1 4.1800 0  418 439 459 462 243 127 119 98  0 1 12.11 
1.610 6 0.29 0.31 1.2 2.0 0.2305 0.2088 0.3337 0.0231 0.062187 0.908164 0.4186 1 4.1800 0  391 433 474 443 248 140 114 100  0 1 12.10 
1.615 6 0.29 0.31 1.5 1.7 0.2133 0.2241 0.3347 0.0232 0.064778 0.908251 0.4370 1 4.1800 0  388 452 483 478 247 126 113 92  0 1 12.09 
1.620 6 0.29 0.31 1.8 1.7 0.1996 0.2253 0.3359 0.0233 0.064778 0.908208 0.4309 1 4.1800 0  400 447 489 488 243 152 108 71  0 1 12.12 
1.625 6 0.29 0.31 0.6 1.7 0.2574 0.2229 0.3371 0.0233 0.064778 0.907719 0.4230 1 4.1800 0  428 461 493 501 260 140 108 89  0 1 12.09 
1.630 6 0.29 0.31 1.5 2.0 0.2100 0.2125 0.3381 0.0234 0.062187 0.911284 0.4060 1 4.1800 0  400 465 493 460 261 141 116 89  0 1 12.10 
1.635 6 0.29 0.31 0.8 1.7 0.2462 0.2265 0.3393 0.0235 0.062187 0.908829 0.3233 1 4.1800 0  402 479 496 487 236 144 115 87  0 1 12.08 
1.640 6 0.28 0.32 1.2 2.2 0.2205 0.2113 0.3403 0.0235 0.064778 0.908876 0.3036 1 4.1800 0  427 490 498 449 240 169 106 88  0 1 12.11 
1.645 6 0.27 0.33 1.5 2.4 0.1988 0.2056 0.3413 0.0236 0.062187 0.910656 0.1142 1 4.1800 0  467 488 506 484 235 114 112 80  0 1 12.07 
1.650 6 0.28 0.32 0.6 1.9 0.2462 0.2305 0.3425 0.0237 0.062187 0.909198 0.2500 1 4.1800 0  442 501 513 487 233 137 122 66  0 1 12.10 
1.655 6 0.28 0.32 1.0 1.9 0.2229 0.2321 0.3437 0.0238 0.062187 0.909679 0.1704 1 4.1800 0  481 512 509 479 239 121 120 86  0 1 12.10 
1.660 6 0.27 0.33 1.4 2.0 0.2016 0.2253 0.3447 0.0238 0.064778 0.909463 0.2249 1 4.1800 0  433 514 511 466 230 103 115 94  0 1 12.09 
1.665 6 0.27 0.33 0.8 1.9 0.2281 0.2345 0.3459 0.0239 0.064778 0.908525 0.1581 1 4.1800 0  438 520 522 474 232 101 113 82  0 1 12.06 
1.670 6 0.27 0.33 1.7 2.5 0.1831 0.2048 0.3467 0.0240 0.064778 0.909519 0.2314 1 4.1800 0  427 517 526 485 233 123 115 73  0 1 12.11 
1.675 6 0.27 0.33 1.3 2.1 0.2048 0.2265 0.3479 0.0240 0.064778 0.909156 0.0656 1 4.1800 0  471 522 526 422 231 177 111 90  0 1 12.07 
1.680 6 0.27 0.33 0.7 2.4 0.2305 0.2145 0.3491 0.0241 0.064778 0.908155 0.1406 1 4.1800 0  485 522 526 476 238 121 115 82  0 1 12.06 
1.685 6 0.27 0.33 1.3 1.6 0.2080 0.2462 0.3501 0.0242 0.067369 0.910277 0.1196 1 4.1800 0  482 514 535 440 232 155 113 97  0 1 12.11 
1.690 6 0.27 0.33 0.9 2.2 0.2241 0.2169 0.3513 0.0243 0.067369 0.909020 0.1525 1 4.1800 0  471 514 540 479 232 113 104 85  0 1 12.10 
1.695 6 0.27 0.33 0.7 1.8 0.2333 0.2434 0.3525 0.0243 0.067369 0.909580 0.1853 1 4.1800 0  480 524 540 508 233 145 112 90  0 1 12.09 
1.700 6 0.27 0.33 1.6 2.1 0.1900 0.2241 0.3533 0.0244 0.067369 0.908940 0.2072 1 4.1800 0  474 519 534 471 235 111 112 71  0 1 12.10 
1.705 6 0.28 0.32 1.6 2.4 0.1940 0.2068 0.3545 0.0245 0.067369 0.907985 0.2524 1 4.1800 0  429 514 530 500 233 108 106 96  0 1 12.05 
1.710 6 0.28 0.32 0.7 1.6 0.2418 0.2462 0.3557 0.0246 0.067369 0.909514 0.2609 1 4.1800 0  440 517 536 520 234 155 115 83  0 1 12.08 
1.715 6 0.27 0.33 1.0 2.2 0.2217 0.2181 0.3567 0.0246 0.069960 0.908278 0.1364 1 4.1800 0  481 512 535 492 231 116 103 88  0 1 12.11 
1.720 6 0.27 0.33 1.7 2.3 0.1884 0.2145 0.3579 0.0247 0.069960 0.908427 0.2024 1 4.1800 0  444 511 528 479 234 125 123 89  0 1 12.09 
1.725 6 0.27 0.33 0.7 1.6 0.2418 0.2462 0.3591 0.0248 0.069960 0.909409 0.2448 1 4.1800 0  426 508 525 472 233 115 110 82  0 1 12.07 
1.730 6 0.28 0.32 1.5 1.6 0.2016 0.2434 0.3601 0.0249 0.072551 0.907285 0.2289 1 4.1800 0  447 525 528 506 229 171 117 98  0 1 12.11 
1.735 6 0.27 0.33 1.5 2.4 0.1956 0.2068 0.3611 0.0249 0.069960 0.907271 0.1648 1 4.1800 0  462 500 521 464 232 140 111 68  0 1 12.08 
1.740 6 0.27 0.33 0.8 1.8 0.2305 0.2390 0.3623 0.0250 0.069960 0.909219 0.2169 1 4.1800 0  442 514 530 476 233 123 126 92  0 1 12.09 
1.745 6 0.27 0.33 0.9 1.8 0.2241 0.2374 0.3633 0.0251 0.072551 0.906360 0.2035 1 4.1800 0  407 491 523 468 228 121 111 94  0 1 12.11 
1.750 6 0.27 0.33 1.7 2.1 0.1892 0.2217 0.3645 0.0252 0.072551 0.905345 0.2472 1 4.1800 0  403 502 521 435 236 145 114 84  0 1 12.09 
1.755 6 0.28 0.32 2.0 2.2 0.1735 0.2157 0.3653 0.0252 0.072551 0.907213 0.2715 1 4.1800 0  434 502 516 503 247 142 119 92  0 1 12.07 
1.760 6 0.27 0.33 0.8 1.6 0.2281 0.2494 0.3665 0.0253 0.072551 0.904986 0.1366 1 4.1800 0  473 503 515 461 232 126 112 105  0 1 12.10 
1.765 6 0.28 0.32 1.1 2.5 0.2193 0.1988 0.3677 0.0254 0.072551 0.904113 0.3140 1 4.1800 0  422 505 522 488 242 121 105 87  0 1 12.09 
1.770 6 0.27 0.33 1.4 1.8 0.2036 0.2374 0.3687 0.0255 0.075143 0.907559 0.1416 1 4.1800 0  449 514 515 491 227 139 112 93  0 1 12.10 
1.775 6 0.27 0.33 0.9 2.2 0.2293 0.2157 0.3699 0.0256 0.075143 0.904270 0.2426 1 4.1800 0  411 510 514 489 234 115 114 90  0 1 12.11 
1.780 6 0.27 0.33 1.1 2.4 0.2157 0.2100 0.3709 0.0256 0.072551 0.904937 0.2105 1 4.1800 0  406 493 514 451 220 93 113 78  0 1 12.07 
1.785 6 0.27 0.33 1.6 1.9 0.1868 0.2374 0.3719 0.0257 0.075143 0.905995 0.1672 1 4.1800 0  439 504 509 462 220 123 112 89  0 1 12.09 
1.790 6 0.27 0.33 1.1 1.8 0.2181 0.2345 0.3731 0.0258 0.075143 0.903244 0.1977 1 4.1800 0  426 503 501 452 219 113 114 107  0 1 12.09 
1.795 6 0.27 0.33 1.3 2.0 0.2088 0.2265 0.3741 0.0259 0.077734 0.905823 0.2799 1 4.1800 0  388 485 491 460 228 119 98 89  0 1 12.08 
1.800 6 0.27 0.33 1.6 2.3 0.1912 0.2113 0.3753 0.0260 0.077734 0.905199 0.1710 1 4.1800 0  417 471 482 448 211 167 104 100  0 1 12.10 
1.805 6 0.27 0.33 0.5 1.9 0.2494 0.2305 0.3765 0.0261 0.077734 0.904056 0.2362 1 4.1800 0  411 460 486 464 221 152 104 86  0 1 12.11 
1.810 6 0.27 0.33 1.2 2.0 0.2133 0.2293 0.3773 0.0261 0.077734 0.905641 0.2461 1 4.1800 0  408 459 479 427 213 187 104 82  0 1 12.10 
1.815 6 0.27 0.33 1.5 2.4 0.1956 0.2080 0.3785 0.0262 0.077734 0.905255 0.2811 1 4.1800 0  397 464 476 433 218 141 110 76  0 1 12.10 
1.820 6 0.27 0.33 0.8 1.9 0.2293 0.2374 0.3797 0.0263 0.077734 0.905245 0.1472 1 4.1800 0  410 463 483 406 210 138 112 95  0 1 12.11 
1.825 6 0.27 0.33 1.6 1.8 0.1884 0.2418 0.3807 0.0264 0.080325 0.904737 0.2251 1 4.1800 0  381 469 484 459 209 138 113 91  0 1 12.09 
1.830 6 0.27 0.33 1.4 2.1 0.2008 0.2265 0.3819 0.0265 0.080325 0.903063 0.1746 1 4.1800 0  417 480 493 423 216 178 113 90  0 1 12.10 
1.835 6 0.27 0.33 1.7 1.7 0.1839 0.2434 0.3829 0.0266 0.082916 0.904097 0.1210 1 4.1800 0  433 482 498 392 213 132 110 91  0 1 12.09 
1.840 6 0.27 0.33 0.9 2.5 0.2241 0.2100 0.3839 0.0267 0.080325 0.905845 0.1154 1 4.1800 0  436 484 501 459 212 114 113 91  0 1 12.10 
1.845 6 0.27 0.33 1.2 2.3 0.2080 0.2193 0.3849 0.0268 0.082916 0.902643 0.1727 1 4.1800 0  441 490 500 469 212 96 113 92  0 1 12.09 
1.850 6 0.27 0.33 0.9 2.2 0.2229 0.2217 0.3861 0.0269 0.082916 0.905803 0.1683 1 4.1800 0  446 486 501 426 227 160 111 79  0 1 12.09 
1.855 6 0.26 0.34 1.2 1.8 0.2056 0.2434 0.3873 0.0270 0.082916 0.904980 0.1428 1 4.1800 0  440 496 505 481 225 111 113 91  0 1 12.10 
1.860 6 0.27 0.33 0.7 2.5 0.2305 0.2088 0.3883 0.0270 0.085507 0.903261 0.1307 1 4.1800 0  426 491 507 401 214 183 115 104  0 1 12.10 
1.865 6 0.27 0.33 1.2 1.7 0.2048 0.2494 0.3895 0.0271 0.085507 0.905934 0.1708 1 4.1800 0  404 489 503 479 221 106 111 105  0 1 12.09 
1.870 6 0.26 0.34 2.0 2.3 0.1619 0.2205 0.3905 0.0272 0.088098 0.902845 0.0905 1 4.1800 0  459 498 513 453 213 118 113 89  0 1 12.09 
1.875 6 0.26 0.34 0.5 2.6 0.2390 0.2068 0.3915 0.0273 0.085507 0.903494 0.2139 1 4.1800 0  392 481 508 447 219 104 110 90  0 1 12.09 
1.880 6 0.27 0.33 1.0 1.7 0.2193 0.2478 0.3927 0.0274 0.085507 0.906130 0.0233 1 4.1800 0  449 492 502 464 205 138 110 105  0 1 12.09 
1.885 6 0.26 0.34 1.8 2.3 0.1767 0.2217 0.3937 0.0275 0.088098 0.902602 0.2002 1 4.1800 0  405 491 505 445 207 101 103 97  0 1 12.11 
1.890 6 0.26 0.34 0.7 2.5 0.2305 0.2088 0.3949 0.0276 0.088098 0.903097 0.1160 1 4.1800 0  406 487 507 461 205 90 105 89  0 1 12.05 
1.895 6 0.26 0.34 0.9 1.7 0.2193 0.2494 0.3959 0.0277 0.090689 0.906352 0.1218 1 4.1800 0  452 493 509 445 206 118 113 83  0 1 12.09 
1.900 6 0.26 0.34 1.8 1.6 0.1735 0.2574 0.3971 0.0278 0.090689 0.902819 0.0779 1 4.1800 0  465 494 515 425 214 142 111 79  0 1 12.11 
1.905 6 0.26 0.34 1.6 2.5 0.1831 0.2113 0.3979 0.0279 0.090689 0.901734 0.1274 1 4.1800 0  409 501 505 415 207 151 96 64  0 1 12.08 
1.910 6 0.26 0.34 0.8 2.2 0.2193 0.2321 0.3991 0.0280 0.090689 0.903860 0.1015 1 4.1800 0  435 502 509 445 199 149 104 102  0 1 12.08 
1.915 6 0.26 0.34 0.7 1.9 0.2217 0.2462 0.4001 0.0281 0.093280 0.900951 0.0819 1 4.1800 0  420 487 506 459 202 93 98 85  0 1 12.10 
1.920 6 0.26 0.34 1.7 2.0 0.1799 0.2362 0.4011 0.0282 0.095872 0.902058 0.0333 1 4.1800 0  466 494 497 439 201 89 105 83  0 1 12.08 
1.925 6 0.26 0.34 1.1 1.8 0.2048 0.2510 0.4023 0.0283 0.095872 0.904811 0.1793 1 4.1800 0  402 485 490 450 210 63 101 83  0 1 12.10 
1.930 6 0.26 0.34 0.8 1.9 0.2229 0.2418 0.4035 0.0284 0.095872 0.900379 0.0849 1 4.1800 0  457 489 497 443 204 99 105 94  0 1 12.09 
1.935 6 0.26 0.34 1.0 2.3 0.2080 0.2265 0.4045 0.0285 0.098463 0.902098 0.2157 1 4.1800 0  418 482 489 380 205 133 90 68  0 1 12.07 
1.940 6 0.27 0.33 1.8 2.0 0.1783 0.2362 0.4055 0.0286 0.101054 0.902674 0.2161 1 4.1800 0  403 499 486 420 204 71 107 68  0 1 12.09 
1.945 6 0.26 0.34 1.0 2.1 0.2125 0.2345 0.4067 0.0287 0.101054 0.901122 0.1044 1 4.1800 0  414 479 487 425 191 96 96 99  0 1 12.10 
1.950 6 0.26 0.34 1.8 2.3 0.1687 0.2281 0.4077 0.0288 0.103645 0.901176 0.0156 1 4.1800 0  422 476 482 399 185 103 101 91  0 1 12.09 
1.955 6 0.26 0.34 0.5 1.9 0.2321 0.2478 0.4089 0.0289 0.103645 0.902028 -0.0088 1 4.1800 0  419 478 489 394 190 152 91 95  0 1 12.10 
1.960 6 0.26 0.34 0.9 2.3 0.2133 0.2253 0.4101 0.0291 0.103645 0.900429 0.0788 1 4.1800 0  420 488 489 400 190 102 101 89  0 1 12.11 
1.965 6 0.26 0.34 2.0 2.1 0.1598 0.2362 0.4111 0.0292 0.106236 0.901819 0.0914 1 4.1800 0  409 482 486 421 185 95 95 95  0 1 12.10 
1.970 6 0.26 0.34 0.8 2.1 0.2241 0.2321 0.4121 0.0293 0.103645 0.901348 0.1259 1 4.1800 0  412 471 480 399 196 135 92 91  0 1 12.08 
1.975 6 0.26 0.34 0.8 2.7 0.2169 0.2080 0.4131 0.0294 0.106236 0.899618 0.0746 1 4.1800 0  411 476 484 411 192 175 90 82  0 1 12.09 
1.980 6 0.26 0.34 2.1 2.0 0.1586 0.2390 0.4141 0.0295 0.108827 0.900196 0.0954 1 4.1800 0  421 465 484 421 188 114 95 83  0 1 12.10 
1.985 6 0.26 0.34 1.3 2.4 0.1920 0.2229 0.4153 0.0296 0.108827 0.900956 0.0355 1 4.1800 0  432 466 492 407 189 119 99 61  0 1 12.08 
1.990 6 0.26 0.34 0.8 1.7 0.2241 0.2522 0.4165 0.0298 0.108827 0.900207 0.2237 1 4.1800 0  406 469 473 420 203 101 98 58  0 1 12.09 
1.995 6 0.26 0.34 0.8 2.3 0.2229 0.2229 0.4175 0.0299 0.111418 0.899632 0.0669 1 4.1800 0  415 468 483 447 202 140 106 81  0 1 12.12 
2.000 6 0.26 0.34 1.4 2.2 0.1892 0.2293 0.4185 0.0300 0.114009 0.901010 0.0569 1 4.1800 0  442 472 477 422 194 89 101 100  0 1 12.09 
2.005 6 0.26 0.34 1.3 2.4 0.1948 0.2205 0.4197 0.0301 0.114009 0.901394 0.0676 1 4.1800 0  420 481 484 421 193 157 89 91  0 1 12.09 
2.010 6 0.26 0.34 0.8 2.2 0.2229 0.2241 0.4207 0.0302 0.111418 0.899786 0.1466 1 4.1800 0  379 470 482 367 192 149 96 94  0 1 12.12 
2.015 6 0.26 0.34 1.6 2.3 0.1831 0.2229 0.4217 0.0303 0.114009 0.901259 0.1255 1 4.1800 0  397 475 479 433 212 147 89 88  0 1 12.06 
2.020 6 0.26 0.34 1.2 1.6 0.1976 0.2607 0.4229 0.0305 0.114009 0.901668 0.0627 1 4.1800 0  423 470 482 398 199 129 91 89  0 1 12.10 
2.025 6 0.26 0.34 1.7 2.1 0.1743 0.2345 0.4239 0.0306 0.116600 0.900558 0.1590 1 4.1800 0  401 473 474 414 199 104 99 66  0 1 12.10 
2.030 6 0.26 0.34 0.9 2.4 0.2113 0.2217 0.4251 0.0307 0.116600 0.902062 0.0440 1 4.1800 0  459 473 478 418 194 93 97 72  0 1 12.07 
2.035 6 0.26 0.34 0.7 1.7 0.2229 0.2554 0.4261 0.0309 0.119192 0.900583 0.1025 1 4.1800 0  428 490 484 439 192 131 100 81  0 1 12.10 
2.040 6 0.27 0.33 1.0 2.5 0.2169 0.2100 0.4273 0.0310 0.119192 0.901603 0.1862 1 4.1800 0  417 479 485 434 210 125 96 81  0 1 12.09 
2.045 6 0.26 0.34 1.7 2.9 0.1759 0.1948 0.4281 0.0311 0.119192 0.900922 0.0874 1 4.1800 0  460 489 503 450 204 128 99 97  0 1 12.08 
2.050 6 0.26 0.34 0.7 1.9 0.2293 0.2446 0.4293 0.0312 0.119192 0.900958 0.0351 1 4.1800 0  463 492 503 435 204 143 98 87  0 1 12.06 
2.055 6 0.26 0.34 0.9 2.2 0.2181 0.2293 0.4303 0.0314 0.121783 0.900631 0.1224 1 4.1800 0  438 503 510 465 206 89 100 72  0 1 12.09 
2.060 6 0.26 0.34 2.0 2.2 0.1586 0.2345 0.4315 0.0315 0.121783 0.899710 0.0658 1 4.1800 0  486 517 527 411 221 157 104 70  0 1 12.08 
2.065 6 0.26 0.34 1.0 1.8 0.2100 0.2478 0.4325 0.0316 0.124374 0.900142 0.1139 1 4.1800 0  467 525 539 417 216 143 93 91  0 1 12.11 
2.070 6 0.26 0.34 0.8 2.1 0.2217 0.2333 0.4337 0.0318 0.124374 0.899974 0.1152 1 4.1800 0  454 540 549 481 218 97 104 72  0 1 12.09 
2.075 6 0.26 0.34 1.2 2.3 0.1968 0.2281 0.4347 0.0319 0.126965 0.898562 0.0505 1 4.1800 0  511 554 558 474 222 107 110 91  0 1 12.10 
2.080 6 0.26 0.34 1.5 1.7 0.1884 0.2510 0.4359 0.0321 0.126965 0.898968 0.1252 1 4.1800 0  497 567 578 452 222 132 104 71  0 1 12.09 
2.085 6 0.26 0.34 1.5 2.1 0.1815 0.2345 0.4369 0.0322 0.129556 0.898137 0.1833 1 4.1800 0  471 571 576 505 228 109 97 77  0 1 12.10 
2.090 6 0.26 0.34 0.7 2.7 0.2253 0.2048 0.4379 0.0323 0.126965 0.899482 0.1204 1 4.1800 0  499 581 571 492 244 113 98 97  0 1 12.10 
2.095 6 0.26 0.34 1.4 1.7 0.1956 0.2494 0.4391 0.0325 0.132147 0.899115 0.1698 1 4.1800 0  475 578 576 500 229 83 100 77  0 1 12.09 
