%  1    time 0.009 sec
%  2    mission (2) state 2
%  3  4 Motor velocity ref left, right: 0.00 0.00
%  5  6 Motor voltage [V] left, right: 0.8 0.8
%  7  8 Wheel velocity [r/s] left, right: 0.0027 0.0027
%  9 10 11 12 Pose x,y,h,tilt [m,m,rad,rad]: 0.0004 0.0000 0.000000 -0.492362
% 13    Battery voltage [V]: 11.93
% 14 15 16 17 Extra pt.: balE[0], balU[0], balUI[0], balUI[1]: -0.03 0.9097 0.0000 0.0000
0.019 2 0.00 0.00 0.8 0.8 0.0027 0.0027 0.0004 0.0000 0.000000 -0.502140 11.93 -0.02 0.20 0.0000 0.0000
0.029 2 0.00 0.00 -0.8 -0.8 0.0027 0.0027 0.0004 0.0000 0.000000 -0.511300 11.94 -0.01 -0.89 -0.0000 -0.0000
0.039 2 0.00 0.00 -0.8 -0.8 0.0027 0.0027 0.0004 0.0000 0.000000 -0.517925 11.93 -0.01 -1.41 -0.0000 -0.0000
0.049 2 0.00 0.00 0.8 0.8 0.0027 0.0027 0.0004 0.0000 0.000000 -0.523044 11.94 -0.00 -0.47 -0.0000 -0.0000
0.059 2 0.08 -0.08 0.8 0.8 -0.3076 0.0027 0.0002 -0.0000 0.002595 -0.526842 11.90 0.00 -0.50 -0.0000 -0.0000
0.069 2 0.08 -0.08 -0.8 -0.8 -0.3076 0.0027 0.0002 -0.0000 0.002595 -0.531447 11.93 0.01 -1.62 -0.0000 -0.0000
0.079 2 0.08 -0.08 -0.8 -0.8 -0.3076 0.0027 0.0002 -0.0000 0.002595 -0.536505 11.93 0.01 -1.66 -0.0000 -0.0000
0.089 2 0.08 -0.08 -0.8 0.8 -0.3076 0.0027 0.0002 -0.0000 0.002595 -0.544487 11.94 0.02 -2.34 -0.0000 -0.0000
0.099 2 0.08 -0.08 0.8 0.8 -0.2921 0.0027 0.0002 -0.0000 0.002595 -0.549691 11.93 0.03 -1.62 -0.0000 -0.0000
0.109 2 0.08 -0.08 -0.8 -0.8 -0.2402 0.0027 0.0002 -0.0000 0.002595 -0.547705 11.90 0.02 -0.99 -0.0000 -0.0000
0.119 2 0.08 -0.08 -0.8 -0.8 -0.2040 0.0027 0.0002 -0.0000 0.002595 -0.544420 11.93 0.02 -0.94 -0.0000 -0.0000
0.129 2 0.08 -0.08 -0.8 0.8 -0.1772 0.0027 0.0002 -0.0000 0.002595 -0.544137 11.94 0.02 -0.94 -0.0000 -0.0000
0.139 2 0.08 -0.08 -0.8 -0.8 -0.1567 0.0027 0.0002 -0.0000 0.002595 -0.547398 11.91 0.02 -2.14 -0.0000 -0.0000
0.149 2 0.08 -0.08 -0.8 -0.8 -0.1404 0.0027 0.0002 -0.0000 0.002595 -0.551249 11.93 0.03 -2.43 -0.0000 -0.0000
0.159 2 0.08 -0.08 -0.8 -0.8 -0.1272 0.0027 0.0002 -0.0000 0.002595 -0.555118 11.93 0.03 -2.57 -0.0000 -0.0000
0.169 2 0.08 -0.08 -0.8 -0.8 -0.1163 0.0027 0.0002 -0.0000 0.002595 -0.558496 11.91 0.03 -2.54 -0.0000 -0.0000
0.179 2 0.08 -0.08 -0.8 -0.8 -0.1071 0.0027 0.0002 -0.0000 0.002595 -0.561464 11.93 0.04 -2.53 -0.0000 -0.0000
0.189 2 0.08 -0.08 -0.8 -0.8 -0.0992 0.0027 0.0002 -0.0000 0.002595 -0.562704 11.93 0.04 -2.28 -0.0000 -0.0000
0.199 2 0.08 -0.08 -1.0 -0.8 -0.0924 0.0027 0.0002 -0.0000 0.002595 -0.563866 11.93 0.04 -2.71 -0.0000 -0.0000
0.209 2 0.08 -0.08 -0.9 -0.8 -0.0865 0.0027 0.0002 -0.0000 0.002595 -0.565535 11.88 0.04 -2.65 -0.0000 -0.0000
0.219 2 0.08 -0.08 -0.9 0.8 -0.0813 0.0027 0.0002 -0.0000 0.002595 -0.567203 11.90 0.04 -2.60 -0.0000 -0.0000
0.229 2 0.08 -0.08 -1.1 -0.8 -0.0767 0.0027 0.0002 -0.0000 0.002595 -0.569338 11.96 0.05 -3.08 -0.0000 -0.0000
0.239 2 0.08 -0.08 -1.0 -0.8 -0.0726 0.0027 0.0002 -0.0000 0.002595 -0.570641 11.90 0.05 -2.85 -0.0000 -0.0000
0.249 2 0.00 -0.00 -1.2 -0.8 -0.0689 -0.0570 0.0000 -0.0000 0.000000 -0.572561 11.90 0.05 -3.19 -0.0000 -0.0000
0.259 2 0.00 0.00 -1.2 -0.8 -0.0655 -0.0570 0.0000 -0.0000 0.000000 -0.575014 11.93 0.05 -3.29 -0.0000 -0.0000
0.269 2 0.00 0.00 -1.2 -0.8 -0.0625 -0.0570 0.0000 -0.0000 0.000000 -0.577500 11.88 0.05 -3.34 -0.0000 -0.0000
0.279 2 0.00 0.00 -1.4 -0.8 -0.0598 -0.0570 0.0000 -0.0000 0.000000 -0.579303 11.94 0.06 -3.69 -0.0000 -0.0000
0.289 2 0.08 -0.08 -1.6 -0.8 -0.0592 -0.0570 -0.0002 -0.0000 0.002595 -0.581174 11.91 0.06 -4.06 -0.0000 -0.0000
0.299 2 0.08 -0.08 -1.4 -0.8 -0.0592 -0.0570 -0.0002 -0.0000 0.002595 -0.581679 11.91 0.06 -3.68 -0.0000 -0.0000
0.309 2 0.17 -0.17 -1.5 -0.8 -0.5854 -0.0570 -0.0004 -0.0000 0.005191 -0.580663 11.94 0.06 -3.24 -0.0000 -0.0000
0.319 2 0.17 -0.17 -1.6 -0.8 -0.5854 -0.0570 -0.0004 -0.0000 0.005191 -0.579312 11.91 0.06 -2.72 -0.0000 -0.0000
0.329 2 0.33 -0.33 -1.5 -0.8 -2.2804 -0.0570 -0.0008 -0.0000 0.010382 -0.578661 11.88 0.06 -3.38 -0.0000 -0.0000
0.339 2 0.59 -0.59 -0.8 -0.8 -3.3555 -0.0570 -0.0014 -0.0000 0.018168 -0.580519 11.90 0.06 -2.61 -0.0000 -0.0000
0.349 2 0.75 -0.75 -1.2 -1.1 -3.6746 -0.0570 -0.0018 -0.0000 0.023359 -0.582865 11.94 0.06 -4.21 -0.0000 -0.0000
0.359 2 0.92 -0.92 -1.3 -1.1 -2.8172 -0.1220 -0.0026 -0.0000 0.028550 -0.584512 11.93 0.06 -3.95 -0.0000 -0.0000
0.369 2 1.00 -1.00 -1.6 -1.5 -2.2804 -0.1220 -0.0028 -0.0000 0.031146 -0.585158 11.82 0.06 -4.27 -0.0000 -0.0000
0.379 2 1.09 -1.09 -0.8 -1.2 -2.8711 -0.7314 -0.0034 -0.0001 0.033741 -0.585804 11.88 0.06 -2.98 -0.0000 -0.0000
0.389 2 1.09 -1.09 -0.8 -1.9 -2.8711 -1.4028 -0.0042 -0.0001 0.033741 -0.586076 11.87 0.06 -3.29 -0.0000 -0.0000
0.399 2 1.00 -1.00 -1.0 -0.8 -2.0153 -4.6470 -0.0052 -0.0001 0.031146 -0.585414 11.93 0.06 -2.95 -0.0000 -0.0000
0.409 2 0.84 -0.84 -2.1 -1.7 -1.4860 -4.1608 -0.0060 -0.0002 0.025955 -0.585193 11.88 0.06 -4.33 -0.0000 -0.0000
0.419 2 0.75 -0.75 -0.9 -1.0 -2.8957 -4.0854 -0.0070 -0.0002 0.023359 -0.585026 11.87 0.06 -3.15 -0.0000 -0.0000
0.429 2 0.67 -0.67 -2.3 -2.1 -2.6831 -4.3204 -0.0080 -0.0002 0.020764 -0.583842 11.90 0.06 -5.32 -0.0000 -0.0000
0.439 2 0.59 -0.59 -0.8 -0.8 -3.5124 -4.7615 -0.0095 -0.0002 0.018168 -0.584623 11.87 0.06 -2.92 -0.0000 -0.0000
0.449 2 0.50 -0.50 -2.5 -2.5 -3.0525 -3.9773 -0.0105 -0.0002 0.015573 -0.584312 11.93 0.06 -5.88 -0.0000 -0.0000
0.459 2 0.50 -0.50 -1.2 -1.2 -4.4483 -5.1613 -0.0117 -0.0003 0.015573 -0.585837 11.88 0.06 -5.08 -0.0000 -0.0000
0.469 2 0.50 -0.50 -1.0 -1.0 -3.0117 -3.8747 -0.0129 -0.0003 0.015573 -0.586554 11.79 0.06 -3.72 -0.0000 -0.0000
0.479 2 0.34 -0.34 0.8 0.8 -3.8200 -4.9716 -0.0141 -0.0003 0.010382 -0.588862 11.93 0.07 -2.67 -0.0000 -0.0000
0.489 2 0.33 -0.33 -0.8 -0.8 -4.0854 -4.5531 -0.0153 -0.0003 0.010382 -0.593567 11.90 0.07 -4.01 -0.0000 -0.0000
0.499 2 0.25 -0.25 -1.9 -1.4 -3.8308 -5.2211 -0.0167 -0.0003 0.007786 -0.599059 11.91 0.08 -5.73 -0.0000 -0.0000
0.509 2 0.25 -0.25 -1.1 -0.9 -4.3763 -5.1811 -0.0179 -0.0003 0.007786 -0.604034 11.94 0.08 -4.66 -0.0000 -0.0000
0.519 2 0.25 -0.25 0.8 0.8 -4.7615 -5.5421 -0.0195 -0.0003 0.007786 -0.607529 11.90 0.08 -2.83 -0.0000 -0.0000
0.529 2 0.17 -0.17 -1.2 -1.1 -4.6311 -5.0647 -0.0209 -0.0004 0.005191 -0.609373 11.94 0.09 -4.89 -0.0000 -0.0000
0.539 2 0.17 -0.17 -1.2 -1.5 -4.8818 -4.3342 -0.0225 -0.0004 0.005191 -0.609681 11.85 0.09 -4.96 -0.0000 -0.0000
0.549 2 0.17 -0.17 -1.3 -0.8 -3.6449 -4.8295 -0.0237 -0.0004 0.005191 -0.608403 11.90 0.08 -4.15 -0.0000 -0.0000
0.559 2 0.17 -0.17 -1.0 -1.1 -4.1102 -4.0246 -0.0249 -0.0004 0.005191 -0.605315 11.90 0.08 -3.93 -0.0000 -0.0000
0.569 2 0.17 -0.17 -1.2 -1.0 -4.0366 -4.7117 -0.0261 -0.0004 0.005191 -0.603270 11.88 0.08 -4.16 -0.0000 -0.0000
0.579 2 0.08 -0.08 0.8 0.8 -3.3807 -4.0609 -0.0272 -0.0004 0.002595 -0.598187 11.93 0.07 -0.87 -0.0000 -0.0000
0.589 2 0.08 -0.08 -1.5 -1.9 -5.0084 -4.2929 -0.0288 -0.0004 0.002595 -0.597374 11.91 0.07 -5.49 -0.0000 -0.0000
0.599 2 0.08 -0.08 0.9 1.1 -4.1481 -4.6311 -0.0300 -0.0004 0.002595 -0.589719 11.91 0.07 -0.85 -0.0000 -0.0000
0.609 2 0.08 -0.08 -0.8 -0.8 -2.6360 -2.7485 -0.0308 -0.0004 0.002595 -0.582556 11.88 0.06 -2.26 -0.0000 -0.0000
0.619 2 0.08 -0.08 0.8 0.8 -2.0427 -1.9236 -0.0312 -0.0004 0.002595 -0.572207 11.93 0.05 -0.56 0.0000 0.0000
0.629 2 0.08 -0.08 -0.8 -0.8 -1.6531 -1.4572 -0.0316 -0.0004 0.002595 -0.561097 11.91 0.04 -0.69 -0.0000 -0.0000
0.639 2 0.17 -0.17 0.8 -0.8 -1.2793 -0.8049 -0.0318 -0.0004 0.005191 -0.548690 11.91 0.03 0.31 0.0000 0.0000
0.649 2 0.17 -0.17 0.8 0.8 -0.7679 -0.5046 -0.0318 -0.0004 0.005191 -0.536963 11.94 0.01 1.57 0.0000 0.0000
0.659 2 0.17 -0.17 0.8 0.8 -0.4898 -0.3675 -0.0318 -0.0004 0.005191 -0.526110 11.91 0.00 1.56 0.0000 0.0000
0.669 2 0.17 -0.17 0.8 0.8 -0.3596 -0.2889 -0.0318 -0.0004 0.005191 -0.514949 11.93 -0.01 2.26 0.0000 0.0000
0.679 2 0.17 -0.17 0.8 0.8 -0.2840 -0.2381 -0.0318 -0.0004 0.005191 -0.505912 11.94 -0.02 2.62 0.0000 0.0000
0.689 2 0.17 -0.17 0.8 0.8 -0.2347 -0.2024 -0.0318 -0.0004 0.005191 -0.498567 11.91 -0.03 2.50 0.0000 0.0000
0.699 2 0.17 -0.17 0.9 0.8 -0.2000 -0.1761 -0.0318 -0.0004 0.005191 -0.492583 11.91 -0.03 2.69 0.0000 0.0000
0.709 2 0.17 -0.17 0.9 0.8 -0.1742 -0.1558 -0.0318 -0.0004 0.005191 -0.487891 11.91 -0.04 2.67 0.0000 0.0000
0.719 2 0.17 -0.17 0.9 0.8 -0.1544 -0.1397 -0.0318 -0.0004 0.005191 -0.484834 11.90 -0.04 2.57 0.0000 0.0000
0.729 2 0.17 -0.17 1.1 0.8 -0.1385 -0.1266 -0.0318 -0.0004 0.005191 -0.481797 11.91 -0.04 2.96 0.0000 0.0000
0.739 2 0.08 -0.08 1.1 0.8 0.1297 -0.1158 -0.0316 -0.0004 0.002595 -0.476679 11.90 -0.05 3.52 0.0000 0.0000
0.749 2 -0.08 0.08 0.8 0.8 2.2205 -0.1066 -0.0312 -0.0004 -0.002595 -0.472532 11.93 -0.05 2.12 0.0000 0.0000
0.759 2 -0.25 0.25 3.2 4.2 4.6791 0.1018 -0.0304 -0.0004 -0.007786 -0.465590 11.85 -0.06 8.75 0.0000 0.0000
0.769 2 -0.25 0.25 -2.8 -2.4 4.6470 3.8747 -0.0292 -0.0004 -0.007786 -0.467238 11.88 -0.06 -1.73 0.0000 0.0000
0.779 2 -0.25 0.25 2.1 1.8 3.6351 4.5996 -0.0280 -0.0004 -0.007786 -0.462261 11.91 -0.06 6.37 0.0000 0.0000
0.789 2 -0.25 0.25 0.8 0.8 4.2793 4.2524 -0.0267 -0.0004 -0.007786 -0.458005 11.94 -0.07 3.97 0.0000 0.0000
0.799 2 -0.25 0.25 0.9 1.0 4.4777 4.7783 -0.0255 -0.0004 -0.007786 -0.452071 11.87 -0.07 5.11 0.0000 0.0000
0.809 2 -0.25 0.25 1.4 1.5 3.5493 4.0978 -0.0243 -0.0004 -0.007786 -0.449187 11.93 -0.07 5.16 0.0000 0.0000
0.819 2 -0.17 0.17 0.8 0.8 4.2793 5.1222 -0.0229 -0.0005 -0.005191 -0.444948 11.83 -0.08 4.61 0.0000 0.0000
0.829 2 -0.17 0.17 1.3 1.0 4.6153 5.5421 -0.0213 -0.0005 -0.005191 -0.441907 11.91 -0.08 5.45 0.0000 0.0000
0.839 2 -0.17 0.17 1.2 1.4 4.8123 4.7615 -0.0201 -0.0005 -0.005191 -0.438807 11.93 -0.08 5.54 0.0000 0.0000
0.849 2 -0.17 0.17 1.6 1.6 5.1222 5.3875 -0.0185 -0.0005 -0.005191 -0.434993 11.88 -0.09 6.36 0.0000 0.0000
0.859 2 -0.08 0.08 1.0 1.3 5.7300 5.1811 -0.0167 -0.0005 -0.002595 -0.433164 11.94 -0.09 5.76 0.0000 0.0000
0.869 2 -0.08 0.08 1.2 0.8 5.0647 6.2031 -0.0151 -0.0005 -0.002595 -0.426967 11.87 -0.10 5.66 0.0000 0.0000
0.879 2 -0.08 0.08 1.3 1.5 6.7613 6.5964 -0.0131 -0.0005 -0.002595 -0.419819 11.88 -0.10 7.20 0.0000 0.0000
0.889 2 -0.08 0.08 1.5 1.4 6.7613 7.4711 -0.0111 -0.0005 -0.002595 -0.410496 11.77 -0.11 7.77 0.0000 0.0000
0.899 2 -0.08 0.08 2.0 1.7 7.9080 8.7243 -0.0086 -0.0005 -0.002595 -0.400623 11.87 -0.12 9.40 0.0000 0.0000
0.909 2 -0.08 0.08 0.8 0.8 8.6684 8.9554 -0.0062 -0.0005 -0.002595 -0.393162 11.94 -0.13 7.03 0.0000 0.0000
0.919 2 -0.08 0.08 1.9 2.1 8.8384 8.7810 -0.0038 -0.0005 -0.002595 -0.383878 11.90 -0.14 10.03 0.0000 0.0000
0.929 2 -0.00 0.00 1.5 1.2 9.6591 10.2445 -0.0008 -0.0005 0.000000 -0.374947 11.87 -0.15 9.92 0.0000 0.0000
0.939 2 -0.08 0.08 0.9 1.2 9.8706 9.3908 0.0022 -0.0005 -0.002595 -0.367904 11.90 -0.16 9.07 0.0000 0.0000
0.949 2 -0.08 0.08 1.4 1.6 10.3227 10.0916 0.0050 -0.0005 -0.002595 -0.362819 11.93 -0.16 10.53 0.0000 0.0000
0.959 2 -0.08 0.08 1.4 1.5 9.0151 9.1370 0.0078 -0.0005 -0.002595 -0.360352 11.88 -0.16 9.25 0.0000 0.0000
0.969 2 -0.08 0.08 1.4 1.1 9.2621 9.9432 0.0107 -0.0005 -0.002595 -0.359727 11.91 -0.16 9.38 0.0000 0.0000
0.979 2 -0.00 0.00 0.9 1.0 8.8384 8.6684 0.0133 -0.0005 0.000000 -0.361885 11.93 -0.16 8.21 0.0000 0.0000
0.989 2 -0.08 0.08 1.5 2.1 8.7810 8.0492 0.0159 -0.0005 -0.002595 -0.363196 11.90 -0.16 9.38 0.0000 0.0000
0.999 2 -0.00 0.00 1.3 1.0 8.8384 9.3260 0.0185 -0.0005 0.000000 -0.363760 11.90 -0.16 8.80 0.0000 0.0000
1.009 2 0.00 -0.00 0.8 1.1 9.5906 8.6684 0.0213 -0.0005 0.000000 -0.363205 11.88 -0.16 8.27 0.0000 0.0000
1.019 2 0.00 -0.00 2.0 1.4 7.7273 8.8965 0.0237 -0.0006 0.000000 -0.364596 11.90 -0.16 9.08 0.0000 0.0000
1.029 2 0.00 -0.00 1.2 1.1 9.3260 9.5906 0.0266 -0.0006 0.000000 -0.363032 11.90 -0.16 9.22 0.0000 0.0000
1.039 2 0.00 -0.00 2.3 1.7 9.5230 10.7323 0.0294 -0.0006 0.000000 -0.359554 11.85 -0.16 11.37 0.0000 0.0000
1.049 2 0.00 -0.00 0.8 0.8 9.7286 9.8706 0.0322 -0.0005 0.000000 -0.359199 11.91 -0.16 8.85 0.0000 0.0000
1.059 2 0.00 -0.00 1.4 2.1 9.1991 7.9080 0.0350 -0.0005 0.000000 -0.360215 11.85 -0.16 9.47 0.0000 0.0000
1.069 2 0.00 -0.00 1.1 1.1 8.4517 8.5587 0.0374 -0.0006 0.000000 -0.362742 11.85 -0.16 8.10 0.0000 0.0000
1.079 2 0.00 -0.00 1.1 0.8 8.4517 9.0756 0.0402 -0.0006 0.000000 -0.364891 11.85 -0.16 8.28 0.0000 0.0000
1.089 2 0.00 -0.00 1.4 1.4 7.9080 8.0016 0.0426 -0.0006 0.000000 -0.369622 11.93 -0.15 8.44 0.0000 0.0000
1.099 2 0.00 -0.00 1.1 1.0 8.1956 8.3473 0.0451 -0.0006 0.000000 -0.371994 11.87 -0.15 7.92 0.0000 0.0000
1.109 2 0.00 -0.00 1.5 1.4 7.7717 8.0016 0.0475 -0.0006 0.000000 -0.374683 11.91 -0.15 8.42 0.0000 0.0000
1.119 2 0.00 -0.00 1.0 1.2 8.2455 7.8166 0.0499 -0.0006 0.000000 -0.375816 11.90 -0.15 7.84 0.0000 0.0000
1.129 2 0.00 -0.00 -0.8 -0.8 7.8166 8.2961 0.0523 -0.0006 0.000000 -0.377709 11.90 -0.15 5.50 0.0000 0.0000
1.139 2 0.00 -0.00 1.6 1.5 8.0016 8.2455 0.0547 -0.0006 0.000000 -0.377316 11.83 -0.15 8.74 0.0000 0.0000
1.149 2 -0.08 0.08 0.9 1.2 7.5546 7.3096 0.0569 -0.0006 -0.002595 -0.379363 11.93 -0.14 7.13 0.0000 0.0000
1.159 2 0.00 -0.00 0.9 0.8 7.4301 8.1956 0.0591 -0.0006 0.000000 -0.381769 11.91 -0.14 6.88 0.0000 0.0000
1.169 2 0.00 -0.00 0.8 1.0 7.0799 6.5644 0.0616 -0.0006 0.000000 -0.388668 11.93 -0.13 6.47 0.0000 0.0000
1.179 2 -0.00 0.00 0.8 0.8 5.8287 5.0837 0.0632 -0.0006 0.000000 -0.399011 11.93 -0.12 4.53 0.0000 0.0000
1.189 2 0.00 -0.00 0.8 0.8 5.3449 4.8818 0.0648 -0.0006 0.000000 -0.409502 11.94 -0.11 4.60 0.0000 0.0000
1.199 2 0.00 -0.00 0.8 0.8 3.5400 3.6947 0.0660 -0.0006 0.000000 -0.422379 11.90 -0.10 2.29 0.0000 0.0000
1.209 2 0.00 -0.00 0.8 0.8 3.7150 3.9083 0.0668 -0.0006 0.000000 -0.436344 11.93 -0.09 2.80 0.0000 0.0000
1.219 2 0.00 -0.00 0.8 -0.8 2.8529 3.2585 0.0680 -0.0006 0.000000 -0.448345 11.93 -0.08 1.55 0.0000 0.0000
1.229 2 0.00 -0.00 -0.8 -0.8 2.2575 2.2881 0.0684 -0.0006 0.000000 -0.461305 11.91 -0.06 1.00 0.0000 0.0000
1.239 2 -0.08 0.08 0.8 0.8 1.1728 0.8938 0.0686 -0.0006 -0.002595 -0.474023 11.90 -0.05 1.22 0.0000 0.0000
1.249 2 -0.08 0.08 0.8 0.8 1.0426 0.5381 0.0686 -0.0006 -0.002595 -0.485736 11.90 -0.04 -0.07 0.0000 0.0000
1.259 2 0.00 -0.00 0.8 0.8 0.5887 0.4782 0.0688 -0.0006 0.000000 -0.498732 11.93 -0.02 -0.12 0.0000 0.0000
1.269 2 0.00 -0.00 -0.8 -0.8 0.4102 0.4782 0.0688 -0.0006 0.000000 -0.510065 11.90 -0.01 -1.96 0.0000 0.0000
1.279 2 -0.08 0.08 0.8 0.8 0.3147 -0.7193 0.0686 -0.0006 -0.002595 -0.520388 11.91 -0.00 -0.78 0.0000 0.0000
1.289 2 -0.08 0.08 -0.8 0.8 0.2553 -0.7193 0.0686 -0.0006 -0.002595 -0.527965 11.96 0.00 -1.32 0.0000 0.0000
1.299 2 -0.08 0.08 -0.8 -0.8 0.2147 -0.4821 0.0686 -0.0006 -0.002595 -0.532579 11.93 0.01 -1.42 0.0000 0.0000
1.309 2 -0.08 0.08 0.8 0.8 0.1853 -0.3554 0.0686 -0.0006 -0.002595 -0.536724 11.94 0.01 -1.05 0.0000 0.0000
1.319 2 -0.08 0.08 -0.8 -0.8 0.1630 -0.2814 0.0686 -0.0006 -0.002595 -0.542231 11.96 0.02 -2.22 0.0000 0.0000
1.329 2 -0.08 0.08 -0.8 -0.8 0.1455 -0.2329 0.0686 -0.0006 -0.002595 -0.547368 11.93 0.02 -2.36 0.0000 0.0000
1.339 2 -0.08 0.08 -0.8 -0.8 0.1313 -0.1987 0.0686 -0.0006 -0.002595 -0.554111 11.93 0.03 -2.68 0.0000 0.0000
1.349 2 -0.08 0.08 -0.8 -0.8 0.1197 -0.1733 0.0686 -0.0006 -0.002595 -0.561310 11.88 0.04 -3.59 0.0000 0.0000
1.359 2 -0.08 0.08 -0.8 -0.8 0.1100 -0.1536 0.0686 -0.0006 -0.002595 -0.568121 11.88 0.04 -3.57 0.0000 0.0000
1.369 2 -0.08 0.08 -0.8 -0.8 0.1017 -0.1379 0.0686 -0.0006 -0.002595 -0.573958 11.94 0.05 -3.53 0.0000 0.0000
1.379 2 -0.08 0.08 -0.8 -0.8 0.0946 -0.1252 0.0686 -0.0006 -0.002595 -0.577518 11.93 0.05 -3.42 0.0000 0.0000
1.389 2 -0.08 0.08 -0.8 -0.8 0.0884 -0.1146 0.0686 -0.0006 -0.002595 -0.579976 11.91 0.06 -3.53 0.0000 0.0000
1.399 2 -0.08 0.08 -0.8 -0.8 0.0830 -0.1056 0.0686 -0.0006 -0.002595 -0.582647 11.94 0.06 -3.77 0.0000 0.0000
1.409 2 -0.08 0.08 -1.0 -0.9 0.0782 -0.0980 0.0686 -0.0006 -0.002595 -0.585672 11.91 0.06 -4.02 0.0000 0.0000
1.419 2 -0.08 0.08 -1.1 -1.0 0.0739 -0.0913 0.0686 -0.0006 -0.002595 -0.589458 11.93 0.07 -4.31 0.0000 0.0000
1.429 2 -0.08 0.08 -1.6 -1.6 0.0701 -0.0856 0.0686 -0.0006 -0.002595 -0.594873 11.82 0.07 -5.46 0.0000 0.0000
1.439 2 -0.08 0.08 -1.4 -1.4 -0.0685 -0.0812 0.0682 -0.0006 -0.002595 -0.602418 11.85 0.08 -5.66 0.0000 0.0000
1.449 2 -0.17 0.17 -2.5 -1.8 -2.6207 -3.9083 0.0672 -0.0005 -0.005191 -0.609473 11.94 0.09 -5.92 0.0000 0.0000
1.459 2 -0.17 0.17 -0.8 -0.8 -5.9571 -6.4394 0.0656 -0.0005 -0.005191 -0.619036 11.88 0.10 -4.82 0.0000 0.0000
1.469 2 -0.08 0.08 -2.5 -2.4 -7.2703 -6.6944 0.0634 -0.0005 -0.002595 -0.628379 11.85 0.10 -8.98 0.0000 0.0000
1.479 2 -0.08 0.08 -2.1 -1.4 -7.0066 -7.8166 0.0614 -0.0005 -0.002595 -0.637965 11.85 0.11 -7.90 0.0000 0.0000
1.489 2 -0.08 0.08 -2.1 -2.2 -9.1370 -8.4517 0.0589 -0.0005 -0.002595 -0.647193 11.94 0.12 -10.03 0.0000 0.0000
1.499 2 -0.00 0.00 -0.8 0.0 -8.5587 -9.0756 0.0563 -0.0005 0.000000 -0.658366 11.79 0.13 -6.27 0.0000 0.0000
1.509 2 -0.00 0.00 -4.6 -4.9 -10.6478 -9.5230 0.0535 -0.0005 0.000000 -0.674770 11.88 0.15 -15.72 0.0000 0.0000
1.519 2 -0.08 0.08 2.0 2.9 -11.1758 -12.1826 0.0501 -0.0005 -0.002595 -0.687634 11.77 0.16 -3.69 0.0000 0.0000
1.529 2 -0.08 0.08 -2.8 -2.9 -12.1826 -11.4599 0.0465 -0.0005 -0.002595 -0.701073 11.91 0.18 -14.02 0.0000 0.0000
1.539 2 -0.08 0.08 -0.8 -0.8 -10.9054 -10.4021 0.0433 -0.0005 -0.002595 -0.702853 11.91 0.18 -9.07 0.0000 0.0000
1.549 2 0.00 -0.00 -2.6 -2.7 -10.9054 -10.3227 0.0398 -0.0005 0.000000 -0.707992 11.85 0.18 -12.67 0.0000 0.0000
1.559 2 -0.08 0.08 -1.0 -0.8 -10.2445 -10.1674 0.0368 -0.0005 -0.002595 -0.705115 11.93 0.18 -9.19 0.0000 0.0000
1.569 2 -0.08 0.08 -1.9 -1.7 -9.8706 -9.8706 0.0340 -0.0005 -0.002595 -0.704826 11.82 0.18 -10.38 0.0000 0.0000
1.579 2 0.00 -0.00 -1.6 -1.1 -9.5906 -10.0916 0.0310 -0.0005 0.000000 -0.702879 11.90 0.18 -9.51 0.0000 0.0000
1.589 2 0.00 -0.00 -1.7 -1.5 -9.5906 -9.6591 0.0282 -0.0005 0.000000 -0.701496 11.83 0.18 -9.74 0.0000 0.0000
1.599 2 0.00 -0.00 -1.9 -2.2 -10.4827 -9.7286 0.0253 -0.0005 0.000000 -0.700440 11.90 0.18 -10.99 0.0000 0.0000
1.609 2 0.00 -0.00 -2.1 -1.6 -9.3260 -9.8706 0.0225 -0.0005 0.000000 -0.699015 11.77 0.18 -10.18 0.0000 0.0000
1.619 2 0.00 -0.00 -2.6 -2.1 -8.7810 -9.5230 0.0197 -0.0005 0.000000 -0.696458 11.83 0.17 -10.65 0.0000 0.0000
1.629 2 0.00 -0.00 -0.8 -0.8 -9.2621 -9.1991 0.0169 -0.0005 0.000000 -0.694033 11.88 0.17 -7.59 0.0000 0.0000
1.639 2 0.00 -0.00 -2.2 -2.2 -9.7286 -9.5230 0.0141 -0.0005 0.000000 -0.695041 11.79 0.17 -10.69 0.0000 0.0000
1.649 2 0.00 -0.00 -0.8 -0.8 -9.7286 -10.0916 0.0113 -0.0005 0.000000 -0.695956 11.87 0.17 -7.88 0.0000 0.0000
1.659 2 0.08 -0.08 -3.7 -4.1 -10.4021 -9.7286 0.0083 -0.0005 0.002595 -0.702100 11.88 0.18 -14.14 0.0000 0.0000
1.669 2 0.00 -0.00 -1.3 -0.8 -10.2445 -11.3636 0.0048 -0.0005 0.000000 -0.707298 11.53 0.18 -9.35 0.0000 0.0000
1.679 2 0.00 -0.00 -1.8 -1.3 -11.3636 -11.9670 0.0016 -0.0005 0.000000 -0.708900 11.91 0.19 -11.56 0.0000 0.0000
1.689 2 -0.00 0.00 -1.9 -1.5 -10.7323 -11.2689 -0.0016 -0.0005 0.000000 -0.711673 11.83 0.19 -11.25 0.0000 0.0000
1.699 2 0.00 -0.00 -1.4 -1.3 -10.7323 -10.5646 -0.0048 -0.0005 0.000000 -0.711542 11.82 0.19 -10.20 0.0000 0.0000
1.709 2 0.00 -0.00 -1.5 -1.2 -10.4827 -10.8182 -0.0080 -0.0005 0.000000 -0.710740 11.87 0.19 -10.27 0.0000 0.0000
1.719 2 0.00 -0.00 -1.3 -1.9 -10.4827 -9.2621 -0.0109 -0.0005 0.000000 -0.708260 11.82 0.18 -9.98 0.0000 0.0000
1.729 2 -0.08 0.08 -2.0 -1.9 -9.6591 -9.4564 -0.0139 -0.0005 -0.002595 -0.704637 11.87 0.18 -10.36 0.0000 0.0000
1.739 2 0.00 -0.00 -0.8 -0.8 -9.3260 -8.6132 -0.0165 -0.0005 0.000000 -0.700143 11.77 0.18 -6.56 0.0000 0.0000
1.749 2 -0.00 0.00 -1.6 -1.1 -9.3908 -9.9432 -0.0193 -0.0005 0.000000 -0.698229 11.91 0.17 -9.38 0.0000 0.0000
1.759 2 0.00 -0.00 -1.6 -1.8 -9.4564 -8.8384 -0.0221 -0.0005 0.000000 -0.697493 11.85 0.17 -9.42 0.0000 0.0000
1.769 2 -0.00 0.00 -1.4 -1.1 -8.8965 -9.3260 -0.0249 -0.0005 0.000000 -0.693843 11.91 0.17 -8.62 0.0000 0.0000
1.779 2 0.00 -0.00 -1.2 -1.3 -8.6684 -8.1462 -0.0278 -0.0005 0.000000 -0.688877 11.80 0.17 -7.97 0.0000 0.0000
1.789 2 0.00 -0.00 -1.3 -1.5 -7.8166 -7.1172 -0.0302 -0.0005 0.000000 -0.681261 11.90 0.16 -7.42 0.0000 0.0000
1.799 2 0.00 -0.00 -0.8 -0.8 -6.9705 -7.1929 -0.0322 -0.0005 0.000000 -0.671157 11.93 0.15 -5.73 0.0000 0.0000
1.809 2 0.08 -0.08 -0.8 -0.8 -5.7789 -5.7300 -0.0340 -0.0005 0.002595 -0.657484 11.91 0.13 -4.44 0.0000 0.0000
1.819 2 0.00 -0.00 -1.4 -1.3 -4.3342 -4.4629 -0.0354 -0.0005 0.000000 -0.638304 11.90 0.11 -4.79 0.0000 0.0000
1.829 2 0.00 -0.00 0.8 0.8 -3.4497 -3.4062 -0.0366 -0.0005 0.000000 -0.616647 11.88 0.09 -0.85 0.0000 0.0000
1.839 2 0.00 -0.00 0.8 0.8 -2.5466 -2.5088 -0.0370 -0.0005 0.000000 -0.591910 11.94 0.07 0.17 0.0000 0.0000
1.849 2 0.08 -0.08 -0.8 -0.8 -1.6332 -0.9118 -0.0372 -0.0005 0.002595 -0.572642 11.88 0.05 -1.33 0.0000 0.0000
1.859 2 0.08 -0.08 -0.8 -0.8 -0.7941 -0.5446 -0.0372 -0.0005 0.002595 -0.565244 11.90 0.04 -0.89 0.0000 0.0000
1.869 2 0.00 -0.00 -1.2 -1.2 -0.5003 -0.4990 -0.0374 -0.0005 0.000000 -0.562245 11.93 0.04 -2.57 0.0000 0.0000
1.879 2 0.00 -0.00 0.8 0.8 -0.3652 -0.4990 -0.0374 -0.0005 0.000000 -0.556685 11.93 0.03 -0.27 0.0000 0.0000
1.889 2 0.00 -0.00 -0.8 -0.8 -0.2875 -0.4877 -0.0374 -0.0005 0.000000 -0.551259 11.90 0.03 -0.22 0.0000 0.0000
1.899 2 0.00 -0.00 -0.8 -0.8 -0.2371 -0.3584 -0.0374 -0.0005 0.000000 -0.543222 11.91 0.02 -0.17 0.0000 0.0000
1.909 2 0.00 -0.00 -0.0 0.8 -0.2017 -0.2833 -0.0374 -0.0005 0.000000 -0.532337 11.93 0.01 1.18 0.0000 0.0000
1.919 2 0.00 -0.00 0.9 0.9 -0.1756 -0.2342 -0.0374 -0.0005 0.000000 -0.518491 11.93 -0.01 3.60 0.0000 0.0000
1.929 2 0.00 -0.00 0.8 0.9 -0.1554 -0.1997 -0.0374 -0.0005 0.000000 -0.500902 11.94 -0.02 4.46 0.0000 0.0000
1.939 2 0.00 -0.00 1.0 1.1 -0.1394 -0.1740 -0.0374 -0.0005 0.000000 -0.480685 11.85 -0.04 5.43 0.0000 0.0000
1.949 2 -0.00 0.00 0.8 -0.8 1.8524 2.3436 -0.0366 -0.0005 0.000000 -0.465026 11.93 -0.06 4.56 0.0000 0.0000
1.959 2 0.00 -0.00 2.2 2.3 3.5033 3.6061 -0.0358 -0.0005 0.000000 -0.454673 11.87 -0.07 6.56 0.0000 0.0000
1.969 2 0.00 -0.00 1.3 1.2 4.5378 4.8123 -0.0346 -0.0005 0.000000 -0.451036 11.90 -0.07 5.52 0.0000 0.0000
1.979 2 0.00 -0.00 -2.7 -2.7 5.0458 5.0837 -0.0330 -0.0005 0.000000 -0.451397 11.93 -0.07 -1.10 0.0000 0.0000
1.989 2 0.00 -0.00 2.5 2.9 4.6311 4.0246 -0.0318 -0.0005 0.000000 -0.451541 11.93 -0.07 7.88 0.0000 0.0000
1.999 2 0.00 -0.00 -0.8 -0.8 3.9083 4.2524 -0.0306 -0.0005 0.000000 -0.452751 11.91 -0.07 2.79 0.0000 0.0000
2.009 2 0.00 -0.00 0.8 0.0 4.6153 4.8995 -0.0290 -0.0005 0.000000 -0.450608 11.87 -0.07 3.87 0.0000 0.0000
2.019 2 0.00 -0.00 1.3 1.8 3.6548 2.9207 -0.0282 -0.0005 0.000000 -0.451274 11.90 -0.07 5.20 0.0000 0.0000
2.029 2 -0.00 0.00 0.8 0.8 3.2982 3.0525 -0.0270 -0.0005 0.000000 -0.453548 11.93 -0.07 2.46 0.0000 0.0000
2.039 2 0.00 -0.00 0.9 0.8 3.3472 3.6061 -0.0261 -0.0005 0.000000 -0.454863 11.87 -0.07 4.14 0.0000 0.0000
2.049 2 0.00 -0.00 0.8 0.8 2.7429 2.7939 -0.0253 -0.0005 0.000000 -0.457330 11.93 -0.07 3.27 0.0000 0.0000
2.059 2 0.00 -0.00 1.0 1.1 2.3808 2.3396 -0.0245 -0.0005 0.000000 -0.457548 11.90 -0.07 3.23 0.0000 0.0000
2.069 2 0.00 -0.00 0.8 0.8 3.7668 3.7459 -0.0233 -0.0005 0.000000 -0.458450 11.93 -0.07 3.78 0.0000 0.0000
2.079 2 -0.08 0.08 -0.8 -0.8 3.2274 3.4235 -0.0223 -0.0005 -0.002595 -0.460844 11.80 -0.06 1.69 0.0000 0.0000
2.089 2 -0.00 0.00 1.3 1.4 3.0388 2.9590 -0.0213 -0.0005 0.000000 -0.463503 11.88 -0.06 3.92 0.0000 0.0000
2.099 2 0.00 -0.00 1.3 1.2 2.8231 3.1375 -0.0205 -0.0005 0.000000 -0.463857 11.93 -0.06 3.99 0.0000 0.0000
2.109 2 0.00 -0.00 0.8 0.8 3.7668 3.7563 -0.0193 -0.0005 0.000000 -0.461720 11.88 -0.06 3.17 0.0000 0.0000
2.119 2 0.08 -0.08 1.8 1.7 3.7356 3.7668 -0.0183 -0.0005 0.002595 -0.456395 11.87 -0.07 5.56 0.0000 0.0000
2.129 2 0.00 -0.00 0.8 0.8 4.9534 4.9353 -0.0169 -0.0005 0.000000 -0.450610 11.83 -0.07 3.80 0.0000 0.0000
2.139 2 0.00 -0.00 -0.8 -0.8 5.4748 5.7789 -0.0153 -0.0005 0.000000 -0.444017 11.91 -0.08 3.48 0.0000 0.0000
2.149 2 0.00 -0.00 1.9 1.8 6.1189 6.3190 -0.0137 -0.0005 0.000000 -0.436272 11.94 -0.09 7.59 0.0000 0.0000
2.159 2 0.00 -0.00 2.2 2.1 5.9835 6.2031 -0.0117 -0.0005 0.000000 -0.428386 11.88 -0.10 8.07 0.0000 0.0000
2.169 2 0.00 -0.00 1.2 1.2 6.8643 6.8296 -0.0097 -0.0005 0.000000 -0.420724 11.87 -0.10 7.06 0.0000 0.0000
2.179 2 0.00 -0.00 0.9 1.1 6.5964 6.0913 -0.0076 -0.0005 0.000000 -0.416960 11.90 -0.11 6.32 0.0000 0.0000
2.189 2 0.08 -0.08 0.8 0.8 6.5013 6.5013 -0.0058 -0.0005 0.002595 -0.414752 11.88 -0.11 5.59 0.0000 0.0000
2.199 2 0.00 -0.00 1.1 1.0 5.6111 5.7300 -0.0040 -0.0005 0.000000 -0.415440 11.90 -0.11 5.86 0.0000 0.0000
2.209 2 0.00 -0.00 0.8 0.8 5.8287 6.0640 -0.0024 -0.0005 0.000000 -0.416901 11.90 -0.11 5.48 0.0000 0.0000
2.219 2 0.00 -0.00 0.8 0.8 5.0270 5.3661 -0.0008 -0.0005 0.000000 -0.421103 11.88 -0.10 4.28 0.0000 0.0000
2.229 2 0.00 -0.00 1.3 1.1 5.2823 5.6580 0.0008 -0.0005 0.000000 -0.422967 11.90 -0.10 5.86 0.0000 0.0000
2.239 2 0.00 -0.00 0.8 1.1 5.3239 4.5076 0.0020 -0.0005 0.000000 -0.426352 11.88 -0.10 4.72 0.0000 0.0000
2.249 2 0.00 -0.00 1.8 2.0 5.0270 4.6791 0.0036 -0.0005 0.000000 -0.428677 11.93 -0.09 6.38 0.0000 0.0000
2.259 2 0.00 -0.00 0.8 0.8 5.5421 4.9173 0.0052 -0.0005 0.000000 -0.429859 11.87 -0.09 3.92 0.0000 0.0000
2.269 2 0.00 -0.00 1.2 1.6 6.0369 5.3449 0.0068 -0.0005 0.000000 -0.427864 11.88 -0.10 6.33 0.0000 0.0000
2.279 2 0.00 -0.00 0.8 0.8 5.1613 5.2211 0.0085 -0.0005 0.000000 -0.429669 11.91 -0.09 4.12 0.0000 0.0000
2.289 2 0.00 -0.00 1.5 1.0 5.2823 6.1747 0.0101 -0.0005 0.000000 -0.428993 11.93 -0.09 6.24 0.0000 0.0000
2.299 2 0.00 -0.00 1.0 1.1 5.0837 4.8995 0.0113 -0.0005 0.000000 -0.429243 11.87 -0.09 5.18 0.0000 0.0000
2.309 2 0.00 -0.00 0.9 1.0 5.2414 5.0458 0.0129 -0.0005 0.000000 -0.430701 11.87 -0.09 5.09 0.0000 0.0000
2.319 2 -0.08 0.08 1.0 1.1 4.2929 4.2658 0.0143 -0.0005 -0.002595 -0.433667 11.93 -0.09 4.39 0.0000 0.0000
2.329 2 0.00 -0.00 1.2 1.5 4.8123 4.4048 0.0157 -0.0005 0.000000 -0.435492 11.91 -0.09 5.19 0.0000 0.0000
2.339 2 0.00 -0.00 0.8 0.8 4.1608 4.6791 0.0169 -0.0005 0.000000 -0.439016 11.90 -0.08 3.80 0.0000 0.0000
2.349 2 0.00 -0.00 1.1 1.1 4.0366 3.9773 0.0181 -0.0005 0.000000 -0.440898 11.82 -0.08 4.34 0.0000 0.0000
2.359 2 0.00 -0.00 2.2 2.4 4.8643 4.7117 0.0197 -0.0005 0.000000 -0.439627 11.87 -0.08 7.04 0.0000 0.0000
2.369 2 0.00 -0.00 -0.8 -0.8 4.8995 4.7783 0.0209 -0.0005 0.000000 -0.443966 11.83 -0.08 2.02 0.0000 0.0000
2.379 2 0.00 -0.00 0.8 0.8 4.7117 4.9899 0.0225 -0.0005 0.000000 -0.446324 11.90 -0.08 3.80 0.0000 0.0000
2.389 2 0.00 -0.00 0.9 0.8 2.9019 3.1303 0.0237 -0.0005 0.000000 -0.450363 11.93 -0.07 3.19 0.0000 0.0000
2.399 2 -0.08 0.08 1.1 1.4 2.9655 2.4767 0.0243 -0.0005 -0.002595 -0.453756 11.90 -0.07 3.69 0.0000 0.0000
2.409 2 0.00 -0.00 0.9 0.8 3.0874 3.7879 0.0253 -0.0005 0.000000 -0.455619 11.85 -0.07 3.24 0.0000 0.0000
2.419 2 0.00 -0.00 1.0 1.0 3.2120 3.1743 0.0266 -0.0005 0.000000 -0.457130 11.94 -0.07 3.48 0.0000 0.0000
2.429 2 0.00 -0.00 1.6 1.5 2.4498 2.5611 0.0270 -0.0005 0.000000 -0.459375 11.85 -0.06 3.88 0.0000 0.0000
2.439 2 0.00 -0.00 -0.8 -0.8 3.8092 3.7668 0.0282 -0.0005 0.000000 -0.461631 11.90 -0.06 1.55 0.0000 0.0000
2.449 2 -0.00 0.00 1.8 1.7 3.8970 4.2127 0.0294 -0.0005 0.000000 -0.461039 11.83 -0.06 5.52 0.0000 0.0000
2.459 2 -0.08 0.08 -0.8 0.8 4.0978 3.2743 0.0304 -0.0005 -0.002595 -0.461401 11.93 -0.06 1.89 0.0000 0.0000
2.469 2 -0.00 0.00 1.1 1.1 4.3622 4.4777 0.0318 -0.0005 0.000000 -0.456628 11.83 -0.07 4.93 0.0000 0.0000
2.479 2 0.00 -0.00 0.8 0.8 4.4192 4.5226 0.0330 -0.0005 0.000000 -0.456493 11.91 -0.07 4.40 0.0000 0.0000
2.489 2 0.00 -0.00 1.0 1.0 4.0366 4.0127 0.0342 -0.0005 0.000000 -0.453779 11.85 -0.07 4.42 0.0000 0.0000
2.499 2 0.00 -0.00 1.1 1.1 4.0127 4.1102 0.0354 -0.0005 0.000000 -0.452463 11.94 -0.07 4.72 0.0000 0.0000
2.509 2 0.00 -0.00 1.2 1.2 3.4674 3.5307 0.0366 -0.0005 0.000000 -0.451283 11.87 -0.07 4.31 0.0000 0.0000
2.519 2 0.00 -0.00 0.8 0.8 4.0854 4.4483 0.0378 -0.0005 0.000000 -0.451280 11.94 -0.07 3.17 0.0000 0.0000
2.529 2 0.00 -0.00 1.6 1.7 4.3905 4.2658 0.0390 -0.0005 0.000000 -0.450313 11.98 -0.07 5.62 0.0000 0.0000
2.539 2 0.00 -0.00 1.2 1.2 4.2258 4.2793 0.0402 -0.0005 0.000000 -0.448482 11.88 -0.08 4.87 0.0000 0.0000
2.549 2 -0.08 0.08 0.8 0.8 4.4777 4.5076 0.0416 -0.0005 -0.002595 -0.447980 11.93 -0.08 4.27 0.0000 0.0000
2.559 2 0.00 -0.00 0.8 0.8 3.9196 3.9540 0.0426 -0.0005 0.000000 -0.447370 11.88 -0.08 2.99 0.0000 0.0000
2.569 2 -0.08 0.08 1.0 1.3 4.3066 4.0609 0.0441 -0.0005 -0.002595 -0.447918 11.93 -0.08 4.57 0.0000 0.0000
2.579 2 0.00 -0.00 0.8 0.8 4.4483 4.1481 0.0455 -0.0005 0.000000 -0.449366 11.88 -0.07 3.27 0.0000 0.0000
2.589 2 0.00 -0.00 1.5 1.4 3.6746 3.8417 0.0463 -0.0005 0.000000 -0.449669 11.85 -0.07 4.80 0.0000 0.0000
2.599 2 0.00 -0.00 0.8 0.8 4.1481 4.2258 0.0475 -0.0005 0.000000 -0.449371 11.91 -0.07 2.95 0.0000 0.0000
2.609 2 -0.08 0.08 -1.0 -0.8 3.9310 3.5869 0.0489 -0.0005 -0.002595 -0.462411 11.90 -0.06 0.13 0.0000 0.0000
2.619 2 -0.17 0.17 -0.8 0.8 1.3310 -1.4145 0.0487 -0.0005 -0.005191 -0.481979 11.87 -0.04 -1.09 0.0000 0.0000
2.629 2 -0.08 0.08 3.7 3.4 0.6708 1.6022 0.0489 -0.0005 -0.002595 -0.498721 11.85 -0.02 6.00 0.0000 0.0000
2.639 2 -0.08 0.08 -2.0 -1.5 -0.5082 -0.9332 0.0485 -0.0005 -0.002595 -0.524947 12.01 0.00 -6.37 0.0000 0.0000
2.649 2 0.08 -0.08 1.9 1.5 -2.5229 -0.9332 0.0481 -0.0005 0.002595 -0.560670 10.98 0.04 0.77 0.0000 0.0000
2.659 2 0.08 -0.08 2.0 2.2 -3.8747 -3.6061 0.0469 -0.0005 0.002595 -0.565673 11.64 0.04 2.83 0.0000 0.0000
2.669 2 0.00 -0.00 -4.0 -3.5 4.4926 4.1102 0.0479 -0.0005 0.000000 -0.543633 11.56 0.02 -2.60 0.0000 0.0000
2.679 2 0.08 -0.08 -1.3 -1.9 -4.9353 -3.7048 0.0473 -0.0005 0.002595 -0.561873 11.87 0.04 -5.63 0.0000 0.0000
2.689 2 0.08 -0.08 -1.9 -1.8 3.1743 2.9270 0.0473 -0.0005 0.002595 -0.530988 11.90 0.01 1.43 0.0000 0.0000
2.699 2 0.08 -0.08 1.5 -0.8 -4.3622 1.6592 0.0477 -0.0005 0.002595 -0.553877 11.75 0.03 0.20 0.0000 0.0000
2.709 2 -0.08 0.08 -1.6 0.9 2.1811 -2.1031 0.0473 -0.0005 -0.002595 -0.517733 11.87 -0.01 3.19 0.0000 0.0000
2.719 2 -0.00 0.00 -1.5 -3.8 -2.9851 2.6258 0.0483 -0.0005 0.000000 -0.540521 11.53 0.02 -5.34 -0.0000 -0.0000
2.729 2 -0.08 0.08 8.5 8.5 -5.6345 -5.2211 0.0465 -0.0005 -0.002595 -0.544982 11.55 0.02 17.84 0.0000 0.0000
2.739 2 -0.08 0.08 -5.4 -6.7 5.8540 6.9705 0.0481 -0.0005 -0.002595 -0.526044 10.79 0.00 -3.71 -0.0000 -0.0000
2.749 2 -0.00 0.00 -2.5 -0.8 -8.0974 -11.1758 0.0467 -0.0005 0.000000 -0.605021 11.04 0.08 -6.86 0.0000 0.0000
2.759 2 -0.08 0.08 -10.4 -10.4 -2.4676 -2.2959 0.0453 -0.0005 -0.002595 -0.507684 13.35 -0.02 -42.18 -0.0000 -0.0000
2.769 2 -0.08 0.08 0.8 0.8 -1.5890 -1.6411 0.0453 -0.0005 -0.002595 -0.551071 11.52 0.03 -2.82 0.0000 0.0000
2.779 2 -0.08 0.08 8.0 8.0 -2.0244 -2.2168 0.0445 -0.0005 -0.002595 -0.501752 11.03 -0.02 17.80 0.0000 0.0000
2.789 2 0.00 -0.00 -8.8 -8.8 -5.6580 -8.1956 0.0459 -0.0005 0.000000 -0.557900 11.85 0.03 -35.97 -0.0000 -0.0000
2.799 2 0.00 -0.00 7.7 7.7 -7.9545 -8.6684 0.0435 -0.0005 0.000000 -0.506418 10.71 -0.02 26.78 0.0000 0.0000
2.809 2 0.08 -0.08 -2.6 -2.3 8.7243 8.1956 0.0457 -0.0005 0.002595 -0.448683 10.76 -0.07 -0.72 0.0000 0.0000
2.819 2 0.00 -0.00 -8.8 -8.8 -8.1462 -9.9432 0.0443 -0.0005 0.000000 -0.584000 11.77 0.06 -45.49 -0.0000 -0.0000
2.829 2 0.00 -0.00 7.7 7.7 3.5307 2.9207 0.0435 -0.0005 0.000000 -0.467804 10.68 -0.06 18.60 0.0000 0.0000
2.839 2 0.08 -0.08 -8.0 -8.0 4.0127 4.8643 0.0453 -0.0005 0.002595 -0.531631 10.96 0.01 -24.70 0.0000 0.0000
2.849 2 0.00 -0.00 9.1 9.1 -7.2314 -8.2455 0.0435 -0.0005 0.000000 -0.566019 12.10 0.04 49.70 0.0000 0.0000
2.859 2 0.08 -0.08 -8.9 -8.9 11.9670 13.2575 0.0445 -0.0005 0.002595 -0.500874 11.88 -0.02 -24.38 -0.0000 -0.0000
2.869 2 -0.08 0.08 -8.1 -8.1 -4.3905 -2.2132 0.0449 -0.0005 -0.002595 -0.606659 11.14 0.08 -30.68 0.0000 0.0000
2.879 2 -0.08 0.08 8.0 8.0 -5.4308 -5.0084 0.0428 -0.0005 -0.002595 -0.549972 11.01 0.03 69.43 0.0000 0.0000
2.889 2 -0.00 0.00 -6.8 -7.0 6.3487 5.8540 0.0447 -0.0005 0.000000 -0.530699 10.00 0.01 -8.86 -0.0000 -0.0000
2.899 2 0.08 -0.08 9.1 9.1 -10.3227 -8.6132 0.0428 -0.0005 0.002595 -0.609407 12.10 0.09 56.01 0.0000 0.0000
2.909 2 0.33 -0.33 1.4 -2.0 -2.3155 1.9019 0.0422 -0.0005 0.010382 -0.529808 11.77 0.01 -0.16 0.0000 0.0000
2.919 2 0.25 -0.25 -9.3 -9.3 -0.9490 -6.6288 0.0416 -0.0005 0.007786 -0.608640 12.26 0.09 -27.12 0.0000 0.0000
2.929 2 0.25 -0.25 -6.6 -8.7 3.0252 4.1481 0.0408 -0.0005 0.007786 -0.580394 11.83 0.06 -6.15 0.0000 0.0000
2.939 2 0.17 -0.17 -8.0 -8.0 -10.0916 -7.5970 0.0402 -0.0005 0.005191 -0.647038 10.96 0.12 -26.28 0.0000 0.0000
2.949 2 0.17 -0.17 5.6 3.9 -5.0084 -4.6791 0.0378 -0.0005 0.005191 -0.579926 10.69 0.06 7.29 0.0000 0.0000
2.959 2 0.08 -0.08 -5.1 -6.1 -2.5042 -1.9346 0.0380 -0.0005 0.002595 -0.642369 10.81 0.12 -10.57 0.0000 0.0000
2.969 2 0.08 -0.08 3.1 1.5 -12.5210 -11.4599 0.0344 -0.0005 0.002595 -0.674048 12.23 0.15 -0.69 -0.0000 -0.0000
2.979 2 0.08 -0.08 -8.6 -8.6 5.7300 5.2617 0.0344 -0.0005 0.002595 -0.571265 11.63 0.05 -21.02 0.0000 0.0000
2.989 2 0.08 -0.08 -8.0 -8.0 -12.2934 -14.0861 0.0320 -0.0005 0.002595 -0.704285 10.98 0.18 -34.88 0.0000 0.0000
2.999 2 0.08 -0.08 3.3 3.0 5.0837 3.3225 0.0304 -0.0005 0.002595 -0.522022 10.87 -0.00 11.70 0.0000 0.0000
3.009 2 0.25 -0.25 -2.1 -6.9 -5.4091 2.3315 0.0312 -0.0005 0.007786 -0.627696 10.82 0.10 -7.50 -0.0000 -0.0000
3.019 2 0.17 -0.17 7.8 7.8 -10.2445 -11.8620 0.0278 -0.0006 0.005191 -0.612099 10.82 0.09 29.54 0.0000 0.0000
3.029 2 0.08 -0.08 -8.0 -8.0 6.8296 4.9173 0.0284 -0.0006 0.002595 -0.597361 10.98 0.07 -27.78 -0.0000 -0.0000
3.039 2 0.17 -0.17 -9.2 -9.2 -14.3858 -14.0861 0.0262 -0.0006 0.005191 -0.707602 12.21 0.18 -27.35 -0.0000 -0.0000
3.049 2 0.08 -0.08 5.2 5.3 -6.5644 -8.0016 0.0227 -0.0006 0.002595 -0.671924 12.12 0.15 9.11 0.0000 0.0000
3.059 2 0.08 -0.08 0.8 0.8 -6.9347 -6.8296 0.0211 -0.0006 0.002595 -0.683437 11.41 0.16 2.26 0.0000 0.0000
3.069 2 0.17 -0.17 -8.5 -8.5 -8.0974 -8.8965 0.0185 -0.0006 0.005191 -0.717019 11.49 0.19 -24.51 -0.0000 -0.0000
3.079 2 0.08 -0.08 4.9 4.7 -11.8620 -11.8620 0.0155 -0.0006 0.002595 -0.721096 12.04 0.20 5.92 0.0000 0.0000
3.089 2 0.17 -0.17 -8.6 -8.6 -2.4812 -2.6515 0.0141 -0.0006 0.005191 -0.672158 11.60 0.15 -14.67 0.0000 0.0000
3.099 2 0.08 -0.08 -2.6 -3.0 -17.1173 -16.6947 0.0107 -0.0006 0.002595 -0.725081 12.01 0.20 -13.01 0.0000 0.0000
3.109 2 0.17 -0.17 -3.7 -3.9 -12.7573 -12.7573 0.0060 -0.0007 0.005191 -0.774410 11.17 0.25 -10.51 0.0000 0.0000
3.119 2 0.17 -0.17 -4.6 -4.6 -9.8706 -10.3227 0.0028 -0.0007 0.005191 -0.760550 12.09 0.24 -10.19 0.0000 0.0000
3.129 2 0.08 -0.08 -5.9 -5.6 -10.9054 -11.5579 -0.0002 -0.0007 0.002595 -0.744469 11.98 0.22 -13.67 -0.0000 -0.0000
3.139 2 0.17 -0.17 3.7 3.5 -11.8620 -12.2934 -0.0036 -0.0007 0.005191 -0.717250 11.85 0.19 1.98 0.0000 0.0000
3.149 2 0.08 -0.08 -8.8 -8.6 -5.7058 -8.1462 -0.0058 -0.0007 0.002595 -0.697345 11.79 0.17 -17.47 -0.0000 -0.0000
3.159 2 0.08 -0.08 3.9 2.4 -13.6593 -11.1758 -0.0094 -0.0007 0.002595 -0.693135 11.85 0.17 -0.47 -0.0000 -0.0000
3.169 2 0.00 -0.00 -9.0 -9.0 3.1893 -3.6157 -0.0109 -0.0007 0.000000 -0.642427 12.01 0.12 -25.58 -0.0000 -0.0000
3.179 2 0.08 -0.08 -0.8 -0.9 -15.7241 -14.6986 -0.0131 -0.0007 0.002595 -0.702205 11.71 0.18 -9.31 -0.0000 -0.0000
3.189 2 0.00 -0.00 5.7 7.0 -5.6111 -7.4711 -0.0165 -0.0007 0.000000 -0.607635 9.95 0.08 8.13 0.0000 0.0000
3.199 2 0.08 -0.08 -1.7 -2.0 -3.2902 -3.5124 -0.0163 -0.0007 0.002595 -0.620113 11.47 0.10 -6.79 -0.0000 -0.0000
3.209 2 0.08 -0.08 -8.4 -8.4 -14.2344 -14.8601 -0.0195 -0.0008 0.002595 -0.728174 11.44 0.20 -40.46 -0.0000 -0.0000
3.219 2 0.08 -0.08 5.0 3.5 -7.0066 -6.0369 -0.0223 -0.0008 0.002595 -0.578784 10.52 0.06 2.06 0.0000 0.0000
3.229 2 0.08 -0.08 -4.9 -6.2 -6.3487 -1.2305 -0.0227 -0.0008 0.002595 -0.685845 10.76 0.16 -11.36 0.0000 0.0000
3.239 2 0.17 -0.17 9.0 9.0 -14.2344 -12.8788 -0.0265 -0.0008 0.005191 -0.701351 12.04 0.18 35.89 0.0000 0.0000
3.249 2 0.08 -0.08 -8.5 -8.5 -2.3724 -2.5709 -0.0280 -0.0008 0.002595 -0.625809 11.50 0.10 -31.56 0.0000 0.0000
3.259 2 0.08 -0.08 4.0 3.6 -7.7717 -5.9835 -0.0292 -0.0008 0.002595 -0.659330 11.28 0.14 5.01 0.0000 0.0000
3.269 2 0.17 -0.17 2.0 3.2 -5.8037 -6.8296 -0.0318 -0.0008 0.005191 -0.609946 10.81 0.09 1.69 0.0000 0.0000
3.279 2 0.17 -0.17 0.8 0.8 2.5466 1.9457 -0.0314 -0.0008 0.005191 -0.627368 10.74 0.10 3.59 0.0000 0.0000
3.289 2 0.08 -0.08 8.9 8.9 -11.5579 -11.8620 -0.0344 -0.0008 0.002595 -0.641966 11.87 0.12 31.21 0.0000 0.0000
3.299 2 0.25 -0.25 1.2 -1.1 7.7717 10.9054 -0.0340 -0.0008 0.007786 -0.460445 11.94 -0.06 5.01 0.0000 0.0000
3.309 2 0.17 -0.17 -8.2 -8.2 -4.6470 -8.2455 -0.0342 -0.0008 0.005191 -0.610429 11.18 0.09 -70.00 -0.0000 -0.0000
3.319 2 0.08 -0.08 9.6 9.6 -8.3473 -9.1370 -0.0372 -0.0008 0.002595 -0.616952 12.56 0.09 27.65 0.0000 0.0000
3.329 2 0.08 -0.08 -9.2 -9.2 5.5879 4.7783 -0.0364 -0.0008 0.002595 -0.525701 12.18 0.00 -25.07 -0.0000 -0.0000
3.339 2 0.08 -0.08 6.7 6.0 -6.0101 -6.2031 -0.0376 -0.0008 0.002595 -0.570965 11.93 0.05 5.82 0.0000 0.0000
3.349 2 0.08 -0.08 7.5 7.5 5.2823 3.4852 -0.0388 -0.0008 0.002595 -0.478572 10.54 -0.05 23.63 0.0000 0.0000
3.359 2 0.25 -0.25 -8.6 -8.6 3.7668 5.5421 -0.0368 -0.0008 0.007786 -0.507435 11.58 -0.02 -38.53 -0.0000 -0.0000
3.369 2 0.08 -0.08 8.4 8.4 -7.7273 -7.5970 -0.0384 -0.0008 0.002595 -0.563042 11.41 0.04 14.12 0.0000 0.0000
3.379 2 0.08 -0.08 -10.1 -10.1 1.4763 1.7700 -0.0384 -0.0008 0.002595 -0.491409 13.05 -0.03 -70.00 -0.0000 -0.0000
3.389 2 0.17 -0.17 6.8 6.3 -2.6619 -3.6061 -0.0382 -0.0008 0.005191 -0.528755 11.83 0.01 7.30 0.0000 0.0000
3.399 2 0.08 -0.08 -1.5 -1.9 -2.0901 -2.6360 -0.0388 -0.0008 0.002595 -0.558463 11.44 0.03 -5.15 0.0000 0.0000
3.409 2 0.08 -0.08 1.7 0.8 7.1929 8.3992 -0.0380 -0.0008 0.002595 -0.503554 11.74 -0.02 7.43 0.0000 0.0000
3.419 2 0.00 -0.00 -8.2 -7.9 2.6258 1.8348 -0.0370 -0.0008 0.000000 -0.538920 11.55 0.02 -14.66 -0.0000 -0.0000
3.429 2 -0.17 0.17 3.9 3.6 3.0320 2.4453 -0.0374 -0.0008 -0.005191 -0.464074 11.01 -0.06 9.75 0.0000 0.0000
3.439 2 -0.08 0.08 -7.8 -7.8 8.2961 7.0431 -0.0340 -0.0008 -0.002595 -0.484958 10.77 -0.04 -22.79 -0.0000 -0.0000
3.449 2 -0.25 0.25 8.6 8.6 -6.1747 -7.7717 -0.0356 -0.0008 -0.007786 -0.528163 11.58 0.00 35.14 0.0000 0.0000
3.459 2 -0.33 0.33 -8.1 -8.1 13.1288 9.9432 -0.0342 -0.0008 -0.010382 -0.401537 11.14 -0.12 -30.53 0.0000 0.0000
3.469 2 -0.50 0.50 2.8 5.7 2.4904 -1.7516 -0.0334 -0.0008 -0.015573 -0.452199 11.85 -0.07 5.02 0.0000 0.0000
3.479 2 -0.33 0.33 7.1 5.9 1.2282 4.6630 -0.0326 -0.0008 -0.010382 -0.485765 11.01 -0.04 11.49 0.0000 0.0000
3.489 2 -0.33 0.33 2.3 2.8 1.2990 1.6861 -0.0322 -0.0008 -0.010382 -0.475946 11.34 -0.05 6.35 0.0000 0.0000
3.499 2 -0.34 0.34 -3.5 -2.6 7.8620 7.8620 -0.0302 -0.0009 -0.010382 -0.464189 11.58 -0.06 0.81 0.0000 0.0000
3.509 2 -0.34 0.34 5.3 5.8 -6.3487 -6.4702 -0.0306 -0.0009 -0.010382 -0.522718 12.62 -0.00 3.89 0.0000 0.0000
3.519 2 -0.42 0.42 7.8 7.8 -1.8348 -1.8249 -0.0312 -0.0008 -0.012977 -0.443172 10.81 -0.08 25.42 0.0000 0.0000
3.529 2 -0.25 0.25 -0.8 -1.5 6.1747 8.2961 -0.0288 -0.0009 -0.007786 -0.450338 10.79 -0.07 2.02 0.0000 0.0000
3.539 2 -0.17 0.17 8.5 8.5 -6.6944 -5.6111 -0.0298 -0.0009 -0.005191 -0.509477 11.50 -0.01 11.36 0.0000 0.0000
3.549 2 0.00 -0.00 -1.7 -3.1 10.4021 13.5227 -0.0282 -0.0009 0.000000 -0.417255 11.45 -0.11 2.22 0.0000 0.0000
3.559 2 0.00 -0.00 -8.8 -9.1 -4.7282 -2.4278 -0.0269 -0.0009 0.000000 -0.528232 12.32 0.00 -21.98 0.0000 0.0000
3.569 2 0.00 -0.00 7.6 7.6 -4.6470 -3.7668 -0.0286 -0.0009 0.000000 -0.425342 10.57 -0.10 21.07 0.0000 0.0000
3.579 2 -0.00 0.00 1.6 2.1 9.9432 8.8965 -0.0253 -0.0009 0.000000 -0.405465 11.09 -0.12 7.92 0.0000 0.0000
3.589 2 -0.08 0.08 -9.6 -9.6 -6.1467 -6.0101 -0.0259 -0.0009 -0.002595 -0.561885 12.59 0.04 -37.03 0.0000 0.0000
3.599 2 0.08 -0.08 7.6 7.6 -3.8417 -2.8114 -0.0272 -0.0009 0.002595 -0.466313 10.60 -0.06 22.39 0.0000 0.0000
3.609 2 0.17 -0.17 -5.1 -5.0 6.7613 6.0913 -0.0249 -0.0009 0.005191 -0.506778 10.77 -0.02 -5.50 -0.0000 -0.0000
3.619 2 0.08 -0.08 9.0 9.0 -6.9705 -6.7613 -0.0267 -0.0009 0.002595 -0.560556 12.01 0.04 26.28 0.0000 0.0000
3.629 2 0.08 -0.08 -9.6 -9.6 7.5126 -2.3892 -0.0276 -0.0009 0.002595 -0.519279 12.58 -0.00 -36.45 -0.0000 -0.0000
3.639 2 0.25 -0.25 1.6 0.9 -6.0369 -5.6580 -0.0272 -0.0009 0.007786 -0.575564 12.48 0.05 -2.62 0.0000 0.0000
3.649 2 0.34 -0.34 -9.1 -9.1 -7.8166 -6.1467 -0.0294 -0.0009 0.010382 -0.646542 12.10 0.12 -23.97 -0.0000 -0.0000
3.659 2 0.33 -0.33 -9.5 -9.5 -1.5779 -1.6925 -0.0298 -0.0009 0.010382 -0.654953 12.48 0.13 -26.92 0.0000 0.0000
3.669 2 0.42 -0.42 -8.1 -9.2 -8.3473 -6.0101 -0.0320 -0.0009 0.012977 -0.681570 12.17 0.16 -17.46 -0.0000 -0.0000
3.679 2 0.42 -0.42 -8.5 -8.5 2.3355 3.0185 -0.0320 -0.0009 0.012977 -0.642037 11.47 0.12 -20.80 0.0000 0.0000
3.689 2 0.33 -0.33 5.1 3.2 -13.0026 -11.6575 -0.0350 -0.0010 0.010382 -0.652765 11.50 0.13 2.38 0.0000 0.0000
3.699 2 0.42 -0.42 -8.2 -8.2 6.3786 9.2621 -0.0348 -0.0010 0.012977 -0.574392 11.23 0.05 -10.48 0.0000 0.0000
3.709 2 0.17 -0.17 -8.2 -8.2 -9.7991 -14.5405 -0.0362 -0.0010 0.005191 -0.693860 11.25 0.17 -44.79 0.0000 0.0000
3.719 2 0.08 -0.08 7.5 7.5 -4.1737 -5.7058 -0.0388 -0.0010 0.002595 -0.517725 10.52 -0.01 21.42 0.0000 0.0000
3.729 2 0.08 -0.08 -7.7 -7.7 -3.1015 -2.6412 -0.0380 -0.0010 0.002595 -0.611154 10.74 0.09 -20.07 -0.0000 -0.0000
3.739 2 0.00 -0.00 7.0 6.8 -9.1370 -7.7273 -0.0410 -0.0010 0.000000 -0.592868 11.53 0.07 8.03 0.0000 0.0000
3.749 2 -0.08 0.08 -7.8 -7.8 7.7273 7.9545 -0.0396 -0.0010 -0.002595 -0.550810 10.81 0.03 -36.46 0.0000 0.0000
3.759 2 -0.25 0.25 8.4 8.4 -10.4021 -12.7573 -0.0416 -0.0010 -0.007786 -0.623260 11.37 0.10 14.72 0.0000 0.0000
3.769 2 -0.17 0.17 -9.0 -9.0 -3.0733 -2.3766 -0.0434 -0.0010 -0.005191 -0.694215 12.01 0.17 -70.00 -0.0000 -0.0000
3.779 2 -0.17 0.17 6.4 6.6 -5.2617 -5.1811 -0.0447 -0.0010 -0.005191 -0.693907 12.32 0.17 15.37 0.0000 0.0000
3.789 2 -0.17 0.17 -8.2 -8.1 -2.0677 -1.8127 -0.0455 -0.0010 -0.005191 -0.659288 11.41 0.14 -11.15 -0.0000 -0.0000
3.799 2 -0.17 0.17 8.0 8.0 -8.6132 -10.0168 -0.0483 -0.0009 -0.005191 -0.612766 10.98 0.09 14.27 0.0000 0.0000
3.809 2 -0.33 0.33 -7.8 -7.8 6.7277 1.8755 -0.0475 -0.0009 -0.010382 -0.606227 10.84 0.08 -24.50 -0.0000 -0.0000
3.819 2 -0.33 0.33 9.5 9.5 -13.9409 -14.6986 -0.0507 -0.0009 -0.010382 -0.644127 12.48 0.12 38.62 0.0000 0.0000
3.829 2 -0.33 0.33 -3.9 0.8 5.0647 -2.0965 -0.0519 -0.0009 -0.010382 -0.521253 11.00 -0.00 -2.49 0.0000 0.0000
3.839 2 -0.25 0.25 6.7 7.1 -8.9554 -7.7717 -0.0529 -0.0009 -0.007786 -0.604258 10.95 0.08 8.59 0.0000 0.0000
3.849 2 -0.17 0.17 7.2 7.2 -6.2896 -5.1613 -0.0555 -0.0009 -0.005191 -0.471986 10.24 -0.05 28.12 0.0000 0.0000
3.859 2 0.00 -0.00 -4.8 -7.0 -2.8114 2.1671 -0.0551 -0.0009 0.000000 -0.551120 10.98 0.03 -14.41 -0.0000 -0.0000
3.869 2 -0.08 0.08 7.9 7.9 -9.3908 -7.5546 -0.0581 -0.0009 -0.002595 -0.567319 10.95 0.04 17.82 0.0000 0.0000
3.879 2 0.08 -0.08 -7.8 -7.8 7.8166 7.4711 -0.0569 -0.0009 0.002595 -0.549516 10.77 0.03 -8.16 -0.0000 -0.0000
3.889 2 0.00 -0.00 3.5 3.9 -12.5210 -13.1288 -0.0591 -0.0009 0.000000 -0.688479 11.03 0.16 0.19 0.0000 0.0000
3.899 2 0.00 -0.00 -8.1 -8.1 -2.1741 -2.2651 -0.0607 -0.0009 0.000000 -0.545176 11.09 0.02 -23.86 0.0000 0.0000
3.909 2 -0.08 0.08 -2.3 -1.9 -7.5970 -7.6833 -0.0617 -0.0009 -0.002595 -0.637306 12.01 0.11 -8.54 -0.0000 -0.0000
3.919 2 0.08 -0.08 8.2 8.2 -7.1172 -7.8166 -0.0642 -0.0009 0.002595 -0.649213 11.18 0.13 14.21 0.0000 0.0000
3.929 2 0.00 -0.00 -7.8 -7.8 3.5774 2.9917 -0.0636 -0.0009 0.000000 -0.649398 10.79 0.13 -12.50 -0.0000 -0.0000
3.939 2 -0.08 0.08 -6.0 -6.3 -13.9409 -13.1288 -0.0670 -0.0009 -0.002595 -0.693095 11.31 0.17 -17.56 0.0000 0.0000
3.949 2 -0.08 0.08 7.7 7.8 -3.8308 -3.7773 -0.0690 -0.0009 -0.002595 -0.673909 10.88 0.15 14.71 0.0000 0.0000
3.959 2 -0.17 0.17 -8.9 -8.9 -8.8384 -8.1956 -0.0712 -0.0009 -0.005191 -0.701518 11.90 0.18 -50.37 -0.0000 -0.0000
3.969 2 -0.08 0.08 -2.8 -3.0 -7.6399 -6.8296 -0.0730 -0.0009 -0.002595 -0.678779 11.96 0.16 -4.53 -0.0000 -0.0000
3.979 2 -0.08 0.08 2.3 1.4 -7.9080 -6.2896 -0.0754 -0.0008 -0.002595 -0.643105 11.82 0.12 3.02 0.0000 0.0000
3.989 2 -0.08 0.08 -7.7 -6.5 -2.1846 -7.9080 -0.0766 -0.0008 -0.002595 -0.652118 10.82 0.13 -13.20 -0.0000 -0.0000
3.999 2 -0.25 0.25 3.9 5.3 -9.8706 -10.8182 -0.0803 -0.0008 -0.007786 -0.636535 11.00 0.11 3.63 0.0000 0.0000
4.009 2 -0.33 0.33 -3.3 -3.6 1.5706 3.3977 -0.0801 -0.0008 -0.010382 -0.614562 11.12 0.09 -1.97 0.0000 0.0000
4.019 2 -0.33 0.33 8.7 9.4 -11.7589 -15.9091 -0.0829 -0.0008 -0.010382 -0.662670 12.43 0.14 12.60 0.0000 0.0000
4.029 2 -0.50 0.50 -10.0 -10.0 2.6778 2.1602 -0.0837 -0.0008 -0.015573 -0.584946 12.96 0.06 -15.61 -0.0000 -0.0000
4.039 2 -0.42 0.42 -3.5 -5.3 -12.7573 -1.7723 -0.0843 -0.0008 -0.012977 -0.662412 11.79 0.14 -9.63 0.0000 0.0000
4.049 2 -0.42 0.42 3.4 4.3 -5.1613 -5.6111 -0.0871 -0.0007 -0.012977 -0.556848 10.74 0.03 4.58 0.0000 0.0000
4.059 2 -0.42 0.42 2.3 3.2 -2.3477 -2.4587 -0.0871 -0.0007 -0.012977 -0.653854 10.84 0.13 6.18 0.0000 0.0000
4.069 2 -0.33 0.33 6.2 6.5 -11.6575 -10.9054 -0.0901 -0.0007 -0.010382 -0.666052 11.34 0.14 7.93 0.0000 0.0000
4.079 2 -0.25 0.25 -1.3 -3.6 4.9173 8.8965 -0.0899 -0.0007 -0.007786 -0.548329 11.15 0.02 4.03 0.0000 0.0000
4.089 2 -0.25 0.25 -9.2 -9.2 -12.6380 -8.8965 -0.0911 -0.0007 -0.007786 -0.643568 12.20 0.12 -29.06 0.0000 0.0000
4.099 2 -0.25 0.25 8.2 8.2 -3.9773 -4.1608 -0.0935 -0.0007 -0.007786 -0.552676 11.25 0.03 27.71 0.0000 0.0000
4.109 2 -0.33 0.33 -8.1 -8.1 5.5879 5.8287 -0.0917 -0.0007 -0.010382 -0.547689 11.06 0.02 -31.79 -0.0000 -0.0000
4.119 2 -0.33 0.33 8.2 8.2 -13.3888 -13.1288 -0.0945 -0.0007 -0.010382 -0.628046 11.25 0.10 14.66 0.0000 0.0000
4.129 2 -0.17 0.17 -4.8 -6.7 8.3473 13.1288 -0.0941 -0.0007 -0.005191 -0.488061 11.87 -0.04 -0.45 0.0000 0.0000
4.139 2 -0.00 0.00 -8.2 -8.2 -2.3315 -2.2168 -0.0937 -0.0007 -0.000000 -0.613016 11.18 0.09 -43.87 0.0000 0.0000
4.149 2 -0.08 0.08 7.7 7.7 -10.3227 -9.7991 -0.0967 -0.0007 -0.002595 -0.594738 10.74 0.07 15.76 0.0000 0.0000
4.159 2 -0.00 0.00 -9.1 -9.1 6.5013 5.1417 -0.0961 -0.0007 -0.000000 -0.497281 12.09 -0.03 -13.36 0.0000 0.0000
4.169 2 -0.08 0.08 4.3 4.7 -8.3473 -8.9554 -0.0971 -0.0007 -0.002595 -0.579443 12.39 0.06 3.50 0.0000 0.0000
4.179 2 -0.17 0.17 7.3 7.3 -2.9526 -3.6061 -0.0990 -0.0007 -0.005191 -0.429892 10.33 -0.09 70.00 0.0000 0.0000
4.189 2 -0.17 0.17 -8.2 -8.2 2.8349 2.8957 -0.0974 -0.0007 -0.005191 -0.526702 11.25 0.00 -47.32 -0.0000 -0.0000
4.199 2 -0.50 0.50 8.1 8.1 -10.0168 -12.6380 -0.1002 -0.0006 -0.015573 -0.649032 11.14 0.13 25.82 0.0000 0.0000
4.209 2 -0.33 0.33 -9.5 -9.5 -2.5371 2.9851 -0.1014 -0.0006 -0.010382 -0.502050 12.53 -0.02 -22.65 -0.0000 -0.0000
4.219 2 -0.33 0.33 -6.2 -4.6 -1.7053 -7.5970 -0.1014 -0.0006 -0.010382 -0.581893 11.07 0.06 -15.43 0.0000 0.0000
4.229 2 -0.34 0.34 7.6 7.6 -4.0731 6.0913 -0.1034 -0.0006 -0.010382 -0.439060 10.60 -0.08 70.00 0.0000 0.0000
4.239 2 -0.42 0.42 -8.6 -8.6 7.0431 5.1613 -0.1008 -0.0006 -0.012977 -0.466395 11.58 -0.06 -18.93 -0.0000 -0.0000
4.249 2 -0.59 0.59 -8.2 -8.2 -8.0974 -10.9054 -0.1028 -0.0006 -0.018168 -0.664859 11.15 0.14 -29.15 0.0000 0.0000
4.259 2 -0.67 0.67 -7.5 -7.5 2.8349 -2.0740 -0.1038 -0.0006 -0.020764 -0.448129 10.49 -0.08 -27.31 0.0000 0.0000
4.269 2 -0.50 0.50 -3.8 -4.6 -3.1448 2.3355 -0.1030 -0.0006 -0.015573 -0.520575 11.72 -0.00 -11.24 -0.0000 -0.0000
4.279 2 -0.50 0.50 6.8 8.1 -6.2317 -7.7273 -0.1050 -0.0006 -0.015573 -0.585689 11.14 0.06 7.86 0.0000 0.0000
4.289 2 -0.59 0.59 -8.0 -5.9 7.6399 6.4702 -0.1044 -0.0006 -0.018168 -0.458682 11.39 -0.06 -10.93 0.0000 0.0000
4.299 2 -0.50 0.50 -8.3 -8.3 -2.1363 -2.7374 -0.1042 -0.0006 -0.015573 -0.566419 11.34 0.04 -52.56 -0.0000 -0.0000
4.309 2 -0.50 0.50 7.7 7.7 -4.1996 -4.7117 -0.1062 -0.0006 -0.015573 -0.532872 10.74 0.01 29.46 0.0000 0.0000
4.319 2 -0.50 0.50 -3.2 0.8 10.0168 7.3895 -0.1042 -0.0006 -0.015573 -0.509021 11.07 -0.01 4.02 0.0000 0.0000
4.329 2 -0.42 0.42 7.2 8.3 -6.6288 -4.6791 -0.1044 -0.0006 -0.012977 -0.562386 11.47 0.04 7.53 0.0000 0.0000
4.339 2 -0.33 0.33 -9.9 -9.9 2.4542 1.7840 -0.1046 -0.0006 -0.010382 -0.556409 12.93 0.03 -35.72 -0.0000 -0.0000
4.349 2 -0.17 0.17 -3.0 -0.9 -1.7449 -2.4498 -0.1046 -0.0006 -0.005191 -0.570056 11.69 0.05 -6.45 -0.0000 -0.0000
4.359 2 0.08 -0.08 -4.4 -6.7 -2.9984 4.4926 -0.1052 -0.0006 0.002595 -0.550986 11.93 0.03 -8.08 -0.0000 -0.0000
4.369 2 0.08 -0.08 1.1 0.8 -2.7654 1.0394 -0.1052 -0.0006 0.002595 -0.546208 11.82 0.02 0.72 0.0000 0.0000
4.379 2 0.25 -0.25 6.2 9.4 -1.4556 -9.0151 -0.1056 -0.0006 0.007786 -0.547231 12.39 0.02 9.88 0.0000 0.0000
4.389 2 0.42 -0.42 -6.0 -8.1 -2.1195 2.4904 -0.1056 -0.0006 0.012977 -0.557098 11.85 0.03 -11.76 0.0000 0.0000
4.399 2 0.42 -0.42 1.2 0.9 -2.9081 -3.0388 -0.1064 -0.0006 0.012977 -0.553596 11.94 0.03 0.43 0.0000 0.0000
4.409 2 0.33 -0.33 -0.8 -0.8 -1.8274 -2.8529 -0.1070 -0.0006 0.010382 -0.555311 11.93 0.03 -1.72 -0.0000 -0.0000
4.419 2 0.25 -0.25 -2.4 -2.3 -1.2418 -2.6106 -0.1076 -0.0006 0.007786 -0.562194 11.93 0.04 -5.38 -0.0000 -0.0000
4.429 2 0.33 -0.33 -0.8 -0.8 -3.8308 -3.7985 -0.1086 -0.0006 0.010382 -0.572569 11.96 0.05 -3.00 -0.0000 -0.0000
4.439 2 0.25 -0.25 -3.0 -2.7 -4.2391 -5.4970 -0.1100 -0.0006 0.007786 -0.585345 11.87 0.06 -8.20 -0.0000 -0.0000
4.449 2 0.17 -0.17 0.8 0.8 -4.8468 -5.7058 -0.1118 -0.0006 0.005191 -0.592483 11.94 0.07 -3.14 -0.0000 -0.0000
4.459 2 0.17 -0.17 -1.3 -1.4 -5.0084 -5.4091 -0.1134 -0.0006 0.005191 -0.601331 11.91 0.08 -6.03 -0.0000 -0.0000
4.469 2 0.08 -0.08 -1.4 -1.3 -4.4337 -4.8643 -0.1148 -0.0007 0.002595 -0.608338 11.87 0.08 -5.47 -0.0000 -0.0000
4.479 2 0.08 -0.08 -1.8 -2.0 -5.6345 -5.3661 -0.1165 -0.0007 0.002595 -0.614914 11.88 0.09 -7.08 -0.0000 -0.0000
4.489 2 0.08 -0.08 0.9 0.9 -5.4970 -5.7300 -0.1181 -0.0007 0.002595 -0.615632 11.93 0.09 -2.13 -0.0000 -0.0000
4.499 2 0.08 -0.08 -1.6 -1.7 -5.5421 -5.5649 -0.1201 -0.0007 0.002595 -0.615085 11.98 0.09 -6.58 -0.0000 -0.0000
4.509 2 0.08 -0.08 -0.8 0.8 -4.4192 -4.7282 -0.1213 -0.0007 0.002595 -0.609217 11.91 0.09 -2.95 -0.0000 -0.0000
4.519 2 0.00 -0.00 -1.2 -1.2 -4.7615 -4.7615 -0.1227 -0.0007 -0.000000 -0.607687 11.93 0.08 -5.30 -0.0000 -0.0000
4.529 2 -0.00 0.00 -1.4 -1.1 -3.2351 -3.7253 -0.1239 -0.0007 -0.000000 -0.605167 11.93 0.08 -4.42 -0.0000 -0.0000
4.539 2 -0.00 0.00 -1.6 -1.5 -3.1230 -3.0388 -0.1247 -0.0007 -0.000000 -0.603501 11.90 0.08 -4.47 -0.0000 -0.0000
4.549 2 -0.00 0.00 -0.8 0.8 -3.8636 -4.6954 -0.1259 -0.0007 -0.000000 -0.598733 11.94 0.08 -2.56 -0.0000 -0.0000
4.559 2 -0.00 0.00 -0.8 -0.8 -3.0733 -2.9984 -0.1267 -0.0007 -0.000000 -0.594487 11.98 0.07 -2.49 -0.0000 -0.0000
4.569 2 -0.00 0.00 0.8 0.8 -5.4748 -5.2414 -0.1283 -0.0007 -0.000000 -0.601287 11.96 0.08 -3.04 -0.0000 -0.0000
4.579 2 -0.00 0.00 0.8 0.8 -5.3875 -5.7789 -0.1299 -0.0007 -0.000000 -0.608510 11.91 0.08 -2.68 -0.0000 -0.0000
4.589 2 -0.00 0.00 -0.8 -0.8 -5.7789 -6.0640 -0.1319 -0.0007 -0.000000 -0.615125 11.85 0.09 -4.36 -0.0000 -0.0000
4.599 2 -0.00 0.00 -1.1 -0.8 -5.7058 -5.9051 -0.1336 -0.0007 -0.000000 -0.615336 11.94 0.09 -5.66 -0.0000 -0.0000
4.609 2 -0.00 0.00 -0.8 -0.8 -5.1222 -5.0458 -0.1352 -0.0007 -0.000000 -0.613430 11.90 0.09 -3.78 -0.0000 -0.0000
4.619 2 -0.00 0.00 0.8 -0.8 -4.8643 -3.8858 -0.1364 -0.0007 -0.000000 -0.605980 11.93 0.08 -3.13 -0.0000 -0.0000
4.629 2 0.08 -0.08 -0.8 -0.8 -2.7824 -2.6672 -0.1374 -0.0007 0.002595 -0.596559 11.93 0.07 -2.18 -0.0000 -0.0000
4.639 2 0.08 -0.08 -0.9 -1.0 -2.1063 -2.0582 -0.1378 -0.0007 0.002595 -0.584521 11.96 0.06 -2.30 -0.0000 -0.0000
4.649 2 0.08 -0.08 -0.8 -0.8 -1.4509 -1.0017 -0.1382 -0.0007 0.002595 -0.570190 11.87 0.05 -0.33 0.0000 0.0000
4.659 2 0.08 -0.08 -0.8 -0.8 -0.9193 -1.0017 -0.1382 -0.0007 0.002595 -0.560753 11.90 0.04 -0.95 0.0000 0.0000
4.669 2 0.17 -0.17 -0.8 -0.8 -0.8663 -0.5968 -0.1384 -0.0007 0.005191 -0.554113 11.96 0.03 -0.96 0.0000 0.0000
4.679 2 0.17 -0.17 0.8 -0.8 -0.7080 -0.4140 -0.1384 -0.0007 0.005191 -0.548823 11.93 0.03 -0.31 0.0000 0.0000
4.689 2 0.17 -0.17 -0.8 -0.8 -0.4647 -0.3170 -0.1384 -0.0007 0.005191 -0.544852 11.93 0.02 -0.75 0.0000 0.0000
4.699 2 0.17 -0.17 -0.8 -0.8 -0.3458 -0.2568 -0.1384 -0.0007 0.005191 -0.539396 11.94 0.02 0.02 0.0000 0.0000
4.709 2 0.17 -0.17 0.8 -0.8 -0.2754 -0.2158 -0.1384 -0.0007 0.005191 -0.532625 11.91 0.01 0.80 0.0000 0.0000
4.719 2 0.17 -0.17 0.8 0.8 -0.2288 -0.1861 -0.1384 -0.0007 0.005191 -0.523945 11.91 0.00 1.64 0.0000 0.0000
4.729 2 0.17 -0.17 0.8 -0.8 -0.1957 -0.1636 -0.1384 -0.0007 0.005191 -0.512901 11.91 -0.01 2.46 0.0000 0.0000
4.739 2 0.17 -0.17 0.8 0.8 -0.1710 -0.1459 -0.1384 -0.0007 0.005191 -0.499702 11.91 -0.02 3.59 0.0000 0.0000
4.749 2 0.17 -0.17 0.8 0.8 -0.1518 -0.1317 -0.1384 -0.0007 0.005191 -0.485979 11.93 -0.04 4.66 0.0000 0.0000
4.759 2 0.17 -0.17 0.8 0.8 -0.1365 -0.1200 -0.1384 -0.0007 0.005191 -0.473289 11.88 -0.05 4.74 0.0000 0.0000
4.769 2 0.17 -0.17 1.2 0.8 -0.1239 -0.1102 -0.1384 -0.0007 0.005191 -0.460933 11.91 -0.06 5.75 0.0000 0.0000
4.779 2 0.08 -0.08 1.2 0.8 0.1205 -0.1019 -0.1382 -0.0007 0.002595 -0.448020 11.87 -0.08 6.30 0.0000 0.0000
4.789 2 -0.08 0.08 4.1 3.1 2.2959 -0.0948 -0.1378 -0.0007 -0.002595 -0.437126 11.85 -0.09 10.06 0.0000 0.0000
4.799 2 -0.33 0.33 -1.5 -1.7 5.7789 0.0897 -0.1368 -0.0007 -0.010382 -0.429922 11.85 -0.09 1.67 0.0000 0.0000
4.809 2 -0.50 0.50 1.4 2.6 6.7953 4.6311 -0.1352 -0.0007 -0.015573 -0.423487 11.93 -0.10 8.18 0.0000 0.0000
4.819 2 -0.59 0.59 0.8 1.0 6.0101 6.6288 -0.1334 -0.0007 -0.018168 -0.416888 11.85 -0.11 6.24 0.0000 0.0000
4.829 2 -0.42 0.42 1.5 1.4 5.9571 7.3493 -0.1313 -0.0008 -0.012977 -0.410648 11.87 -0.11 7.62 0.0000 0.0000
4.839 2 -0.42 0.42 0.8 1.2 7.3493 7.3895 -0.1293 -0.0008 -0.012977 -0.405470 11.88 -0.12 7.28 0.0000 0.0000
4.849 2 -0.42 0.42 -1.0 -0.8 2.0244 1.8886 -0.1285 -0.0008 -0.012977 -0.448247 11.77 -0.08 -1.42 0.0000 0.0000
4.859 2 -0.50 0.50 4.6 6.3 0.8107 -1.4071 -0.1287 -0.0008 -0.015573 -0.448351 11.75 -0.08 10.50 0.0000 0.0000
4.869 2 -0.42 0.42 -0.0 0.8 3.7150 4.6630 -0.1273 -0.0008 -0.012977 -0.478290 11.04 -0.05 2.53 0.0000 0.0000
4.879 2 -0.33 0.33 -8.8 -8.8 -3.1303 -1.3103 -0.1279 -0.0008 -0.010382 -0.526030 11.85 0.00 -30.18 -0.0000 -0.0000
4.889 2 -0.33 0.33 -6.2 -6.0 -3.2197 -2.4453 -0.1287 -0.0008 -0.010382 -0.534084 12.18 0.01 -11.46 -0.0000 -0.0000
4.899 2 -0.33 0.33 -8.8 -8.8 2.5466 3.1303 -0.1287 -0.0008 -0.010382 -0.519135 11.85 -0.00 -17.78 0.0000 0.0000
4.909 2 -0.25 0.25 2.9 3.4 -1.2063 -1.8348 -0.1289 -0.0008 -0.007786 -0.558098 11.12 0.03 3.47 0.0000 0.0000
4.919 2 -0.25 0.25 0.8 1.8 -2.3600 -3.8308 -0.1301 -0.0008 -0.007786 -0.533162 11.55 0.01 2.07 0.0000 0.0000
4.929 2 -0.17 0.17 -1.1 -1.2 3.0525 3.6449 -0.1291 -0.0008 -0.005191 -0.531696 12.04 0.01 1.07 0.0000 0.0000
4.939 2 -0.25 0.25 -1.5 0.8 -7.9080 -9.7286 -0.1309 -0.0008 -0.007786 -0.571134 11.77 0.05 -7.36 -0.0000 -0.0000
4.949 2 -0.25 0.25 -2.1 -1.6 1.9208 1.8030 -0.1309 -0.0008 -0.007786 -0.505188 11.88 -0.02 1.55 0.0000 0.0000
4.959 2 -0.33 0.33 -9.4 -8.8 1.6925 -5.8037 -0.1303 -0.0008 -0.010382 -0.579175 12.39 0.06 -21.09 0.0000 0.0000
4.969 2 -0.17 0.17 7.7 7.7 -11.0842 -8.8965 -0.1336 -0.0008 -0.005191 -0.513915 10.66 -0.01 60.91 0.0000 0.0000
4.979 2 -0.00 0.00 1.4 0.8 2.2842 4.1996 -0.1332 -0.0008 -0.000000 -0.535201 11.94 0.01 3.36 0.0000 0.0000
4.989 2 -0.00 0.00 -9.2 -9.2 -11.7589 -13.9409 -0.1352 -0.0008 -0.000000 -0.633321 12.24 0.11 -42.61 -0.0000 -0.0000
4.999 2 0.08 -0.08 7.7 7.7 -2.6991 -3.1087 -0.1370 -0.0008 0.002595 -0.490296 10.73 -0.03 43.90 0.0000 0.0000
5.009 2 0.08 -0.08 -7.8 -7.8 3.4148 3.5307 -0.1354 -0.0008 0.002595 -0.568271 10.79 0.04 -38.85 -0.0000 -0.0000
5.019 2 -0.00 0.00 9.4 9.4 -13.7987 -13.1288 -0.1384 -0.0008 -0.000000 -0.672515 12.36 0.15 16.37 0.0000 0.0000
5.029 2 0.08 -0.08 -5.0 -5.7 2.6672 2.1031 -0.1394 -0.0008 0.002595 -0.545444 11.79 0.02 -5.53 0.0000 0.0000
5.039 2 0.17 -0.17 -5.3 -6.8 -8.0492 -2.3518 -0.1396 -0.0008 0.005191 -0.635594 11.17 0.11 -14.57 0.0000 0.0000
5.049 2 0.25 -0.25 3.8 0.8 -14.6986 -10.9941 -0.1434 -0.0008 0.007786 -0.646142 10.77 0.12 -5.24 0.0000 0.0000
5.059 2 0.50 -0.50 -8.5 -8.5 2.5182 6.7277 -0.1432 -0.0008 0.015573 -0.558179 11.49 0.03 -28.60 0.0000 0.0000
5.069 2 0.59 -0.59 -8.3 -8.3 -11.4599 -11.4599 -0.1450 -0.0008 0.018168 -0.678897 11.26 0.16 -40.81 0.0000 0.0000
5.079 2 0.59 -0.59 8.1 8.1 -13.2575 -12.4061 -0.1486 -0.0009 0.018168 -0.653193 11.11 0.13 68.02 0.0000 0.0000
5.089 2 0.59 -0.59 -7.9 -7.9 -1.4763 3.0803 -0.1490 -0.0009 0.018168 -0.631383 10.90 0.11 -18.75 0.0000 0.0000
5.099 2 0.59 -0.59 -1.6 -5.5 -14.0861 -12.5210 -0.1519 -0.0009 0.018168 -0.712204 11.12 0.19 -13.50 0.0000 0.0000
5.109 2 0.50 -0.50 2.6 0.8 -2.9851 -3.4062 -0.1541 -0.0010 0.015573 -0.611402 11.77 0.09 2.51 0.0000 0.0000
5.119 2 0.50 -0.50 -8.1 -8.1 -6.2605 -9.1370 -0.1545 -0.0010 0.015573 -0.694897 11.09 0.17 -62.24 0.0000 0.0000
5.129 2 0.33 -0.33 4.4 4.5 -12.0738 -15.5433 -0.1585 -0.0010 0.010382 -0.711113 12.21 0.19 0.14 0.0000 0.0000
5.139 2 0.17 -0.17 -8.1 -8.1 3.6061 -2.3315 -0.1593 -0.0010 0.005191 -0.681095 11.11 0.16 -54.37 -0.0000 -0.0000
5.149 2 0.25 -0.25 2.8 0.8 -17.1173 -15.5433 -0.1631 -0.0011 0.007786 -0.756612 11.04 0.23 -4.50 -0.0000 -0.0000
5.159 2 0.17 -0.17 -3.4 -4.6 -6.5013 -6.1747 -0.1665 -0.0011 0.005191 -0.661236 12.01 0.14 -10.44 -0.0000 -0.0000
5.169 2 0.17 -0.17 0.8 -0.8 -12.5210 -13.1288 -0.1690 -0.0011 0.005191 -0.734428 11.09 0.21 -6.64 -0.0000 -0.0000
5.179 2 0.25 -0.25 -4.2 -5.3 -14.6986 -14.3858 -0.1736 -0.0011 0.007786 -0.790886 11.39 0.27 -14.67 0.0000 0.0000
5.189 2 0.17 -0.17 -5.7 -6.0 -12.1826 -12.7573 -0.1774 -0.0012 0.005191 -0.779526 11.98 0.26 -14.82 0.0000 0.0000
5.199 2 0.17 -0.17 -5.1 -5.4 -13.0026 -13.3888 -0.1810 -0.0012 0.005191 -0.772862 11.69 0.25 -14.36 0.0000 0.0000
5.209 2 0.08 -0.08 -0.8 0.8 -13.3888 -15.5433 -0.1857 -0.0012 0.002595 -0.761841 11.93 0.24 -6.04 0.0000 0.0000
5.219 2 -0.00 0.00 -8.1 -8.1 -13.9409 -15.7241 -0.1895 -0.0012 -0.000000 -0.787321 11.14 0.26 -32.70 0.0000 0.0000
5.229 2 0.08 -0.08 8.9 8.9 -14.3858 -16.0984 -0.1949 -0.0012 0.002595 -0.769424 11.93 0.25 10.59 0.0000 0.0000
5.239 2 -0.08 0.08 -7.9 -7.9 -11.9670 -13.1288 -0.1981 -0.0012 -0.002595 -0.786727 10.88 0.26 -35.07 0.0000 0.0000
5.249 2 -0.08 0.08 8.5 8.5 -20.4889 -21.8108 -0.2042 -0.0012 -0.002595 -0.816571 11.47 0.29 7.09 0.0000 0.0000
5.259 2 -0.08 0.08 -9.2 -9.2 -8.5048 -9.4564 -0.2086 -0.0012 -0.002595 -0.808529 12.21 0.28 -48.97 -0.0000 -0.0000
5.269 2 -0.17 0.17 -5.5 -3.8 -17.3368 -20.1831 -0.2128 -0.0012 -0.005191 -0.847715 11.07 0.32 -18.16 -0.0000 -0.0000
5.279 2 -0.25 0.25 6.6 6.9 -10.0916 -9.5230 -0.2174 -0.0011 -0.007786 -0.792998 11.60 0.27 9.66 0.0000 0.0000
5.289 2 -0.25 0.25 -8.1 -8.1 -13.7987 -15.1940 -0.2207 -0.0011 -0.007786 -0.826884 11.07 0.30 -21.20 -0.0000 -0.0000
5.299 2 -0.42 0.42 5.1 6.6 -11.6575 -13.0026 -0.2255 -0.0011 -0.012977 -0.777538 11.47 0.25 5.57 0.0000 0.0000
5.309 2 -0.42 0.42 -6.3 -5.7 -11.7589 -11.2689 -0.2279 -0.0010 -0.012977 -0.788294 10.87 0.26 -14.01 0.0000 0.0000
5.319 2 -0.50 0.50 8.2 8.2 -15.3667 -16.6947 -0.2329 -0.0010 -0.015573 -0.752381 11.20 0.23 18.74 0.0000 0.0000
5.329 2 -0.42 0.42 -4.4 -3.9 -3.4674 -2.8895 -0.2347 -0.0009 -0.012977 -0.725695 10.98 0.20 -7.34 -0.0000 -0.0000
5.339 2 -0.42 0.42 -0.8 0.8 -19.3181 -20.1831 -0.2392 -0.0009 -0.012977 -0.775817 11.80 0.25 -11.74 -0.0000 -0.0000
5.349 2 -0.50 0.50 -3.3 2.4 4.3342 -4.2658 -0.2418 -0.0009 -0.015573 -0.631614 10.74 0.11 2.04 0.0000 0.0000
5.359 2 -0.42 0.42 -8.5 -8.5 -11.0842 -12.4061 -0.2428 -0.0008 -0.012977 -0.723463 11.47 0.20 -37.01 -0.0000 -0.0000
5.369 2 -0.59 0.59 -8.2 -8.2 -16.9034 -18.5242 -0.2480 -0.0007 -0.018168 -0.859302 11.23 0.34 -28.38 0.0000 0.0000
5.379 2 -0.67 0.67 -8.6 -8.6 -8.5587 -9.5906 -0.2518 -0.0007 -0.020764 -0.811756 11.63 0.29 -70.00 -0.0000 -0.0000
5.389 2 -0.75 0.75 -7.8 -7.4 -15.5433 -14.5405 -0.2556 -0.0006 -0.023359 -0.829848 12.32 0.31 -20.21 0.0000 0.0000
5.399 2 -0.59 0.59 6.1 5.9 -14.8601 -13.5227 -0.2601 -0.0005 -0.018168 -0.757783 10.57 0.23 1.65 0.0000 0.0000
5.409 2 -0.59 0.59 -5.0 -4.5 -1.7700 -1.8054 -0.2609 -0.0005 -0.018168 -0.695842 11.72 0.17 -9.07 -0.0000 -0.0000
5.419 2 -0.50 0.50 -8.7 -8.7 -16.2924 -16.9034 -0.2643 -0.0004 -0.015573 -0.762008 11.68 0.24 -37.84 -0.0000 -0.0000
5.429 2 -0.59 0.59 8.8 8.8 -8.2961 -7.5126 -0.2681 -0.0004 -0.018168 -0.661682 11.80 0.14 70.00 0.0000 0.0000
5.439 2 -0.33 0.33 0.8 -0.9 -6.7277 -1.6925 -0.2695 -0.0003 -0.010382 -0.670708 11.03 0.15 -4.80 0.0000 0.0000
5.449 2 -0.17 0.17 8.4 8.4 -11.3636 -11.6575 -0.2727 -0.0003 -0.005191 -0.675816 11.42 0.15 7.13 0.0000 0.0000
5.459 2 -0.25 0.25 -3.2 -3.5 3.6351 2.4632 -0.2733 -0.0003 -0.007786 -0.625104 11.74 0.10 -3.57 0.0000 0.0000
5.469 2 -0.25 0.25 -3.6 -2.7 -7.2703 -5.1417 -0.2742 -0.0003 -0.007786 -0.655906 11.03 0.13 -10.38 -0.0000 -0.0000
5.479 2 -0.25 0.25 7.8 7.8 -6.8643 -5.9051 -0.2766 -0.0003 -0.007786 -0.590508 10.82 0.07 25.69 0.0000 0.0000
5.489 2 -0.25 0.25 -9.0 -9.0 7.5970 7.3895 -0.2746 -0.0003 -0.007786 -0.541792 12.01 0.02 -11.20 0.0000 0.0000
5.499 2 -0.42 0.42 7.7 8.6 -7.0066 -10.3227 -0.2758 -0.0003 -0.012977 -0.592406 11.61 0.07 10.30 0.0000 0.0000
5.509 2 -0.34 0.34 8.0 8.0 4.0127 2.1031 -0.2764 -0.0003 -0.010382 -0.482919 11.01 -0.04 21.92 0.0000 0.0000
5.519 2 -0.42 0.42 -7.9 -7.9 7.0799 5.6818 -0.2738 -0.0003 -0.012977 -0.533143 10.88 0.01 -25.72 0.0000 0.0000
5.529 2 -0.50 0.50 8.1 8.1 -8.0974 -8.5048 -0.2756 -0.0003 -0.015573 -0.542798 11.06 0.02 39.99 0.0000 0.0000
5.539 2 -0.33 0.33 -8.1 -8.1 11.0842 14.0861 -0.2740 -0.0003 -0.010382 -0.451691 11.14 -0.07 -24.34 0.0000 0.0000
5.549 2 -0.17 0.17 5.7 4.5 -7.3493 -2.7154 -0.2740 -0.0003 -0.005191 -0.518329 11.96 -0.01 2.89 0.0000 0.0000
5.559 2 -0.08 0.08 7.2 5.2 8.0974 12.2934 -0.2733 -0.0003 -0.002595 -0.418737 11.12 -0.10 15.37 0.0000 0.0000
5.569 2 -0.08 0.08 -2.2 -1.5 3.9083 3.2664 -0.2713 -0.0003 -0.002595 -0.507110 10.85 -0.02 -3.53 -0.0000 -0.0000
5.579 2 -0.08 0.08 -10.1 -10.1 -3.1015 -2.7824 -0.2725 -0.0003 -0.002595 -0.516538 13.07 -0.01 -29.20 -0.0000 -0.0000
5.589 2 -0.00 0.00 -8.8 -8.8 7.3895 10.9941 -0.2703 -0.0003 -0.000000 -0.427577 11.85 -0.10 -22.19 0.0000 0.0000
5.599 2 0.00 -0.00 5.7 6.1 -3.0664 -3.9083 -0.2703 -0.0003 -0.000000 -0.482903 11.85 -0.04 4.97 0.0000 0.0000
5.609 2 0.08 -0.08 4.5 3.7 12.8788 13.6593 -0.2685 -0.0003 0.002595 -0.417160 11.41 -0.11 15.14 0.0000 0.0000
5.619 2 -0.08 0.08 -8.1 -8.1 5.0270 -4.1996 -0.2661 -0.0003 -0.002595 -0.516528 11.09 -0.01 -33.91 -0.0000 -0.0000
5.629 2 -0.17 0.17 10.1 10.1 2.4191 3.3555 -0.2667 -0.0003 -0.005191 -0.453254 13.13 -0.07 24.65 0.0000 0.0000
5.639 2 -0.25 0.25 -3.2 -2.8 9.6591 9.9432 -0.2637 -0.0003 -0.007786 -0.424824 11.28 -0.10 0.43 0.0000 0.0000
5.649 2 -0.17 0.17 9.3 9.3 -4.6630 -4.1866 -0.2639 -0.0003 -0.005191 -0.493608 12.28 -0.03 16.96 0.0000 0.0000
5.659 2 -0.17 0.17 -0.8 0.8 15.5433 14.8601 -0.2619 -0.0003 -0.005191 -0.298155 10.96 -0.23 6.27 0.0000 0.0000
5.669 2 -0.17 0.17 -8.6 -8.6 5.5879 4.1737 -0.2591 -0.0004 -0.005191 -0.449286 11.64 -0.07 -41.86 -0.0000 -0.0000
5.679 2 -0.17 0.17 9.1 9.1 -3.9773 -4.9173 -0.2603 -0.0004 -0.005191 -0.491661 12.07 -0.03 24.99 0.0000 0.0000
5.689 2 -0.25 0.25 -8.4 -8.4 14.0861 13.7987 -0.2577 -0.0004 -0.007786 -0.371662 11.44 -0.15 -43.58 -0.0000 -0.0000
5.699 2 -0.08 0.08 5.5 3.1 -2.1195 2.0804 -0.2569 -0.0004 -0.002595 -0.490478 10.81 -0.03 3.84 0.0000 0.0000
5.709 2 -0.08 0.08 7.8 7.8 1.9291 2.2132 -0.2573 -0.0004 -0.002595 -0.302587 10.82 -0.22 42.57 0.0000 0.0000
5.719 2 -0.00 0.00 -8.7 -8.7 3.7668 3.7253 -0.2546 -0.0004 -0.000000 -0.404905 11.71 -0.12 -29.79 -0.0000 -0.0000
5.729 2 -0.08 0.08 -6.4 -6.1 -1.4747 -2.6831 -0.2552 -0.0004 -0.002595 -0.452614 10.87 -0.07 -15.10 0.0000 0.0000
5.739 2 0.08 -0.08 -0.8 -1.4 8.9554 9.2621 -0.2536 -0.0004 0.002595 -0.462463 11.63 -0.06 4.36 0.0000 0.0000
5.749 2 0.00 -0.00 7.3 7.2 -1.8103 -4.2658 -0.2538 -0.0004 -0.000000 -0.525513 12.28 0.00 8.02 0.0000 0.0000
5.759 2 -0.00 0.00 -9.7 -9.7 12.8788 11.8620 -0.2526 -0.0004 -0.000000 -0.469329 12.69 -0.05 -15.74 -0.0000 -0.0000
5.769 2 -0.08 0.08 -8.7 -8.7 -3.0320 -6.9705 -0.2520 -0.0004 -0.002595 -0.608172 11.72 0.08 -40.99 -0.0000 -0.0000
5.779 2 -0.17 0.17 -8.1 -8.1 -4.9534 -4.2258 -0.2542 -0.0004 -0.005191 -0.666155 11.12 0.14 -36.86 0.0000 0.0000
5.789 2 -0.25 0.25 -8.3 -8.3 -1.2395 -3.1521 -0.2548 -0.0004 -0.007786 -0.760113 11.30 0.24 -60.94 -0.0000 -0.0000
5.799 2 -0.42 0.42 4.9 6.6 -3.2982 -5.8540 -0.2560 -0.0004 -0.012977 -0.721483 11.94 0.20 14.21 0.0000 0.0000
5.809 2 -0.42 0.42 -7.3 -7.8 -5.4091 -2.3682 -0.2569 -0.0003 -0.012977 -0.741911 11.18 0.22 -11.06 0.0000 0.0000
5.819 2 -0.42 0.42 2.5 3.5 -4.3905 -5.3661 -0.2593 -0.0003 -0.012977 -0.647567 11.53 0.12 8.17 0.0000 0.0000
