%  1    time 0.003 sec
%  2    mission (2) state 2
%  3  4  5 Acc x,y,z: -4.221929 -0.647314 -9.362084
%  6  7  8 Gyro x,y,z: -8.659363 2.052307 11.833191
%  9 10 Motor velocity ref left, right: -0.08 0.08
% 11 12 Motor voltage [V] left, right: 8.9 8.9
% 13 14 Wheel velocity [r/s] left, right: 0.0000 0.0000
% 15 16 17 18 Pose x,y,h,tilt [m,m,rad,rad]: 0.0002 -0.0000 -0.002595 -0.403717% 19    Battery voltage [V]: 10.39
% 20 21 Get data time [us]: 490 +ctrl 760
% 22 23 24 25 Extra pt.: balE[0], balU[0], balUI[0], balUI[1]: -2.72 99.0000 0.0000 0.0000
0.010 2 -3.334868 -1.476836 -8.959311 -6.874084 7.911682 15.075684 -0.08 0.08 7.3 7.3 15.5433 15.3667 0.0026 -0.0000 -0.002595 -0.398628 8.83 490 810 -2.74 99.00 0.0000 0.0000
0.017 2 -4.821294 0.086309 -9.381265 -6.881714 2.037048 10.925293 -0.08 0.08 9.1 9.1 27.0454 27.5973 0.0074 -0.0000 -0.002595 -0.403501 10.57 510 800 -2.76 99.00 0.0000 0.0000
0.024 2 -3.481113 -1.659043 -9.287764 -9.735107 1.091003 7.591248 -0.08 0.08 9.4 9.4 39.7726 39.7726 0.0147 -0.0000 -0.002595 -0.402549 10.90 490 790 -2.78 99.00 0.0000 0.0000
0.031 2 -2.327935 -3.694487 -8.906568 -5.905151 1.739502 11.352539 0.00 -0.00 9.5 9.5 50.0841 52.0104 0.0241 -0.0000 0.000000 -0.402895 11.00 490 760 -2.79 99.00 0.0000 0.0000
0.038 2 -4.157197 -1.786108 -9.110352 -9.719849 -3.929138 14.801025 0.08 -0.08 9.7 9.7 58.7943 58.7943 0.0352 -0.0000 0.002595 -0.405214 11.15 490 800 -2.81 99.00 0.0000 0.0000
0.045 2 -4.967539 2.757080 -9.182275 -16.494751 -1.739502 12.359619 0.08 -0.08 9.8 9.8 64.3938 67.6135 0.0477 0.0000 0.002595 -0.400889 11.31 490 800 -2.84 99.00 0.0000 0.0000
0.052 2 -4.217134 -3.241367 -9.784038 -7.843018 -3.440857 11.283875 0.17 -0.17 9.9 9.9 71.1721 75.1261 0.0616 0.0001 0.005191 -0.401223 11.39 510 820 -2.85 99.00 0.0000 0.0000
0.059 2 -3.658525 -1.608696 -8.887387 -15.846252 -5.348206 14.709473 0.33 -0.33 9.8 9.8 75.1261 79.5453 0.0764 0.0002 0.010382 -0.404549 11.33 490 790 -2.88 99.00 0.0000 0.0000
0.066 2 -3.646538 1.438477 -9.728896 -15.785217 -4.310608 10.581970 0.50 -0.50 9.9 9.9 79.5453 84.5168 0.0921 0.0004 0.015573 -0.404386 11.44 490 790 -2.90 99.00 0.0000 0.0000
0.073 2 -4.480855 1.184346 -8.678808 -10.398865 -4.821777 11.245728 0.59 -0.59 10.0 10.0 84.5168 90.1513 0.1088 0.0007 0.018168 -0.403718 11.49 490 780 -2.92 99.00 0.0000 0.0000
0.080 2 -3.231777 -2.330332 -9.748075 -4.066467 -3.242493 14.755249 0.67 -0.67 10.1 10.1 90.1513 90.1513 0.1259 0.0010 0.020764 -0.405464 11.63 490 790 -2.94 99.00 0.0000 0.0000
0.087 2 -4.468867 -3.413984 -8.956914 -4.547119 -2.830505 18.196106 0.75 -0.75 10.2 6.6 90.1513 96.5907 0.1438 0.0014 0.023359 -0.403791 11.74 510 820 -2.97 99.00 0.0000 0.0000
0.094 2 -3.857515 -2.757080 -9.359687 -5.981445 -1.960754 15.556335 0.75 -0.75 10.1 10.1 90.1513 90.1513 0.1615 0.0018 0.023359 -0.404917 11.64 490 800 -3.00 99.00 0.0000 0.0000
0.101 2 -3.711269 -1.867622 -8.920952 -4.295349 -1.129150 14.251709 0.67 -0.67 7.4 6.7 96.5907 96.5907 0.1798 0.0022 0.020764 -0.402683 11.58 490 800 -3.02 99.00 0.0000 0.0000
0.109 2 -3.821553 -1.114819 -9.340508 -2.754211 -2.227783 13.435364 0.59 -0.59 7.4 6.7 96.5907 96.5907 0.1985 0.0025 0.018168 -0.404204 11.83 490 1060 -3.04 99.00 0.0000 0.0000
0.115 2 -3.910259 -1.054883 -8.772309 -1.792908 0.289917 13.160706 0.59 -0.59 7.4 10.2 96.5907 90.1513 0.2162 0.0029 0.018168 -0.402945 11.75 490 810 -3.08 99.00 0.0000 0.0000
0.122 2 -3.905464 -1.047690 -9.565868 -4.821777 2.494812 12.077332 0.67 -0.67 7.4 6.7 96.5907 96.5907 0.2341 0.0032 0.020764 -0.402538 11.90 510 820 -3.10 99.00 0.0000 0.0000
0.129 2 -3.756821 0.731226 -9.220634 -6.805420 0.572205 10.665894 0.67 -0.67 7.4 6.7 96.5907 96.5907 0.2518 0.0036 0.020764 -0.404764 11.72 490 790 -3.13 99.00 0.0000 0.0000
0.136 2 -3.716064 1.824468 -9.112749 -7.408142 3.601074 9.948730 0.59 -0.59 10.4 10.2 90.1513 90.1513 0.2697 0.0039 0.018168 -0.402756 11.91 490 800 -3.13 99.00 0.0000 0.0000
0.143 2 -4.435303 2.308755 -9.381265 -7.118225 3.669739 11.177063 0.59 -0.59 10.1 6.7 84.5168 96.5907 0.2874 0.0042 0.018168 -0.403105 11.61 490 790 -3.10 99.00 0.0000 0.0000
0.150 2 -3.754424 0.661699 -9.227827 -6.645203 2.265930 10.848999 0.75 -0.75 7.4 6.6 96.5907 96.5907 0.3051 0.0046 0.023359 -0.402877 11.74 490 790 -3.07 99.00 0.0000 0.0000
0.157 2 -4.447290 0.664097 -9.481957 -7.759094 4.394531 13.420105 0.84 -0.84 10.2 10.1 84.5168 90.1513 0.3230 0.0051 0.025955 -0.402980 11.72 510 830 -3.06 99.00 0.0000 0.0000
0.164 2 -4.372969 -0.414761 -9.407637 -5.950928 4.501343 15.167236 1.00 -1.00 7.6 10.0 96.5907 90.1513 0.3407 0.0056 0.031146 -0.402559 11.88 490 800 -3.04 99.00 0.0000 0.0000
0.171 2 -4.068491 -2.011470 -9.484355 -7.476807 5.775452 17.143250 1.17 -1.17 7.7 9.9 96.5907 90.1513 0.3584 0.0062 0.036337 -0.400846 11.88 490 800 -3.02 99.00 0.0000 0.0000
0.178 2 -4.279468 -3.140674 -9.448393 -6.660461 5.973816 18.127441 1.34 -1.34 10.4 6.3 90.1513 96.5907 0.3761 0.0069 0.041528 -0.398618 11.91 490 800 -3.00 99.00 0.0000 0.0000
0.185 2 -3.675308 -2.610835 -9.640190 -9.368896 7.194519 16.441345 1.34 -1.34 10.2 9.8 90.1513 90.1513 0.3938 0.0076 0.041528 -0.397790 11.72 490 800 -2.98 99.00 0.0000 0.0000
0.192 2 -4.046914 -1.431284 -9.398046 -11.795044 8.178711 15.411377 1.26 -1.26 7.7 9.8 96.5907 90.1513 0.4116 0.0084 0.038932 -0.394158 11.68 510 830 -2.96 99.00 0.0000 0.0000
0.199 2 -3.270137 -0.937407 -9.493945 -12.596130 8.842468 14.831543 1.26 -1.26 7.7 6.4 96.5907 96.5907 0.4297 0.0091 0.038932 -0.396427 11.60 490 800 -2.93 99.00 0.0000 0.0000
0.207 2 -3.157456 -0.990151 -8.801079 -12.054443 13.038635 13.961792 1.34 -1.34 7.8 9.8 96.5907 90.1513 0.4476 0.0098 0.041528 -0.393406 11.90 490 1070 -2.91 99.00 0.0000 0.0000
0.213 2 -4.298647 -0.716841 -9.347700 -14.785767 14.312744 14.266968 1.34 -1.34 7.8 6.3 96.5907 96.5907 0.4657 0.0105 0.041528 -0.395136 11.71 490 820 -2.88 99.00 0.0000 0.0000
0.220 2 -3.505088 1.126807 -9.148710 -15.815735 21.156311 12.504578 1.34 -1.34 7.8 9.8 96.5907 90.1513 0.4834 0.0113 0.041528 -0.397973 11.87 490 800 -2.86 99.00 0.0000 0.0000
0.227 2 -4.116440 0.973369 -8.781899 -15.754700 29.640198 13.313293 1.34 -1.34 7.8 6.3 96.5907 96.5907 0.5015 0.0120 0.041528 -0.399330 11.72 510 820 -2.84 99.00 0.0000 0.0000
0.234 2 -3.931836 1.153179 -9.057607 -18.180847 38.467407 13.534546 1.51 -1.51 7.9 6.2 96.5907 96.5907 0.5192 0.0128 0.046719 -0.399097 11.68 490 800 -2.81 99.00 0.0000 0.0000
0.241 2 -4.109248 -0.112681 -9.093569 -19.020081 46.035767 16.319275 1.51 -1.51 10.1 9.7 90.1513 90.1513 0.5368 0.0136 0.046719 -0.397527 11.60 490 800 -2.81 99.00 0.0000 0.0000
0.248 2 -3.433164 -0.604160 -9.110352 -21.827698 54.252625 18.325806 1.59 -1.59 7.9 6.2 96.5907 96.5907 0.5547 0.0145 0.049314 -0.393137 11.72 490 790 -2.78 99.00 0.0000 0.0000
0.255 2 -4.432905 -0.534634 -9.345303 -23.551941 59.028625 21.163940 1.51 -1.51 7.9 9.7 96.5907 90.1513 0.5726 0.0154 0.046719 -0.387998 11.91 490 810 -2.77 99.00 0.0000 0.0000
0.262 2 -4.269878 -1.354565 -9.139121 -25.360107 64.682007 23.414612 1.51 -1.51 7.9 6.2 96.5907 96.5907 0.5907 0.0162 0.046719 -0.381242 11.85 510 830 -2.75 99.00 0.0000 0.0000
0.269 2 -3.910259 -1.177153 -9.213442 -27.130127 72.013855 24.658203 1.59 -1.59 7.9 6.2 96.5907 96.5907 0.6082 0.0170 0.049314 -0.371387 11.88 490 800 -2.74 99.00 0.0000 0.0000
0.276 2 -3.612973 -1.639863 -9.206249 -29.121399 75.096130 24.421692 1.59 -1.59 7.9 9.6 96.5907 90.1513 0.6259 0.0179 0.049314 -0.362639 11.79 490 810 -2.73 99.00 0.0000 0.0000
0.283 2 -3.248559 -0.894253 -8.880195 -31.013489 81.634521 23.979187 1.59 -1.59 7.9 9.6 96.5907 90.1513 0.6435 0.0188 0.049314 -0.351471 11.71 490 800 -2.72 99.00 0.0000 0.0000
0.290 2 -3.473921 -0.019180 -9.043222 -31.692505 87.646484 22.598267 1.84 -1.84 8.0 6.1 96.5907 96.5907 0.6614 0.0197 0.057101 -0.338447 11.88 490 800 -2.70 99.00 0.0000 0.0000
0.297 2 -2.644399 1.359360 -8.906568 -29.624939 89.500427 20.004272 1.84 -1.84 10.3 6.1 90.1513 96.5907 0.6791 0.0207 0.057101 -0.329474 11.85 510 820 -2.70 99.00 0.0000 0.0000
0.304 2 -2.095381 1.129204 -8.405498 -27.015686 96.755981 17.799377 1.84 -1.84 10.1 9.5 90.1513 90.1513 0.6964 0.0217 0.057101 -0.315849 11.56 490 790 -2.70 99.00 0.0000 0.0000
0.311 2 -2.757080 0.680879 -8.599692 -24.940491 100.257874 16.593933 1.76 -1.76 8.0 6.1 96.5907 96.5907 0.7142 0.0227 0.054505 -0.302954 11.50 490 800 -2.68 99.00 0.0000 0.0000
0.318 2 -2.157715 0.052744 -8.908964 -22.155762 103.027344 13.275146 1.67 -1.67 7.9 9.6 96.5907 90.1513 0.7321 0.0237 0.051910 -0.290439 11.80 490 800 -2.68 99.00 0.0000 0.0000
0.325 2 -2.301562 -0.059937 -9.052813 -21.247864 106.773376 11.802673 1.59 -1.59 10.2 9.6 90.1513 90.1513 0.7500 0.0246 0.049314 -0.273633 11.66 490 800 -2.68 99.00 0.0000 0.0000
0.332 2 -2.505347 -0.486685 -9.390854 -18.226624 111.541748 10.719299 1.67 -1.67 7.9 6.1 96.5907 96.5907 0.7679 0.0255 0.051910 -0.254764 11.87 510 820 -2.66 99.00 0.0000 0.0000
0.339 2 -2.536514 -0.990151 -9.436406 -15.739441 112.854004 10.215759 1.67 -1.67 7.9 9.6 96.5907 90.1513 0.7855 0.0264 0.051910 -0.238440 11.74 490 800 -2.66 99.00 0.0000 0.0000
0.346 2 -1.989892 -0.985356 -9.585049 -15.357971 114.257812 9.323120 1.76 -1.76 8.0 6.1 96.5907 96.5907 0.8034 0.0273 0.054505 -0.220595 11.58 490 800 -2.66 99.00 0.0000 0.0000
0.353 2 -1.999482 -0.637725 -9.573061 -16.258240 114.830017 8.544922 1.76 -1.76 8.0 9.6 96.5907 90.1513 0.8211 0.0283 0.054505 -0.201353 11.72 490 800 -2.66 99.00 0.0000 0.0000
0.360 2 -1.783711 -0.412363 -9.429214 -16.471863 113.792419 7.415771 1.84 -1.84 8.0 9.5 96.5907 90.1513 0.8390 0.0293 0.057101 -0.184781 11.37 490 800 -2.66 99.00 0.0000 0.0000
0.367 2 -0.812739 -0.299683 -9.347700 -17.478943 114.746094 5.874634 2.01 -2.01 8.1 6.0 96.5907 96.5907 0.8566 0.0304 0.062292 -0.164786 11.26 510 820 -2.65 99.00 0.0000 0.0000
0.374 2 -1.040498 0.630532 -9.172686 -17.440796 110.893250 2.792358 2.01 -2.01 8.1 10.0 96.5907 84.5168 0.8739 0.0314 0.062292 -0.149707 11.47 480 780 -2.65 99.00 0.0000 0.0000
0.381 2 -0.505864 0.810342 -8.925747 -15.846252 110.130310 -0.343323 2.09 -2.09 8.2 9.4 96.5907 90.1513 0.8914 0.0325 0.064887 -0.134003 11.28 490 800 -2.64 99.00 0.0000 0.0000
0.388 2 -0.400376 1.292231 -9.599433 -15.060425 112.609863 -2.410889 2.09 -2.09 9.7 9.4 90.1513 90.1513 0.9090 0.0337 0.064887 -0.115062 11.25 490 790 -2.65 99.00 0.0000 0.0000
0.395 2 -0.486685 1.023716 -9.261392 -9.727478 111.892700 -3.730774 2.18 -2.18 9.7 9.3 90.1513 90.1513 0.9269 0.0349 0.067483 -0.099837 11.25 490 790 -2.64 99.00 0.0000 0.0000
0.402 2 -0.239746 -0.378799 -9.863154 -5.134583 111.228943 -7.537842 2.18 -2.18 8.2 9.3 96.5907 90.1513 0.9450 0.0361 0.067483 -0.083233 11.68 520 820 -2.63 99.00 0.0000 0.0000
0.410 2 -0.285298 -0.014385 -9.901513 -2.738953 109.397888 -8.262634 2.09 -2.09 8.2 9.4 96.5907 90.1513 0.9632 0.0374 0.064887 -0.066243 11.47 490 810 -2.63 99.00 0.0000 0.0000
0.416 2 -0.935010 -1.086050 -10.330659 -1.800537 106.437683 -8.895874 2.09 -2.09 9.6 5.9 90.1513 96.5907 0.9805 0.0385 0.064887 -0.052990 11.09 490 800 -2.62 99.00 0.0000 0.0000
0.423 2 -1.023716 -1.361758 -10.297094 -1.945496 105.209351 -8.270264 2.09 -2.09 8.2 9.4 96.5907 90.1513 0.9981 0.0396 0.064887 -0.040225 11.15 490 800 -2.61 99.00 0.0000 0.0000
0.430 2 -1.016523 -1.119614 -10.671099 -3.425598 102.569580 -8.033752 2.18 -2.18 8.2 5.9 96.5907 96.5907 1.0160 0.0408 0.067483 -0.028465 11.63 490 800 -2.60 99.00 0.0000 0.0000
0.437 2 -1.141191 -0.690469 -10.908447 -4.997253 98.335266 -5.897522 2.18 -2.18 8.2 9.3 96.5907 90.1513 1.0337 0.0420 0.067483 -0.019427 11.04 510 820 -2.59 99.00 0.0000 0.0000
0.444 2 -0.719238 -0.057539 -10.409775 -7.240295 97.076416 -2.441406 2.18 -2.18 8.2 9.3 96.5907 90.1513 1.0513 0.0432 0.067483 -0.010401 11.37 490 800 -2.58 99.00 0.0000 0.0000
0.451 2 -0.438735 -0.151040 -10.520059 -8.773804 92.567444 0.488281 2.18 -2.18 8.2 5.9 96.5907 96.5907 1.0690 0.0444 0.067483 -0.002111 11.01 490 800 -2.57 99.00 0.0000 0.0000
0.458 2 0.450723 0.232554 -10.462520 -12.107849 89.859009 3.196716 2.18 -2.18 9.6 9.3 84.5168 90.1513 1.0867 0.0456 0.067483 0.004985 11.12 490 790 -2.56 99.00 0.0000 0.0000
0.465 2 0.652109 0.383594 -10.289902 -12.611389 85.235596 5.912781 2.26 -2.26 8.3 5.8 96.5907 96.5907 1.1041 0.0468 0.070078 0.013350 11.33 490 800 -2.54 99.00 0.0000 0.0000
0.472 2 0.397979 0.527441 -10.366621 -13.542175 79.963684 7.087708 2.26 -2.26 9.7 9.3 90.1513 90.1513 1.1218 0.0480 0.070078 0.020850 11.18 510 820 -2.54 99.00 0.0000 0.0000
0.479 2 0.769585 -0.163027 -10.397788 -12.977600 76.461792 9.399414 2.34 -2.34 9.6 9.2 90.1513 90.1513 1.1396 0.0493 0.072674 0.027598 11.09 490 810 -2.53 99.00 0.0000 0.0000
0.486 2 0.515454 -0.781572 -10.680688 -12.870789 73.059082 11.154175 2.26 -2.26 9.7 9.3 90.1513 90.1513 1.1575 0.0505 0.070078 0.035669 11.15 490 790 -2.51 99.00 0.0000 0.0000
0.493 2 0.525044 -0.992549 -10.793368 -12.458801 67.237854 11.634827 2.18 -2.18 8.2 9.3 96.5907 90.1513 1.1757 0.0518 0.067483 0.040827 10.92 480 790 -2.49 99.00 0.0000 0.0000
0.500 2 0.620942 -1.133999 -10.906050 -13.320923 63.339233 12.771606 2.18 -2.18 8.2 5.9 96.5907 96.5907 1.1938 0.0530 0.067483 0.047218 11.22 490 790 -2.47 99.00 0.0000 0.0000
0.508 2 -0.321260 -1.016523 -10.834126 -12.908936 56.877136 12.924194 2.18 -2.18 8.2 5.9 96.5907 96.5907 1.2119 0.0542 0.067483 0.051669 11.03 510 1090 -2.46 99.00 0.0000 0.0000
0.514 2 -0.261323 -1.464849 -10.961191 -12.191772 53.375244 13.679504 2.09 -2.09 8.2 9.4 96.5907 90.1513 1.2297 0.0554 0.064887 0.055415 11.31 490 810 -2.45 99.00 0.0000 0.0000
0.521 2 -0.201387 -0.601763 -10.958794 -11.772156 50.491333 14.549255 2.09 -2.09 8.2 9.4 96.5907 90.1513 1.2474 0.0566 0.064887 0.058757 10.95 490 800 -2.43 99.00 0.0000 0.0000
0.528 2 -0.227759 -0.795957 -10.702266 -10.818481 46.806335 14.923096 2.09 -2.09 8.2 5.9 96.5907 96.5907 1.2655 0.0578 0.064887 0.061767 11.44 490 790 -2.40 99.00 0.0000 0.0000
0.535 2 0.122271 -0.515454 -10.783779 -10.765076 43.228149 15.487671 2.09 -2.09 8.2 9.4 96.5907 90.1513 1.2831 0.0589 0.064887 0.067003 11.61 490 780 -2.39 99.00 0.0000 0.0000
0.542 2 0.474697 -0.151040 -10.474506 -9.719849 38.909912 15.708923 1.93 -1.93 8.1 9.5 96.5907 90.1513 1.3008 0.0600 0.059696 0.070363 11.12 510 830 -2.38 99.00 0.0000 0.0000
0.549 2 1.122012 -0.378799 -10.229965 -8.110046 38.391113 15.914917 2.01 -2.01 8.1 6.0 96.5907 96.5907 1.3187 0.0611 0.062292 0.075321 11.52 490 800 -2.36 99.00 0.0000 0.0000
0.556 2 1.368950 0.330850 -10.325864 -7.392883 37.712097 15.388489 1.93 -1.93 8.1 9.5 96.5907 90.1513 1.3365 0.0622 0.059696 0.080667 11.72 490 800 -2.35 99.00 0.0000 0.0000
0.563 2 1.038101 0.728828 -10.081323 -6.217957 35.903931 16.296387 2.01 -2.01 8.1 9.4 96.5907 90.1513 1.3540 0.0632 0.062292 0.083910 11.06 490 800 -2.33 99.00 0.0000 0.0000
0.570 2 1.371348 0.659302 -10.522456 -5.149841 36.949158 15.357971 2.09 -2.09 8.2 5.9 96.5907 96.5907 1.3719 0.0643 0.064887 0.088095 11.72 490 800 -2.31 99.00 0.0000 0.0000
0.577 2 1.385732 0.047949 -10.265927 -3.120422 36.247253 16.006470 2.09 -2.09 8.2 9.4 96.5907 90.1513 1.3895 0.0655 0.064887 0.090373 11.14 510 820 -2.30 99.00 0.0000 0.0000
0.584 2 0.908638 0.011987 -10.505673 -2.677917 37.673950 16.662598 2.18 -2.18 8.2 9.3 96.5907 90.1513 1.4070 0.0666 0.067483 0.093052 11.00 490 800 -2.28 99.00 0.0000 0.0000
0.591 2 0.608955 -0.937407 -10.661509 -1.815796 38.200378 17.631531 2.34 -2.34 9.4 5.8 90.1513 96.5907 1.4247 0.0678 0.072674 0.095077 10.90 490 800 -2.27 99.00 0.0000 0.0000
0.598 2 0.879868 -1.606299 -10.731035 -0.564575 37.422180 18.707275 2.26 -2.26 9.7 5.8 90.1513 96.5907 1.4425 0.0691 0.070078 0.096919 11.18 490 800 -2.25 99.00 0.0000 0.0000
0.605 2 0.009590 -1.738159 -10.639932 -0.061035 35.133362 21.255493 2.26 -2.26 8.3 9.3 96.5907 90.1513 1.4602 0.0704 0.070078 0.096797 11.06 490 780 -2.23 99.00 0.0000 0.0000
0.612 2 0.630532 -1.054883 -10.951601 -1.358032 39.840698 22.544861 2.26 -2.26 8.3 9.6 96.5907 79.5453 1.4782 0.0716 0.070078 0.101952 11.06 510 830 -2.22 99.00 0.0000 0.0000
0.619 2 -0.007192 -0.294888 -10.850908 -1.831055 39.077759 25.482178 2.18 -2.18 8.2 5.9 96.5907 96.5907 1.4961 0.0728 0.067483 0.105196 11.15 490 790 -2.19 99.00 0.0000 0.0000
0.626 2 0.666494 -0.091104 -10.740624 -2.410889 38.482666 26.611328 2.09 -2.09 8.2 9.4 96.5907 90.1513 1.5140 0.0740 0.064887 0.109045 11.30 490 800 -2.18 99.00 0.0000 0.0000
0.633 2 1.045293 -0.131860 -10.553622 -2.693176 41.114807 28.564453 2.01 -2.01 8.1 9.5 96.5907 79.5453 1.5318 0.0751 0.062292 0.115014 11.00 490 800 -2.18 99.00 0.0000 0.0000
0.640 2 1.448066 -0.105488 -10.546431 -3.738403 42.671204 29.083252 1.93 -1.93 8.1 9.5 96.5907 90.1513 1.5497 0.0762 0.059696 0.117651 11.03 490 800 -2.14 99.00 0.0000 0.0000
0.647 2 1.718979 0.165425 -10.421762 -7.164001 46.058655 29.876709 2.01 -2.01 8.1 6.0 96.5907 96.5907 1.5676 0.0773 0.062292 0.123077 10.82 510 820 -2.13 99.00 0.0000 0.0000
0.654 2 1.606299 0.831919 -10.220376 -10.124207 46.905518 30.014038 2.01 -2.01 8.1 9.8 96.5907 84.5168 1.5852 0.0784 0.062292 0.127096 11.33 490 790 -2.12 99.00 0.0000 0.0000
0.661 2 1.798096 0.474697 -10.311480 -13.374329 49.453735 29.953003 2.09 -2.09 8.2 5.9 96.5907 96.5907 1.6031 0.0796 0.064887 0.130926 11.44 490 800 -2.09 99.00 0.0000 0.0000
0.668 2 1.723774 -0.038359 -10.253941 -17.028809 53.573608 30.578613 2.01 -2.01 8.1 9.4 96.5907 90.1513 1.6206 0.0806 0.062292 0.135709 10.93 490 800 -2.09 99.00 0.0000 0.0000
0.675 2 1.774121 -0.558608 -10.229965 -20.652771 57.090759 32.363892 2.01 -2.01 8.1 9.1 96.5907 90.1513 1.6382 0.0817 0.062292 0.140998 10.63 490 800 -2.07 99.00 0.0000 0.0000
0.682 2 2.126548 -0.510659 -10.457725 -24.436951 62.255859 34.889221 2.09 -2.09 8.2 5.9 96.5907 96.5907 1.6561 0.0829 0.064887 0.150535 11.47 510 830 -2.05 99.00 0.0000 0.0000
0.689 2 1.265859 -0.105488 -10.812549 -28.099060 64.147949 35.041809 2.18 -2.18 9.4 9.3 90.1513 90.1513 1.6735 0.0841 0.067483 0.160807 10.93 490 790 -2.06 99.00 0.0000 0.0000
0.696 2 1.481631 -1.035703 -10.287504 -30.067444 65.536499 37.117004 2.26 -2.26 8.3 9.3 96.5907 90.1513 1.6914 0.0853 0.070078 0.170291 10.77 490 800 -2.04 99.00 0.0000 0.0000
0.703 2 2.001880 -0.982959 -10.848511 -33.966064 68.916321 36.994934 2.26 -2.26 8.3 5.8 96.5907 96.5907 1.7091 0.0865 0.070078 0.184039 11.45 490 790 -2.03 99.00 0.0000 0.0000
0.710 2 0.815137 -0.071924 -10.428955 -35.385132 66.612244 35.552979 2.26 -2.26 9.4 9.3 90.1513 90.1513 1.7267 0.0878 0.070078 0.193461 10.85 490 800 -2.04 99.00 0.0000 0.0000
0.717 2 1.953931 0.740815 -10.210786 -38.055420 68.931580 32.424927 2.34 -2.34 9.6 9.2 90.1513 90.1513 1.7446 0.0891 0.072674 0.201949 11.09 510 810 -2.03 99.00 0.0000 0.0000
0.724 2 2.215254 1.124409 -10.134068 -39.916992 71.006775 28.732300 2.34 -2.34 8.3 5.8 96.5907 96.5907 1.7622 0.0904 0.072674 0.211966 11.22 490 800 -2.00 99.00 0.0000 0.0000
0.731 2 2.606040 1.114819 -9.889526 -39.855957 69.259644 24.444580 2.34 -2.34 8.3 9.2 96.5907 90.1513 1.7799 0.0917 0.072674 0.218288 11.52 490 800 -1.99 99.00 0.0000 0.0000
0.738 2 2.905723 1.016523 -9.707319 -39.512634 72.250366 23.040771 2.18 -2.18 8.2 9.3 96.5907 90.1513 1.7975 0.0929 0.067483 0.227666 10.88 490 800 -1.99 99.00 0.0000 0.0000
0.745 2 2.805029 1.416899 -9.688139 -40.298462 74.844360 21.858215 2.26 -2.26 8.3 9.3 96.5907 90.1513 1.8154 0.0941 0.070078 0.236574 10.79 490 810 -1.98 99.00 0.0000 0.0000
0.752 2 3.526665 1.028511 -9.541894 -40.290833 75.531006 20.973206 2.34 -2.34 8.3 5.8 96.5907 96.5907 1.8333 0.0954 0.072674 0.245635 11.28 510 820 -1.96 99.00 0.0000 0.0000
0.759 2 2.759477 0.692866 -9.748075 -39.726257 76.812744 20.507812 2.34 -2.34 8.3 5.8 96.5907 96.5907 1.8509 0.0967 0.072674 0.254244 10.79 490 790 -1.95 99.00 0.0000 0.0000
0.766 2 3.059160 0.026372 -9.760063 -36.933899 79.978943 21.591187 2.43 -2.43 8.3 9.2 96.5907 90.1513 1.8688 0.0980 0.075269 0.265511 10.73 490 800 -1.95 99.00 0.0000 0.0000
0.773 2 2.795439 -0.942202 -10.227568 -37.681580 81.054688 23.765564 2.34 -2.34 8.3 9.2 96.5907 90.1513 1.8862 0.0993 0.072674 0.278009 10.84 490 790 -1.94 99.00 0.0000 0.0000
0.780 2 2.574873 -1.066870 -10.102901 -38.269043 79.185486 22.644043 2.43 -2.43 8.3 9.0 96.5907 90.1513 1.9037 0.1006 0.075269 0.288718 10.47 490 800 -1.93 99.00 0.0000 0.0000
0.787 2 3.437959 -0.870278 -10.210786 -36.865234 77.850342 20.904541 2.51 -2.51 8.4 9.2 96.5907 90.1513 1.9215 0.1019 0.077865 0.299753 11.26 510 830 -1.92 99.00 0.0000 0.0000
0.794 2 1.932353 -0.556211 -9.949463 -37.864685 73.364258 20.919800 2.51 -2.51 9.3 9.2 90.1513 90.1513 1.9392 0.1033 0.077865 0.305052 10.77 490 800 -1.91 99.00 0.0000 0.0000
0.801 2 2.704336 0.999741 -10.416967 -39.222717 70.060730 18.623352 2.60 -2.60 8.4 5.6 96.5907 96.5907 1.9566 0.1047 0.080460 0.312840 11.33 490 790 -1.89 99.00 0.0000 0.0000
0.809 2 2.965659 1.186743 -9.834385 -37.399292 65.376282 17.189026 2.60 -2.60 8.4 9.1 96.5907 90.1513 1.9747 0.1062 0.080460 0.320025 10.96 490 1070 -1.89 99.00 0.0000 0.0000
0.815 2 3.476318 1.843647 -9.565868 -35.430908 60.981750 16.143799 2.68 -2.68 8.5 9.1 96.5907 90.1513 1.9917 0.1076 0.083056 0.324264 10.71 490 800 -1.87 99.00 0.0000 0.0000
0.822 2 3.706475 1.915571 -9.481957 -33.622742 57.060242 15.304565 2.76 -2.76 9.3 5.6 90.1513 96.5907 2.0095 0.1091 0.085651 0.330275 10.81 510 820 -1.86 99.00 0.0000 0.0000
0.829 2 4.054106 1.186743 -9.383662 -30.029297 52.200317 15.380859 2.85 -2.85 8.6 9.0 96.5907 90.1513 2.0274 0.1106 0.088246 0.334996 11.74 490 800 -1.85 99.00 0.0000 0.0000
0.836 2 3.696885 0.589775 -9.330917 -27.267456 47.569275 17.150879 2.85 -2.85 8.6 5.5 96.5907 96.5907 2.0450 0.1122 0.088246 0.338811 11.17 490 800 -1.83 99.00 0.0000 0.0000
0.843 2 3.790386 0.234951 -9.570663 -24.063110 44.960022 17.791748 2.85 -2.85 8.6 9.0 96.5907 90.1513 2.0626 0.1137 0.088246 0.344531 10.92 490 800 -1.82 99.00 0.0000 0.0000
0.850 2 4.058901 -1.090845 -9.769653 -21.331787 42.617798 19.447327 2.85 -2.85 8.6 9.0 96.5907 90.1513 2.0803 0.1153 0.088246 0.349545 10.85 490 790 -1.80 99.00 0.0000 0.0000
0.857 2 3.466728 -1.311411 -9.899116 -18.508911 38.681030 21.072388 2.93 -2.93 9.4 5.5 79.5453 96.5907 2.0981 0.1169 0.090842 0.355210 10.85 510 820 -1.80 99.00 0.0000 0.0000
0.864 2 3.183828 -1.939546 -9.937475 -16.502380 33.889771 23.422241 2.93 -2.93 8.6 8.9 96.5907 90.1513 2.1153 0.1185 0.090842 0.359092 10.49 490 800 -1.77 99.00 0.0000 0.0000
0.871 2 3.310894 -0.923022 -10.057348 -15.365601 31.074524 23.193359 2.93 -2.93 8.6 8.9 96.5907 90.1513 2.1330 0.1200 0.090842 0.362910 10.47 490 800 -1.76 99.00 0.0000 0.0000
0.878 2 2.905723 0.282900 -10.066938 -14.343262 28.640747 22.865295 3.01 -3.01 8.7 8.9 96.5907 90.1513 2.1508 0.1217 0.093437 0.367028 11.23 490 800 -1.74 99.00 0.0000 0.0000
0.885 2 3.183828 1.033306 -9.906308 -12.954712 22.186279 21.751404 2.85 -2.85 8.6 9.0 96.5907 90.1513 2.1684 0.1233 0.088246 0.368351 10.92 490 800 -1.73 99.00 0.0000 0.0000
0.892 2 3.320483 1.457656 -9.374072 -10.543823 19.584656 19.508362 2.93 -2.93 8.6 8.9 96.5907 90.1513 2.1862 0.1249 0.090842 0.370134 10.87 510 820 -1.71 99.00 0.0000 0.0000
0.899 2 3.241367 2.198472 -9.489150 -7.904053 16.654968 17.486572 2.93 -2.93 8.6 8.9 96.5907 90.1513 2.2035 0.1265 0.090842 0.370129 10.96 490 800 -1.69 99.00 0.0000 0.0000
0.907 2 4.185966 2.145727 -9.318931 -4.547119 14.015198 16.357422 3.01 -3.01 8.7 8.9 96.5907 90.1513 2.2213 0.1281 0.093437 0.369340 10.73 490 1080 -1.67 99.00 0.0000 0.0000
0.913 2 4.277070 1.364155 -9.232622 -1.914978 13.130188 15.945435 3.01 -3.01 8.7 8.9 96.5907 90.1513 2.2389 0.1297 0.093437 0.370723 10.74 490 810 -1.66 99.00 0.0000 0.0000
0.920 2 4.042119 0.122271 -9.235020 0.038147 10.559082 17.288208 3.10 -3.10 9.8 5.3 90.1513 96.5907 2.2568 0.1314 0.096033 0.371139 11.31 490 810 -1.64 99.00 0.0000 0.0000
0.927 2 3.660923 -0.431543 -9.290161 1.266479 8.071899 17.280579 3.01 -3.01 9.2 8.9 90.1513 90.1513 2.2746 0.1331 0.093437 0.371573 10.68 510 810 -1.63 99.00 0.0000 0.0000
0.934 2 4.636689 0.141450 -9.810410 -0.640869 10.452271 17.593384 2.93 -2.93 9.3 8.9 90.1513 90.1513 2.2924 0.1347 0.090842 0.374068 10.84 490 800 -1.60 99.00 0.0000 0.0000
0.941 2 3.876694 -1.045293 -9.652178 -0.885010 7.278442 18.730164 2.85 -2.85 8.6 9.0 96.5907 90.1513 2.3102 0.1363 0.088246 0.373478 10.65 490 800 -1.58 99.00 0.0000 0.0000
0.948 2 3.517075 -1.786108 -9.609023 -3.334045 7.164001 21.018982 2.85 -2.85 8.6 5.5 96.5907 96.5907 2.3283 0.1380 0.088246 0.373984 10.74 490 800 -1.56 99.00 0.0000 0.0000
0.955 2 3.392407 -1.440874 -9.860757 -4.493713 7.087708 21.263123 2.76 -2.76 8.5 8.9 96.5907 90.1513 2.3461 0.1395 0.085651 0.374476 10.39 490 800 -1.55 99.00 0.0000 0.0000
0.962 2 3.519473 -0.750405 -9.786435 -6.958008 7.820129 22.232056 2.68 -2.68 8.5 9.1 96.5907 90.1513 2.3639 0.1411 0.083056 0.374161 10.66 510 830 -1.53 99.00 0.0000 0.0000
0.969 2 3.164648 0.110283 -9.611421 -7.987976 9.750366 23.582458 2.60 -2.60 8.4 5.6 96.5907 96.5907 2.3818 0.1426 0.080460 0.377927 11.33 490 800 -1.51 99.00 0.0000 0.0000
0.976 2 2.879350 0.273311 -9.282969 -7.995605 8.178711 24.566650 2.51 -2.51 8.4 9.1 96.5907 90.1513 2.3996 0.1440 0.077865 0.378501 10.62 490 800 -1.50 99.00 0.0000 0.0000
0.983 2 3.572217 0.702456 -9.314136 -8.796692 11.398315 24.215698 2.43 -2.43 8.3 9.2 96.5907 90.1513 2.4175 0.1453 0.075269 0.383361 10.66 490 800 -1.49 99.00 0.0000 0.0000
0.990 2 3.934233 0.827124 -9.021646 -8.857727 13.618469 23.094177 2.43 -2.43 8.3 5.7 96.5907 96.5907 2.4355 0.1467 0.075269 0.387293 11.09 490 790 -1.46 99.00 0.0000 0.0000
0.997 2 4.145210 1.395322 -9.203853 -8.842468 13.847351 21.209717 2.43 -2.43 8.3 9.1 96.5907 90.1513 2.4536 0.1481 0.075269 0.389639 10.57 510 840 -1.46 99.00 0.0000 0.0000
1.004 2 4.989116 0.743213 -8.638051 -8.125305 19.554138 22.964478 2.34 -2.34 8.3 5.8 96.5907 96.5907 2.4714 0.1494 0.072674 0.393346 11.15 490 800 -1.44 99.00 0.0000 0.0000
1.011 2 4.090068 1.313809 -8.865810 -9.498596 22.102356 22.323608 2.34 -2.34 8.3 9.2 96.5907 79.5453 2.4895 0.1507 0.072674 0.398418 10.73 490 810 -1.43 99.00 0.0000 0.0000
1.018 2 4.749370 1.124409 -8.695591 -9.590149 23.376465 24.681091 2.26 -2.26 8.3 5.8 96.5907 96.5907 2.5073 0.1519 0.070078 0.401146 11.01 490 800 -1.40 99.00 0.0000 0.0000
1.025 2 4.327417 0.561006 -8.837041 -9.078979 27.717590 24.658203 2.18 -2.18 8.2 9.3 96.5907 90.1513 2.5252 0.1532 0.067483 0.407249 10.95 490 790 -1.40 99.00 0.0000 0.0000
1.032 2 4.488047 0.383594 -9.081582 -11.146545 28.083801 26.969910 2.18 -2.18 8.2 9.3 96.5907 90.1513 2.5433 0.1544 0.067483 0.408099 11.00 510 820 -1.38 99.00 0.0000 0.0000
1.039 2 4.181172 0.479492 -9.285366 -11.062622 31.501770 28.450012 2.18 -2.18 8.2 5.9 96.5907 96.5907 2.5609 0.1556 0.067483 0.415307 11.17 490 800 -1.36 99.00 0.0000 0.0000
1.046 2 3.859912 -0.112681 -9.129531 -10.780334 33.264160 29.891968 2.09 -2.09 9.2 9.2 90.1513 90.1513 2.5788 0.1568 0.064887 0.419105 10.73 490 800 -1.36 99.00 0.0000 0.0000
1.053 2 3.979785 -0.522646 -9.079185 -11.306763 34.111023 31.784058 2.09 -2.09 8.2 9.2 96.5907 90.1513 2.5964 0.1580 0.064887 0.424030 10.66 490 810 -1.34 99.00 0.0000 0.0000
1.060 2 3.521870 -1.630273 -9.064799 -11.856079 36.415100 32.974243 2.18 -2.18 9.2 9.2 90.1513 90.1513 2.6143 0.1592 0.067483 0.431815 10.71 490 800 -1.34 99.00 0.0000 0.0000
1.067 2 4.533598 -1.678223 -9.393251 -11.260986 38.093567 32.264709 2.26 -2.26 9.7 5.8 90.1513 96.5907 2.6326 0.1604 0.070078 0.436923 11.23 510 830 -1.32 99.00 0.0000 0.0000
1.074 2 3.814360 -0.647314 -9.191865 -12.481689 43.380737 32.203674 2.26 -2.26 8.3 5.8 96.5907 96.5907 2.6502 0.1616 0.070078 0.446552 11.06 490 790 -1.30 99.00 0.0000 0.0000
1.081 2 3.332471 -0.179810 -8.877797 -11.848450 44.059753 32.066345 2.09 -2.09 8.2 9.4 96.5907 90.1513 2.6683 0.1629 0.064887 0.451378 11.44 490 800 -1.30 99.00 0.0000 0.0000
1.088 2 4.605522 0.441133 -9.083980 -14.648438 48.751831 32.028198 2.09 -2.09 8.2 5.9 96.5907 96.5907 2.6860 0.1640 0.064887 0.459784 11.25 490 790 -1.28 99.00 0.0000 0.0000
1.095 2 4.569561 0.479492 -8.527768 -15.609741 52.864075 30.723572 1.93 -1.93 8.1 9.2 96.5907 84.5168 2.7036 0.1651 0.059696 0.468874 10.73 490 800 -1.28 99.00 0.0000 0.0000
1.102 2 4.842871 0.628135 -8.534961 -16.815186 51.322937 30.853271 2.01 -2.01 8.1 9.1 96.5907 90.1513 2.7215 0.1662 0.062292 0.473466 10.58 510 830 -1.26 99.00 0.0000 0.0000
1.110 2 4.862051 1.289834 -8.640449 -17.898560 53.894043 29.151917 2.01 -2.01 8.1 6.0 96.5907 96.5907 2.7400 0.1673 0.062292 0.480525 11.12 490 800 -1.24 99.00 0.0000 0.0000
1.116 2 5.319966 1.321001 -8.549345 -17.242432 54.862976 28.274536 2.01 -2.01 8.1 6.0 96.5907 96.5907 2.7572 0.1684 0.062292 0.484899 10.62 490 810 -1.22 99.00 0.0000 0.0000
1.123 2 5.341543 1.273052 -8.745937 -16.525269 56.396484 27.671814 2.18 -2.18 8.2 10.0 96.5907 79.5453 2.7749 0.1696 0.067483 0.491782 11.52 490 810 -1.22 99.00 0.0000 0.0000
1.130 2 4.828486 1.198730 -8.695591 -13.488770 54.908752 28.198242 2.09 -2.09 8.2 5.9 96.5907 96.5907 2.7924 0.1707 0.064887 0.496653 10.63 490 800 -1.20 99.00 0.0000 0.0000
1.137 2 5.087412 0.405171 -9.124736 -12.657166 54.504395 28.701782 2.09 -2.09 9.6 9.4 84.5168 90.1513 2.8100 0.1719 0.064887 0.504318 11.14 510 830 -1.20 99.00 0.0000 0.0000
1.144 2 4.696626 -0.644917 -9.407637 -12.092590 53.230286 28.419495 2.18 -2.18 8.2 9.0 96.5907 90.1513 2.8275 0.1731 0.067483 0.509896 10.49 490 790 -1.17 99.00 0.0000 0.0000
1.151 2 4.672651 -1.122012 -9.551484 -13.107300 50.483704 28.747559 2.26 -2.26 9.1 9.1 90.1513 90.1513 2.8449 0.1743 0.070078 0.516824 10.62 490 790 -1.17 99.00 0.0000 0.0000
1.158 2 5.058642 -0.218169 -9.836782 -12.786865 46.852112 27.404785 2.34 -2.34 9.3 5.8 90.1513 96.5907 2.8628 0.1756 0.072674 0.522076 10.81 490 790 -1.14 99.00 0.0000 0.0000
1.165 2 4.459277 -0.390786 -9.107954 -11.451721 42.770386 25.886536 2.43 -2.43 9.2 9.2 90.1513 90.1513 2.8806 0.1769 0.075269 0.526049 10.71 480 800 -1.13 99.00 0.0000 0.0000
1.172 2 4.130825 -0.014385 -9.033632 -11.795044 41.023254 25.726318 2.34 -2.34 8.3 8.9 96.5907 90.1513 2.8985 0.1782 0.072674 0.529284 10.44 510 830 -1.10 99.00 0.0000 0.0000
1.179 2 5.473403 0.822329 -8.932940 -12.001038 38.703918 25.314331 2.34 -2.34 9.0 9.0 90.1513 90.1513 2.9162 0.1795 0.072674 0.531860 10.46 490 810 -1.09 99.00 0.0000 0.0000
1.186 2 5.502172 1.285039 -8.697988 -11.772156 36.308289 25.764465 2.43 -2.43 8.3 5.7 96.5907 96.5907 2.9340 0.1808 0.075269 0.535621 10.50 490 800 -1.06 99.00 0.0000 0.0000
1.193 2 6.178257 1.215513 -8.801079 -12.474060 33.248901 26.123047 2.43 -2.43 8.3 9.1 96.5907 90.1513 2.9521 0.1822 0.075269 0.537670 10.65 490 800 -1.04 99.00 0.0000 0.0000
1.200 2 5.674790 1.210718 -8.717168 -10.658264 32.081604 28.289795 2.43 -2.43 8.3 8.9 96.5907 90.1513 2.9697 0.1835 0.075269 0.541091 10.43 490 810 -1.03 99.00 0.0000 0.0000
1.208 2 5.804253 0.884663 -8.618872 -9.178162 31.257629 29.838562 2.43 -2.43 8.3 9.2 96.5907 90.1513 2.9878 0.1849 0.075269 0.543970 10.68 510 1100 -1.00 99.00 0.0000 0.0000
1.214 2 5.981665 0.266118 -8.614077 -6.591797 29.235840 30.593872 2.51 -2.51 9.0 5.7 84.5168 96.5907 3.0056 0.1863 0.077865 0.546726 10.50 490 800 -0.98 99.00 0.0000 0.0000
1.221 2 5.936113 -0.716841 -9.273378 -5.615234 28.709412 29.853821 2.51 -2.51 8.4 5.7 96.5907 96.5907 3.0233 0.1876 0.077865 0.550657 10.62 490 800 -0.95 99.00 0.0000 0.0000
1.228 2 5.166528 -1.503208 -9.354893 -3.921509 23.521423 30.647278 2.51 -2.51 8.4 9.1 96.5907 90.1513 3.0409 0.1890 0.077865 0.554043 10.57 490 800 -0.94 99.00 0.0000 0.0000
1.235 2 5.492583 -0.385991 -9.211044 -5.187988 22.529602 32.295227 2.43 -2.43 8.3 9.0 96.5907 90.1513 3.0588 0.1904 0.075269 0.558444 10.52 490 810 -0.92 99.00 0.0000 0.0000
1.242 2 5.226465 0.107886 -9.640190 -5.348206 22.796631 31.051636 2.60 -2.60 8.4 5.6 96.5907 96.5907 3.0768 0.1918 0.080460 0.561457 11.00 510 830 -0.89 99.00 0.0000 0.0000
1.249 2 5.123374 0.757598 -9.021646 -5.325317 19.081116 29.083252 2.51 -2.51 8.4 9.2 96.5907 90.1513 3.0943 0.1932 0.077865 0.562486 11.34 490 810 -0.87 99.00 0.0000 0.0000
1.256 2 5.276811 1.035703 -8.932940 -5.279541 18.386841 27.847290 2.43 -2.43 9.2 9.2 90.1513 90.1513 3.1121 0.1946 0.075269 0.564258 10.74 490 810 -0.85 99.00 0.0000 0.0000
1.263 2 5.339145 0.822329 -8.686001 -3.250122 17.944336 26.214600 2.43 -2.43 8.3 9.1 96.5907 90.1513 3.1298 0.1959 0.075269 0.563927 10.63 490 800 -0.82 99.00 0.0000 0.0000
1.270 2 5.871382 1.237090 -8.695591 -3.517151 17.608643 23.704529 2.43 -2.43 8.3 5.7 96.5907 96.5907 3.1478 0.1973 0.075269 0.565931 10.68 490 810 -0.78 99.00 0.0000 0.0000
1.277 2 6.207026 1.186743 -8.604487 -1.937866 15.045166 21.881104 2.51 -2.51 8.4 9.2 96.5907 90.1513 3.1657 0.1987 0.077865 0.565399 10.73 510 830 -0.76 99.00 0.0000 0.0000
1.284 2 6.319707 1.426489 -8.501396 -2.563477 14.610291 20.721436 2.51 -2.51 8.4 9.1 96.5907 90.1513 3.1833 0.2000 0.077865 0.568195 10.65 490 810 -0.74 99.00 0.0000 0.0000
1.291 2 5.892959 0.397979 -8.496601 -2.662659 13.839722 19.485474 2.51 -2.51 8.4 5.7 96.5907 96.5907 3.2014 0.2014 0.077865 0.570194 10.62 490 810 -0.71 99.00 0.0000 0.0000
1.298 2 6.418003 0.182207 -8.614077 -4.386902 11.528015 17.417908 2.60 -2.60 8.4 5.6 96.5907 96.5907 3.2192 0.2028 0.080460 0.571523 11.45 490 810 -0.68 99.00 0.0000 0.0000
1.305 2 5.614853 -0.163027 -9.282969 -5.455017 9.567261 14.472961 2.51 -2.51 8.4 9.2 96.5907 90.1513 3.2367 0.2042 0.077865 0.571746 10.69 490 800 -0.66 99.00 0.0000 0.0000
1.312 2 6.142295 -1.006934 -8.884990 -6.202698 11.009216 16.090393 2.60 -2.60 7.1 4.2 96.5907 96.5907 3.2545 0.2056 0.080460 0.569766 11.60 510 830 -0.62 96.42 0.0000 0.0000
1.319 2 5.224067 -2.042637 -9.095966 -8.781433 10.215759 16.204834 2.51 -2.51 9.1 9.1 90.1513 90.1513 3.2719 0.2069 0.077865 0.571693 10.58 490 800 -0.61 99.00 0.0000 0.0000
1.326 2 5.634033 -1.261064 -9.800820 -12.390137 8.804321 16.197205 2.43 -2.43 9.0 9.0 90.1513 90.1513 3.2894 0.2083 0.075269 0.571232 10.47 490 810 -0.58 99.00 0.0000 0.0000
1.333 2 5.288799 0.397979 -9.330917 -14.953613 10.322571 15.335083 2.51 -2.51 9.4 9.2 90.1513 90.1513 3.3072 0.2097 0.077865 0.575760 10.88 490 810 -0.56 99.00 0.0000 0.0000
1.340 2 4.931577 -0.179810 -8.786695 -15.525818 7.705688 15.281677 2.60 -2.60 -9.5 -9.5 96.5907 96.5907 3.3251 0.2111 0.080460 0.574866 10.96 490 810 -0.51 48.17 0.0000 0.0000
1.347 2 4.926782 0.477095 -8.743540 -13.366699 7.423401 13.786316 2.51 -2.51 6.2 6.3 90.1513 84.5168 3.3421 0.2125 0.077865 0.577531 10.84 510 830 -0.51 88.99 0.0000 0.0000
1.354 2 5.624443 0.759995 -8.875401 -15.975952 10.070801 13.114929 2.51 -2.51 5.2 5.5 90.1513 84.5168 3.3586 0.2138 0.077865 0.577553 9.79 490 800 -0.48 87.21 0.0000 0.0000
1.361 2 6.240591 0.350029 -7.813325 -13.534546 9.529114 13.595581 2.51 -2.51 10.3 10.3 84.5168 84.5168 3.3746 0.2151 0.077865 0.577968 11.82 490 790 -0.45 99.00 0.0000 0.0000
1.368 2 6.259770 0.738418 -8.259253 -13.046265 10.032654 11.444092 2.51 -2.51 4.3 4.1 84.5168 79.5453 3.3899 0.2162 0.077865 0.578701 10.82 490 800 -0.43 80.73 0.0000 0.0000
1.375 2 5.737124 0.206182 -9.014453 -11.573792 9.437561 12.573242 2.43 -2.43 9.9 8.7 75.1261 75.1261 3.4045 0.2174 0.075269 0.581010 11.42 490 800 -0.43 83.81 0.0000 0.0000
1.382 2 5.662803 -1.102832 -9.654575 -12.397766 12.458801 14.801025 2.43 -2.43 1.9 -2.6 75.1261 75.1261 3.4189 0.2185 0.075269 0.585213 11.74 510 830 -0.40 65.57 0.0000 0.0000
1.389 2 7.110869 0.067129 -8.295215 -12.145996 12.077332 16.448975 2.18 -2.18 10.0 9.7 75.1261 71.1721 3.4332 0.2195 0.067483 0.589027 12.85 490 800 -0.39 80.80 0.0000 0.0000
1.396 2 5.933716 0.915830 -8.211304 -13.946533 12.878418 13.015747 2.01 -2.01 10.8 10.8 64.3938 64.3938 3.4468 0.2204 0.062292 0.588115 12.29 490 810 -0.37 99.00 0.0000 0.0000
1.403 2 6.600210 0.935010 -10.062143 -13.061523 13.542175 13.992310 2.01 -2.01 8.2 8.2 67.6135 61.4668 3.4597 0.2212 0.062292 0.587769 9.71 490 800 -0.35 74.02 0.0000 0.0000
1.410 2 6.511504 -0.848701 -9.026441 -11.039734 15.777588 15.449524 2.01 -2.01 9.8 9.8 61.4668 56.3446 3.4717 0.2220 0.062292 0.596103 11.34 490 810 -0.34 99.00 0.0000 0.0000
1.417 2 6.322104 0.091104 -7.966763 -12.069702 12.161255 16.921997 1.93 -1.93 9.5 9.5 56.3446 54.0908 3.4832 0.2227 0.059696 0.592261 10.98 510 810 -0.33 85.33 0.0000 0.0000
1.424 2 6.995791 0.831919 -10.095708 -12.039185 16.426086 12.062073 1.76 -1.76 8.1 8.6 58.7943 54.0908 3.4944 0.2233 0.054505 0.594129 11.18 490 800 -0.30 63.13 0.0000 0.0000
1.431 2 5.322363 0.635327 -8.525371 -9.811401 9.651184 15.335083 1.67 -1.67 -8.3 -8.8 56.3446 54.0908 3.5051 0.2239 0.051910 0.597614 10.33 490 790 -0.29 32.33 0.0000 0.0000
1.438 2 4.739780 1.263462 -8.405498 -9.170532 10.551453 11.795044 1.59 -1.59 -9.2 -9.2 52.0104 48.2953 3.5149 0.2244 0.049314 0.594018 10.66 490 810 -0.27 23.65 0.0000 0.0000
1.445 2 6.465952 -1.328193 -9.179877 -7.469177 9.170532 11.360168 1.42 -1.42 -1.0 -1.6 48.2953 46.6300 3.5241 0.2248 0.044123 0.598258 11.01 490 810 -0.26 37.46 0.0000 0.0000
1.452 2 4.986719 1.093242 -8.362344 -10.910034 6.858826 10.887146 1.42 -1.42 7.1 6.2 43.6216 42.2584 3.5330 0.2252 0.044123 0.594646 10.36 510 810 -0.25 45.32 0.0000 0.0000
1.459 2 7.194780 -0.978164 -9.580254 -10.032654 3.402710 10.856628 1.34 -1.34 11.4 11.4 40.9779 39.7726 3.5416 0.2256 0.041528 0.598288 12.89 490 800 -0.23 59.47 0.0000 0.0000
1.466 2 6.605005 1.069268 -8.709975 -12.687683 2.197266 10.337830 1.34 -1.34 9.3 9.3 38.6363 32.1969 3.5497 0.2259 0.041528 0.591666 10.82 490 800 -0.21 76.13 0.0000 0.0000
1.473 2 6.513901 -0.278105 -9.431611 -11.169434 -1.167297 12.054443 1.26 -1.26 6.0 4.7 37.5630 36.5478 3.5571 0.2262 0.038932 0.594346 10.17 490 810 -0.20 39.63 0.0000 0.0000
1.480 2 5.077822 0.659302 -8.347959 -11.680603 -4.165649 10.879517 1.09 -1.09 -8.7 -8.7 36.5478 33.8067 3.5639 0.2264 0.033741 0.589202 10.19 490 800 -0.18 10.25 0.0000 0.0000
1.487 2 5.142553 -0.359619 -8.376728 -10.025024 -8.369446 9.521484 1.00 -1.00 -10.3 -10.3 32.9822 29.3972 3.5698 0.2266 0.031146 0.591563 11.77 510 820 -0.17 -2.07 0.0000 0.0000
1.494 2 4.969936 0.930215 -9.256597 -12.390137 -6.729126 9.719849 1.00 -1.00 -8.6 -8.6 29.3972 28.1723 3.5758 0.2268 0.031146 0.590725 10.14 490 800 -0.16 -4.59 0.0000 0.0000
1.501 2 5.478198 -0.052744 -8.288022 -9.544373 -13.679504 10.101318 0.92 -0.92 -4.4 -5.6 24.5867 24.1477 3.5808 0.2270 0.028550 0.590399 10.65 490 810 -0.15 9.61 0.0000 0.0000
1.509 2 5.909741 0.093501 -8.858618 -9.956360 -11.001587 8.407593 0.84 -0.84 8.7 8.1 21.1292 19.5981 3.5859 0.2271 0.025955 0.589661 10.24 490 1060 -0.14 28.17 0.0000 0.0000
1.515 2 6.883110 0.021577 -8.822656 -9.834290 -16.204834 8.743286 0.67 -0.67 8.0 8.0 19.8863 18.2739 3.5903 0.2272 0.020764 0.585412 9.54 490 830 -0.12 36.86 0.0000 0.0000
1.522 2 5.967280 0.505864 -8.774707 -8.453369 -17.066956 8.056641 0.67 -0.67 7.0 7.0 19.3181 17.1173 3.5943 0.2273 0.020764 0.583899 12.67 510 850 -0.10 27.56 0.0000 0.0000
1.529 2 5.794663 0.321260 -8.422280 -6.355286 -17.044067 7.286072 0.50 -0.50 -7.2 -6.8 19.5981 17.3368 3.5979 0.2273 0.015573 0.579463 10.81 490 820 -0.08 6.54 0.0000 0.0000
1.536 2 4.334609 0.525044 -8.307202 -5.531311 -16.204834 5.752563 0.42 -0.42 -8.8 -8.8 16.4911 15.3667 3.6009 0.2274 0.012977 0.580889 10.28 490 820 -0.08 -19.62 0.0000 0.0000
1.543 2 5.303184 0.206182 -8.031494 -4.722595 -14.862061 6.187439 0.42 -0.42 -9.0 -9.0 12.6380 13.5227 3.6034 0.2274 0.012977 0.576287 10.54 490 820 -0.06 -32.14 -0.0000 -0.0000
1.550 2 3.907861 0.875073 -8.074648 -6.668091 -10.513306 4.096985 0.50 -0.50 -4.1 -4.2 6.6944 7.0431 3.6052 0.2275 0.015573 0.579610 12.59 490 860 -0.06 1.44 0.0000 0.0000
1.557 2 6.317309 1.196333 -8.448652 -6.713867 -8.163452 6.141663 0.50 -0.50 7.6 7.4 4.8123 3.7773 3.6068 0.2275 0.015573 0.575669 10.54 510 920 -0.05 19.13 0.0000 0.0000
1.564 2 4.651074 0.232554 -8.347959 -7.362366 -8.514404 8.613586 0.42 -0.42 -1.2 -0.9 4.7783 2.8650 3.6074 0.2275 0.012977 0.574195 11.25 490 890 -0.04 3.50 0.0000 0.0000
1.571 2 5.938510 -0.057539 -8.705180 -11.665344 -2.525330 8.552551 0.42 -0.42 -5.0 -5.9 2.3477 2.7429 3.6078 0.2275 0.012977 0.576559 11.85 490 890 -0.03 -4.92 0.0000 0.0000
1.578 2 5.669995 0.050347 -8.530166 -11.627197 -3.807068 9.994507 0.33 -0.33 1.1 1.3 1.9916 1.1470 3.6080 0.2275 0.010382 0.573483 11.31 490 890 -0.02 1.80 0.0000 0.0000
1.585 2 5.873779 0.486685 -8.947324 -13.427734 -0.083923 10.131836 0.33 -0.33 -6.5 -7.1 -1.5688 -1.0499 3.6076 0.2275 0.010382 0.575900 12.18 490 890 -0.02 -11.08 0.0000 0.0000
1.592 2 4.905205 -0.203784 -8.055469 -12.397766 -0.061035 11.589050 0.25 -0.25 1.2 1.0 -1.1093 -1.4028 3.6074 0.2275 0.007786 0.575931 12.17 510 910 -0.01 -0.95 0.0000 0.0000
1.599 2 5.631636 0.220566 -8.702783 -13.809204 -0.022888 11.154175 0.17 -0.17 -5.0 -5.4 -3.2902 -4.5996 3.6064 0.2275 0.005191 0.576609 11.36 490 900 -0.00 -10.82 0.0000 0.0000
1.607 2 5.833022 0.472300 -8.333574 -12.268066 2.662659 10.620117 0.08 -0.08 -2.5 -2.6 -5.0458 -5.4308 3.6054 0.2275 0.002596 0.577399 11.85 490 1130 0.00 -6.89 -0.0000 -0.0000
1.613 2 4.941167 0.124668 -8.561333 -13.175964 1.350403 10.421753 0.08 -0.08 -6.7 -6.7 -6.1189 -7.0799 3.6042 0.2275 0.002596 0.577142 11.82 490 850 0.01 -15.46 0.0000 0.0000
1.620 2 6.231001 0.354824 -8.556538 -13.008118 0.106812 10.177612 0.08 -0.08 -5.2 -4.6 -7.7273 -8.8965 3.6021 0.2275 0.002596 0.577618 11.68 490 820 0.02 -13.77 0.0000 0.0000
1.627 2 4.850063 0.242144 -8.331177 -12.718201 0.617981 9.170532 0.00 -0.00 -5.1 -4.8 -11.4599 -11.7589 3.5999 0.2275 0.000000 0.579702 9.30 510 830 0.02 -18.39 0.0000 0.0000
1.634 2 6.744057 0.522646 -8.880195 -11.802673 -0.480652 9.216309 0.00 -0.00 8.5 8.5 -12.8788 -13.9409 3.5979 0.2275 0.000000 0.577364 10.03 490 800 0.03 15.53 0.0000 0.0000
1.641 2 6.096743 -0.364414 -8.628462 -11.550903 -0.778198 9.216309 -0.08 0.08 10.3 11.0 -11.7589 -12.0738 3.5957 0.2275 -0.002595 0.577754 13.07 490 820 0.04 11.05 0.0000 0.0000
1.648 2 5.811445 0.491479 -8.436665 -9.422302 -4.013062 9.765625 -0.00 0.00 6.8 5.4 -13.3888 -10.2445 3.5935 0.2275 0.000000 0.576539 9.82 490 820 0.05 4.35 0.0000 0.0000
1.655 2 5.646020 1.510400 -8.760322 -9.452820 -4.203796 8.316040 0.08 -0.08 -4.5 -6.1 -13.2575 -10.3227 3.5909 0.2275 0.002596 0.576041 12.64 490 820 0.06 -13.05 0.0000 0.0000
1.662 2 4.310635 2.095381 -8.458241 -10.643005 -5.805969 6.797791 0.17 -0.17 -8.6 -8.6 -13.6593 -11.5579 3.5879 0.2275 0.005191 0.574661 10.11 510 840 0.07 -46.03 -0.0000 -0.0000
1.669 2 5.542930 -0.393184 -7.590361 -4.981995 -5.088806 9.902954 0.17 -0.17 -9.3 -9.3 -16.6947 -13.3888 3.5846 0.2275 0.005191 0.574738 10.76 490 830 0.07 -35.43 -0.0000 -0.0000
1.676 2 4.514419 -1.047690 -8.829848 -5.615234 -5.775452 11.421204 0.17 -0.17 -8.5 -8.5 -19.0460 -18.7815 3.5806 0.2274 0.005191 0.577017 10.00 490 810 0.07 -31.39 -0.0000 -0.0000
1.683 2 6.489926 -0.863086 -8.733950 -6.080627 -5.455017 11.444092 0.08 -0.08 7.3 7.8 -20.1831 -21.8108 3.5768 0.2274 0.002596 0.576020 11.98 490 800 0.07 -0.41 0.0000 0.0000
1.690 2 6.516299 -0.831919 -9.009658 -7.232666 -6.080627 10.833740 0.08 -0.08 6.2 5.9 -20.8041 -20.4889 3.5728 0.2274 0.002596 0.574493 10.17 490 790 0.08 -2.01 -0.0000 -0.0000
1.697 2 5.964883 -0.225361 -8.686001 -7.102966 -6.172180 12.382507 0.08 -0.08 -4.3 -4.2 -20.1831 -20.4889 3.5688 0.2274 0.002596 0.573925 10.20 510 820 0.09 -17.56 0.0000 0.0000
1.704 2 5.454224 1.517593 -8.261650 -6.950378 -7.415771 11.466980 0.00 -0.00 -11.4 -11.4 -19.8863 -19.0460 3.5641 0.2274 0.000000 0.573547 12.93 490 830 0.09 -33.73 -0.0000 -0.0000
1.711 2 4.128428 0.932612 -8.256855 -8.491516 -7.583618 13.229370 0.08 -0.08 -10.5 -10.5 -22.1684 -22.5378 3.5595 0.2274 0.002596 0.573165 12.04 490 780 0.09 -49.17 0.0000 0.0000
1.718 2 5.612456 0.819932 -8.669218 -3.578186 -7.438660 13.702393 0.08 -0.08 -10.4 -10.4 -22.1684 -22.5378 3.5547 0.2274 0.002596 0.574106 11.94 490 800 0.10 -47.28 -0.0000 -0.0000
1.725 2 4.339404 -0.374004 -8.230483 -5.035400 -5.630493 14.465332 0.08 -0.08 -10.6 -10.6 -23.7240 -25.0420 3.5494 0.2274 0.002596 0.575449 12.13 490 800 0.10 -43.26 0.0000 0.0000
1.732 2 6.489926 -0.280503 -8.894580 -6.278992 -5.149841 14.259338 0.00 -0.00 -3.3 -3.5 -25.5145 -25.0420 3.5444 0.2274 0.000000 0.573778 10.71 510 800 0.10 -22.06 -0.0000 -0.0000
1.739 2 5.418262 0.441133 -8.546948 -6.927490 -5.828857 13.191223 0.08 -0.08 -1.8 -2.2 -27.0454 -26.5151 3.5394 0.2274 0.002596 0.573155 10.88 490 790 0.11 -20.99 0.0000 0.0000
1.746 2 6.609799 0.081514 -9.177480 -7.461548 -5.424500 12.046814 0.00 -0.00 8.8 8.6 -28.1723 -27.5973 3.5340 0.2274 0.000000 0.573392 10.25 490 800 0.11 -4.67 -0.0000 -0.0000
1.753 2 5.837817 -0.350029 -8.645244 -7.553101 -6.065369 11.024475 0.00 -0.00 1.7 2.4 -24.5867 -26.0052 3.5287 0.2274 0.000000 0.571054 9.84 490 780 0.12 -13.85 0.0000 0.0000
1.760 2 5.729931 0.750405 -8.635654 -7.789612 -6.858826 12.573242 -0.00 0.00 -4.9 -5.2 -26.5151 -26.0052 3.5235 0.2274 0.000000 0.569190 12.23 490 800 0.13 -25.00 -0.0000 -0.0000
1.767 2 4.955552 1.879609 -9.036030 -9.826660 -7.095337 9.216309 0.00 -0.00 -8.5 -8.5 -26.0052 -26.5151 3.5175 0.2274 0.000000 0.568346 10.01 510 800 0.13 -44.92 0.0000 0.0000
1.774 2 4.998706 1.093242 -8.122598 -7.652283 -6.591797 8.583069 -0.08 0.08 -8.4 -8.4 -26.5151 -27.0454 3.5116 0.2274 -0.002595 0.567906 9.90 490 790 0.13 -62.00 -0.0000 -0.0000
1.781 2 5.015488 -0.383594 -8.597295 -7.232666 -4.981995 10.749817 -0.08 0.08 -8.6 -8.6 -28.1723 -28.7717 3.5056 0.2274 -0.002595 0.570400 10.12 490 800 0.13 -41.28 0.0000 0.0000
1.788 2 6.199834 -0.215771 -8.460639 -8.583069 -7.492065 10.513306 -0.17 0.17 6.8 7.4 -30.7334 -31.4481 3.4998 0.2274 -0.005191 0.567484 11.90 490 800 0.13 -11.17 -0.0000 -0.0000
1.795 2 6.139897 0.285298 -8.841836 -10.643005 -6.263733 9.834290 -0.08 0.08 5.2 4.9 -29.3972 -28.7717 3.4939 0.2274 -0.002595 0.567515 10.20 490 810 0.14 -12.08 0.0000 0.0000
1.802 2 6.180654 -0.273311 -9.045620 -11.230469 -8.041382 9.651184 -0.17 0.17 -4.5 -4.4 -28.1723 -28.1723 3.4881 0.2275 -0.005191 0.567226 9.82 510 820 0.15 -25.77 -0.0000 -0.0000
1.810 2 5.315171 0.460312 -8.400702 -9.437561 -7.881165 9.979248 -0.17 0.17 -10.4 -10.4 -29.3972 -30.0504 3.4817 0.2275 -0.005191 0.566247 11.94 490 800 0.14 -49.09 0.0000 0.0000
1.816 2 5.689175 0.230156 -8.522973 -8.972168 -6.668091 8.758545 -0.17 0.17 -9.6 -9.6 -31.4481 -32.1969 3.4756 0.2275 -0.005191 0.567047 11.14 490 800 0.14 -40.71 -0.0000 -0.0000
1.823 2 4.838076 -0.376401 -8.144175 -7.202148 -5.027771 10.147095 -0.17 0.17 -7.5 -6.8 -32.9822 -33.8067 3.4688 0.2276 -0.005191 0.567930 10.68 490 800 0.14 -37.30 0.0000 0.0000
1.830 2 5.643623 0.498672 -8.956914 -8.422852 -3.120422 11.085510 -0.08 0.08 -3.0 -3.4 -34.6736 -33.8067 3.4621 0.2276 -0.002595 0.569268 10.00 490 800 0.14 -31.17 -0.0000 -0.0000
1.837 2 6.302925 0.381196 -8.295215 -8.552551 -2.822876 12.557983 -0.08 0.08 9.6 9.6 -35.5860 -36.5478 3.4553 0.2276 -0.002595 0.568544 11.12 510 820 0.14 0.83 0.0000 0.0000
1.844 2 5.931318 -0.395581 -8.896977 -9.048462 -1.007080 12.603760 -0.08 0.08 8.7 8.7 -33.8067 -33.8067 3.4489 0.2276 -0.002595 0.568606 10.16 490 780 0.14 -9.62 0.0000 0.0000
1.851 2 5.353530 1.138794 -8.760322 -7.621765 -2.479553 11.978149 -0.00 0.00 2.7 1.8 -33.8067 -32.1969 3.4422 0.2276 0.000000 0.567613 12.89 490 790 0.15 -20.95 -0.0000 -0.0000
1.858 2 5.907343 0.958984 -8.753130 -8.209229 -1.007080 11.871338 -0.00 0.00 -4.7 -4.3 -32.1969 -32.9822 3.4354 0.2276 0.000000 0.567493 10.11 490 800 0.15 -30.33 0.0000 0.0000
1.865 2 5.837817 2.136138 -9.079185 -9.941101 -0.663757 9.155273 -0.00 0.00 -4.9 -4.9 -33.8067 -33.8067 3.4286 0.2276 0.000000 0.567944 12.23 490 790 0.15 -32.97 -0.0000 -0.0000
1.872 2 5.334351 1.642261 -8.391113 -9.071350 -0.900269 9.628296 -0.08 0.08 -7.9 -7.8 -34.6736 -34.6736 3.4215 0.2277 -0.002595 0.565680 10.50 510 820 0.15 -39.54 0.0000 0.0000
1.879 2 5.286401 0.815137 -8.242471 -7.797241 0.717163 9.918213 -0.08 0.08 -9.7 -9.1 -33.8067 -35.5860 3.4147 0.2277 -0.002595 0.567506 11.18 490 800 0.14 -44.14 -0.0000 -0.0000
1.886 2 5.013091 -0.515454 -8.407895 -9.300232 2.136230 10.581970 -0.00 0.00 -1.4 -1.3 -35.5860 -35.5860 3.4076 0.2277 0.000000 0.566701 10.22 490 800 0.14 -29.36 0.0000 0.0000
1.893 2 6.221411 -0.016782 -8.609282 -10.284424 0.740051 9.338379 -0.00 0.00 3.1 3.1 -34.6736 -34.6736 3.4008 0.2277 0.000000 0.565728 11.77 490 800 0.15 -22.12 -0.0000 -0.0000
1.900 2 6.286142 -0.385991 -8.558935 -11.848450 0.785828 10.208130 -0.08 0.08 7.1 7.2 -34.6736 -34.6736 3.3942 0.2277 -0.002595 0.564891 10.57 490 800 0.15 -13.82 0.0000 0.0000
1.908 2 5.756303 -0.340439 -8.925747 -12.619019 1.747131 11.718750 0.00 -0.00 -5.3 -5.7 -32.1969 -31.4481 3.3875 0.2277 0.000000 0.563533 9.87 510 1060 0.16 -31.35 -0.0000 -0.0000
1.914 2 5.099399 0.352427 -8.232881 -11.924744 1.594543 11.413574 0.08 -0.08 -10.1 -10.1 -31.4481 -30.0504 3.3809 0.2277 0.002596 0.564519 11.63 490 800 0.16 -60.71 0.0000 0.0000
1.921 2 5.137759 0.117476 -8.966504 -12.733459 2.853394 11.413574 0.00 -0.00 -10.4 -10.4 -32.1969 -32.1969 3.3742 0.2277 0.000000 0.567579 11.91 490 780 0.15 -43.64 -0.0000 -0.0000
1.928 2 4.595932 0.081514 -8.436665 -10.948181 1.380920 12.962341 0.00 -0.00 -7.3 -7.7 -34.6736 -33.8067 3.3674 0.2277 0.000000 0.565820 12.24 490 780 0.15 -38.36 0.0000 0.0000
1.935 2 5.430249 -0.067129 -8.793886 -10.772705 3.326416 13.397217 0.00 -0.00 -7.0 -6.9 -33.8067 -33.8067 3.3606 0.2277 0.000000 0.568268 11.83 490 770 0.15 -37.55 -0.0000 -0.0000
1.942 2 4.761357 -0.587378 -8.424678 -7.812500 1.556396 13.114929 0.00 -0.00 -10.7 -10.7 -34.6736 -33.8067 3.3533 0.2277 0.000000 0.566531 12.15 510 790 0.15 -47.91 0.0000 0.0000
1.949 2 5.643623 0.237349 -9.031235 -9.315491 4.104614 11.985779 0.00 -0.00 -3.1 -3.1 -34.6736 -34.6736 3.3465 0.2277 0.000000 0.568376 11.64 490 780 0.15 -31.89 -0.0000 -0.0000
1.956 2 5.722739 1.769326 -8.626064 -6.813049 0.823975 11.688232 -0.08 0.08 -4.2 -4.1 -34.6736 -34.6736 3.3394 0.2277 -0.002595 0.567194 11.28 490 800 0.15 -34.19 0.0000 0.0000
1.963 2 5.722739 0.393184 -8.731552 -7.026672 2.487183 10.887146 -0.08 0.08 5.2 5.3 -35.5860 -35.5860 3.3326 0.2277 -0.002595 0.567525 10.95 490 790 0.14 -20.95 -0.0000 -0.0000
1.970 2 5.432646 0.537031 -8.772309 -5.706787 0.694275 11.772156 -0.08 0.08 3.9 4.0 -34.6736 -34.6736 3.3258 0.2277 -0.002595 0.566792 10.17 490 800 0.15 -22.01 0.0000 0.0000
1.977 2 5.681982 0.817534 -8.707578 -5.615234 -1.480103 10.597229 -0.08 0.08 1.0 1.6 -32.9822 -33.8067 3.3189 0.2277 -0.002595 0.564827 10.71 510 820 0.15 -25.25 -0.0000 -0.0000
1.984 2 5.533340 0.594570 -9.100761 -5.729675 -1.373291 10.353088 -0.08 0.08 -8.2 -8.0 -32.1969 -32.1969 3.3125 0.2277 -0.002595 0.564682 11.31 490 800 0.15 -38.69 0.0000 0.0000
1.991 2 5.190503 0.637725 -8.604487 -4.043579 -4.653931 10.414124 -0.08 0.08 -9.8 -9.8 -33.8067 -32.9822 3.3057 0.2278 -0.002595 0.560321 11.28 490 790 0.15 -44.65 -0.0000 -0.0000
1.998 2 4.411328 -0.124668 -8.333574 -6.515503 -4.074097 9.887695 -0.08 0.08 -7.9 -7.9 -33.8067 -32.9822 3.2988 0.2278 -0.002595 0.561261 9.41 490 790 0.15 -56.31 0.0000 0.0000
2.005 2 5.116181 -0.853496 -8.925747 -7.156372 -3.845215 10.536194 -0.08 0.08 -10.4 -10.4 -31.4481 -31.4481 3.2924 0.2278 -0.002595 0.561143 11.87 490 790 0.15 -53.44 -0.0000 -0.0000
2.012 2 5.221670 -0.431543 -8.400702 -6.446838 -7.560730 11.970520 -0.00 0.00 -2.5 -2.0 -33.8067 -34.6736 3.2857 0.2278 0.000000 0.559688 9.71 510 820 0.15 -30.26 0.0000 0.0000
2.019 2 6.782417 -0.239746 -8.537358 -9.033203 -5.073547 11.444092 -0.00 0.00 8.5 8.5 -33.8067 -33.8067 3.2793 0.2278 0.000000 0.559242 10.03 490 780 0.15 -8.62 -0.0000 -0.0000
2.026 2 5.725137 -0.033564 -9.028837 -9.559631 -6.355286 11.741638 -0.08 0.08 2.2 2.7 -30.7334 -31.4481 3.2731 0.2278 -0.002595 0.556985 12.72 490 800 0.15 -18.89 0.0000 0.0000
2.033 2 6.051191 0.345234 -8.578115 -7.804871 -8.346558 11.497498 -0.08 0.08 -5.1 -5.0 -31.4481 -31.4481 3.2666 0.2279 -0.002595 0.554514 10.28 490 800 0.15 -30.18 -0.0000 -0.0000
2.040 2 5.061040 0.752803 -8.853823 -7.789612 -6.362915 11.589050 -0.08 0.08 -9.2 -9.2 -31.4481 -30.7334 3.2602 0.2279 -0.002595 0.555085 10.69 490 800 0.15 -44.93 0.0000 0.0000
2.047 2 4.274673 0.549019 -8.719565 -7.080078 -4.135132 11.627197 -0.08 0.08 -11.2 -11.2 -32.1969 -31.4481 3.2534 0.2279 -0.002595 0.556072 12.74 510 800 0.15 -55.51 -0.0000 -0.0000
2.054 2 5.144951 0.275708 -8.242471 -5.409241 -4.676819 13.206482 -0.08 0.08 -3.2 -3.2 -32.9822 -32.9822 3.2469 0.2279 -0.002595 0.554403 11.45 490 790 0.14 -29.72 0.0000 0.0000
2.061 2 5.880971 -0.191797 -8.798681 -7.408142 -1.174927 12.016296 -0.08 0.08 6.4 6.5 -32.9822 -32.9822 3.2405 0.2279 -0.002595 0.557194 10.27 490 790 0.14 -14.54 -0.0000 -0.0000
2.068 2 6.132705 -0.117476 -8.707578 -7.720947 -1.457214 13.122559 -0.08 0.08 5.2 4.9 -31.4481 -30.7334 3.2345 0.2279 -0.002595 0.554809 10.27 490 800 0.15 -14.23 0.0000 0.0000
2.075 2 5.833022 0.388389 -8.621269 -6.980896 -1.045227 13.206482 -0.08 0.08 1.9 2.4 -29.3972 -30.0504 3.2284 0.2280 -0.002595 0.553451 12.09 490 810 0.15 -17.82 -0.0000 -0.0000
2.082 2 5.116181 0.350029 -8.731552 -7.118225 1.152039 13.687134 -0.17 0.17 -8.6 -8.6 -27.5973 -28.1723 3.2226 0.2280 -0.005191 0.555022 10.06 510 820 0.15 -39.44 0.0000 0.0000
2.089 2 5.125772 1.390527 -8.652436 -6.477356 1.014709 13.198853 -0.17 0.17 -11.1 -11.1 -28.1723 -26.5151 3.2165 0.2280 -0.005191 0.554431 12.61 490 800 0.15 -46.56 -0.0000 -0.0000
2.096 2 4.202749 0.616147 -8.304805 -5.622864 1.739502 14.389038 -0.08 0.08 -10.5 -10.5 -27.5973 -27.0454 3.2103 0.2281 -0.002595 0.554455 11.98 490 780 0.14 -68.93 0.0000 0.0000
2.103 2 5.200093 0.541826 -8.630859 -7.362366 2.288818 13.183594 -0.08 0.08 -1.2 -1.1 -30.7334 -30.7334 3.2043 0.2281 -0.002595 0.557291 9.84 490 790 0.14 -24.09 -0.0000 -0.0000
2.110 2 5.782676 0.081514 -8.849028 -9.101868 1.312256 12.939453 -0.08 0.08 6.6 6.7 -29.3972 -29.3972 3.1986 0.2281 -0.002595 0.556033 10.20 490 800 0.14 -9.98 0.0000 0.0000
2.117 2 6.353271 -0.004795 -9.115147 -8.804321 0.274658 12.542725 -0.17 0.17 4.1 4.3 -28.1723 -28.1723 3.1928 0.2281 -0.005191 0.554337 11.15 510 820 0.14 -12.74 -0.0000 -0.0000
2.124 2 5.444633 0.592173 -8.563730 -9.521484 -0.862122 13.122559 -0.25 0.25 -4.9 -4.1 -26.0052 -27.0454 3.1874 0.2282 -0.007786 0.552347 11.17 490 790 0.15 -24.20 0.0000 0.0000
2.131 2 4.677446 0.062334 -8.662026 -9.300232 -1.792908 13.313293 -0.25 0.25 -9.4 -9.4 -25.5145 -23.7240 3.1813 0.2282 -0.007786 0.553228 10.88 490 790 0.15 -69.03 -0.0000 -0.0000
2.138 2 4.864448 -0.664097 -8.292817 -8.346558 1.266479 14.060974 -0.17 0.17 -10.0 -10.0 -26.5151 -24.5867 3.1759 0.2283 -0.005191 0.556054 11.52 490 800 0.14 -50.54 0.0000 0.0000
2.145 2 5.080220 -0.776777 -8.791489 -9.315491 -1.564026 14.793396 -0.17 0.17 -10.1 -10.0 -27.5973 -28.1723 3.1703 0.2283 -0.005191 0.556268 11.58 490 800 0.13 -37.99 -0.0000 -0.0000
2.152 2 6.254975 -0.987754 -8.503794 -7.987976 -1.129150 14.167786 -0.17 0.17 4.8 5.0 -29.3972 -29.3972 3.1646 0.2283 -0.005191 0.551492 11.55 510 820 0.13 -13.39 0.0000 0.0000
2.159 2 6.077563 -0.431543 -9.103159 -9.613037 0.915527 15.693665 -0.17 0.17 8.2 8.1 -28.7717 -28.1723 3.1590 0.2283 -0.005191 0.554384 9.90 490 800 0.13 -6.28 -0.0000 -0.0000
2.166 2 5.732329 -0.419556 -8.232881 -7.987976 -1.144409 14.450073 -0.08 0.08 8.6 7.8 -28.1723 -26.5151 3.1536 0.2284 -0.002595 0.554497 12.45 490 800 0.13 -4.62 0.0000 0.0000
2.173 2 5.945703 0.091104 -8.928144 -7.575989 -2.075195 13.069153 -0.17 0.17 1.3 1.5 -26.0052 -26.0052 3.1482 0.2284 -0.005191 0.552454 10.17 490 790 0.13 -15.56 -0.0000 -0.0000
2.180 2 5.183311 0.596968 -8.748335 -6.515503 0.366211 13.038635 -0.17 0.17 -9.2 -9.2 -24.1477 -22.9198 3.1429 0.2284 -0.005191 0.554763 10.73 490 800 0.13 -40.68 0.0000 0.0000
2.187 2 4.603125 -0.136655 -8.532563 -4.402161 0.984192 13.725281 -0.25 0.25 -9.4 -9.4 -23.3150 -23.3150 3.1375 0.2285 -0.007786 0.555636 10.92 510 820 0.13 -53.44 -0.0000 -0.0000
2.194 2 5.089809 0.040757 -8.587705 -4.852295 0.869751 13.542175 -0.17 0.17 -9.2 -9.2 -24.5867 -26.5151 3.1321 0.2285 -0.005191 0.556513 10.66 490 800 0.12 -38.32 0.0000 0.0000
2.201 2 5.943305 0.160630 -8.817861 -5.462646 2.014160 10.757446 -0.25 0.25 -8.2 -7.6 -25.0420 -25.5145 3.1266 0.2285 -0.007786 0.558477 10.14 490 790 0.12 -30.94 -0.0000 -0.0000
2.209 2 6.147089 -0.378799 -9.031235 -5.989075 2.525330 10.505676 -0.25 0.25 4.0 5.2 -26.5151 -28.1723 3.1214 0.2286 -0.007786 0.557504 11.88 490 1060 0.12 -12.21 0.0000 0.0000
2.215 2 5.660405 0.119873 -9.036030 -6.782532 0.640869 11.337280 -0.25 0.25 3.3 3.4 -27.0454 -26.5151 3.1162 0.2286 -0.007786 0.554486 10.14 490 790 0.12 -13.57 -0.0000 -0.0000
2.222 2 5.732329 0.148643 -8.707578 -7.560730 0.579834 12.023926 -0.25 0.25 4.8 4.8 -27.0454 -26.5151 3.1109 0.2287 -0.007786 0.554058 11.06 510 810 0.12 -10.79 0.0000 0.0000
2.229 2 5.152143 0.728828 -9.215839 -11.787415 0.823975 11.970520 -0.25 0.25 -2.4 -3.1 -26.0052 -24.1477 3.1057 0.2287 -0.007786 0.553919 11.33 490 800 0.12 -20.34 -0.0000 -0.0000
2.236 2 4.651074 1.112422 -8.781899 -11.413574 0.701904 12.268066 -0.17 0.17 -9.3 -9.3 -24.5867 -22.9198 3.1007 0.2287 -0.005191 0.554373 10.81 490 800 0.11 -37.88 0.0000 0.0000
2.243 2 4.435303 0.949395 -8.947324 -10.894775 -1.564026 12.359619 -0.08 0.08 -11.2 -11.2 -22.9198 -22.5378 3.0952 0.2288 -0.002595 0.553015 12.69 490 790 0.11 -57.04 -0.0000 -0.0000
2.250 2 5.168926 0.875073 -8.506191 -12.115479 0.534058 13.603210 -0.17 0.17 -10.0 -10.0 -22.9198 -22.9198 3.0902 0.2288 -0.005191 0.555456 11.53 490 790 0.11 -36.35 0.0000 0.0000
2.257 2 5.528545 -0.213374 -8.781899 -12.054443 0.045776 14.289856 -0.17 0.17 -5.2 -5.3 -24.5867 -24.1477 3.0854 0.2288 -0.005191 0.555590 9.84 510 820 0.10 -26.10 -0.0000 -0.0000
2.264 2 6.271758 0.417158 -8.959311 -13.610840 0.015259 13.504028 -0.17 0.17 6.3 7.0 -24.5867 -25.5145 3.0806 0.2288 -0.005191 0.553474 10.50 490 790 0.10 -6.71 0.0000 0.0000
2.271 2 5.638828 -0.424351 -8.822656 -13.000488 -1.403809 15.937805 -0.00 0.00 9.8 8.3 -25.0420 -22.5378 3.0761 0.2288 0.000000 0.554069 11.66 490 800 0.10 -0.25 -0.0000 -0.0000
2.278 2 6.173462 0.561006 -8.942529 -12.535095 -2.540588 14.472961 -0.08 0.08 5.5 6.5 -21.4646 -23.3150 3.0715 0.2288 -0.002595 0.553540 10.05 490 790 0.11 -3.68 0.0000 0.0000
2.285 2 5.118579 -0.201387 -8.558935 -10.551453 -3.051758 15.312195 -0.08 0.08 -6.5 -6.5 -19.3181 -19.0460 3.0675 0.2288 -0.002595 0.553910 12.13 490 820 0.11 -20.57 -0.0000 -0.0000
2.292 2 4.512022 0.448325 -8.731552 -9.941101 -2.204895 14.442444 -0.08 0.08 -9.2 -9.2 -19.0460 -19.5981 3.0631 0.2289 -0.002595 0.556332 10.66 510 840 0.10 -40.25 -0.0000 -0.0000
2.299 2 4.761357 0.611353 -8.717168 -9.269714 -3.608704 13.771057 -0.08 0.08 -9.2 -9.2 -21.1292 -21.1292 3.0586 0.2289 -0.002595 0.557286 10.68 490 780 0.09 -34.59 0.0000 0.0000
2.307 2 6.686518 0.297285 -8.714770 -8.125305 -1.014709 13.214111 -0.17 0.17 8.0 8.6 -22.1684 -22.9198 3.0544 0.2289 -0.005191 0.558241 10.08 490 1040 0.09 -1.12 0.0000 0.0000
2.313 2 6.262168 0.112681 -8.964107 -8.171082 -1.266479 14.427185 -0.08 0.08 8.8 8.8 -21.1292 -19.3181 3.0506 0.2289 -0.002595 0.557524 10.27 490 800 0.10 8.01 0.0000 0.0000
2.320 2 6.060781 0.242144 -8.870605 -6.690979 -2.288818 13.885498 -0.17 0.17 -7.9 -6.3 -16.2924 -19.0460 3.0468 0.2289 -0.005191 0.557080 12.94 490 830 0.10 -20.18 -0.0000 -0.0000
2.327 2 4.425713 -0.083911 -8.352754 -4.966736 -3.433228 14.396667 -0.17 0.17 -9.0 -9.0 -17.7930 -15.0252 3.0427 0.2289 -0.005191 0.558125 10.46 510 850 0.10 -52.24 -0.0000 -0.0000
2.334 2 4.917192 0.184604 -8.671616 -6.507874 -0.488281 13.389587 -0.08 0.08 -8.5 -8.5 -18.2739 -18.2739 3.0389 0.2289 -0.002595 0.560969 10.00 490 820 0.09 -33.60 -0.0000 -0.0000
2.341 2 6.199834 0.083911 -8.482217 -6.645203 -1.228333 13.359070 -0.17 0.17 8.6 8.6 -20.1831 -20.8041 3.0351 0.2289 -0.005191 0.560268 10.06 490 800 0.08 4.08 0.0000 0.0000
2.348 2 5.976870 -0.474697 -9.076787 -8.636475 -0.007629 14.358521 -0.00 0.00 7.4 5.5 -20.8041 -17.3368 3.0315 0.2289 0.000000 0.558188 10.35 490 810 0.09 0.32 0.0000 0.0000
2.355 2 5.993652 0.762393 -8.920952 -9.605408 -0.495911 14.442444 -0.17 0.17 -8.9 -6.8 -14.5405 -18.2739 3.0279 0.2290 -0.005191 0.556937 12.78 490 830 0.09 -20.32 -0.0000 -0.0000
2.362 2 4.348994 0.222964 -8.379126 -8.522034 -0.907898 15.663147 -0.08 0.08 -9.2 -9.2 -17.1173 -16.0984 3.0240 0.2290 -0.002595 0.557554 10.69 510 850 0.09 -41.42 -0.0000 -0.0000
2.369 2 4.792524 0.350029 -8.628462 -10.452271 1.800537 15.686035 -0.08 0.08 -8.5 -8.5 -17.7930 -17.5619 3.0204 0.2290 -0.002595 0.559935 10.05 490 820 0.08 -32.06 -0.0000 -0.0000
2.376 2 6.581030 -0.273311 -8.585307 -10.353088 2.861023 15.548706 -0.08 0.08 8.8 8.8 -17.7930 -20.4889 3.0168 0.2290 -0.002595 0.559989 10.25 490 800 0.08 9.58 0.0000 0.0000
2.383 2 6.099141 0.035962 -8.856220 -11.322021 2.662659 16.098022 -0.17 0.17 8.6 8.6 -15.5433 -16.2924 3.0138 0.2290 -0.005191 0.558722 10.08 490 820 0.08 9.49 0.0000 0.0000
2.390 2 5.713149 0.306875 -8.858618 -10.551453 2.822876 15.853882 -0.08 0.08 -8.2 -9.4 -14.0861 -11.6575 3.0108 0.2290 -0.002595 0.559451 12.50 480 810 0.09 -18.56 -0.0000 -0.0000
2.397 2 5.077822 0.795957 -8.309599 -9.643555 2.342224 14.556885 0.00 -0.00 -8.7 -8.7 -12.6380 -11.6575 3.0078 0.2290 0.000000 0.562057 10.20 510 840 0.08 -38.55 -0.0000 -0.0000
2.404 2 3.900669 0.918227 -8.369535 -11.177063 1.327515 14.152527 0.00 -0.00 -8.3 -8.3 -13.1288 -15.5433 3.0045 0.2290 0.000000 0.563025 9.84 490 820 0.07 -41.39 -0.0000 -0.0000
2.411 2 6.015229 0.206182 -8.443857 -8.819580 2.754211 11.886597 0.00 -0.00 8.4 8.4 -16.0984 -16.4911 3.0013 0.2290 0.000000 0.563354 9.86 490 800 0.07 6.96 0.0000 0.0000
2.418 2 5.849804 0.103091 -9.122338 -9.841919 2.304077 12.870789 -0.08 0.08 4.6 6.3 -13.3888 -15.9091 2.9987 0.2290 -0.002595 0.562291 9.89 490 820 0.07 2.90 0.0000 0.0000
2.425 2 5.442236 0.208579 -8.537358 -8.468628 1.747131 13.214111 -0.17 0.17 -9.2 -9.2 -11.2689 -10.4827 2.9957 0.2290 -0.005191 0.563362 10.68 490 820 0.08 -26.38 0.0000 0.0000
2.432 2 4.806909 0.810342 -7.985942 -7.659912 1.167297 11.901855 -0.08 0.08 -9.6 -9.6 -14.6986 -10.9054 2.9927 0.2290 -0.002595 0.563254 11.07 510 850 0.07 -36.67 0.0000 0.0000
2.439 2 3.963003 1.229897 -8.683603 -10.536194 0.228882 10.292053 0.08 -0.08 -8.3 -8.3 -16.0984 -11.4599 2.9894 0.2290 0.002596 0.564315 9.82 490 820 0.06 -41.54 -0.0000 -0.0000
2.446 2 6.501914 -0.222964 -8.417485 -6.477356 1.579285 9.826660 0.25 -0.25 8.4 8.4 -16.6947 -14.6986 2.9866 0.2290 0.007786 0.564163 9.94 490 820 0.06 9.33 0.0000 0.0000
2.453 2 5.595674 -0.918227 -8.808271 -7.415771 -0.152588 13.458252 0.25 -0.25 5.4 5.1 -11.9670 -12.0738 2.9842 0.2290 0.007786 0.562334 9.65 490 820 0.07 5.07 0.0000 0.0000
2.460 2 7.022163 -0.899048 -9.402842 -8.102417 -1.182556 13.916016 0.17 -0.17 3.8 4.2 -11.1758 -12.1826 2.9820 0.2290 0.005191 0.562987 11.68 490 820 0.07 3.63 0.0000 0.0000
2.467 2 5.725137 0.968574 -7.993134 -8.720398 -0.717163 12.306213 0.17 -0.17 4.0 3.9 -13.0026 -13.0026 2.9792 0.2290 0.005191 0.562974 9.82 510 840 0.07 1.60 0.0000 0.0000
2.474 2 4.205146 0.656904 -8.566128 -9.674072 -2.189636 13.694763 0.08 -0.08 -10.1 -10.1 -9.4564 -9.7286 2.9766 0.2290 0.002596 0.561120 11.58 490 810 0.07 -46.96 -0.0000 -0.0000
2.481 2 5.286401 0.807944 -8.645244 -9.353638 -2.975464 13.053894 0.08 -0.08 -11.0 -11.0 -11.5579 -11.0842 2.9738 0.2290 0.002596 0.564977 12.47 490 820 0.06 -36.60 -0.0000 -0.0000
2.488 2 5.547724 -0.198989 -8.508589 -6.866455 -2.494812 12.252808 0.08 -0.08 6.8 6.4 -16.2924 -15.7241 2.9709 0.2289 0.002596 0.566661 9.90 490 820 0.05 0.74 0.0000 0.0000
2.495 2 6.020024 -0.007192 -8.839438 -8.140564 -1.937866 12.794495 0.17 -0.17 8.4 8.4 -15.1940 -13.2575 2.9683 0.2289 0.005191 0.563604 9.90 490 820 0.05 11.25 0.0000 0.0000
2.502 2 5.921728 -0.055142 -8.633257 -5.859375 -3.334045 15.022278 0.17 -0.17 -0.9 -1.3 -10.7323 -10.9054 2.9659 0.2289 0.005191 0.562264 9.73 510 840 0.06 -2.41 -0.0000 -0.0000
2.510 2 5.188105 -0.074321 -8.345561 -6.446838 -1.815796 14.564514 0.17 -0.17 -11.3 -11.3 -8.5587 -9.0756 2.9635 0.2289 0.005191 0.563854 12.77 490 820 0.06 -23.00 -0.0000 -0.0000
2.516 2 4.375366 0.606558 -9.086377 -5.828857 -4.486084 12.008667 0.17 -0.17 -10.3 -10.3 -10.7323 -10.3227 2.9611 0.2289 0.005191 0.564486 11.80 490 820 0.05 -38.25 0.0000 0.0000
2.523 2 4.871641 0.409966 -8.391113 -4.631042 -1.174927 12.145996 0.17 -0.17 -7.8 -7.6 -11.6575 -14.6986 2.9583 0.2289 0.005191 0.564407 9.30 490 820 0.05 -21.37 -0.0000 -0.0000
2.530 2 5.825830 -0.450723 -8.844234 -4.585266 0.495911 13.397217 0.08 -0.08 7.3 8.0 -13.5227 -15.3667 2.9557 0.2289 0.002596 0.564805 9.90 490 810 0.04 3.52 0.0000 0.0000
2.537 2 6.441978 0.167822 -8.671616 -6.126404 0.503540 12.695312 0.08 -0.08 9.6 9.6 -13.7987 -14.0861 2.9532 0.2289 0.002596 0.562003 11.07 510 840 0.05 20.90 0.0000 0.0000
2.544 2 6.137500 0.270913 -9.081582 -6.423950 1.052856 12.771606 -0.08 0.08 5.0 7.2 -9.5906 -13.3888 2.9508 0.2289 -0.002595 0.560676 10.30 490 820 0.05 5.14 0.0000 0.0000
2.551 2 4.526406 0.369209 -8.590102 -6.179810 0.320435 14.205933 -0.17 0.17 -7.9 -7.9 -8.0492 -10.3227 2.9482 0.2289 -0.005191 0.558891 9.38 490 820 0.05 -27.75 -0.0000 -0.0000
2.558 2 4.691831 -0.709648 -8.712373 -7.087708 2.258301 14.404297 -0.33 0.33 -7.5 -7.5 -8.8965 -10.7323 2.9458 0.2289 -0.010382 0.560203 8.97 490 820 0.05 -48.17 -0.0000 -0.0000
2.565 2 5.557314 0.280503 -8.537358 -8.361816 3.845215 13.870239 -0.42 0.42 7.0 9.9 -11.3636 -15.1940 2.9436 0.2289 -0.012977 0.561499 11.44 490 820 0.04 5.39 0.0000 0.0000
2.572 2 6.293335 0.278105 -8.875401 -10.147095 4.470825 13.732910 -0.59 0.59 9.4 9.4 -11.6575 -13.7987 2.9416 0.2290 -0.018168 0.561121 10.95 510 840 0.04 22.56 0.0000 0.0000
2.579 2 6.266963 -0.704853 -9.184672 -9.376526 2.807617 15.106201 -0.67 0.67 8.2 8.7 -10.0168 -12.0738 2.9394 0.2290 -0.020764 0.559804 10.24 490 820 0.04 11.11 0.0000 0.0000
2.586 2 4.555176 -0.462710 -8.654834 -10.620117 1.045227 15.686035 -0.67 0.67 -7.8 -7.8 -7.8166 -6.6614 2.9374 0.2290 -0.020764 0.559033 9.32 490 860 0.05 -27.36 0.0000 0.0000
2.593 2 4.869243 -0.537031 -8.681206 -10.055542 2.647400 14.259338 -0.59 0.59 -8.0 -8.0 -9.5230 -9.7991 2.9351 0.2291 -0.018168 0.561092 9.52 490 810 0.04 -32.89 -0.0000 -0.0000
2.600 2 5.770689 0.045552 -8.513384 -10.848999 3.013611 13.023376 -0.50 0.50 4.6 6.4 -11.5579 -10.0168 2.9333 0.2291 -0.015573 0.562898 11.80 490 820 0.03 0.23 0.0000 0.0000
2.608 2 6.123115 -0.230156 -8.868208 -9.819031 1.289368 11.787415 -0.42 0.42 8.1 8.8 -9.8706 -6.8296 2.9319 0.2291 -0.012977 0.561734 11.15 510 1100 0.04 10.31 0.0000 0.0000
2.614 2 5.463813 -0.618545 -8.311996 -10.505676 -1.388550 14.915466 -0.25 0.25 -1.2 1.5 -8.8965 -5.3030 2.9303 0.2291 -0.000000 0.557588 10.81 490 860 0.04 -3.58 0.0000 0.0000
2.621 2 4.823691 -2.256011 -9.012055 -12.115479 4.035950 14.862061 -0.00 0.00 -8.3 -8.3 -7.8166 -3.6548 2.9285 0.2292 0.000000 0.560964 9.84 490 860 0.04 -32.53 -0.0000 -0.0000
2.628 2 5.264824 -1.205923 -8.249662 -7.598877 -1.007080 14.213562 0.17 -0.17 -10.3 -10.3 -9.1991 -5.4091 2.9269 0.2291 0.005191 0.562025 11.82 490 840 0.03 -26.09 0.0000 0.0000
2.635 2 5.343940 0.565801 -9.187070 -9.597778 -0.007629 13.687134 0.33 -0.33 5.3 4.4 -9.7286 -7.5546 2.9253 0.2291 0.010382 0.562149 12.20 490 830 0.03 1.07 0.0000 0.0000
2.642 2 5.964883 0.671289 -8.530166 -8.399963 1.037598 12.153625 0.33 -0.33 9.8 9.8 -8.2961 -8.3473 2.9237 0.2291 0.010382 0.563398 11.33 510 840 0.03 13.07 0.0000 0.0000
2.649 2 6.144692 -1.802891 -8.911362 -6.858826 -0.137329 13.229370 0.33 -0.33 1.3 1.0 -6.9347 -4.1996 2.9225 0.2291 0.010382 0.559781 9.95 490 860 0.04 -2.90 -0.0000 -0.0000
2.656 2 5.403877 0.333247 -8.223290 -8.026123 -2.441406 13.595581 0.50 -0.50 -9.0 -9.0 -4.5685 -3.9083 2.9213 0.2291 0.015573 0.560640 10.50 490 900 0.04 -40.21 0.0000 0.0000
2.663 2 5.725137 0.551416 -8.920952 -7.781982 0.267029 12.680054 0.42 -0.42 -6.3 -6.0 -5.3030 -6.4089 2.9203 0.2291 0.012977 0.565294 12.36 490 900 0.03 -12.09 0.0000 0.0000
2.670 2 5.914536 0.709648 -9.038427 -7.377625 -4.318237 12.268066 0.42 -0.42 1.2 1.3 -6.4702 -7.2703 2.9191 0.2291 0.012977 0.561194 11.77 490 850 0.03 -3.07 0.0000 0.0000
2.677 2 6.082358 0.103091 -8.765117 -7.751465 0.007629 13.481140 0.42 -0.42 -1.3 -1.7 -4.2929 -4.4192 2.9178 0.2290 0.012977 0.563416 11.11 510 910 0.03 -4.34 0.0000 0.0000
2.684 2 5.231260 0.117476 -8.947324 -7.812500 -3.257751 13.526917 0.34 -0.34 -6.1 -5.9 -6.0640 -7.1549 2.9164 0.2290 0.010382 0.561555 11.63 490 860 0.03 -13.94 0.0000 0.0000
2.691 2 5.672392 1.191538 -8.582910 -8.590698 -1.342773 12.962341 0.25 -0.25 8.9 8.9 -7.4711 -7.9080 2.9150 0.2290 0.007786 0.564325 11.64 490 820 0.02 8.94 0.0000 0.0000
2.698 2 5.741919 -0.052744 -8.803476 -9.666443 -0.854492 14.045715 0.33 -0.33 5.4 4.4 -6.2896 -5.3030 2.9140 0.2290 0.010382 0.563822 11.58 490 900 0.03 3.34 0.0000 0.0000
2.705 2 6.132705 0.853496 -9.057607 -8.735657 -2.784729 13.282776 0.25 -0.25 4.8 4.9 -4.1102 -5.1417 2.9130 0.2290 0.007786 0.560981 12.32 490 890 0.03 3.08 0.0000 0.0000
2.712 2 4.087671 -0.002397 -8.331177 -8.880615 -1.724243 12.939453 0.17 -0.17 -0.9 -0.9 -5.3875 -5.4527 2.9116 0.2290 0.005191 0.562433 11.87 510 910 0.02 -4.70 0.0000 0.0000
2.719 2 5.358325 0.824727 -9.002465 -10.429382 -0.862122 11.878967 0.17 -0.17 -3.3 -3.7 -5.7543 -5.3030 2.9104 0.2290 0.005191 0.561911 11.83 490 900 0.02 -9.14 0.0000 0.0000
2.726 2 5.307978 -0.155835 -8.422280 -8.819580 -1.167297 10.787964 0.17 -0.17 -4.4 -4.1 -5.2617 -6.0369 2.9092 0.2290 0.005191 0.561750 12.04 490 900 0.02 -10.37 0.0000 0.0000
2.733 2 5.916934 0.371606 -8.748335 -10.658264 0.518799 10.726929 0.17 -0.17 -5.3 -5.1 -4.0978 -4.5685 2.9084 0.2290 0.005191 0.561948 12.09 490 890 0.02 -10.95 -0.0000 -0.0000
2.740 2 5.475801 0.131860 -8.554140 -9.422302 -1.052856 10.612488 0.17 -0.17 -5.4 -5.5 -4.8123 -4.6791 2.9072 0.2290 0.005191 0.559583 11.90 490 890 0.02 -12.15 0.0000 0.0000
2.747 2 5.590879 0.503467 -8.693193 -11.909485 1.678467 10.238647 0.17 -0.17 -4.5 -4.6 -5.0084 -4.9534 2.9064 0.2290 0.005191 0.560889 11.68 510 910 0.02 -10.20 0.0000 0.0000
2.754 2 5.506968 -0.059937 -8.623667 -11.932373 1.136780 11.276245 0.17 -0.17 -2.1 -2.1 -4.5996 -4.8643 2.9052 0.2290 0.005191 0.559204 11.53 490 900 0.02 -6.01 0.0000 0.0000
2.761 2 5.480596 -0.285298 -8.590102 -12.756348 1.899719 11.756897 0.08 -0.08 -4.1 -4.1 -4.7448 -4.8123 2.9042 0.2289 0.002596 0.559874 11.79 490 900 0.02 -9.39 0.0000 0.0000
2.768 2 5.463813 -0.234951 -8.628462 -13.214111 3.410339 13.107300 0.08 -0.08 -3.7 -3.7 -4.1228 -4.0366 2.9034 0.2289 0.002596 0.560540 11.87 490 900 0.02 -8.32 0.0000 0.0000
2.775 2 5.581289 -0.019180 -8.621269 -13.023376 3.921509 14.389038 0.08 -0.08 -3.4 -3.2 -3.9196 -4.3763 2.9026 0.2289 0.002596 0.560699 11.90 490 890 0.02 -7.41 -0.0000 -0.0000
2.782 2 5.607661 0.038359 -8.599692 -13.038635 4.615784 15.747070 0.08 -0.08 1.2 1.3 -3.7356 -3.9196 2.9018 0.2289 0.002596 0.561425 11.94 510 910 0.02 -2.09 0.0000 0.0000
2.789 2 5.334351 0.019180 -8.498999 -12.519836 4.920959 16.029358 0.08 -0.08 1.1 1.1 -3.2743 -3.2429 2.9009 0.2289 0.002596 0.562894 11.80 490 890 0.02 -1.86 -0.0000 -0.0000
2.796 2 5.387094 0.163027 -8.556538 -11.283875 4.257202 15.884399 0.17 -0.17 -1.9 -1.9 -3.1595 -3.2429 2.9003 0.2289 0.005191 0.563511 11.91 490 900 0.02 -4.25 0.0000 0.0000
2.803 2 5.653213 0.266118 -8.590102 -10.231018 3.997803 15.357971 0.08 -0.08 -2.0 -1.9 -2.7154 -2.9720 2.8997 0.2289 0.002596 0.564515 11.88 490 880 0.02 -4.06 -0.0000 -0.0000
2.810 2 5.669995 0.189399 -8.635654 -8.872986 3.189087 14.755249 0.08 -0.08 -3.9 -3.9 -2.4858 -2.6207 2.8993 0.2289 0.002596 0.565192 11.83 490 890 0.02 -7.17 -0.0000 -0.0000
2.817 2 5.763496 0.105488 -8.693193 -7.568359 1.617432 13.854980 0.08 -0.08 1.4 1.3 -2.7263 -2.6207 2.8985 0.2289 0.002596 0.565138 11.82 510 920 0.01 -0.91 0.0000 0.0000
2.824 2 5.435044 0.210977 -8.537358 -7.339478 0.869751 13.252258 0.08 -0.08 3.6 3.9 -2.4498 -3.1015 2.8981 0.2289 0.002596 0.566362 11.63 490 890 0.01 3.45 0.0000 0.0000
2.831 2 5.267221 0.338042 -8.556538 -6.454468 -0.656128 12.367249 0.08 -0.08 -3.7 -3.5 -1.8913 -2.2920 2.8977 0.2289 0.002596 0.567040 11.94 490 890 0.01 -6.37 0.0000 0.0000
2.838 2 5.605264 0.251733 -8.738745 -5.287170 -1.701355 12.458801 0.08 -0.08 -4.5 -4.5 -2.0396 -2.0551 2.8973 0.2289 0.002596 0.566227 11.91 490 890 0.01 -7.97 -0.0000 -0.0000
2.845 2 5.617251 0.285298 -8.683603 -4.768372 -1.731873 12.413025 0.08 -0.08 2.0 1.8 -2.4453 -1.6988 2.8969 0.2289 0.002596 0.566274 11.79 490 890 0.01 0.60 0.0000 0.0000
2.852 2 5.233657 0.021577 -8.695591 -5.233765 -2.510071 12.153625 0.08 -0.08 2.3 2.3 -2.1741 -2.1636 2.8965 0.2289 0.002596 0.564703 11.64 510 910 0.01 1.16 0.0000 0.0000
2.859 2 5.552519 -0.079116 -8.664424 -5.867004 -3.364563 12.062073 0.00 -0.00 -2.2 -1.8 -2.1533 -2.6938 2.8959 0.2289 0.000000 0.564905 11.98 490 880 0.01 -3.47 -0.0000 -0.0000
2.866 2 5.571699 0.198989 -8.657231 -6.149292 -3.707886 12.374878 0.08 -0.08 -2.1 -2.0 -2.3892 -2.7767 2.8953 0.2289 0.002596 0.563669 11.83 490 890 0.01 -3.92 0.0000 0.0000
2.873 2 5.607661 0.110283 -8.688398 -7.400513 -3.349304 13.099670 0.00 -0.00 1.4 1.5 -2.5906 -2.5807 2.8947 0.2289 0.000000 0.563234 11.80 490 900 0.01 -0.43 0.0000 0.0000
2.880 2 5.128169 -0.330850 -8.724360 -8.140564 -3.181458 13.587952 0.00 -0.00 5.3 5.3 -2.9019 -2.4812 2.8943 0.2289 0.000000 0.562536 11.61 490 880 0.01 5.94 0.0000 0.0000
2.887 2 5.233657 0.033564 -8.755527 -9.513855 -2.716064 15.151978 0.08 -0.08 -4.1 -4.4 -2.3235 -1.5332 2.8937 0.2289 0.002596 0.562746 11.75 510 920 0.01 -7.30 -0.0000 -0.0000
2.894 2 5.868984 0.187002 -8.724360 -9.552002 -2.441406 16.380310 0.08 -0.08 -4.0 -3.8 -1.8729 -2.0901 2.8933 0.2289 0.002596 0.562448 11.63 490 890 0.01 -6.64 0.0000 0.0000
2.901 2 5.650815 -0.139053 -8.702783 -9.506226 -1.243591 17.166138 0.00 -0.00 1.6 1.8 -1.7539 -2.2278 2.8931 0.2289 0.000000 0.562673 11.87 490 880 0.01 0.47 0.0000 0.0000
2.909 2 5.286401 -0.131860 -8.743540 -9.773254 -1.197815 17.326355 0.00 -0.00 4.6 4.9 -1.7096 -2.1988 2.8927 0.2289 0.000000 0.562568 11.83 480 870 0.01 5.74 0.0000 0.0000
2.915 2 5.192900 0.501069 -8.731552 -9.498596 -1.312256 17.105103 0.00 -0.00 -3.6 -3.5 -1.5669 -1.8398 2.8923 0.2289 0.000000 0.563733 11.71 490 880 0.01 -5.61 -0.0000 -0.0000
2.922 2 5.749111 0.321260 -8.633257 -8.407593 -0.968933 16.906738 0.00 -0.00 -3.6 -3.4 -1.6736 -2.0304 2.8919 0.2289 0.000000 0.563649 11.68 510 900 0.01 -5.63 0.0000 0.0000
2.929 2 5.648418 -0.031167 -8.604487 -7.644653 -0.137329 16.319275 -0.00 0.00 3.6 3.8 -1.3193 -1.5437 2.8915 0.2289 0.000000 0.563738 11.93 490 890 0.01 4.25 0.0000 0.0000
2.936 2 5.257632 0.038359 -8.762719 -6.980896 -0.442505 16.052246 0.00 -0.00 4.1 4.4 -1.3193 -1.5437 2.8915 0.2289 0.000000 0.563730 11.53 490 870 0.01 5.25 0.0000 0.0000
2.943 2 5.665200 -0.103091 -8.724360 -7.102966 0.419617 15.304565 0.00 -0.00 -5.3 -5.3 -1.6022 -1.3729 2.8911 0.2289 0.000000 0.565278 11.28 490 870 0.01 -8.40 -0.0000 -0.0000
2.950 2 6.024819 0.541826 -8.681206 -6.622314 -0.114441 15.296936 0.08 -0.08 -4.5 -4.5 -1.2395 -1.1093 2.8909 0.2289 0.002596 0.565617 12.02 490 890 0.01 -6.92 0.0000 0.0000
2.957 2 5.729931 0.198989 -8.822656 -6.187439 0.083923 15.098572 0.08 -0.08 6.5 6.3 -1.2395 -0.7039 2.8909 0.2289 0.002596 0.565689 12.10 510 910 0.00 9.25 0.0000 0.0000
2.964 2 5.257632 0.098296 -8.678808 -6.225586 -0.320435 15.098572 0.08 -0.08 3.2 3.1 -0.8201 -0.5163 2.8909 0.2289 0.002596 0.566795 11.47 490 890 0.00 4.06 0.0000 0.0000
2.971 2 5.463813 0.266118 -8.865810 -7.102966 -0.846863 15.075684 0.08 -0.08 -6.1 -6.1 -0.5757 -0.4074 2.8909 0.2289 0.002596 0.567322 11.91 490 890 0.01 -9.24 -0.0000 -0.0000
2.978 2 6.024819 0.455518 -8.772309 -7.431030 -1.831055 14.976501 0.08 -0.08 -4.3 -4.3 -0.4435 -0.3365 2.8909 0.2289 0.002596 0.567877 12.17 490 890 0.00 -5.99 0.0000 0.0000
2.985 2 5.761098 0.222964 -8.767514 -7.446289 -2.342224 14.541626 0.08 -0.08 8.5 8.5 -0.3607 -0.2866 2.8909 0.2289 0.002596 0.568141 11.12 490 890 0.00 13.52 0.0000 0.0000
2.992 2 5.202490 0.000000 -8.709975 -8.018494 -2.418518 14.465332 0.08 -0.08 1.6 1.5 -0.3038 -0.2495 2.8909 0.2289 0.002596 0.568782 11.30 510 910 0.00 1.67 0.0000 0.0000
2.999 2 5.847407 0.290093 -8.889785 -8.178711 -3.005981 14.030457 0.08 -0.08 -7.2 -7.2 -0.2626 -0.2210 2.8909 0.2289 0.002596 0.569331 12.04 490 890 0.00 -10.78 -0.0000 -0.0000
3.007 2 5.811445 0.342837 -8.793886 -7.850647 -3.837585 13.504028 0.08 -0.08 -2.1 -2.1 -0.2312 -0.1983 2.8909 0.2289 0.002596 0.568723 11.50 490 1110 0.00 -2.18 0.0000 0.0000
3.013 2 5.641225 0.266118 -8.750732 -7.781982 -4.409790 12.725830 0.08 -0.08 6.2 6.2 -0.2065 -0.1798 2.8909 0.2289 0.002596 0.568395 11.50 490 890 0.00 9.59 0.0000 0.0000
3.020 2 5.375107 0.074321 -8.640449 -7.797241 -4.943848 12.054443 0.08 -0.08 1.9 1.9 -0.1865 -0.1645 2.8909 0.2289 0.002596 0.568599 12.04 490 890 0.00 2.24 0.0000 0.0000
3.027 2 5.600469 0.203784 -8.736347 -7.949829 -4.714966 11.405945 0.08 -0.08 -8.5 -8.5 -0.1701 -0.1516 2.8909 0.2289 0.002596 0.568803 12.06 510 910 0.00 -13.02 -0.0000 -0.0000
3.034 2 5.624443 0.031167 -8.705180 -7.713318 -4.081726 11.161804 0.08 -0.08 -4.9 -4.9 -0.1563 -0.1406 2.8909 0.2289 0.002596 0.567587 11.44 490 890 0.00 -7.19 0.0000 0.0000
3.041 2 5.310376 -0.055142 -8.647641 -7.728577 -3.646851 11.100769 0.08 -0.08 2.8 2.8 -0.1446 -0.1310 2.8909 0.2289 0.002596 0.567501 11.96 490 890 -0.00 3.54 0.0000 0.0000
3.048 2 5.077822 -0.007192 -8.678808 -8.506775 -3.044128 11.245728 0.08 -0.08 8.0 8.0 -0.1346 -0.1227 2.8909 0.2289 0.002596 0.568107 11.55 490 890 -0.00 12.79 0.0000 0.0000
3.055 2 5.665200 0.239746 -8.841836 -9.162903 -1.785278 11.856079 0.08 -0.08 4.2 4.2 -0.1258 -0.1154 2.8909 0.2289 0.002596 0.568082 11.98 490 890 0.00 6.39 0.0000 0.0000
3.062 2 5.708354 0.246938 -8.697988 -9.376526 -0.442505 11.924744 0.00 -0.00 -3.0 -3.0 -0.1181 -0.1144 2.8907 0.2289 0.000000 0.567768 11.64 510 900 0.00 -3.36 -0.0000 -0.0000
3.069 2 6.127910 0.134258 -8.774707 -9.628296 1.228333 12.275696 0.00 -0.00 -7.1 -7.1 -0.1113 -0.1144 2.8907 0.2289 0.000000 0.567825 11.72 490 870 0.00 -10.57 0.0000 0.0000
3.076 2 5.468608 -0.059937 -8.640449 -9.552002 2.067566 12.550354 0.00 -0.00 -5.0 -5.0 -0.1052 -0.1144 2.8907 0.2289 0.000000 0.567309 11.66 490 870 0.00 -7.21 0.0000 0.0000
3.083 2 5.451826 -0.059937 -8.621269 -9.559631 2.861023 12.748718 0.00 -0.00 2.3 2.3 -0.0998 -0.1144 2.8907 0.2289 0.000000 0.567976 11.69 490 870 -0.00 2.88 0.0000 0.0000
3.090 2 4.931577 -0.071924 -8.659629 -9.925842 3.578186 12.649536 0.00 -0.00 5.3 5.3 -0.0949 -0.1144 2.8907 0.2289 0.000000 0.568233 11.74 490 870 -0.00 8.25 0.0000 0.0000
3.097 2 5.576494 0.160630 -8.623667 -10.177612 4.440308 12.855530 0.00 -0.00 6.3 6.3 -0.0904 -0.1144 2.8907 0.2289 0.000000 0.567826 11.68 510 900 -0.00 9.92 0.0000 0.0000
3.104 2 5.631636 0.268516 -8.772309 -10.498047 4.638672 12.336731 0.00 -0.00 -2.5 -2.5 -0.0864 -0.1144 2.8907 0.2289 0.000000 0.568126 11.68 490 870 0.00 -2.27 -0.0000 -0.0000
3.111 2 5.936113 0.302080 -8.743540 -10.383606 4.806519 12.680054 0.08 -0.08 -6.7 -6.9 -0.0827 0.2618 2.8909 0.2289 0.002596 0.566233 11.69 490 890 0.00 -10.28 0.0000 0.0000
3.118 2 5.243247 -0.100693 -8.772309 -9.780884 3.601074 12.565613 0.08 -0.08 -2.6 -2.7 -0.0793 0.2618 2.8909 0.2289 0.002596 0.566506 11.93 490 890 -0.00 -3.02 0.0000 0.0000
3.125 2 5.250439 0.086309 -8.774707 -10.101318 2.723694 11.970520 0.08 -0.08 5.4 5.2 -0.0762 0.2618 2.8909 0.2289 0.002596 0.566179 11.44 490 890 -0.00 8.08 0.0000 0.0000
3.132 2 5.113784 0.081514 -8.709975 -10.261536 1.846313 12.001038 0.00 -0.00 3.2 3.6 -0.0733 -0.6243 2.8907 0.2289 0.000000 0.566913 11.80 510 900 -0.00 4.87 0.0000 0.0000
3.139 2 5.641225 0.314067 -8.741142 -10.147095 0.648499 11.512756 0.08 -0.08 10.2 9.3 -0.0706 1.9886 2.8909 0.2289 0.002596 0.566858 11.74 490 890 -0.00 16.96 0.0000 0.0000
3.146 2 5.432646 0.263721 -8.832246 -9.719849 -1.014709 10.643005 0.08 -0.08 10.3 10.3 -0.0681 4.2524 2.8909 0.2289 0.002596 0.566088 11.80 490 890 0.00 23.05 0.0000 0.0000
3.153 2 5.468608 0.637725 -8.942529 -9.880066 -2.136230 10.276794 0.00 -0.00 3.2 4.4 -0.0658 -1.7516 2.8907 0.2289 0.000000 0.566497 11.87 490 870 -0.00 5.88 0.0000 0.0000
3.160 2 5.789868 0.069526 -8.805874 -9.475708 -3.471375 10.154724 -0.08 0.08 3.4 4.1 0.0637 -1.5615 2.8909 0.2289 -0.002595 0.565338 11.90 490 890 -0.00 5.47 0.0000 0.0000
3.167 2 5.809048 0.239746 -8.779502 -9.277344 -4.119873 9.422302 0.08 -0.08 1.8 -1.7 -2.4587 1.1176 2.8909 0.2289 0.002596 0.565766 11.25 510 910 -0.00 0.40 0.0000 0.0000
3.174 2 5.845010 0.043154 -8.873003 -8.323669 -5.165100 9.109497 -0.00 0.00 4.0 2.8 -3.8858 -1.5835 2.8907 0.2289 0.000000 0.564399 10.41 490 890 -0.00 3.12 0.0000 0.0000
3.181 2 6.089550 -0.023975 -8.674013 -8.758545 -5.142212 9.330750 -0.08 0.08 -5.4 -3.6 2.5660 -1.4992 2.8909 0.2289 -0.002595 0.563985 11.96 490 890 0.00 -4.04 -0.0000 -0.0000
3.188 2 5.782676 -0.045552 -8.585307 -7.751465 -6.126404 9.613037 0.00 -0.00 -5.9 -5.9 1.1021 1.0914 2.8911 0.2289 0.000000 0.562826 12.23 490 870 0.00 -7.21 0.0000 0.0000
3.195 2 5.214478 -0.165425 -8.865810 -7.286072 -6.416321 9.368896 0.08 -0.08 -3.1 -3.6 -0.8630 1.0914 2.8909 0.2289 0.002596 0.561429 11.82 490 890 0.00 -3.68 0.0000 0.0000
3.202 2 5.840215 -0.086309 -8.851425 -8.071899 -4.714966 9.132385 0.08 -0.08 4.0 4.0 -1.8423 -0.8241 2.8905 0.2289 0.002596 0.560479 11.75 510 910 -0.00 5.74 0.0000 0.0000
3.210 2 5.099399 0.273311 -8.640449 -7.858276 -3.936768 9.681702 0.08 -0.08 4.5 4.4 -1.2990 -0.8241 2.8905 0.2289 0.002596 0.557657 11.74 490 900 0.00 6.05 0.0000 0.0000
