%  1    time 0.000 sec
%  2    mission (2) state 2
%  3  4  5 Acc x,y,z: -0.970972 -0.455518 -10.179619
%  6  7  8 Gyro x,y,z: -0.106812 1.205444 -0.267029
%  9 10 Motor velocity ref left, right: 0.00 -0.00
% 11 12 Motor voltage [V] left, right: -9.0 -9.0
% 13 14 Wheel velocity [r/s] left, right: -0.0061 0.0068
% 15 16 17 18 Pose x,y,h,tilt [m,m,rad,rad]: 0.0000 0.0000 0.000000 -0.106976
% 19    Battery voltage [V]: 11.96
% 20 21 Get data time [us]: 490 +ctrl 950
% 22 23 24 25 Extra pt.: balE[0], balU[0], balUI[0], balUI[1]: 0.19 -70.0000 0.0000 0.0000
0.009 2 -1.042895 -0.393184 -10.589584 -1.029968 5.310059 -0.427246 -0.08 0.08 -7.9 -7.9 -5.3449 -7.5126 -0.0010 0.0000 -0.002595 -0.105092 10.90 490 830 0.19 -39.44 -0.0000 -0.0000
0.018 2 2.402256 -0.930215 -11.148193 -7.469177 58.067322 -6.965637 -0.08 0.08 4.3 5.4 -11.0842 -12.7573 -0.0042 0.0000 -0.002595 -0.061983 11.47 490 800 0.14 4.59 0.0000 0.0000
0.027 2 -0.776777 0.244541 -10.577598 -12.123108 71.128845 -10.978699 -0.17 0.17 -8.4 -8.4 -1.8474 -2.4321 -0.0048 0.0000 -0.005191 -0.023600 11.42 510 890 0.10 -17.32 0.0000 0.0000
0.036 2 -4.248301 1.932353 -9.987822 -4.516602 33.554077 -14.671326 -0.08 0.08 -7.7 -7.7 -14.2344 -14.0861 -0.0074 0.0000 -0.002595 -0.044297 10.74 490 800 0.12 -62.12 -0.0000 -0.0000
0.045 2 4.425713 -0.143848 -10.584789 -12.107849 96.237183 -19.187927 0.00 -0.00 9.2 9.2 -15.7241 -16.4911 -0.0121 0.0000 0.000000 -0.003135 12.21 490 760 0.08 34.68 0.0000 0.0000
0.054 2 -3.430767 -1.529580 -9.304545 -17.822266 93.299866 -16.830444 0.00 -0.00 -9.2 -9.2 4.8468 5.5195 -0.0121 0.0000 0.000000 0.029095 12.21 490 840 0.05 -40.12 0.0000 0.0000
0.063 2 -2.013867 0.558608 -8.537358 -0.427246 30.715942 -20.996094 0.00 -0.00 -8.0 -8.0 -11.8620 -14.3858 -0.0137 0.0000 0.000000 -0.019010 11.01 490 770 0.10 -52.40 -0.0000 -0.0000
0.072 2 3.095122 -1.776518 -11.025923 -10.208130 64.918518 -18.653870 0.00 -0.00 8.3 8.3 -19.3181 -20.4889 -0.0185 0.0000 0.000000 -0.018761 11.26 510 780 0.10 9.17 0.0000 0.0000
0.081 2 -1.469643 0.807944 -11.742764 -20.965576 105.888367 -25.756836 0.00 -0.00 -4.4 -4.3 -2.4676 -2.4676 -0.0201 0.0000 0.000000 0.038309 10.00 490 840 0.04 -7.93 0.0000 0.0000
0.090 2 -3.850322 0.263721 -9.189467 -4.707336 43.449402 -24.383545 0.00 -0.00 -8.4 -8.4 -6.3786 -7.7717 -0.0205 0.0000 0.000000 0.008994 11.36 490 840 0.07 -60.12 -0.0000 -0.0000
0.099 2 3.823950 -0.807944 -10.989961 -5.661011 39.619446 -28.884888 0.08 -0.08 8.1 8.1 -20.8041 -19.8863 -0.0251 -0.0000 0.002595 -0.022003 11.06 490 790 0.10 5.12 0.0000 0.0000
0.108 2 4.173979 -1.651851 -10.882075 -15.792847 111.938477 -38.696289 0.00 -0.00 7.2 7.2 -3.4852 -7.5546 -0.0282 -0.0000 0.000000 0.044643 10.17 490 800 0.04 41.48 0.0000 0.0000
0.117 2 -6.861533 1.927559 -9.872744 -4.020691 62.545776 -27.023315 0.00 -0.00 -9.6 -9.6 3.5869 3.5965 -0.0270 -0.0000 0.000000 0.051870 12.58 510 870 0.03 -27.31 0.0000 0.0000
0.126 2 -0.122271 -0.117476 -9.467573 2.716064 11.260986 -29.365540 0.08 -0.08 -7.7 -7.7 -16.0984 -14.5405 -0.0292 -0.0000 0.002595 -0.012411 10.66 490 790 0.09 -33.54 -0.0000 -0.0000
0.135 2 6.293335 1.594311 -10.757407 -10.528564 69.282532 -36.308289 0.08 -0.08 8.3 8.3 -12.5210 -13.1288 -0.0340 -0.0000 0.002595 0.017010 11.33 490 810 0.06 44.72 0.0000 0.0000
0.144 2 -2.145727 -0.630532 -11.203335 -14.846802 85.357666 -31.280518 0.00 -0.00 -8.2 -8.4 9.3260 9.8706 -0.0334 -0.0000 0.000000 0.060984 11.50 490 770 0.02 -7.30 0.0000 0.0000
0.153 2 -5.216875 -1.438477 -7.381782 3.425598 10.063171 -31.135559 0.00 -0.00 -7.6 -7.6 2.7597 3.0525 -0.0326 -0.0000 0.000000 0.011876 10.55 490 850 0.07 -70.00 -0.0000 -0.0000
0.162 2 -0.958984 -2.028252 -10.467314 2.807617 2.899170 -29.174805 0.08 -0.08 -8.5 -8.5 -16.9034 -16.0984 -0.0360 -0.0000 0.002595 -0.016151 11.52 510 820 0.10 -29.35 0.0000 0.0000
0.171 2 2.486167 0.903843 -10.656713 -8.613586 63.888550 -38.276672 0.08 -0.08 8.2 8.2 -8.8965 -8.4517 -0.0396 -0.0000 0.002595 0.031926 11.23 490 790 0.05 22.72 0.0000 0.0000
0.180 2 0.194194 -0.541826 -9.999809 -12.580872 59.013367 -39.901733 0.08 -0.08 -7.4 -7.9 8.9554 10.2445 -0.0384 -0.0000 0.002595 0.066076 10.93 490 800 0.01 -6.54 -0.0000 -0.0000
0.189 2 -1.644658 -1.117217 -8.350356 9.552002 -14.816284 -34.957886 0.08 -0.08 -7.6 -7.6 -6.7953 -9.1370 -0.0384 -0.0000 0.002595 0.016632 10.62 490 800 0.06 -43.17 -0.0000 -0.0000
0.198 2 3.476318 -3.234175 -10.323466 0.404358 10.734558 -19.409180 0.00 -0.00 5.5 5.8 -16.9034 -17.3368 -0.0422 -0.0000 0.000000 0.014362 12.07 490 770 0.07 1.76 0.0000 0.0000
0.207 2 1.778916 0.258926 -12.123960 -6.370544 64.041138 -31.677246 0.00 -0.00 7.8 7.8 3.3472 4.4337 -0.0434 -0.0000 0.000000 0.068878 10.84 510 860 0.01 21.54 0.0000 0.0000
0.216 2 -2.438218 -0.299683 -8.856220 0.350952 11.177063 -30.517578 -0.00 0.00 -8.2 -8.2 6.5327 6.4089 -0.0410 -0.0000 0.000000 0.059248 11.23 490 870 0.02 -53.25 0.0000 0.0000
0.225 2 -0.297285 1.052485 -9.920693 4.440308 -31.837463 -27.427673 -0.08 0.08 -7.8 -7.8 -12.6380 -12.7573 -0.0428 -0.0000 -0.002595 -0.003942 10.81 490 800 0.08 -20.65 -0.0000 -0.0000
0.234 2 5.379902 -2.256011 -10.687881 -2.975464 31.120300 -30.715942 -0.08 0.08 8.1 8.1 -13.0026 -14.8601 -0.0469 -0.0000 -0.002595 0.022140 11.06 490 790 0.06 29.15 0.0000 0.0000
0.243 2 -0.417158 -1.536772 -11.313618 -10.017395 57.525635 -28.236389 -0.08 0.08 -5.9 -5.9 11.4599 12.0738 -0.0461 -0.0000 -0.002595 0.068925 11.00 490 800 0.01 -0.30 0.0000 0.0000
0.252 2 -2.517334 -0.479492 -6.890303 8.567810 -19.485474 -28.480530 -0.08 0.08 -7.4 -7.4 3.4148 3.3639 -0.0445 -0.0000 -0.002595 0.020133 10.38 510 890 0.06 -70.00 -0.0000 -0.0000
0.261 2 0.815137 1.848442 -10.951601 -0.152588 -14.633179 -25.756836 -0.17 0.17 -4.8 -4.1 -13.7987 -14.6986 -0.0475 -0.0000 -0.005191 -0.003395 11.12 490 810 0.08 -13.25 0.0000 0.0000
0.270 2 3.313291 0.045552 -12.025663 -6.904602 46.661377 -32.150269 -0.08 0.08 7.3 7.3 -4.1102 -3.7563 -0.0501 -0.0000 -0.002595 0.045473 10.27 490 870 0.03 25.39 0.0000 0.0000
0.279 2 -1.704595 -8.805874 -9.213442 6.408691 35.713196 -24.108887 -0.00 0.00 3.3 3.0 8.5048 8.9554 -0.0479 -0.0000 0.000000 0.078877 11.25 490 800 0.00 13.86 0.0000 0.0000
0.288 2 -3.080737 -0.004795 -7.815722 11.627197 -37.307739 -24.879456 -0.08 0.08 -7.8 -7.8 -2.0998 -2.1431 -0.0477 -0.0000 -0.002595 0.002959 10.77 490 880 0.08 -55.87 0.0000 0.0000
0.297 2 1.798096 2.296767 -12.205473 0.129700 3.807068 -20.347595 -0.08 0.08 7.6 6.6 -15.1940 -13.2575 -0.0513 -0.0000 -0.002595 0.005439 12.17 510 830 0.07 7.46 0.0000 0.0000
0.306 2 3.409189 1.347373 -12.608247 -8.247375 51.925659 -22.354126 -0.08 0.08 7.2 7.2 4.3481 3.5215 -0.0525 -0.0000 -0.002595 0.063102 10.22 490 870 0.02 21.57 0.0000 0.0000
0.315 2 -6.096743 5.948101 -9.306943 -0.343323 9.346008 -25.070190 -0.00 0.00 -8.0 -8.0 6.7613 6.5013 -0.0503 -0.0000 0.000000 0.067939 11.01 490 880 0.01 -57.21 -0.0000 -0.0000
0.324 2 0.522646 0.486685 -10.270722 6.919861 -31.333923 -26.008606 -0.08 0.08 -7.8 -7.8 -9.5230 -10.8182 -0.0513 -0.0000 -0.002595 0.008429 10.84 490 800 0.07 -27.02 0.0000 0.0000
0.333 2 5.447031 0.189399 -11.445478 -2.037048 15.342712 -19.508362 -0.08 0.08 8.5 8.5 -12.2934 -13.1288 -0.0549 0.0000 -0.002595 0.027112 11.50 490 810 0.05 22.47 0.0000 0.0000
0.342 2 2.138535 -0.151040 -11.205732 -9.819031 55.007935 -22.354126 -0.08 0.08 7.7 7.0 1.9916 6.4089 -0.0549 0.0000 -0.002595 0.083389 10.96 510 900 -0.00 19.43 0.0000 0.0000
0.351 2 -5.459018 -0.635327 -7.513642 -0.068665 -10.231018 -26.145935 0.00 -0.00 -9.6 -9.6 6.5013 6.5013 -0.0527 -0.0000 0.000000 0.055597 12.64 490 840 0.02 -68.31 -0.0000 -0.0000
0.360 2 -1.687812 -1.992290 -10.078925 8.773804 -21.400452 -27.091980 -0.08 0.08 -7.9 -7.9 -13.9409 -14.6986 -0.0549 0.0000 -0.002595 0.016886 10.87 490 800 0.06 -21.47 0.0000 0.0000
0.369 2 1.666235 -0.568198 -11.162578 -7.652283 31.875610 -30.815125 -0.08 0.08 8.0 8.0 -8.8965 -7.1929 -0.0585 0.0000 -0.002595 0.050971 10.98 490 800 0.03 22.06 0.0000 0.0000
0.378 2 0.210977 -2.083394 -9.498740 -5.241394 38.238525 -24.406433 -0.00 0.00 -7.7 -8.6 9.5906 12.0738 -0.0571 0.0000 0.000000 0.084312 11.60 490 800 -0.00 -6.65 -0.0000 -0.0000
0.387 2 -0.759995 -3.826348 -6.389233 11.444092 -24.421692 -26.885986 0.08 -0.08 -7.7 -7.7 4.4192 5.7300 -0.0553 0.0000 0.002595 0.036209 10.66 510 890 0.04 -38.65 0.0000 0.0000
0.396 2 -1.114819 -3.409189 -10.215581 9.651184 -19.836426 -24.871826 0.33 -0.33 -8.1 -8.1 -14.8601 -11.0842 -0.0579 -0.0000 0.010382 0.015117 11.06 490 810 0.06 -33.96 -0.0000 -0.0000
0.405 2 5.610058 -0.537031 -11.654058 0.373840 29.632568 -28.335571 0.33 -0.33 8.5 8.5 -7.4301 -5.7300 -0.0607 -0.0000 0.010382 0.056849 11.52 490 840 0.02 34.67 0.0000 0.0000
0.414 2 2.795439 -0.848701 -9.395649 -4.455566 30.670166 -22.964478 0.50 -0.50 8.3 6.2 9.1991 11.7589 -0.0591 -0.0000 0.015573 0.098186 11.26 490 800 -0.02 21.26 0.0000 0.0000
0.423 2 -3.728052 -1.474438 -6.648159 14.999390 -41.618347 -27.954102 0.42 -0.42 -7.7 -7.7 5.6345 4.4192 -0.0565 0.0000 0.012977 0.053030 10.69 490 890 0.03 -40.70 -0.0000 -0.0000
0.432 2 0.429145 -1.460054 -10.160439 17.234802 -35.049438 -27.770996 0.42 -0.42 -6.6 -5.9 -8.3473 -10.3227 -0.0581 0.0000 0.012977 0.039463 11.68 510 830 0.04 -11.68 0.0000 0.0000
0.441 2 3.332471 -0.800752 -11.857841 1.327515 2.555847 -24.940491 0.33 -0.33 8.5 8.5 -11.7589 -11.0842 -0.0611 -0.0000 0.010382 0.057835 11.52 490 790 0.02 22.11 0.0000 0.0000
0.450 2 0.613750 -0.572993 -10.023784 -7.331848 33.233643 -23.658752 0.42 -0.42 0.8 -1.6 10.6478 12.4061 -0.0601 -0.0000 0.012977 0.102929 10.82 490 800 -0.02 7.82 0.0000 0.0000
0.459 2 -1.155576 -1.198730 -7.170805 8.117676 -38.085938 -30.632019 0.50 -0.50 -7.7 -7.7 5.3449 4.1481 -0.0579 0.0000 0.015573 0.056715 10.71 490 870 0.02 -50.14 -0.0000 -0.0000
0.468 2 3.864707 -0.477095 -10.733432 9.262085 -32.516479 -26.870728 0.42 -0.42 1.1 1.0 -12.4061 -13.1288 -0.0601 0.0000 0.012977 0.031981 11.06 490 800 0.05 -1.52 0.0000 0.0000
0.477 2 5.765893 -2.047431 -11.850649 2.120972 11.795044 -23.071289 0.42 -0.42 8.1 8.1 -4.6153 -5.4091 -0.0626 -0.0000 0.012977 0.069655 11.06 510 880 0.01 36.01 0.0000 0.0000
0.486 2 1.536772 -4.967539 -9.702524 2.601624 5.844116 -10.444641 0.33 -0.33 5.3 4.9 9.3260 9.3908 -0.0599 -0.0000 0.010382 0.093277 11.88 490 800 -0.01 19.31 0.0000 0.0000
0.495 2 -2.306357 -1.083652 -7.233140 16.380310 -58.456421 -18.684387 0.33 -0.33 -7.6 -7.6 2.2024 2.1096 -0.0591 0.0000 0.010382 0.026124 10.63 490 880 0.05 -55.96 0.0000 0.0000
0.504 2 1.412104 1.023716 -11.752353 1.594543 -29.891968 -18.936157 0.42 -0.42 1.5 0.8 -16.0984 -15.0252 -0.0626 -0.0000 0.012977 0.014363 10.88 490 800 0.07 -5.57 0.0000 0.0000
0.513 2 3.303701 -1.675825 -11.335195 -1.441956 14.335632 -16.479492 0.50 -0.50 6.7 5.9 -2.6619 -2.6567 -0.0640 -0.0001 0.015573 0.062038 10.66 490 880 0.02 13.81 0.0000 0.0000
0.522 2 -0.215771 -1.316206 -10.587187 3.135681 -14.869690 -15.197754 0.50 -0.50 -8.5 -8.5 5.6818 7.3895 -0.0620 -0.0000 0.015573 0.070862 11.45 510 860 0.01 -18.72 -0.0000 -0.0000
0.531 2 -2.164907 -0.302080 -8.650039 13.740540 -53.833008 -9.994507 0.42 -0.42 -7.7 -7.7 -10.6478 -11.5579 -0.0634 -0.0000 0.012977 0.023736 10.73 490 800 0.06 -40.66 0.0000 0.0000
0.540 2 -0.256528 0.119873 -9.803218 -3.692627 -4.722595 -7.659912 0.33 -0.33 7.8 8.5 -11.8620 -13.5227 -0.0672 -0.0001 0.010382 0.045421 11.90 490 790 0.03 6.83 0.0000 0.0000
0.549 2 0.359619 -0.146245 -11.421504 -0.198364 2.304077 -6.179810 0.42 -0.42 -5.3 -8.1 2.1706 7.5546 -0.0670 -0.0001 0.012977 0.068259 11.80 490 840 0.01 -6.01 -0.0000 -0.0000
0.558 2 -2.121753 1.704595 -9.628202 -3.356934 -28.427124 -11.398315 0.42 -0.42 -8.2 -8.2 -3.3472 -4.5378 -0.0666 -0.0001 0.012977 0.056699 11.18 490 870 0.02 -35.07 0.0000 0.0000
0.567 2 0.220566 2.208061 -10.321069 7.865906 -29.289246 -5.943298 0.33 -0.33 0.0 -0.8 -16.2924 -16.4911 -0.0700 -0.0001 0.010382 0.026961 11.85 510 820 0.05 -7.94 -0.0000 -0.0000
0.576 2 1.730967 -0.359619 -11.591723 -2.388000 16.998291 -4.531860 0.33 -0.33 7.5 7.5 -6.7277 -5.4308 -0.0728 -0.0001 0.010382 0.072973 10.52 490 870 0.01 10.67 0.0000 0.0000
0.585 2 3.155058 -2.836196 -10.702266 -4.425049 3.807068 1.831055 0.08 -0.08 5.8 6.6 8.6132 7.5546 -0.0710 -0.0001 0.002595 0.088584 11.90 490 800 -0.01 18.23 0.0000 0.0000
0.594 2 -1.846045 -2.598848 -7.604746 13.137817 -44.555664 0.442505 0.00 -0.00 -7.7 -7.7 2.3850 -4.4337 -0.0704 -0.0001 0.000000 0.039096 10.68 490 850 0.04 -45.89 -0.0000 -0.0000
0.603 2 1.371348 2.584463 -11.927368 2.227783 -22.148132 5.912781 -0.17 0.17 -0.8 1.5 -14.3858 -17.3368 -0.0740 -0.0001 -0.005191 0.015458 11.22 490 800 0.06 -6.01 0.0000 0.0000
0.612 2 3.004019 0.088706 -11.742764 -4.745483 38.505554 2.601624 -0.25 0.25 7.7 7.7 -2.7824 -3.0252 -0.0758 -0.0001 -0.007786 0.068649 10.74 510 890 0.01 21.72 0.0000 0.0000
0.621 2 -0.628135 1.553555 -11.706801 6.004333 5.790710 -5.523682 -0.17 0.17 -8.5 -8.5 6.0640 7.5126 -0.0736 -0.0001 -0.005191 0.072338 11.49 490 830 0.01 -20.16 -0.0000 -0.0000
0.630 2 -0.750405 1.263462 -9.083980 4.562378 -42.503357 -4.577637 -0.08 0.08 -7.8 -7.8 -11.4599 -11.2689 -0.0750 -0.0001 -0.002595 0.011518 10.81 490 800 0.07 -27.70 0.0000 0.0000
0.639 2 4.931577 1.735762 -11.543774 -6.317139 15.449524 -1.838684 -0.08 0.08 8.8 8.8 -10.3227 -11.2689 -0.0786 -0.0001 -0.002595 0.038907 11.82 490 800 0.04 32.51 0.0000 0.0000
0.648 2 0.266118 1.368950 -11.963329 -7.369995 24.841309 -3.234863 -0.00 0.00 -8.7 -8.7 8.6684 11.1758 -0.0776 -0.0001 0.000000 0.069655 11.71 490 800 0.01 -11.16 -0.0000 -0.0000
0.657 2 -1.980303 -3.236572 -6.418003 6.141663 -32.730103 -6.065369 -0.00 0.00 -7.6 -7.6 -4.1102 2.4904 -0.0768 -0.0001 0.000000 0.033292 10.65 510 900 0.05 -56.36 -0.0000 -0.0000
0.666 2 1.678223 0.378799 -9.481957 1.602173 -28.526306 -5.989075 -0.17 0.17 4.6 6.0 -14.0861 -16.2924 -0.0801 -0.0001 -0.005191 -0.007651 11.14 490 810 0.09 3.89 0.0000 0.0000
0.675 2 2.057021 -0.601763 -12.577080 -5.874634 44.715881 -10.055542 -0.08 0.08 7.2 7.2 -3.9310 4.9173 -0.0823 -0.0001 -0.002595 0.047876 10.17 490 880 0.03 20.40 0.0000 0.0000
0.684 2 -0.620942 -0.798354 -11.632480 7.400513 16.082764 -7.156372 -0.17 0.17 -8.7 -8.7 5.2211 5.4527 -0.0805 -0.0001 -0.005191 0.058743 11.72 490 880 0.02 -17.65 -0.0000 -0.0000
0.693 2 -0.517852 0.911035 -8.868208 4.615784 -38.581848 -3.364563 -0.17 0.17 -8.1 -8.1 -11.4599 -13.2575 -0.0821 -0.0001 -0.005191 0.000591 11.06 490 800 0.08 -31.75 0.0000 0.0000
0.702 2 6.046396 1.575132 -11.414311 -5.332947 21.453857 -4.699707 -0.17 0.17 7.6 7.6 -10.0916 -10.0916 -0.0857 -0.0001 -0.005191 0.030900 10.62 510 830 0.05 44.55 0.0000 0.0000
0.711 2 1.690210 -0.438735 -11.507812 -7.431030 34.179688 -3.150940 -0.08 0.08 -3.6 -3.5 11.0842 10.9054 -0.0843 -0.0001 -0.002595 0.066427 10.81 490 800 0.01 4.18 0.0000 0.0000
0.720 2 -2.246421 -1.256269 -6.808789 13.122559 -36.895752 -3.456116 -0.00 0.00 -7.7 -7.7 2.1671 -6.1747 -0.0837 -0.0001 0.000000 0.021791 10.71 490 880 0.06 -47.53 0.0000 0.0000
0.729 2 1.541567 1.472041 -9.721704 -1.052856 -18.051147 -12.153625 -0.17 0.17 7.9 7.9 -14.6986 -16.4911 -0.0869 -0.0001 -0.005191 0.007263 10.95 490 800 0.07 15.91 0.0000 0.0000
0.738 2 2.073804 -0.541826 -12.838403 -4.608154 45.654297 -10.826111 -0.17 0.17 3.3 3.9 5.9835 7.8620 -0.0885 -0.0001 -0.005191 0.061378 10.49 490 830 0.02 14.46 0.0000 0.0000
0.747 2 -3.248559 2.864966 -11.042705 3.669739 5.096436 -8.811951 -0.00 0.00 -8.5 -8.5 4.0854 5.6580 -0.0865 -0.0001 0.000000 0.062016 11.47 510 900 0.02 -37.70 -0.0000 -0.0000
0.756 2 -0.397979 1.052485 -9.879936 1.731873 -42.137146 -7.293701 0.00 -0.00 -7.7 -7.7 -12.4061 -12.4061 -0.0881 -0.0001 0.000000 -0.000362 10.73 490 770 0.08 -33.20 0.0000 0.0000
0.765 2 5.437441 0.786367 -11.462260 -5.592346 24.139404 -6.095886 -0.08 0.08 8.4 8.4 -9.6591 -9.3908 -0.0915 -0.0001 -0.002595 0.032082 11.37 490 810 0.05 38.51 0.0000 0.0000
0.774 2 0.589775 -1.143589 -11.037910 -8.209229 41.870117 -1.640320 0.00 -0.00 -7.8 -7.9 10.9054 12.7573 -0.0901 -0.0001 0.000000 0.069475 10.95 490 770 0.01 -4.87 -0.0000 -0.0000
0.783 2 -1.695005 -4.171582 -6.214219 10.314941 -33.889771 0.091553 -0.00 0.00 -7.7 -7.7 3.7459 2.5611 -0.0893 -0.0001 0.000000 0.026342 10.71 490 880 0.05 -50.93 0.0000 0.0000
0.792 2 4.090068 1.798096 -9.496343 2.342224 -25.184631 -3.417969 -0.17 0.17 9.0 9.0 -14.5405 -16.6947 -0.0925 -0.0001 -0.005191 0.009571 12.02 510 830 0.07 30.82 0.0000 0.0000
0.801 2 2.927300 0.774380 -12.708941 -4.364014 44.166565 -4.684448 -0.17 0.17 7.7 7.7 -2.9786 -3.3722 -0.0945 -0.0000 -0.005191 0.069076 10.73 490 870 0.01 33.90 0.0000 0.0000
0.810 2 -0.827124 -2.673169 -11.069077 6.996155 9.803772 1.220703 -0.08 0.08 -8.2 -8.2 6.2605 6.8296 -0.0927 -0.0001 -0.002595 0.071741 11.22 490 830 0.01 -35.92 -0.0000 -0.0000
0.819 2 -0.726431 0.839111 -9.398046 5.783081 -39.505005 0.373840 0.00 -0.00 -7.8 -7.8 -12.4061 -12.0738 -0.0941 -0.0000 0.000000 0.007418 10.84 490 770 0.07 -35.83 0.0000 0.0000
0.828 2 3.847925 1.656645 -10.136464 -5.783081 18.737793 0.007629 -0.08 0.08 9.0 9.0 -12.6380 -13.5227 -0.0984 -0.0000 -0.002595 0.027241 12.02 490 800 0.05 40.03 0.0000 0.0000
0.837 2 -1.181948 1.639863 -12.270205 -4.539490 47.180176 -4.219055 -0.08 0.08 -7.4 -7.1 9.2621 9.0151 -0.0980 -0.0000 -0.002595 0.067919 11.52 510 830 0.01 -5.38 0.0000 0.0000
0.846 2 -3.565024 -1.838853 -5.816240 0.228882 -17.120361 -2.189636 -0.08 0.08 -9.0 -9.0 6.1467 4.4483 -0.0959 -0.0000 -0.002595 0.034134 11.99 490 880 0.05 -70.00 0.0000 0.0000
0.855 2 -1.122012 -2.311152 -8.801079 -0.648499 -32.730103 -1.136780 -0.08 0.08 -8.0 -8.0 -12.2934 -14.2344 -0.0984 -0.0000 -0.002595 -0.011862 11.03 490 800 0.09 -45.41 -0.0000 -0.0000
0.864 2 4.933974 -0.290093 -12.385283 -4.180908 34.362793 -7.621765 -0.17 0.17 8.0 8.0 -9.1991 -6.8296 -0.1018 -0.0000 -0.005191 0.031795 10.96 490 810 0.05 26.88 0.0000 0.0000
0.873 2 3.917451 1.368950 -11.759545 -9.918213 40.077209 -7.492065 -0.08 0.08 2.1 1.9 10.4827 11.0842 -0.1000 -0.0000 -0.002595 0.064280 11.60 490 800 0.02 15.29 0.0000 0.0000
0.882 2 -3.989375 1.318604 -7.592759 9.910583 -28.343201 0.152588 -0.08 0.08 -7.8 -7.8 -3.4322 -2.6005 -0.0996 -0.0000 -0.002595 0.001599 10.84 510 910 0.08 -61.71 -0.0000 -0.0000
0.891 2 3.972593 1.659043 -10.110092 -2.937317 -2.471924 -10.375977 -0.08 0.08 8.0 8.0 -15.9091 -17.1173 -0.1032 -0.0000 -0.002595 -0.001628 11.04 490 800 0.08 29.42 0.0000 0.0000
0.900 2 3.260547 -0.278105 -12.982250 -4.508972 49.636841 -13.374329 -0.17 0.17 7.7 7.7 6.6614 -3.5680 -0.1050 -0.0000 -0.005191 0.049714 10.66 490 880 0.03 25.13 0.0000 0.0000
0.909 2 -2.718721 -0.750405 -10.973178 3.280640 17.471313 -5.516052 -0.08 0.08 -9.0 -9.0 7.8166 10.2445 -0.1024 -0.0000 -0.002595 0.069328 11.96 490 800 0.01 -19.34 0.0000 0.0000
0.918 2 -1.879609 2.009072 -9.573061 3.318787 -37.696838 -3.990173 0.00 -0.00 -7.8 -7.8 -7.8620 -8.5048 -0.1026 -0.0000 0.000000 0.002297 10.84 490 800 0.08 -48.29 -0.0000 -0.0000
0.927 2 0.397979 -3.591396 -10.352236 0.167847 2.250671 -6.835938 0.00 -0.00 -6.8 -6.2 -16.0984 -17.1173 -0.1066 -0.0000 0.000000 -0.003152 11.77 510 790 0.08 -20.86 -0.0000 -0.0000
0.936 2 3.229380 1.910776 -12.505156 -7.728577 50.071716 -10.444641 0.00 -0.00 7.3 7.3 3.6061 3.3389 -0.1078 -0.0000 0.000000 0.053394 10.30 490 840 0.03 22.05 0.0000 0.0000
0.945 2 -3.325278 2.536514 -10.301889 4.837036 8.476257 -5.134583 0.00 -0.00 -7.9 -7.9 6.6944 6.3487 -0.1054 -0.0000 0.000000 0.062165 10.95 490 840 0.02 -50.52 -0.0000 -0.0000
0.954 2 -1.508003 3.059160 -10.150849 -1.533508 -30.769348 -7.308960 -0.08 0.08 -7.8 -7.8 -10.4021 -10.1674 -0.1064 -0.0000 -0.002595 -0.000535 10.81 490 800 0.08 -39.37 0.0000 0.0000
0.963 2 6.207026 2.145727 -11.445478 -3.700256 12.458801 -4.394531 -0.17 0.17 9.0 9.0 -14.3858 -15.7241 -0.1102 -0.0000 -0.005191 0.000170 12.04 490 810 0.08 21.08 0.0000 0.0000
0.972 2 4.159595 1.385732 -12.306167 -6.980896 52.223206 -3.593445 -0.08 0.08 7.8 7.8 4.3622 3.1015 -0.1112 -0.0000 -0.002595 0.054468 10.84 510 890 0.03 25.69 0.0000 0.0000
0.981 2 -2.459795 0.388389 -9.242211 2.075195 3.280640 -2.220154 -0.08 0.08 -8.8 -8.8 11.6575 12.5210 -0.1080 -0.0000 -0.002595 0.060843 11.85 490 800 0.02 -42.73 0.0000 0.0000
0.990 2 -1.994687 1.110024 -10.234760 -1.609802 -34.530640 -3.097534 -0.08 0.08 -7.9 -7.9 -8.6684 -10.0916 -0.1084 -0.0000 -0.002595 -0.001625 10.87 490 800 0.08 -40.46 -0.0000 -0.0000
0.999 2 4.437700 1.824468 -12.018472 -2.502441 1.716614 0.831604 -0.08 0.08 7.7 7.8 -15.0252 -14.8601 -0.1124 -0.0000 -0.002595 0.005762 12.50 490 800 0.07 7.57 0.0000 0.0000
1.008 2 4.768549 -0.433940 -11.570147 -7.827759 52.719116 -1.274109 0.00 -0.00 7.6 7.6 -2.3808 3.0944 -0.1134 -0.0000 0.000000 0.070237 10.57 490 840 0.01 37.34 0.0000 0.0000
1.017 2 -2.754683 2.896133 -10.038169 1.426697 -3.959656 0.534058 0.08 -0.08 -8.5 -8.5 12.6380 11.7589 -0.1104 -0.0000 0.002595 0.078510 11.52 510 830 0.00 -42.68 -0.0000 -0.0000
1.026 2 0.047949 1.740557 -10.388198 2.967834 -42.350769 -2.403259 -0.08 0.08 -7.7 -7.7 2.3116 -5.3661 -0.1096 -0.0000 -0.002595 0.032763 10.73 490 870 0.05 -21.64 0.0000 0.0000
1.035 2 -2.104971 0.714443 -11.188950 4.043579 -32.676697 -0.503540 -0.17 0.17 -7.3 -6.9 -9.5906 -10.0168 -0.1122 0.0000 -0.005191 0.030478 11.83 490 800 0.05 -13.73 0.0000 0.0000
1.044 2 4.615112 -1.208320 -11.634877 -2.380371 34.889221 4.905701 -0.08 0.08 7.7 7.7 -5.2414 -4.0854 -0.1141 0.0000 -0.002595 0.078130 10.66 490 870 0.00 45.53 0.0000 0.0000
1.053 2 -0.841509 1.148384 -10.515264 -8.529663 4.943848 6.553650 0.08 -0.08 2.8 1.5 10.3227 11.5579 -0.1116 0.0000 0.002595 0.112326 11.85 490 800 -0.03 10.66 0.0000 0.0000
1.062 2 0.827124 -1.510400 -8.009916 15.213013 -59.066772 -9.117126 -0.00 0.00 -7.9 -7.9 -10.4021 2.5660 -0.1102 0.0000 0.000000 0.051695 10.85 510 860 0.03 -19.10 0.0000 0.0000
1.071 2 4.490444 4.075684 -11.411914 2.967834 -40.710449 -15.052795 -0.08 0.08 9.1 9.1 -9.4564 -10.0168 -0.1128 0.0000 -0.002595 0.052159 12.09 490 800 0.03 15.15 0.0000 0.0000
1.080 2 6.262168 -1.934751 -11.960932 1.609802 13.351440 3.280640 -0.08 0.08 8.1 8.1 -3.2274 -3.5124 -0.1141 0.0000 -0.002595 0.079841 11.12 490 880 0.00 41.06 0.0000 0.0000
1.089 2 -3.533857 -2.275190 -11.186552 2.861023 -2.174377 11.489868 0.00 -0.00 -7.3 -8.6 9.3260 10.7323 -0.1114 0.0000 0.000000 0.102485 11.58 490 800 -0.02 -5.65 0.0000 0.0000
1.098 2 -1.649453 -2.402256 -7.825312 18.707275 -75.126648 -1.426697 -0.08 0.08 -7.9 -7.9 -6.8993 -10.9054 -0.1116 0.0000 -0.002595 0.011602 10.85 490 800 0.07 -47.17 -0.0000 -0.0000
1.107 2 4.150005 4.332212 -11.678032 -6.546021 -15.220642 11.039734 -0.17 0.17 6.4 6.7 -15.1940 -15.3667 -0.1155 0.0000 -0.005191 0.021189 11.85 510 820 0.06 3.56 0.0000 0.0000
1.116 2 2.215254 -0.810342 -12.219858 2.998352 22.392273 15.426636 -0.08 0.08 4.0 3.3 4.4926 6.2605 -0.1157 0.0000 -0.002595 0.071749 9.59 490 880 0.01 13.47 0.0000 0.0000
1.125 2 -2.682759 7.801338 -11.409516 -6.103516 -25.177002 2.479553 0.00 -0.00 -9.8 -9.8 3.8858 4.4777 -0.1143 0.0000 0.000000 0.055997 12.77 490 840 0.02 -26.20 0.0000 0.0000
1.134 2 -2.553296 1.388130 -10.213183 5.065918 -53.688049 4.737854 -0.08 0.08 -7.9 -7.9 -13.2575 -15.0252 -0.1169 0.0000 -0.002595 -0.001077 10.87 490 800 0.08 -50.30 -0.0000 -0.0000
1.143 2 5.149746 -0.134258 -10.438544 -7.873535 24.429321 18.867493 -0.08 0.08 7.9 7.9 -13.0026 -10.4021 -0.1209 0.0001 -0.002595 0.031887 10.87 490 800 0.05 35.75 0.0000 0.0000
1.152 2 -2.661181 -1.642261 -10.738227 0.419617 21.453857 23.323059 0.00 -0.00 -8.5 -8.5 10.7323 10.4021 -0.1199 0.0001 0.000000 0.059517 11.55 510 790 0.02 -27.07 -0.0000 -0.0000
1.161 2 -1.009331 -3.476318 -7.005381 7.904053 -34.645081 15.518188 -0.08 0.08 -8.2 -8.2 2.6778 -3.6847 -0.1193 0.0001 -0.002595 0.024063 11.20 490 870 0.06 -46.15 -0.0000 -0.0000
1.170 2 4.056504 -1.352168 -9.908706 4.043579 -27.221680 9.216309 -0.25 0.25 -5.9 -3.8 -14.0861 -17.5619 -0.1225 0.0001 -0.007786 -0.007281 10.85 490 810 0.09 -15.53 0.0000 0.0000
1.179 2 2.968056 -3.991772 -10.565610 3.814697 30.746460 14.251709 -0.25 0.25 7.8 7.8 -9.5230 -9.5230 -0.1261 0.0001 -0.007786 0.030776 10.79 490 790 0.05 18.64 0.0000 0.0000
1.188 2 0.923022 -0.618545 -10.225170 -4.341125 27.534485 15.136719 -0.33 0.33 -6.3 -5.5 7.7273 7.5546 -0.1251 0.0001 -0.010382 0.053000 11.22 490 800 0.03 -0.83 -0.0000 -0.0000
1.197 2 -2.208061 -2.956069 -8.304805 6.477356 -20.355225 10.955811 -0.17 0.17 -7.8 -7.8 -10.2445 -1.4525 -0.1259 0.0001 -0.005191 0.026038 10.76 510 860 0.05 -35.31 0.0000 0.0000
1.206 2 3.087929 2.076201 -10.927627 -3.730774 -2.487183 -6.042480 -0.17 0.17 2.3 1.9 -18.2739 -17.3368 -0.1299 0.0001 -0.005191 0.008513 11.00 490 800 0.07 -5.14 -0.0000 -0.0000
1.215 2 0.362017 -0.448325 -11.397529 -5.332947 32.073975 2.769470 -0.17 0.17 -1.7 -2.5 -6.3487 -5.3030 -0.1328 0.0001 -0.005191 0.035809 10.74 490 870 0.04 -4.13 0.0000 0.0000
1.224 2 -0.119873 -0.076719 -9.328520 -3.257751 23.300171 10.055542 -0.17 0.17 -8.7 -8.7 -1.7226 -1.7139 -0.1332 0.0001 -0.005191 0.042361 11.66 490 860 0.04 -16.38 -0.0000 -0.0000
1.233 2 -0.539429 -0.100693 -10.958794 -3.646851 3.189087 8.552551 -0.17 0.17 -7.9 -7.9 -13.2575 -13.5227 -0.1356 0.0002 -0.005191 0.014622 10.87 490 790 0.07 -22.60 0.0000 0.0000
1.242 2 -0.110283 1.251475 -10.448134 -11.085510 32.386780 12.954712 -0.25 0.25 -4.6 -3.5 -10.3227 -11.3636 -0.1398 0.0002 -0.007786 0.030410 12.17 510 810 0.05 -12.45 0.0000 0.0000
1.251 2 -2.701938 0.098296 -9.426816 -0.518799 8.674622 13.313293 -0.17 0.17 -7.8 -7.8 -18.0303 -15.5433 -0.1432 0.0002 -0.005191 0.001335 10.82 490 810 0.08 -52.88 -0.0000 -0.0000
1.260 2 -0.014385 1.505605 -10.313877 -2.990723 32.859802 27.832031 -0.08 0.08 1.4 1.2 -21.1292 -20.8041 -0.1491 0.0002 -0.002595 0.007055 11.88 490 760 0.07 -12.03 0.0000 0.0000
1.269 2 -2.409448 -1.443271 -9.220634 -0.694275 8.537292 31.524658 -0.08 0.08 -8.0 -8.0 -17.1173 -16.6947 -0.1531 0.0002 -0.002595 -0.006243 11.01 490 810 0.09 -43.85 -0.0000 -0.0000
1.278 2 -1.637466 -2.265600 -8.935337 -1.693726 5.279541 35.346985 0.00 -0.00 -7.9 -8.6 -30.0504 -28.7717 -0.1597 0.0003 0.000000 -0.026308 11.64 490 750 0.11 -35.62 0.0000 0.0000
1.287 2 -0.666494 -1.292231 -8.659629 13.847351 -2.784729 37.979126 0.00 -0.00 -8.1 -8.1 -25.0420 -24.5867 -0.1670 0.0003 0.000000 -0.028386 11.12 510 770 0.11 -36.02 -0.0000 -0.0000
1.296 2 0.692866 0.004795 -9.966245 12.779236 -8.613586 43.159485 0.08 -0.08 0.8 1.1 -26.5151 -28.7717 -0.1748 0.0003 0.002595 -0.026578 11.31 490 780 0.11 -19.11 0.0000 0.0000
1.305 2 1.373745 -0.366812 -11.117026 0.648499 5.462646 25.268555 -0.08 0.08 -4.7 -4.0 -15.5433 -16.9034 -0.1804 0.0003 -0.002595 -0.010884 11.66 490 800 0.09 -19.58 -0.0000 -0.0000
1.314 2 2.140933 -0.028770 -12.179101 -5.958557 20.622253 16.815186 -0.17 0.17 -1.5 -0.8 -7.3493 -8.4517 -0.1830 0.0003 -0.005191 0.005333 11.69 490 800 0.07 -5.29 0.0000 0.0000
1.323 2 0.846304 -0.237349 -9.855962 -2.189636 31.410217 12.779236 -0.17 0.17 -1.5 -1.3 -4.4629 -3.8526 -0.1847 0.0003 -0.005191 0.024337 11.90 490 880 0.06 -3.48 -0.0000 -0.0000
1.332 2 0.340439 -0.402773 -9.529907 -1.159668 14.617920 7.751465 -0.17 0.17 -4.6 -3.7 -7.3096 -7.9080 -0.1859 0.0003 -0.005191 0.026510 11.47 510 830 0.05 -10.67 0.0000 0.0000
1.341 2 0.963779 -0.067129 -9.659369 -2.906799 14.289856 6.713867 -0.08 0.08 2.5 2.7 -8.1462 -7.8166 -0.1885 0.0003 -0.002595 0.041198 11.90 490 790 0.04 -0.51 0.0000 0.0000
1.350 2 0.069526 -0.328452 -10.088515 -2.288818 0.579834 4.272461 -0.08 0.08 -5.9 -5.6 -1.9916 -1.7494 -0.1889 0.0003 -0.002595 0.045488 11.72 490 860 0.03 -10.80 -0.0000 -0.0000
1.359 2 0.834316 -0.071924 -11.493427 0.190735 2.517700 -1.281738 -0.17 0.17 -1.6 -0.8 -8.0492 -9.3260 -0.1907 0.0003 -0.005191 0.042673 11.55 490 800 0.04 -6.44 0.0000 0.0000
1.368 2 1.253872 -0.033564 -10.862895 -6.584167 18.974304 -8.377075 -0.17 0.17 2.6 2.4 -3.1743 -2.1431 -0.1915 0.0003 -0.005191 0.059087 11.93 490 880 0.02 4.88 0.0000 0.0000
1.377 2 -0.445928 -1.220308 -9.112749 1.304626 -5.615234 -6.950378 -0.08 0.08 -7.9 -7.9 -5.4748 1.4463 -0.1913 0.0003 -0.002595 0.050858 10.93 510 890 0.03 -19.88 -0.0000 -0.0000
1.386 2 2.759477 -0.038359 -10.575200 3.837585 -3.852844 -5.088806 -0.08 0.08 7.8 7.8 -14.5405 -14.6986 -0.1945 0.0003 -0.002595 0.044659 10.84 490 800 0.04 14.09 0.0000 0.0000
1.395 2 0.908638 -0.635327 -9.800820 -5.294800 12.031555 -10.490417 -0.08 0.08 -0.8 -0.8 2.2352 3.9310 -0.1953 0.0003 -0.002595 0.074979 10.36 490 880 0.01 4.21 0.0000 0.0000
1.404 2 -0.757598 0.431543 -10.366621 6.973267 -25.535583 -12.527466 -0.08 0.08 -8.8 -8.8 4.3066 3.4852 -0.1937 0.0003 -0.002595 0.067554 11.80 490 870 0.01 -14.37 0.0000 0.0000
1.413 2 1.903584 1.932353 -11.829072 11.505127 -37.704468 -12.741089 -0.17 0.17 -5.7 -4.2 -11.2689 -12.8788 -0.1959 0.0003 -0.005191 0.041260 11.17 490 810 0.04 -14.92 -0.0000 -0.0000
1.422 2 5.399082 -0.527441 -11.598916 -2.655029 4.737854 -17.219543 -0.08 0.08 7.3 7.3 -7.0066 -5.7543 -0.1985 0.0003 -0.002595 0.077170 10.28 510 860 0.00 35.62 0.0000 0.0000
1.431 2 2.807427 0.270913 -9.467573 -2.792358 -15.785217 -12.710571 -0.08 0.08 -2.2 -2.8 11.3636 13.5227 -0.1957 0.0003 -0.002595 0.092708 11.37 490 790 -0.01 6.17 0.0000 0.0000
1.440 2 0.409966 -0.843906 -8.683603 14.717102 -64.208984 -19.943237 -0.08 0.08 -7.8 -7.8 3.4409 4.5685 -0.1945 0.0003 -0.002595 0.066180 10.77 490 880 0.01 -21.93 0.0000 0.0000
1.449 2 2.092983 2.140933 -12.243833 11.360168 -58.830261 -19.691467 -0.00 0.00 2.3 3.1 -13.7987 -14.2344 -0.1975 0.0003 0.000000 0.042134 10.85 490 800 0.04 -1.47 -0.0000 -0.0000
1.458 2 4.173979 -1.083652 -12.318154 -2.166748 7.133484 -25.314331 -0.08 0.08 7.6 7.6 2.6991 5.3449 -0.1985 0.0003 -0.002595 0.099603 10.65 490 880 -0.02 33.07 0.0000 0.0000
1.467 2 -2.769067 -4.042119 -9.323726 7.896423 -35.385132 -16.601562 0.00 -0.00 -8.9 -8.9 9.4564 11.5579 -0.1951 0.0003 0.000000 0.104342 11.94 510 790 -0.02 -23.13 0.0000 0.0000
1.476 2 -0.752803 0.141450 -9.134326 15.747070 -82.466125 -22.003174 0.00 -0.00 -7.2 -7.2 -3.2274 -3.3639 -0.1943 0.0003 0.000000 0.047211 10.19 490 840 0.03 -28.92 -0.0000 -0.0000
1.485 2 2.184087 0.374004 -10.894062 3.387451 -48.187256 -18.753052 0.00 -0.00 0.8 0.8 -13.2575 -12.7573 -0.1975 0.0003 0.000000 0.039528 11.01 490 770 0.04 -3.75 0.0000 0.0000
1.494 2 1.515195 0.095898 -11.889009 0.160217 -5.584717 -19.577026 0.08 -0.08 1.7 0.8 3.5965 6.0640 -0.1981 0.0003 0.002595 0.077923 10.36 490 880 0.00 12.09 0.0000 0.0000
1.503 2 -3.217392 1.433682 -9.297353 1.434326 -36.506653 -9.613037 0.00 -0.00 -8.5 -8.5 6.0640 6.2031 -0.1959 0.0003 0.000000 0.075976 11.50 490 840 0.00 -27.39 -0.0000 -0.0000
1.512 2 0.467505 -3.214995 -9.793628 26.466370 -65.811157 -6.515503 -0.17 0.17 -8.0 -8.0 -10.8182 -10.4827 -0.1979 0.0003 -0.005191 0.027072 10.98 510 820 0.05 -23.28 0.0000 0.0000
1.521 2 2.675566 -0.474697 -9.139121 3.730774 -12.619019 -4.447937 -0.08 0.08 8.5 8.5 -7.8166 -9.3260 -0.2014 0.0003 -0.002595 0.065685 11.52 490 800 0.01 29.17 0.0000 0.0000
1.530 2 -0.127065 -0.465107 -10.524853 -0.679016 -28.358459 -2.838135 -0.08 0.08 -8.9 -8.9 4.7953 5.2010 -0.2005 0.0003 -0.002595 0.064352 11.88 490 860 0.02 -12.64 0.0000 0.0000
1.539 2 -1.404912 2.872158 -12.301372 7.400513 -39.848328 0.686646 -0.08 0.08 -7.9 -7.6 -7.7717 -6.5964 -0.2022 0.0003 -0.002595 0.053696 11.11 490 840 0.03 -17.97 -0.0000 -0.0000
1.548 2 2.615630 -1.901186 -8.849028 2.647400 3.135681 5.393982 0.08 -0.08 7.4 7.4 -6.8296 -4.5226 -0.2042 0.0003 0.002595 0.083172 10.43 490 830 -0.00 25.32 0.0000 0.0000
1.557 2 0.863086 0.743213 -9.846372 -6.172180 -16.937256 7.736206 0.00 -0.00 -7.0 -6.9 6.4702 5.9310 -0.2028 0.0003 0.000000 0.072827 10.62 510 860 0.01 -8.39 -0.0000 -0.0000
1.566 2 -0.783970 0.007192 -10.901255 14.122009 -44.906616 7.324219 -0.08 0.08 -8.3 -8.3 -11.1758 -12.5210 -0.2046 0.0003 -0.002595 0.044988 11.31 490 800 0.04 -23.72 0.0000 0.0000
1.575 2 3.629756 -2.920107 -8.093828 0.358582 1.022339 7.072449 -0.08 0.08 8.8 8.8 -13.9409 -17.1173 -0.2090 0.0004 -0.002595 0.056223 11.80 490 810 0.02 41.75 0.0000 0.0000
1.584 2 -1.062075 0.220566 -10.630342 -5.355835 10.139465 3.715515 -0.25 0.25 -8.8 -8.8 2.2315 4.3763 -0.2094 0.0004 -0.007786 0.065915 11.83 490 870 0.01 -19.48 -0.0000 -0.0000
1.593 2 -0.385991 -1.718979 -12.095190 -4.028320 -21.202087 22.079468 -0.25 0.25 -8.0 -8.0 -7.9080 -4.8818 -0.2102 0.0004 -0.007786 0.023237 11.03 490 840 0.06 -53.31 0.0000 0.0000
1.602 2 2.368691 -0.867881 -8.117803 1.411438 6.614685 26.000977 -0.17 0.17 9.1 9.1 -14.2344 -13.5227 -0.2136 0.0004 -0.005191 0.029059 12.07 510 820 0.05 12.53 0.0000 0.0000
1.611 2 -1.263462 -0.455518 -10.481699 -9.284973 15.136719 27.099609 -0.08 0.08 -7.1 -7.1 -2.1567 2.2920 -0.2146 0.0004 -0.002595 0.054270 10.11 490 880 0.03 -25.74 0.0000 0.0000
1.620 2 -0.769585 0.302080 -11.138603 0.785828 -10.536194 20.927429 -0.17 0.17 -8.3 -8.3 -9.1991 -11.6575 -0.2156 0.0004 -0.005191 0.035354 11.28 490 800 0.04 -27.18 -0.0000 -0.0000
1.629 2 1.968315 -1.169961 -8.851425 -3.120422 -0.030518 43.991089 -0.17 0.17 8.3 8.3 -18.7815 -18.2739 -0.2201 0.0004 -0.005191 0.023184 11.26 490 800 0.06 10.50 0.0000 0.0000
1.638 2 -0.827124 -1.349770 -10.642329 -9.368896 31.486511 44.380188 -0.17 0.17 -8.2 -6.7 -3.4497 -5.4308 -0.2225 0.0004 -0.005191 0.048626 12.40 490 870 0.03 -17.25 -0.0000 -0.0000
1.647 2 -0.882266 0.079116 -11.073872 -0.564575 4.814148 40.878296 -0.25 0.25 -7.8 -7.5 -9.7991 -12.6380 -0.2243 0.0004 -0.007786 0.030825 10.84 510 820 0.05 -21.64 0.0000 0.0000
1.656 2 3.461933 0.139053 -9.661767 -12.535095 42.221069 49.003601 -0.33 0.33 9.0 9.0 -10.6478 -9.9432 -0.2277 0.0005 -0.010382 0.057045 11.99 490 790 0.02 28.48 0.0000 0.0000
1.665 2 -0.201387 -0.083911 -10.057348 -2.143860 34.370422 50.155640 -0.33 0.33 -2.9 -2.0 4.1996 4.4926 -0.2273 0.0005 -0.010382 0.061841 11.44 490 870 0.02 -1.56 -0.0000 -0.0000
1.674 2 0.884663 -1.517593 -8.834643 7.812500 -10.688782 37.956238 -0.42 0.42 -2.4 -1.2 -13.6593 -15.0252 -0.2299 0.0005 -0.012977 0.012124 11.09 490 810 0.07 -8.47 0.0000 0.0000
1.683 2 3.519473 -1.321001 -10.644726 -5.546570 31.250000 49.278259 -0.42 0.42 8.1 8.1 -10.6478 -7.8166 -0.2335 0.0005 -0.012977 0.040998 11.11 490 810 0.04 26.80 0.0000 0.0000
1.692 2 0.433940 -0.107886 -11.980112 -2.532959 15.869141 50.758362 -0.17 0.17 -7.0 -8.1 -1.5543 2.7209 -0.2337 0.0005 -0.005191 0.043820 11.12 510 900 0.04 -12.83 0.0000 0.0000
1.701 2 0.088706 -1.201128 -9.537099 -0.083923 -6.538391 46.897888 -0.42 0.42 -7.8 -7.8 -13.5227 -16.9034 -0.2368 0.0006 -0.012977 0.021330 10.77 490 780 0.06 -27.03 -0.0000 -0.0000
1.710 2 4.111645 -0.997344 -9.501138 -3.166199 43.029785 65.696716 -0.42 0.42 8.3 8.3 -9.3908 -7.4301 -0.2404 0.0006 -0.012977 0.053480 11.28 490 800 0.03 24.05 0.0000 0.0000
1.719 2 -3.689692 -0.534634 -10.191607 -0.640869 28.907776 68.122864 -0.33 0.33 -8.5 -8.5 2.2024 5.4970 -0.2398 0.0006 -0.010382 0.055653 11.52 490 870 0.02 -16.01 -0.0000 -0.0000
1.728 2 0.031167 -1.893994 -7.810927 13.534546 -16.906738 51.635742 -0.59 0.59 -8.0 -5.5 -12.2934 -15.9091 -0.2420 0.0007 -0.018168 0.005948 11.14 490 790 0.07 -17.36 0.0000 0.0000
1.737 2 5.909741 -0.503467 -11.936957 -8.796692 33.401489 57.807922 -0.67 0.67 7.7 7.7 -11.0842 -10.5646 -0.2458 0.0007 -0.020764 0.034399 10.68 510 810 0.05 33.57 0.0000 0.0000
1.746 2 4.152402 -0.385991 -13.159662 -6.851196 47.172546 57.044983 -0.67 0.67 1.6 3.4 9.5230 8.6132 -0.2446 0.0007 -0.020764 0.063160 10.85 490 800 0.02 15.91 0.0000 0.0000
1.755 2 -2.975249 -0.640122 -6.720083 8.041382 -39.306641 42.106628 -0.75 0.75 -7.7 -7.7 -10.5646 -13.0026 -0.2456 0.0007 -0.023359 -0.013069 10.69 490 800 0.09 -70.00 0.0000 0.0000
1.764 2 3.855117 1.659043 -12.207870 -9.498596 18.745422 39.756775 -1.00 1.00 8.9 8.9 -16.2924 -19.0460 -0.2502 0.0009 -0.031146 -0.018631 11.93 490 810 0.10 15.63 0.0000 0.0000
1.773 2 -2.021060 -1.234692 -10.198798 -14.846802 66.184998 44.448853 -0.92 0.92 -7.9 -7.9 3.8747 6.4702 -0.2508 0.0009 -0.028550 0.038264 10.85 490 880 0.04 -16.04 0.0000 0.0000
1.782 2 -6.029614 1.615889 -9.573061 -6.408691 -5.668640 27.694702 -1.00 1.00 -8.0 -8.0 -2.4632 -7.7717 -0.2506 0.0009 -0.031146 0.004879 11.04 510 860 0.08 -70.00 -0.0000 -0.0000
1.791 2 -1.057280 1.841250 -9.450790 -10.910034 3.738403 24.444580 -1.26 1.26 -1.7 1.6 -17.3368 -20.8041 -0.2548 0.0010 -0.038932 -0.026363 11.09 490 790 0.11 -10.26 0.0000 0.0000
1.800 2 2.006675 -1.627876 -10.340249 -21.324158 59.913635 24.703979 -1.34 1.34 5.2 7.4 -4.6630 -4.9534 -0.2579 0.0011 -0.041528 0.029750 10.38 490 870 0.05 9.42 0.0000 0.0000
1.809 2 -2.128945 1.541567 -11.754750 -6.866455 27.343750 28.045654 -1.26 1.26 -7.9 -7.9 1.6312 3.8417 -0.2573 0.0011 -0.038932 0.034723 10.90 490 870 0.05 -16.59 0.0000 0.0000
1.818 2 -2.819414 1.100435 -9.364482 -2.876282 -9.651184 23.742676 -1.42 1.42 -8.0 -8.0 -12.6380 -14.8601 -0.2597 0.0012 -0.044123 -0.002264 11.00 490 800 0.08 -54.02 -0.0000 -0.0000
1.827 2 5.125772 -2.627617 -9.683345 -19.973755 42.541504 20.484924 -1.51 1.51 8.0 8.0 -16.6947 -19.8863 -0.2643 0.0014 -0.046719 0.004236 11.00 510 840 0.08 24.14 0.0000 0.0000
1.836 2 -0.117476 0.601763 -10.110092 -15.853882 63.041687 28.938293 -1.59 1.59 -6.6 -4.4 3.2585 3.7773 -0.2653 0.0015 -0.049314 0.046967 10.65 490 870 0.03 -4.39 -0.0000 -0.0000
1.845 2 -2.291973 0.297285 -9.875141 -2.334595 14.991760 13.916016 -1.51 1.51 -9.2 -9.2 1.7793 1.9073 -0.2647 0.0015 -0.046719 0.039158 12.24 490 860 0.04 -30.40 -0.0000 -0.0000
1.854 2 -3.404394 0.879868 -10.354633 -12.031555 -2.273560 3.273010 -1.67 1.67 -7.9 -7.9 -14.6986 -18.2739 -0.2679 0.0016 -0.051910 -0.008066 10.90 490 810 0.09 -50.96 0.0000 0.0000
1.863 2 0.827124 1.033306 -10.860497 -27.420044 54.222107 7.392883 -1.84 1.84 7.9 7.9 -17.3368 -19.8863 -0.2731 0.0019 -0.057101 0.006201 10.90 490 800 0.07 9.61 0.0000 0.0000
1.872 2 2.071406 -0.254131 -11.018730 -15.327454 71.716309 21.598816 -1.84 1.84 3.2 5.7 7.3493 8.3992 -0.2735 0.0019 -0.057101 0.059642 10.96 510 830 0.02 14.36 0.0000 0.0000
1.881 2 -5.897754 1.570337 -10.246748 -3.990173 17.997742 15.449524 -1.84 1.84 -8.3 -8.3 8.2455 8.0016 -0.2711 0.0018 -0.057101 0.054218 11.31 490 810 0.03 -61.32 0.0000 0.0000
1.890 2 -3.332471 2.244023 -11.625288 -3.211975 -10.452271 11.253357 -2.01 2.01 -7.8 -7.8 -10.0916 -12.4061 -0.2723 0.0019 -0.062292 -0.028505 10.84 490 810 0.11 -55.05 -0.0000 -0.0000
1.899 2 0.635327 3.155058 -11.392734 -29.975891 22.392273 -9.872437 -2.18 2.18 2.4 7.9 -18.0303 -23.3150 -0.2771 0.0022 -0.067483 -0.036544 10.85 490 790 0.12 -2.57 0.0000 0.0000
1.908 2 3.495498 1.961123 -9.935078 -15.525818 39.245605 6.584167 -2.01 2.01 7.7 7.7 -9.3260 -4.6630 -0.2804 0.0024 -0.062292 0.006551 10.73 490 840 0.07 20.50 0.0000 0.0000
1.917 2 3.586601 1.637466 -11.896201 6.042480 41.000366 3.387451 -1.76 1.76 5.5 8.3 13.3888 13.0026 -0.2781 0.0023 -0.054505 0.069947 11.74 510 830 0.01 22.58 0.0000 0.0000
1.926 2 -3.416382 -1.292231 -7.940391 15.243530 -30.235291 3.982544 -1.51 1.51 -7.7 -7.7 4.1228 9.0151 -0.2751 0.0021 -0.046719 0.014463 10.74 490 840 0.07 -70.00 0.0000 0.0000
1.935 2 0.539429 1.879609 -10.340249 -8.247375 -17.013550 -10.932922 -1.34 1.34 -7.9 -7.9 -14.2344 -12.6380 -0.2771 0.0022 -0.041528 -0.046210 10.85 490 800 0.13 -38.64 -0.0000 -0.0000
1.944 2 3.286919 -3.481113 -11.613300 -16.716003 14.076233 -23.414612 -1.26 1.26 8.9 8.9 -16.9034 -15.3667 -0.2814 0.0024 -0.038932 -0.027652 11.91 490 790 0.11 9.14 0.0000 0.0000
1.953 2 5.789868 -2.658784 -10.117285 3.509521 41.572571 -1.945496 -0.92 0.92 7.9 7.9 -2.4996 9.3260 -0.2822 0.0024 -0.028550 0.048900 10.85 490 850 0.03 50.20 0.0000 0.0000
1.962 2 -2.210459 3.195815 -11.853046 17.822266 -0.022888 -12.657166 -0.75 0.75 -8.3 -8.3 16.0984 17.3368 -0.2781 0.0023 -0.023359 0.069731 11.34 510 820 0.01 -35.43 -0.0000 -0.0000
1.971 2 -2.642002 3.183828 -11.467055 10.269165 -32.394409 -14.198303 -0.67 0.67 -7.5 -7.5 -6.2605 2.9917 -0.2767 0.0023 -0.020764 -0.011310 10.46 490 870 0.09 -63.35 0.0000 0.0000
1.980 2 1.474438 -0.450723 -9.805614 -4.508972 -18.486023 -31.562805 -0.84 0.84 -7.9 -7.9 -14.6986 -19.3181 -0.2804 0.0023 -0.025955 -0.031258 10.88 490 800 0.11 -26.87 -0.0000 -0.0000
1.989 2 1.805288 0.232554 -11.076269 -9.254456 -19.340515 -47.660828 -1.00 1.00 7.9 8.6 -21.4646 -23.3150 -0.2864 0.0025 -0.031146 -0.016396 11.58 490 770 0.10 2.73 0.0000 0.0000
1.998 2 4.512022 0.465107 -10.910845 3.303528 -22.651672 -24.520874 -0.84 0.84 6.6 4.5 -12.7573 -6.1467 -0.2900 0.0026 -0.025955 0.005635 11.98 490 840 0.07 6.22 0.0000 0.0000
2.007 2 2.119355 -1.232295 -9.546689 23.246765 -10.009766 -8.316040 -0.50 0.50 3.7 2.3 -4.3622 -1.4992 -0.2908 0.0026 -0.015573 0.035004 11.71 510 890 0.04 7.61 0.0000 0.0000
2.016 2 -0.608955 1.481631 -10.160439 10.314941 -26.924133 -11.116028 -0.42 0.42 -8.4 -8.4 1.9154 2.4950 -0.2902 0.0026 -0.012977 0.033088 11.42 490 870 0.05 -21.65 -0.0000 -0.0000
2.025 2 -0.304478 0.525044 -10.908447 -3.616333 -22.499084 -30.105591 -0.67 0.67 -7.9 -6.7 -10.3227 -16.2924 -0.2928 0.0027 -0.020764 0.013709 10.95 490 810 0.07 -20.08 0.0000 0.0000
2.034 2 2.649194 -0.824727 -9.748075 -0.984192 3.654480 -12.351990 -0.59 0.59 8.1 8.2 -12.7573 -11.2689 -0.2970 0.0028 -0.018168 0.030564 11.72 490 810 0.05 9.58 0.0000 0.0000
2.043 2 2.531719 0.354824 -11.409516 6.843567 19.218445 -1.228333 -0.25 0.25 7.8 5.7 5.9571 12.1826 -0.2962 0.0028 -0.007786 0.083476 10.92 490 840 -0.00 21.60 0.0000 0.0000
2.052 2 -1.968315 -1.309014 -10.522456 13.458252 -13.893127 -13.534546 -0.17 0.17 -7.6 -7.6 12.0738 10.6478 -0.2928 0.0027 -0.005191 0.081624 10.63 510 830 -0.00 -25.10 -0.0000 -0.0000
2.061 2 -5.077822 5.020283 -12.529131 6.584167 -48.568726 -13.061523 -0.25 0.25 -7.8 -7.8 -4.6311 -6.2317 -0.2930 0.0028 -0.007786 -0.003737 10.84 490 870 0.08 -65.88 0.0000 0.0000
2.070 2 4.658267 0.187002 -11.819482 -6.179810 5.340576 -1.861572 -0.17 0.17 7.9 7.9 -14.5405 -13.5227 -0.2964 0.0028 -0.005191 0.009446 10.90 490 790 0.07 16.18 0.0000 0.0000
2.079 2 3.001621 0.807944 -10.932422 6.294250 22.132874 16.708374 -0.00 0.00 7.8 7.8 2.1811 9.3908 -0.2964 0.0028 -0.000000 0.067172 10.82 490 810 0.01 24.88 0.0000 0.0000
2.088 2 -3.778398 1.078857 -11.649262 15.640259 -3.227234 14.709473 0.08 -0.08 -9.1 -9.1 15.0252 15.0252 -0.2926 0.0028 0.002595 0.085471 12.10 490 800 -0.01 -16.36 0.0000 0.0000
2.097 2 -5.679585 1.035703 -10.009399 23.666382 -38.589478 6.156921 0.08 -0.08 -7.9 -7.9 -4.0978 2.2389 -0.2914 0.0028 0.002595 0.009718 10.88 510 910 0.07 -70.00 -0.0000 -0.0000
2.106 2 0.692866 -1.249077 -9.779243 4.150391 -18.486023 -13.832092 -0.08 0.08 -3.4 -0.8 -14.0861 -18.5242 -0.2946 0.0028 -0.002595 -0.008735 10.85 490 800 0.09 -11.70 0.0000 0.0000
2.115 2 1.867622 0.441133 -10.189209 1.510620 -18.524170 -20.805359 -0.17 0.17 3.2 4.1 -12.5210 -12.7573 -0.2985 0.0028 -0.005191 0.009505 11.80 490 800 0.07 0.95 0.0000 0.0000
2.124 2 2.807427 -0.640122 -9.980630 17.395020 -9.407043 -2.296448 -0.00 0.00 8.6 7.5 -6.7277 -4.9173 -0.3005 0.0028 -0.000000 0.037554 11.60 490 880 0.04 14.38 0.0000 0.0000
2.133 2 -0.537031 -0.584980 -9.695332 20.530701 -27.946472 -1.884460 0.08 -0.08 -7.9 -7.9 2.6991 3.7150 -0.2999 0.0028 0.002595 0.043043 10.95 490 870 0.04 -21.84 0.0000 0.0000
2.142 2 -0.134258 -2.167305 -10.321069 16.609192 -37.315369 -6.095886 0.08 -0.08 -7.9 -7.9 -12.8788 -11.4599 -0.3019 0.0028 0.002595 0.009703 10.93 510 820 0.07 -24.09 -0.0000 -0.0000
2.151 2 -0.508262 -0.870278 -9.376470 5.500793 -29.335022 -21.911621 -0.00 0.00 -3.6 -1.4 -20.1831 -24.1477 -0.3069 0.0028 -0.000000 0.005426 11.68 490 750 0.07 -17.84 0.0000 0.0000
2.160 2 0.294888 0.498672 -9.841577 6.622314 -35.675049 -29.846191 -0.17 0.17 -3.1 -2.7 -19.3181 -18.7815 -0.3125 0.0028 -0.005191 0.007181 11.99 490 800 0.07 -16.99 -0.0000 -0.0000
2.169 2 -1.181948 1.138794 -9.676152 13.687134 -52.360535 -28.808594 -0.17 0.17 -8.6 -8.6 -23.7240 -24.1477 -0.3182 0.0028 -0.005191 -0.007144 11.61 490 780 0.09 -39.80 0.0000 0.0000
2.178 2 -1.898789 -0.311670 -9.299750 19.172668 -60.997009 -26.672363 -0.17 0.17 -8.6 -8.6 -33.8067 -34.6736 -0.3262 0.0029 -0.005191 -0.030753 11.61 490 770 0.11 -46.50 -0.0000 -0.0000
2.187 2 0.628135 -0.656904 -9.673755 18.623352 -64.712524 -34.820557 -0.25 0.25 -3.9 -4.0 -34.6736 -33.8067 -0.3353 0.0029 -0.007786 -0.041983 11.42 510 800 0.12 -32.88 0.0000 0.0000
2.196 2 -0.438735 0.479492 -9.961450 14.259338 -69.732666 -38.223267 -0.17 0.17 -7.0 -4.9 -34.6736 -37.5630 -0.3443 0.0030 -0.005191 -0.053189 11.63 490 780 0.13 -38.25 -0.0000 -0.0000
2.205 2 -0.011987 -0.493877 -10.388198 13.587952 -73.341370 -40.313721 -0.33 0.33 -2.5 -1.6 -37.5630 -37.5630 -0.3540 0.0031 -0.010382 -0.060759 11.93 490 770 0.14 -32.66 0.0000 0.0000
2.214 2 -0.371606 -0.122271 -9.573061 15.892029 -80.039978 -38.833618 -0.33 0.33 -5.9 -4.6 -37.5630 -38.6363 -0.3636 0.0032 -0.010382 -0.070837 11.72 490 790 0.15 -38.87 -0.0000 -0.0000
2.223 2 -0.807944 0.220566 -10.347441 16.304016 -84.388733 -38.612366 -0.33 0.33 -4.8 -5.4 -40.9779 -38.6363 -0.3741 0.0033 -0.010382 -0.076354 12.10 490 790 0.16 -40.95 0.0000 0.0000
2.232 2 0.457915 0.203784 -10.114887 9.780884 -83.290100 -45.135498 -0.33 0.33 -4.2 -2.2 -38.6363 -40.9779 -0.3841 0.0033 -0.010382 -0.082261 11.55 510 800 0.16 -37.22 -0.0000 -0.0000
2.241 2 0.381196 -0.105488 -11.138603 -1.281738 -81.665039 -52.230835 -0.42 0.42 -0.9 1.5 -39.7726 -42.2584 -0.3944 0.0035 -0.012977 -0.085315 11.53 490 770 0.17 -31.86 0.0000 0.0000
2.250 2 -1.368950 0.007192 -9.410034 -2.670288 -80.467224 -48.522949 -0.59 0.59 -8.9 -8.9 -39.7726 -36.5478 -0.4049 0.0036 -0.018168 -0.093350 11.93 490 780 0.17 -49.21 -0.0000 -0.0000
2.259 2 -1.349770 0.206182 -10.162837 -2.120972 -82.763672 -47.592163 -0.50 0.50 -8.8 -8.2 -45.0756 -45.0756 -0.4159 0.0038 -0.015573 -0.103986 11.91 490 780 0.18 -51.60 0.0000 0.0000
2.268 2 -1.253872 0.592173 -9.292559 -5.989075 -87.074280 -46.966553 -0.59 0.59 -6.5 -5.9 -48.2953 -48.2953 -0.4278 0.0041 -0.018168 -0.111986 11.66 490 780 0.19 -50.65 -0.0000 -0.0000
2.277 2 -1.014126 0.203784 -9.961450 -2.227783 -87.692261 -44.662476 -0.59 0.59 -4.0 -4.3 -50.0841 -48.2953 -0.4403 0.0043 -0.018168 -0.118321 11.64 510 810 0.20 -47.70 0.0000 0.0000
2.286 2 -0.807944 -0.685674 -9.736089 -6.149292 -89.439392 -39.405823 -0.59 0.59 -6.2 -4.7 -46.6300 -48.2953 -0.4527 0.0045 -0.018168 -0.125901 11.93 490 780 0.21 -48.33 -0.0000 -0.0000
2.295 2 -1.361758 0.973369 -9.561074 -7.423401 -87.646484 -32.432556 -0.67 0.67 -7.3 -6.5 -52.0104 -52.0104 -0.4654 0.0047 -0.020764 -0.131835 11.79 490 780 0.21 -55.71 0.0000 0.0000
2.304 2 -1.846045 -0.728828 -10.572803 -6.874084 -83.534241 -29.708862 -0.67 0.67 -9.1 -9.1 -52.0104 -50.0841 -0.4783 0.0050 -0.020764 -0.139225 12.09 490 780 0.22 -61.28 -0.0000 -0.0000
2.313 2 -1.232295 0.196592 -11.138603 -0.610352 -72.349548 -17.547607 -0.59 0.59 -1.2 -2.7 -52.0104 -48.2953 -0.4913 0.0053 -0.018168 -0.141041 11.55 490 780 0.22 -44.69 0.0000 0.0000
2.322 2 -0.493877 -0.968574 -10.508071 13.938904 -45.440674 0.411987 -0.42 0.42 -1.1 -2.8 -45.0756 -42.2584 -0.5034 0.0054 -0.012977 -0.129111 12.01 510 790 0.21 -39.93 -0.0000 -0.0000
2.331 2 -1.110024 -3.668115 -10.011797 9.864807 -35.209656 6.698608 -0.25 0.25 -7.7 -8.8 -38.6363 -37.5630 -0.5135 0.0055 -0.007786 -0.122878 11.75 490 780 0.20 -45.36 0.0000 0.0000
2.340 2 -1.668633 -1.740557 -9.153505 8.056641 -12.855530 12.924194 -0.33 0.33 -3.2 -3.6 -40.9779 -39.7726 -0.5237 0.0056 -0.010382 -0.115377 11.98 490 780 0.20 -38.60 -0.0000 -0.0000
2.349 2 0.731226 -2.517334 -10.733432 11.512756 6.965637 30.418396 -0.17 0.17 4.4 2.9 -34.6736 -32.1969 -0.5326 0.0057 -0.005191 -0.097852 11.47 490 780 0.18 -19.33 0.0000 0.0000
2.358 2 -0.800752 -1.656645 -10.752612 5.393982 26.206970 33.645630 -0.17 0.17 1.1 1.3 -26.0052 -27.0454 -0.5402 0.0057 -0.005191 -0.075310 11.83 490 770 0.16 -18.42 -0.0000 -0.0000
2.367 2 0.740815 -1.448066 -10.716650 5.966187 41.221619 40.222168 -0.17 0.17 1.7 1.0 -22.5378 -21.8108 -0.5463 0.0057 -0.005191 -0.058250 11.88 510 800 0.14 -13.68 0.0000 0.0000
2.376 2 0.848701 -1.649453 -10.865293 1.533508 60.882568 45.936584 -0.17 0.17 -0.8 0.8 -15.3667 -16.2924 -0.5511 0.0057 -0.005191 -0.036311 11.87 490 800 0.12 -11.03 -0.0000 -0.0000
2.385 2 0.266118 -1.074062 -10.496083 -3.311157 72.669983 44.715881 -0.17 0.17 -2.8 -2.5 -10.9941 -11.4599 -0.5543 0.0058 -0.005191 -0.016811 11.77 490 800 0.10 -11.43 0.0000 0.0000
2.394 2 0.266118 -0.887061 -9.925488 -5.226135 84.747314 45.906067 -0.25 0.25 0.8 0.8 -8.0492 -7.8166 -0.5569 0.0058 -0.007786 0.005103 11.87 490 800 0.07 -2.93 -0.0000 -0.0000
2.403 2 0.599365 -1.246680 -10.146054 -4.371643 86.029053 48.660278 -0.17 0.17 -0.8 -0.8 -4.9353 -5.4748 -0.5583 0.0058 -0.005191 0.020731 11.85 490 880 0.06 -2.99 0.0000 0.0000
2.412 2 0.357222 -1.215513 -9.894321 -5.897522 89.591980 47.973633 -0.17 0.17 -1.1 -1.0 -2.9207 -2.7154 -0.5591 0.0058 -0.005191 0.038473 11.93 510 900 0.04 -1.61 -0.0000 -0.0000
2.421 2 -0.930215 -0.606558 -9.906308 -8.483887 75.996399 42.358398 -0.25 0.25 -7.8 -7.5 -1.3970 -2.1431 -0.5597 0.0058 -0.007786 0.036411 11.63 490 870 0.04 -16.03 0.0000 0.0000
2.430 2 0.028770 -0.074321 -11.212924 -2.357483 79.841614 42.266846 -0.34 0.34 -0.8 0.8 -13.5227 -13.9409 -0.5627 0.0058 -0.010382 0.033602 11.71 490 790 0.05 -8.92 -0.0000 -0.0000
2.439 2 0.997344 -1.786108 -9.999809 -9.361267 105.606079 44.708252 -0.25 0.25 7.5 7.5 -2.9917 -2.2727 -0.5642 0.0059 -0.007786 0.068082 10.49 490 870 0.01 16.20 0.0000 0.0000
2.448 2 -1.347373 1.663838 -10.165234 -8.483887 65.834045 27.084351 -0.08 0.08 -7.9 -7.9 3.4674 4.7615 -0.5629 0.0058 -0.002595 0.058870 10.88 490 870 0.02 -14.23 -0.0000 -0.0000
2.457 2 -1.858032 0.606558 -10.992358 -2.540588 35.835266 33.912659 -0.25 0.25 -7.9 -7.9 -11.9670 -15.1940 -0.5654 0.0059 -0.007786 0.015731 10.93 510 820 0.06 -34.57 0.0000 0.0000
2.466 2 5.571699 -1.620684 -10.460122 -8.850098 84.785461 39.970398 -0.25 0.25 8.3 8.3 -11.0842 -11.6575 -0.5694 0.0059 -0.007786 0.041276 11.26 490 810 0.04 41.60 0.0000 0.0000
2.475 2 -1.033306 1.239487 -10.414570 -9.788513 83.282471 39.688110 -0.34 0.34 -6.5 -4.9 9.0756 7.7273 -0.5688 0.0059 -0.010382 0.074904 11.22 490 800 0.01 -2.64 0.0000 0.0000
2.484 2 -5.113784 0.601763 -7.880454 -5.165100 32.798767 35.285950 -0.42 0.42 -7.9 -7.9 3.9083 -6.3786 -0.5678 0.0059 -0.012977 0.045045 10.88 490 890 0.03 -67.14 -0.0000 -0.0000
2.493 2 -0.417158 -0.546621 -11.474248 6.835938 22.087097 29.624939 -0.42 0.42 -8.0 -8.0 -15.1940 -15.5433 -0.5710 0.0059 -0.012977 0.003534 11.00 490 800 0.08 -26.73 0.0000 0.0000
2.502 2 4.821294 -3.303701 -11.469453 -9.315491 95.191956 26.885986 -0.50 0.50 6.9 6.9 -7.9080 -8.7810 -0.5744 0.0060 -0.015573 0.053927 9.89 510 810 0.03 38.57 0.0000 0.0000
2.511 2 3.171841 -0.556211 -9.445995 -7.369995 85.983276 30.593872 -0.34 0.34 8.0 8.0 9.0756 8.7810 -0.5728 0.0060 -0.010382 0.086695 11.00 490 800 -0.01 29.70 0.0000 0.0000
2.520 2 -2.239228 1.268257 -7.628720 0.885010 24.406433 23.284912 -0.25 0.25 -7.7 -7.7 -2.7824 2.1465 -0.5722 0.0060 -0.007786 0.037152 10.71 490 870 0.04 -42.35 0.0000 0.0000
2.529 2 2.265600 3.843130 -12.390078 -7.461548 36.911011 4.417419 -0.25 0.25 7.2 8.2 -15.5433 -16.6947 -0.5758 0.0060 -0.007786 0.024774 11.18 490 800 0.06 7.09 0.0000 0.0000
2.538 2 4.310635 -1.201128 -11.838662 -13.832092 97.137451 10.040283 -0.17 0.17 7.6 7.6 6.9705 -2.8469 -0.5776 0.0060 -0.005191 0.081067 10.57 490 840 -0.00 40.33 0.0000 0.0000
2.547 2 -1.750146 -3.720859 -9.014453 -8.102417 54.039001 1.884460 -0.08 0.08 -8.3 -8.3 10.8182 12.4061 -0.5750 0.0060 -0.002595 0.088322 11.33 510 810 -0.01 -27.91 -0.0000 -0.0000
2.556 2 -0.110283 -0.728828 -10.194004 6.385803 1.388550 3.135681 -0.17 0.17 -7.7 -6.7 -7.4711 -10.6478 -0.5752 0.0060 -0.005191 0.025959 10.74 490 790 0.05 -13.96 0.0000 0.0000
2.565 2 5.082617 0.486685 -11.174565 -11.878967 47.470093 6.324768 -0.25 0.25 9.3 9.3 -12.6380 -13.6593 -0.5790 0.0060 -0.007786 0.034920 12.32 490 810 0.05 22.58 0.0000 0.0000
2.574 2 2.776260 1.685415 -11.675634 -15.205383 91.522217 8.468628 -0.25 0.25 7.8 7.8 2.3116 2.2538 -0.5794 0.0060 -0.007786 0.101198 10.82 490 870 -0.02 26.90 0.0000 0.0000
2.583 2 -2.443013 -0.728828 -8.232881 -9.063721 26.435852 7.148743 -0.33 0.33 -8.0 -8.0 9.9432 6.8993 -0.5768 0.0060 -0.010382 0.082405 11.00 490 790 -0.00 -36.25 -0.0000 -0.0000
2.592 2 0.141450 -0.666494 -10.436147 2.677917 5.592346 1.373291 -0.67 0.67 -3.0 2.9 -7.4711 -14.3858 -0.5780 0.0060 -0.020764 0.049974 12.09 510 820 0.03 -4.83 0.0000 0.0000
2.601 2 6.509106 -1.841250 -10.707060 -15.281677 50.292969 13.557434 -0.67 0.67 8.8 8.8 -9.2621 -6.6288 -0.5808 0.0061 -0.020764 0.063954 11.83 490 840 0.02 49.91 0.0000 0.0000
2.610 2 1.673428 0.071924 -10.980371 -10.116577 77.140808 15.144348 -0.33 0.33 7.9 7.9 6.5644 13.2575 -0.5792 0.0061 -0.010382 0.115660 10.90 490 840 -0.04 23.86 0.0000 0.0000
2.619 2 -3.895874 -3.912656 -5.669995 7.339478 0.541687 9.269714 -0.33 0.33 -7.9 -7.9 8.6132 6.7613 -0.5764 0.0060 -0.010382 0.062570 10.87 490 840 0.02 -61.01 0.0000 0.0000
2.628 2 -0.208579 0.465107 -11.047500 3.524780 -1.678467 1.930237 -0.50 0.50 -2.3 0.8 -9.7286 -13.9409 -0.5780 0.0061 -0.015573 0.033767 11.33 490 800 0.05 -4.52 0.0000 0.0000
2.637 2 4.301045 -1.376143 -10.889267 -11.665344 55.389404 3.089905 -0.59 0.59 7.9 7.9 -7.1929 -6.2317 -0.5806 0.0061 -0.018168 0.060503 10.90 510 860 0.02 50.53 0.0000 0.0000
2.646 2 0.143848 -0.975767 -9.414829 -7.621765 76.118469 9.948730 -0.50 0.50 -2.8 -2.8 13.0026 13.9409 -0.5788 0.0061 -0.015573 0.109688 10.85 490 800 -0.03 4.36 0.0000 0.0000
2.655 2 -2.349512 -0.124668 -6.676929 7.492065 -0.701904 4.142761 -0.50 0.50 -8.0 -8.0 8.5587 4.9899 -0.5760 0.0060 -0.015573 0.068221 10.96 490 830 0.01 -25.16 0.0000 0.0000
2.664 2 -2.435820 0.795957 -10.776587 -3.082275 0.068665 0.137329 -0.50 0.50 -8.0 -6.4 -10.8182 -12.6380 -0.5780 0.0061 -0.015573 0.048227 11.04 490 800 0.03 -17.21 0.0000 0.0000
2.673 2 2.639604 -0.745610 -11.272861 -10.520935 60.958862 -4.135132 -0.50 0.50 7.9 7.9 -5.4970 -3.5586 -0.5796 0.0061 -0.015573 0.081911 10.85 490 870 -0.00 39.48 0.0000 0.0000
2.682 2 3.373227 0.215771 -11.337592 -17.028809 67.665100 -4.867554 -0.50 0.50 8.0 8.0 14.2344 14.5405 -0.5768 0.0061 -0.015573 0.130917 11.01 510 820 -0.05 38.04 0.0000 0.0000
2.691 2 -0.359619 0.620942 -9.057607 7.705688 -12.207031 -10.040283 -0.59 0.59 -7.6 -7.6 6.5327 4.7953 -0.5738 0.0060 -0.018168 0.049290 10.65 490 870 0.03 -44.04 0.0000 0.0000
2.700 2 -1.220308 2.594053 -12.032856 -2.014160 1.678467 -10.368347 -0.75 0.75 -8.0 -8.0 -9.0756 -11.9670 -0.5758 0.0061 -0.023359 0.032840 11.04 490 810 0.05 -24.19 -0.0000 -0.0000
2.709 2 5.017886 -0.911035 -10.836523 -12.321472 71.563721 0.015259 -0.75 0.75 7.9 7.9 -5.8794 -4.0487 -0.5778 0.0061 -0.023359 0.078797 10.95 490 880 0.00 47.41 0.0000 0.0000
2.718 2 3.049570 -0.278105 -9.179877 -11.680603 76.606750 4.730225 -0.67 0.67 8.1 8.1 14.2344 15.3667 -0.5752 0.0061 -0.020764 0.135760 11.12 490 800 -0.06 41.47 0.0000 0.0000
2.727 2 1.050088 -1.515195 -8.153765 10.864258 -9.689331 -5.699158 -0.67 0.67 -7.8 -7.8 5.6111 5.1029 -0.5720 0.0060 -0.020764 0.073385 10.76 510 890 0.01 -30.64 -0.0000 -0.0000
2.736 2 -0.146245 0.623340 -11.292041 -1.579285 4.508972 -5.935669 -0.75 0.75 -4.5 -2.6 -3.5965 -4.8295 -0.5726 0.0060 -0.023359 0.077594 12.02 490 860 0.00 -6.52 0.0000 0.0000
2.745 2 2.510142 1.196333 -11.982510 -4.219055 35.270691 7.789612 -0.75 0.75 6.2 7.6 1.4942 1.4992 -0.5722 0.0060 -0.023359 0.090781 11.85 490 870 -0.01 18.66 0.0000 0.0000
2.754 2 1.335386 3.828745 -11.246489 -0.770569 33.317566 6.446838 -0.59 0.59 -8.3 -8.2 12.0738 13.5227 -0.5694 0.0059 -0.018168 0.106466 11.30 490 790 -0.03 -3.79 -0.0000 -0.0000
2.763 2 -0.875073 -1.452861 -9.326122 15.480042 -35.408020 2.494812 -0.59 0.59 -8.0 -8.0 -2.5807 -3.2506 -0.5686 0.0059 -0.018168 0.057262 10.96 490 880 0.02 -35.04 0.0000 0.0000
2.772 2 3.799975 3.399600 -10.460122 -8.659363 10.910034 -6.317139 -0.42 0.42 7.8 7.8 -7.8166 -4.4337 -0.5706 0.0060 -0.012977 0.077299 10.81 510 860 0.00 32.44 0.0000 0.0000
2.781 2 -0.582583 -0.306875 -10.584789 -3.578186 46.508789 -12.565613 -0.33 0.33 3.1 2.5 13.7987 15.3667 -0.5684 0.0059 -0.010382 0.148320 10.84 490 800 -0.07 11.93 0.0000 0.0000
2.790 2 -0.752803 -2.826606 -8.120200 10.185242 -38.627625 -16.883850 -0.25 0.25 -8.8 -8.8 10.9941 10.7323 -0.5646 0.0059 -0.007786 0.116109 11.75 490 790 -0.04 -13.96 -0.0000 -0.0000
2.799 2 -1.927559 -2.613232 -10.241953 12.512207 -43.693542 -17.532349 -0.33 0.33 -7.8 -5.9 -6.5327 -8.1462 -0.5656 0.0059 -0.010382 0.091456 12.39 490 830 -0.01 -19.57 -0.0000 -0.0000
2.808 2 4.209941 -0.851099 -9.400444 -4.539490 35.583496 -16.868591 -0.42 0.42 7.7 7.7 7.6399 2.1811 -0.5654 0.0059 -0.012977 0.133364 10.66 490 850 -0.05 52.31 0.0000 0.0000
2.817 2 -6.415605 -4.751768 -10.462520 3.768921 9.376526 -5.043030 -0.25 0.25 -7.9 -7.9 18.0303 20.1831 -0.5609 0.0059 -0.007786 0.169501 10.90 510 820 -0.09 -21.47 0.0000 0.0000
2.826 2 -3.481113 -2.769067 -10.141259 14.671326 -74.020386 -3.616333 -0.17 0.17 -7.7 -7.7 3.3891 4.2391 -0.5583 0.0058 -0.005191 0.092427 10.73 490 870 -0.01 -46.45 -0.0000 -0.0000
2.835 2 4.713408 4.965141 -10.436147 -1.083374 -22.712708 -18.318176 -0.08 0.08 8.9 8.9 -9.4564 -8.8965 -0.5605 0.0059 -0.002595 0.083975 11.88 490 810 -0.00 41.11 0.0000 0.0000
2.844 2 4.727793 -0.210977 -11.090654 -9.292603 62.507629 -9.956360 -0.17 0.17 7.7 7.7 6.2031 8.7243 -0.5599 0.0058 -0.005191 0.167916 10.69 490 840 -0.09 64.05 0.0000 0.0000
2.853 2 -4.181172 5.840215 -10.656713 -1.091003 -11.787415 -7.194519 0.00 -0.00 -8.1 -8.1 18.2739 19.0460 -0.5555 0.0058 0.000000 0.163016 11.12 490 770 -0.08 -38.53 -0.0000 -0.0000
2.862 2 0.601763 -0.855894 -11.464658 11.009216 -68.222046 -8.682251 -0.08 0.08 -8.4 -8.4 6.2317 3.6061 -0.5533 0.0058 -0.002595 0.124406 11.36 510 890 -0.04 -17.81 -0.0000 -0.0000
2.871 2 2.658784 5.212080 -11.399926 -3.349304 -49.468994 -3.486633 -0.08 0.08 -2.3 -2.3 -2.0965 -1.8398 -0.5537 0.0058 -0.002595 0.110623 11.72 490 870 -0.03 -6.46 -0.0000 -0.0000
2.880 2 5.284004 -0.788765 -10.479301 -1.945496 17.692566 5.233765 0.00 -0.00 7.9 7.9 12.7573 14.3858 -0.5515 0.0058 0.000000 0.151601 10.85 490 760 -0.07 50.70 0.0000 0.0000
2.889 2 -8.057866 -3.339663 -8.084238 -3.623962 -49.560547 1.533508 -0.08 0.08 -9.2 -9.2 18.7815 17.1173 -0.5465 0.0058 -0.002595 0.139529 12.17 490 800 -0.06 -70.00 -0.0000 -0.0000
2.898 2 1.433682 -2.052227 -10.786177 12.779236 -120.353699 2.059937 -0.25 0.25 -7.9 -7.2 -3.5493 -9.7991 -0.5461 0.0058 -0.007786 0.066002 10.93 490 840 0.01 -15.51 0.0000 0.0000
2.907 2 7.257114 -0.306875 -7.168408 2.349854 -16.021729 21.987915 -0.17 0.17 7.7 7.7 -5.6111 -4.0978 -0.5479 0.0059 -0.005191 0.103372 10.66 510 890 -0.02 70.00 0.0000 0.0000
2.916 2 -1.205923 -1.697402 -11.313618 -1.968384 7.827759 17.005920 0.08 -0.08 1.1 -0.8 13.5227 16.0984 -0.5456 0.0059 0.002595 0.179732 11.03 490 790 -0.10 6.17 0.0000 0.0000
2.925 2 -0.292490 -1.834058 -8.544551 5.279541 -78.842163 2.410889 0.08 -0.08 -7.7 -7.7 5.5421 5.3661 -0.5428 0.0059 0.002595 0.132490 10.73 490 870 -0.05 -25.71 -0.0000 -0.0000
2.934 2 3.536255 2.682759 -11.457465 7.682800 -76.194763 7.415771 -0.08 0.08 1.4 2.5 -1.7864 -3.0050 -0.5436 0.0059 -0.002595 0.116952 11.01 490 870 -0.04 -0.42 -0.0000 -0.0000
2.943 2 4.272275 -2.538911 -9.685741 1.823425 -17.471313 1.640320 0.17 -0.17 7.9 7.9 14.8601 17.3368 -0.5406 0.0059 0.005191 0.174235 10.95 490 810 -0.09 45.43 0.0000 0.0000
2.952 2 -5.116181 -0.817534 -9.668960 13.687134 -108.261108 -5.645752 0.08 -0.08 -7.4 -7.4 13.0026 9.9432 -0.5364 0.0059 0.002595 0.128511 10.43 510 830 -0.05 -62.20 -0.0000 -0.0000
2.961 2 1.177153 -2.757080 -9.227827 19.050598 -148.544312 -5.401611 -0.17 0.17 -4.6 -3.0 -7.3096 -9.9432 -0.5374 0.0059 -0.005191 0.051083 10.85 490 810 0.03 -6.42 0.0000 0.0000
2.970 2 7.017368 -0.632930 -7.350615 2.990723 -12.458801 13.549805 -0.08 0.08 7.8 7.8 -3.1448 9.3908 -0.5388 0.0059 -0.002595 0.117606 10.82 490 840 -0.04 70.00 0.0000 0.0000
2.979 2 -1.047690 -0.177412 -11.251284 -4.539490 -37.460327 13.877869 0.08 -0.08 -8.8 -8.8 12.5210 12.8788 -0.5356 0.0059 0.002595 0.132650 11.80 490 800 -0.05 -19.75 -0.0000 -0.0000
2.988 2 -0.218169 -4.257891 -8.101020 17.990112 -109.817505 7.560730 0.08 -0.08 -7.8 -7.8 -9.1991 -6.8643 -0.5360 0.0059 0.002595 0.068859 10.82 490 800 0.01 -31.40 -0.0000 -0.0000
2.997 2 7.504053 5.120976 -10.244350 6.103516 -34.446716 20.507812 0.08 -0.08 7.7 7.7 -9.5230 -8.6132 -0.5388 0.0059 0.002595 0.083763 10.66 510 820 -0.00 56.31 0.0000 0.0000
3.006 2 0.033564 -2.862568 -12.176703 -2.548218 16.998291 18.966675 0.08 -0.08 2.1 2.0 13.5227 13.6593 -0.5368 0.0059 0.002595 0.163786 10.90 490 780 -0.08 8.13 0.0000 0.0000
3.015 2 -6.758442 0.119873 -9.894321 7.087708 -94.009399 4.051208 0.08 -0.08 -7.7 -7.7 3.3389 3.1818 -0.5348 0.0059 0.002595 0.084165 10.74 490 880 -0.00 -69.59 0.0000 0.0000
3.024 2 1.939546 -1.368950 -9.345303 16.792297 -77.026367 -11.779785 0.17 -0.17 7.0 6.5 -13.9409 -13.3888 -0.5374 0.0059 0.005191 0.038867 10.87 490 810 0.04 7.67 0.0000 0.0000
3.033 2 4.564765 -0.702456 -8.865810 1.182556 23.681641 10.780334 0.17 -0.17 7.8 7.8 3.2902 2.7209 -0.5382 0.0059 0.005191 0.098973 10.76 490 870 -0.02 48.33 0.0000 0.0000
3.042 2 -6.698506 -2.045034 -10.915639 7.347107 -18.516541 15.068054 0.25 -0.25 -8.0 -8.0 9.0756 9.0756 -0.5352 0.0059 0.007786 0.098508 10.96 510 830 -0.02 -47.06 -0.0000 -0.0000
3.051 2 -0.618545 -0.189399 -8.757924 11.123657 -103.507996 6.278992 0.33 -0.33 -7.8 -7.8 -12.2934 -9.4564 -0.5366 0.0059 0.010382 -0.001799 10.77 490 800 0.08 -35.48 0.0000 0.0000
3.060 2 4.360981 2.742695 -10.690278 -1.495361 -7.415771 16.792297 0.33 -0.33 7.8 7.8 -7.5970 -6.9705 -0.5394 0.0059 0.010382 0.028797 10.82 490 790 0.05 30.31 0.0000 0.0000
3.069 2 0.973369 -2.637207 -12.747299 -4.951477 18.707275 0.892639 0.33 -0.33 -7.9 -7.9 13.9409 13.7987 -0.5370 0.0059 0.010382 0.085391 10.88 490 800 -0.01 -5.76 -0.0000 -0.0000
3.078 2 -4.993911 -0.318862 -7.242729 13.793945 -101.669312 -2.647400 0.17 -0.17 -7.8 -7.8 -2.7824 -2.3076 -0.5366 0.0059 0.005191 -0.002296 10.82 490 890 0.08 -70.00 -0.0000 -0.0000
3.087 2 3.600986 -0.529839 -12.536323 8.544922 -44.281006 3.730774 0.08 -0.08 4.2 4.9 -13.7987 -15.1940 -0.5400 0.0059 0.002595 -0.010284 11.04 510 820 0.09 1.71 0.0000 0.0000
3.096 2 2.023457 -0.268516 -11.234502 -4.173279 37.528992 1.998901 0.25 -0.25 7.8 6.1 2.1741 11.8620 -0.5400 0.0059 0.007786 0.074290 10.77 490 840 0.01 19.27 0.0000 0.0000
3.105 2 -7.060522 6.926264 -10.028579 -7.820129 -50.842285 -16.502380 0.42 -0.42 -7.8 -7.8 2.6156 3.6548 -0.5384 0.0059 0.012977 0.037591 10.77 490 880 0.04 -54.53 -0.0000 -0.0000
3.114 2 1.651851 -4.758960 -8.549345 13.740540 -80.863953 -19.172668 0.50 -0.50 -2.1 -3.2 -14.6986 -13.6593 -0.5414 0.0059 0.015573 -0.030770 11.04 490 800 0.11 -9.76 0.0000 0.0000
3.123 2 4.468867 -0.297285 -9.177480 2.105713 37.307739 -8.224487 0.67 -0.67 7.3 7.3 -5.3661 9.7286 -0.5438 0.0058 0.020764 0.043231 10.30 490 840 0.04 58.23 0.0000 0.0000
3.132 2 -9.275776 -3.392407 -9.714512 0.228882 0.679016 -5.722046 0.75 -0.75 -8.7 -8.7 8.0016 8.9554 -0.5416 0.0059 0.023359 0.061636 11.72 510 820 0.02 -50.93 0.0000 0.0000
3.141 2 -0.314067 -1.939546 -8.343163 16.448975 -101.646423 -4.547119 0.67 -0.67 -7.8 -7.8 -12.7573 -13.6593 -0.5434 0.0058 0.020764 -0.046576 10.77 490 800 0.13 -51.78 -0.0000 -0.0000
3.150 2 7.741401 -0.057539 -9.808012 0.801086 7.385254 0.061035 0.59 -0.59 8.6 8.6 -11.5579 -10.4021 -0.5473 0.0058 0.018168 -0.013586 11.56 490 800 0.09 41.53 0.0000 0.0000
3.159 2 -2.279985 -2.910517 -12.855186 -9.475708 45.196533 -5.348206 0.67 -0.67 -7.9 -7.9 10.4021 10.9054 -0.5463 0.0058 0.020764 0.042872 10.93 490 790 0.04 -22.61 0.0000 0.0000
3.168 2 -6.350874 -3.294111 -7.890044 9.872437 -71.929932 -1.266479 0.67 -0.67 -7.8 -7.8 -8.5048 -8.8384 -0.5467 0.0058 0.020764 -0.046189 10.84 490 810 0.13 -70.00 -0.0000 -0.0000
3.177 2 -0.206182 0.992549 -11.805098 7.591248 -17.791748 -8.796692 0.59 -0.59 7.1 6.6 -17.7930 -18.0303 -0.5509 0.0057 0.018168 -0.062771 12.47 510 830 0.14 2.59 0.0000 0.0000
3.186 2 1.553555 -0.335645 -11.186552 -10.017395 79.437256 -14.518738 0.67 -0.67 7.6 7.0 -3.1015 5.5195 -0.5527 0.0056 0.020764 0.015553 10.65 490 880 0.06 20.49 0.0000 0.0000
3.195 2 -7.384180 0.273311 -9.978232 2.319336 21.163940 -7.545471 0.67 -0.67 -7.8 -7.8 2.7597 -5.1029 -0.5523 0.0057 0.020764 0.002570 10.84 490 890 0.08 -70.00 0.0000 0.0000
3.204 2 0.580186 -1.076460 -8.889785 4.486084 -27.046204 -1.495361 0.67 -0.67 -7.9 -7.9 -16.9034 -16.4911 -0.5555 0.0056 0.020764 -0.078678 10.95 490 800 0.16 -40.13 -0.0000 -0.0000
3.213 2 4.114043 2.939287 -11.229707 -7.270813 71.601868 -3.601074 0.59 -0.59 8.1 8.1 -11.4599 -11.7589 -0.5597 0.0055 0.018168 -0.023774 11.11 490 800 0.10 40.06 0.0000 0.0000
3.222 2 -2.318345 -1.258667 -11.560556 -11.177063 87.074280 -2.792358 0.59 -0.59 -7.9 -7.9 6.4394 5.6580 -0.5593 0.0055 0.018168 0.013194 10.90 510 890 0.07 -29.67 -0.0000 -0.0000
3.231 2 -2.284780 -5.192900 -8.333574 8.255005 -6.385803 -2.990723 0.67 -0.67 -8.0 -8.0 -13.7987 -13.3888 -0.5611 0.0055 0.020764 -0.059950 10.96 490 810 0.14 -70.00 0.0000 0.0000
3.240 2 0.666494 3.260547 -12.330141 -7.232666 39.642334 -9.796143 0.59 -0.59 3.7 2.6 -20.4889 -19.5981 -0.5662 0.0054 0.018168 -0.060144 11.04 490 790 0.14 -7.13 0.0000 0.0000
3.249 2 -1.970713 -0.011987 -11.675634 -20.774841 124.290466 -14.732361 0.67 -0.67 -5.0 -5.8 3.9310 2.1465 -0.5672 0.0054 0.020764 0.036878 10.55 490 880 0.04 -9.22 0.0000 0.0000
3.258 2 -7.031753 0.611353 -7.374589 -6.690979 13.877869 -13.664246 0.67 -0.67 -7.8 -7.8 -8.2455 -1.9828 -0.5672 0.0054 0.020764 -0.030380 10.82 490 840 0.11 -70.00 -0.0000 -0.0000
3.267 2 4.756562 -4.488047 -12.068818 6.462097 19.111633 -13.954163 0.67 -0.67 1.1 0.8 -19.3181 -20.1831 -0.5716 0.0053 0.020764 -0.061789 11.03 510 810 0.14 -8.72 0.0000 0.0000
3.276 2 2.958467 -2.272793 -8.949721 -13.519287 129.524231 -17.341614 0.67 -0.67 7.5 7.5 -5.3449 -3.5774 -0.5744 0.0052 0.020764 0.032623 10.49 490 870 0.05 45.41 0.0000 0.0000
3.285 2 -8.503794 -0.853496 -7.523232 -1.861572 63.484192 -18.989563 0.59 -0.59 -7.9 -7.9 3.0388 -4.9534 -0.5734 0.0052 0.018168 0.007971 10.88 490 890 0.07 -70.00 0.0000 0.0000
3.294 2 0.690469 0.227759 -11.838662 0.587463 14.785767 -13.549805 0.59 -0.59 -8.1 -8.1 -17.7930 -18.5242 -0.5770 0.0052 0.018168 -0.058298 11.14 490 800 0.14 -32.07 -0.0000 -0.0000
3.303 2 7.302666 -0.146245 -8.264048 -13.999939 116.508484 -20.187378 0.59 -0.59 7.7 7.7 -10.0168 -8.7243 -0.5810 0.0051 0.018168 0.010479 10.71 490 800 0.07 70.00 0.0000 0.0000
3.312 2 -0.110283 0.810342 -12.502758 -22.361755 112.648010 -12.863159 0.59 -0.59 -4.1 -5.6 7.0799 8.0016 -0.5802 0.0051 0.018168 0.057928 11.14 510 800 0.02 -6.78 -0.0000 -0.0000
3.321 2 -3.150264 3.258149 -10.335454 2.464294 20.156860 -15.785217 0.50 -0.50 -7.8 -7.8 -12.2934 -12.2934 -0.5816 0.0051 0.015573 -0.024941 10.77 490 800 0.10 -57.00 0.0000 0.0000
3.330 2 2.092983 8.170547 -12.680170 -14.739990 78.353882 -14.617920 0.50 -0.50 8.9 8.9 -13.0026 -15.1940 -0.5865 0.0050 0.015573 0.000704 11.94 490 800 0.08 14.04 0.0000 0.0000
3.339 2 -1.119614 -0.709648 -12.042446 -18.836975 135.940552 -19.538879 0.42 -0.42 -1.8 -1.5 9.4564 8.0492 -0.5859 0.0050 0.012977 0.082052 10.92 490 800 -0.00 -0.50 0.0000 0.0000
3.348 2 -2.857773 -4.938769 -7.161216 7.507324 31.791687 -27.343750 0.33 -0.33 -7.7 -7.7 5.7058 3.3389 -0.5841 0.0051 0.010382 0.022283 10.69 490 870 0.06 -56.82 -0.0000 -0.0000
3.357 2 1.428887 -1.076460 -11.351977 -0.663757 15.045166 -24.871826 0.42 -0.42 3.5 3.4 -14.6986 -15.3667 -0.5867 0.0050 -0.000000 -0.008412 12.28 510 820 0.09 0.06 0.0000 0.0000
3.366 2 4.883628 0.889458 -9.469971 -8.369446 93.620300 -24.612427 0.33 -0.33 8.3 8.3 -6.6288 -5.6818 -0.5893 0.0050 0.010382 0.036508 11.26 490 870 0.04 57.17 0.0000 0.0000
3.375 2 1.349770 -0.103091 -11.488632 -14.442444 100.616455 -15.525818 0.42 -0.42 7.9 7.9 7.3895 9.5230 -0.5875 0.0050 0.012977 0.083409 10.95 490 800 -0.00 30.55 0.0000 0.0000
3.384 2 -3.862309 2.356704 -10.980371 4.768372 -1.647949 -23.094177 0.50 -0.50 -7.6 -7.6 -6.5327 -6.0640 -0.5873 0.0050 0.015573 0.013438 10.62 490 870 0.07 -61.18 0.0000 0.0000
3.393 2 3.977388 1.661440 -10.865293 -0.389099 32.485962 -25.634766 0.59 -0.59 9.0 9.0 -14.3858 -14.2344 -0.5907 0.0050 0.018168 0.026895 11.98 490 800 0.05 37.66 0.0000 0.0000
3.402 2 1.735762 1.802891 -10.153247 -14.686584 114.807129 -26.077271 0.59 -0.59 8.0 8.0 2.4767 2.3892 -0.5911 0.0049 0.018168 0.121273 11.00 510 890 -0.04 45.44 0.0000 0.0000
3.411 2 -7.784555 -3.205405 -7.942788 0.793457 23.109436 -22.148132 0.59 -0.59 -8.0 -8.0 12.7573 10.9941 -0.5879 0.0050 0.018168 0.090970 11.03 490 790 -0.01 -70.00 -0.0000 -0.0000
3.420 2 1.160371 -0.841509 -12.322948 7.087708 -22.384644 -21.430969 0.50 -0.50 -1.8 -2.3 -2.1533 -6.8296 -0.5881 0.0050 0.015573 0.058302 10.77 490 830 0.02 -6.93 0.0000 0.0000
3.429 2 3.879092 -0.748008 -9.796025 -3.417969 24.261475 -6.744385 0.59 -0.59 8.1 8.3 7.0799 2.4767 -0.5891 0.0050 0.018168 0.078463 11.53 490 840 0.00 21.81 0.0000 0.0000
3.438 2 -3.176636 -3.792783 -10.795766 2.944946 36.842346 -11.383057 0.67 -0.67 -8.0 -8.0 12.8788 14.8601 -0.5861 0.0050 0.020764 0.110550 11.01 490 800 -0.03 -25.56 0.0000 0.0000
3.447 2 -4.502431 -2.996826 -11.771533 17.669678 -68.420410 -12.474060 0.67 -0.67 -7.8 -7.8 2.5419 -7.1549 -0.5845 0.0051 0.020764 0.026753 10.82 510 850 0.05 -62.31 -0.0000 -0.0000
3.456 2 4.586343 0.208579 -11.351977 3.868103 -22.323608 -7.408142 0.59 -0.59 8.0 8.0 -9.2621 -9.4564 -0.5867 0.0050 0.018168 0.034386 11.04 490 800 0.05 19.61 0.0000 0.0000
3.465 2 2.574873 -0.970972 -8.690796 -10.505676 64.056396 -12.130737 0.67 -0.67 7.9 7.9 14.2344 14.3858 -0.5849 0.0051 0.020764 0.128500 10.85 490 800 -0.05 45.71 0.0000 0.0000
3.474 2 0.805547 6.967021 -10.333056 1.861572 -33.889771 -19.531250 0.59 -0.59 -7.9 -7.9 15.9091 10.4021 -0.5806 0.0052 0.018168 0.090441 10.93 490 800 -0.01 -37.66 0.0000 0.0000
3.483 2 4.492842 -1.368950 -11.848251 12.283325 -75.851440 -7.843018 0.42 -0.42 9.7 9.7 -6.6944 -8.6684 -0.5810 0.0052 0.012977 0.070883 12.67 490 830 0.01 19.54 0.0000 0.0000
3.492 2 5.799458 -0.731226 -6.756045 -1.632690 2.914429 2.807617 0.50 -0.50 7.9 7.9 7.4711 9.4564 -0.5804 0.0052 0.015573 0.127238 10.87 510 830 -0.05 70.00 0.0000 0.0000
3.501 2 -1.711787 12.531528 -12.334936 -6.904602 -27.038574 2.723694 0.50 -0.50 -8.2 -8.2 20.8041 19.3181 -0.5756 0.0052 0.015573 0.131478 11.17 490 800 -0.05 -44.52 -0.0000 -0.0000
3.510 2 1.117217 0.175015 -11.661249 20.401001 -116.577148 -1.106262 0.33 -0.33 -7.8 -7.8 -5.2414 -3.7985 -0.5740 0.0052 0.010382 0.057946 10.81 490 870 0.02 -24.46 0.0000 0.0000
3.519 2 3.087929 3.641743 -11.634877 -0.473022 -49.278259 -1.144409 0.42 -0.42 8.9 8.9 -7.5126 -4.9353 -0.5758 0.0052 0.012977 0.075287 11.93 490 840 0.00 21.57 0.0000 0.0000
3.528 2 0.134258 -1.690210 -8.309599 -4.707336 23.422241 -2.365112 0.59 -0.59 5.3 2.9 13.0026 14.5405 -0.5734 0.0053 0.018168 0.158782 11.03 490 800 -0.08 13.77 0.0000 0.0000
3.537 2 -3.883887 1.795698 -9.788833 6.698608 -72.181702 -3.662109 0.50 -0.50 -7.5 -7.5 8.4517 4.9173 -0.5704 0.0053 0.015573 0.097675 10.49 510 850 -0.02 -66.16 -0.0000 -0.0000
3.546 2 3.740039 1.265859 -15.053657 16.914368 -81.573486 -6.484985 0.50 -0.50 -3.7 -4.5 -8.2961 -9.3908 -0.5720 0.0053 0.015573 0.069643 10.95 490 800 0.01 -10.67 -0.0000 -0.0000
3.555 2 7.597553 -3.541050 -5.914536 -5.325317 33.370972 -3.349304 0.50 -0.50 7.7 7.7 7.3096 9.4564 -0.5716 0.0053 0.015573 0.160177 10.71 490 810 -0.08 70.00 0.0000 0.0000
3.564 2 -2.258408 6.636172 -11.977715 12.374878 -27.282715 -8.079529 0.50 -0.50 -8.9 -8.9 11.1758 11.2689 -0.5680 0.0054 0.015573 0.129816 11.88 490 810 -0.05 -52.80 0.0000 0.0000
3.573 2 4.382558 1.196333 -11.829072 15.182495 -93.101501 -3.143311 0.50 -0.50 7.3 6.7 -9.6591 -9.7991 -0.5688 0.0054 0.015573 0.069876 10.90 490 800 0.01 10.44 0.0000 0.0000
3.582 2 10.093310 -0.676084 -7.904428 -3.913879 1.953125 2.700806 0.50 -0.50 7.6 7.6 4.2127 3.9310 -0.5692 0.0054 0.015573 0.112663 10.65 510 900 -0.03 70.00 0.0000 0.0000
3.591 2 -2.749888 3.699282 -11.960932 -16.029358 4.127502 4.829407 0.59 -0.59 3.5 2.0 14.5405 15.3667 -0.5658 0.0054 0.018168 0.152121 11.00 490 800 -0.07 12.74 0.0000 0.0000
3.600 2 0.206182 -3.689692 -10.970781 17.036438 -103.019714 -1.304626 0.50 -0.50 -7.5 -7.5 -3.6449 -2.5563 -0.5648 0.0054 0.015573 0.053640 10.52 490 870 0.03 -44.19 0.0000 0.0000
3.609 2 2.656387 3.051968 -12.222256 4.798889 -37.918091 -5.928040 0.50 -0.50 8.8 8.8 -5.6345 -7.1172 -0.5668 0.0054 0.015573 0.066610 11.82 490 830 0.01 19.86 0.0000 0.0000
3.618 2 -1.831660 -1.716582 -7.782158 -5.142212 33.035278 -2.037048 0.50 -0.50 -8.0 -8.0 13.2575 14.3858 -0.5644 0.0054 0.015573 0.139956 11.00 490 800 -0.06 -12.77 0.0000 0.0000
3.627 2 -2.327935 -1.512798 -10.663906 12.855530 -71.487427 -4.318237 0.50 -0.50 -7.5 -7.5 7.8620 5.8794 -0.5619 0.0055 0.015573 0.062883 10.50 510 850 0.02 -70.00 -0.0000 -0.0000
3.636 2 1.632671 2.771465 -13.361050 14.045715 -72.532654 -2.677917 0.33 -0.33 -8.0 -8.0 -7.6833 -11.0842 -0.5635 0.0054 0.010382 0.031175 11.03 490 790 0.05 -23.30 -0.0000 -0.0000
3.645 2 4.763755 -1.524785 -6.676929 -3.578186 27.778625 -2.502441 0.17 -0.17 7.9 7.9 6.3190 3.8417 -0.5640 0.0054 0.005191 0.092789 10.87 490 880 -0.01 42.13 0.0000 0.0000
3.654 2 -8.307202 -5.641225 -9.491548 -0.381470 -2.990723 13.076782 0.25 -0.25 -9.5 -9.5 7.2314 8.2455 -0.5609 0.0055 0.007786 0.091364 12.51 480 810 -0.01 -62.57 -0.0000 -0.0000
3.663 2 0.031167 -0.035962 -9.930283 8.621216 -73.936462 1.853943 0.33 -0.33 -8.0 -8.0 -11.5579 -9.7991 -0.5623 0.0054 0.010382 0.020944 11.03 490 790 0.06 -19.80 0.0000 0.0000
3.672 2 7.683862 0.481890 -9.239814 -5.798340 28.442383 0.518799 0.33 -0.33 6.6 6.6 -5.0270 -6.7953 -0.5648 0.0054 0.010382 0.074258 9.62 510 860 0.01 69.50 0.0000 0.0000
3.681 2 -0.143848 2.145727 -12.346924 -19.081116 42.930603 0.358582 0.33 -0.33 0.8 -0.8 14.0861 14.2344 -0.5619 0.0054 0.010382 0.125767 10.95 490 790 -0.05 6.35 0.0000 0.0000
3.690 2 -2.066611 -4.080478 -10.313877 13.854980 -70.259094 1.251221 0.33 -0.33 -7.7 -7.7 -2.9851 -4.3066 -0.5611 0.0055 0.010382 0.037037 10.69 490 870 0.04 -59.54 0.0000 0.0000
3.699 2 2.267998 1.138794 -11.157783 2.388000 -9.712219 -16.845703 0.34 -0.34 9.1 9.1 -9.9432 -10.0916 -0.5640 0.0054 0.010382 0.054555 12.12 490 800 0.03 24.86 0.0000 0.0000
3.708 2 -0.263721 -2.982441 -8.482217 -10.765076 60.653687 -6.622314 0.33 -0.33 0.8 -0.8 13.3888 13.1288 -0.5623 0.0054 0.010382 0.119706 10.92 490 800 -0.04 7.82 0.0000 0.0000
3.717 2 -1.944341 -4.413725 -10.596777 5.058289 -46.615601 -3.402710 0.42 -0.42 -7.8 -7.8 6.6288 7.8166 -0.5593 0.0055 0.012977 0.053998 10.77 510 850 0.03 -64.74 -0.0000 -0.0000
3.726 2 1.340181 -2.018662 -10.903652 17.425537 -67.604065 -3.494263 0.17 -0.17 -2.5 -1.0 -9.5230 -12.4061 -0.5611 0.0055 0.005191 0.014575 10.95 490 800 0.07 -5.41 0.0000 0.0000
3.735 2 4.193159 -2.663579 -6.803994 -5.607605 37.467957 0.732422 0.08 -0.08 7.8 7.8 -2.1096 2.1567 -0.5617 0.0055 0.002595 0.082857 10.81 490 880 -0.00 54.99 0.0000 0.0000
3.744 2 -1.781313 -4.054106 -11.289643 16.464233 14.488220 1.266479 0.00 -0.00 -9.6 -9.6 9.1991 9.8706 -0.5587 0.0055 0.000000 0.082597 12.62 490 800 -0.00 -61.80 -0.0000 -0.0000
3.753 2 3.608179 -1.882007 -9.793628 18.341064 -87.471008 7.072449 0.00 -0.00 -1.3 -0.8 -11.5579 -12.8788 -0.5599 0.0055 0.000000 0.002579 10.92 490 770 0.08 -4.62 0.0000 0.0000
3.762 2 10.026181 -0.901445 -8.920952 -4.997253 30.860901 10.765076 -0.08 0.08 7.7 7.7 -6.8993 -6.0640 -0.5625 0.0055 -0.002595 0.054829 10.71 510 860 0.03 70.00 0.0000 0.0000
3.771 2 2.426230 7.952378 -11.275258 -25.245667 50.926208 11.184692 -0.08 0.08 -2.1 -0.8 11.9670 9.5230 -0.5597 0.0055 -0.002595 0.104032 10.85 490 800 -0.02 3.00 0.0000 0.0000
3.780 2 0.246938 -6.477939 -10.690278 18.043518 -73.165894 14.549255 -0.08 0.08 -7.7 -7.7 -2.0396 -2.2389 -0.5597 0.0055 -0.002595 0.024723 10.74 490 880 0.06 -47.25 -0.0000 -0.0000
3.789 2 2.543706 1.730967 -12.927109 -0.762939 -3.753662 2.265930 -0.17 0.17 9.3 9.3 -6.6944 -8.7243 -0.5623 0.0055 -0.005191 0.041415 12.31 490 830 0.04 19.98 0.0000 0.0000
3.798 2 -0.544224 -0.719238 -7.276294 -9.330750 61.752319 -0.541687 -0.17 0.17 -2.1 -2.0 13.2575 14.2344 -0.5607 0.0055 -0.005191 0.116780 10.95 490 810 -0.04 3.55 0.0000 0.0000
3.807 2 -3.361240 -4.591137 -11.136206 11.970520 -51.834106 -1.785278 -0.08 0.08 -7.7 -7.7 3.2120 4.4777 -0.5585 0.0055 -0.002595 0.043327 10.73 510 890 0.04 -70.00 -0.0000 -0.0000
3.816 2 7.417744 -7.182793 -11.759545 14.671326 -50.544739 -2.662659 -0.08 0.08 1.6 2.4 -12.4061 -13.7987 -0.5613 0.0055 -0.002595 0.007777 10.87 490 810 0.07 -0.21 0.0000 0.0000
3.825 2 5.799458 -0.551416 -7.257114 -7.553101 73.158264 -11.001587 -0.17 0.17 7.3 7.3 3.1015 2.8469 -0.5623 0.0055 -0.005191 0.095624 10.27 490 890 -0.02 65.09 0.0000 0.0000
3.834 2 -5.845010 -2.253613 -10.522456 3.761292 10.543823 -1.533508 -0.17 0.17 -7.8 -7.8 6.4702 8.0974 -0.5595 0.0054 -0.005191 0.083506 10.79 490 840 -0.00 -66.26 -0.0000 -0.0000
3.843 2 4.816499 -4.384956 -9.786435 7.820129 -60.440063 -1.617432 -0.17 0.17 -0.9 -0.8 -11.6575 -12.5210 -0.5611 0.0055 -0.005191 0.008432 11.23 490 800 0.07 -3.77 0.0000 0.0000
3.852 2 8.295215 0.374004 -10.505673 -6.973267 50.064087 -5.470276 -0.17 0.17 7.7 7.7 5.9835 -2.9207 -0.5627 0.0055 -0.005191 0.066530 10.69 510 900 0.01 63.59 0.0000 0.0000
3.861 2 -2.354306 -0.098296 -9.625805 -16.143799 31.661987 4.478455 -0.08 0.08 -8.0 -8.0 12.1826 13.1288 -0.5593 0.0054 -0.002595 0.104009 10.96 490 800 -0.02 -8.23 0.0000 0.0000
3.870 2 -2.018662 -3.672910 -10.011797 17.471313 -78.666687 -4.829407 -0.08 0.08 -7.8 -7.8 -9.3260 -9.5230 -0.5597 0.0054 -0.002595 -0.000864 10.81 490 800 0.08 -55.25 -0.0000 -0.0000
3.879 2 6.628979 3.461933 -12.241435 -8.316040 15.518188 -7.591248 -0.17 0.17 8.4 8.4 -7.9080 -6.7953 -0.5627 0.0055 -0.005191 0.035564 11.41 490 810 0.04 25.34 0.0000 0.0000
3.888 2 -2.332729 -3.409189 -8.506191 -8.003235 60.554504 -7.003784 -0.08 0.08 -7.9 -7.9 12.8788 14.8601 -0.5605 0.0055 -0.002595 0.104445 10.93 490 800 -0.02 -30.58 -0.0000 -0.0000
3.897 2 -6.792006 7.710234 -12.004086 7.270813 -63.476562 -2.243042 -0.08 0.08 -7.7 -7.7 -2.7882 -2.4234 -0.5597 0.0054 -0.002595 0.022887 10.73 510 900 0.06 -64.91 0.0000 0.0000
3.906 2 4.250698 8.575718 -13.711079 2.662659 -9.002686 -10.887146 -0.17 0.17 8.1 8.1 -10.7323 -11.6575 -0.5627 0.0055 -0.005191 0.016320 11.09 490 800 0.06 33.24 0.0000 0.0000
3.915 2 1.913174 2.790644 -7.715029 -12.031555 86.120605 -8.605957 -0.17 0.17 7.8 7.8 12.0738 11.4599 -0.5619 0.0055 -0.005191 0.098850 10.81 490 800 -0.02 44.40 0.0000 0.0000
3.924 2 -11.013935 -9.947065 -10.333056 4.951477 -16.532898 -5.416870 -0.17 0.17 -7.9 -7.9 5.9051 4.5685 -0.5595 0.0054 -0.005191 0.045199 10.90 490 880 0.03 -70.00 -0.0000 -0.0000
3.933 2 -0.491479 -2.960864 -9.661767 5.035400 -39.077759 -1.220703 -0.08 0.08 -9.0 -9.0 -13.2575 -12.4061 -0.5621 0.0054 -0.002595 -0.011301 11.98 490 800 0.09 -21.26 0.0000 0.0000
3.942 2 2.208061 -0.407568 -8.014711 -8.239746 86.807251 -7.873535 -0.17 0.17 7.9 7.9 3.1818 4.0487 -0.5631 0.0055 -0.005191 0.062242 10.90 510 900 0.02 47.29 0.0000 0.0000
3.951 2 -4.953154 -14.272084 -8.858618 10.452271 47.454834 -3.784180 -0.08 0.08 -9.5 -9.5 7.9080 9.0756 -0.5605 0.0054 -0.002595 0.073140 12.50 490 810 0.01 -55.00 -0.0000 -0.0000
3.960 2 1.263462 -1.642261 -9.733691 7.110596 -47.630310 -1.228333 -0.17 0.17 -7.9 -7.9 -9.0756 -11.4599 -0.5615 0.0054 -0.005191 -0.009998 10.92 490 800 0.09 -28.93 0.0000 0.0000
3.969 2 5.847407 2.876953 -10.898857 -9.529114 44.456482 0.854492 -0.33 0.33 8.0 8.0 -3.3891 -5.2617 -0.5635 0.0055 -0.010382 0.037630 11.00 490 880 0.04 28.60 0.0000 0.0000
3.978 2 4.305840 2.133740 -10.639932 -21.026611 70.068359 2.357483 -0.42 0.42 6.4 7.9 14.5405 13.6593 -0.5609 0.0054 -0.012977 0.107416 11.06 490 800 -0.03 21.47 0.0000 0.0000
3.987 2 -7.710234 -4.677446 -9.915898 13.137817 -73.341370 11.177063 -0.25 0.25 -7.8 -7.8 -4.2929 3.7048 -0.5589 0.0054 -0.007786 0.018841 10.77 510 910 0.06 -70.00 -0.0000 -0.0000
3.996 2 7.173203 0.781572 -13.054174 8.110046 -26.565552 -7.514954 -0.25 0.25 7.9 7.9 -9.6591 -9.5230 -0.5613 0.0054 -0.007786 0.024335 10.92 490 800 0.06 23.93 0.0000 0.0000
4.005 2 2.294370 0.798354 -5.991255 -7.507324 59.005737 -3.463745 -0.17 0.17 7.8 7.8 10.6478 13.5227 -0.5603 0.0054 -0.005191 0.110356 10.79 490 790 -0.03 45.87 0.0000 0.0000
4.014 2 -6.861533 -4.377764 -12.447617 -1.037598 -41.725159 -1.091003 -0.08 0.08 -8.0 -8.0 7.0066 10.0168 -0.5569 0.0054 -0.002595 0.072864 11.03 490 800 0.01 -70.00 0.0000 0.0000
4.023 2 4.684639 -1.834058 -10.196401 9.185791 -81.092834 -6.210327 -0.08 0.08 8.1 8.1 -9.0756 -9.5230 -0.5581 0.0054 -0.002595 0.019701 11.07 490 810 0.06 16.00 0.0000 0.0000
4.032 2 7.456103 -1.337783 -8.079443 0.328064 25.688171 -4.516602 -0.00 0.00 7.8 7.8 2.1229 7.3096 -0.5583 0.0054 0.000000 0.078305 10.79 510 860 0.00 70.00 0.0000 0.0000
4.041 2 -4.301045 -11.694814 -8.968901 14.083862 -10.017395 -3.517151 0.08 -0.08 -8.7 -8.7 13.1288 11.9670 -0.5545 0.0054 0.002595 0.092443 11.68 490 810 -0.01 -70.00 -0.0000 -0.0000
4.050 2 0.256528 0.671289 -10.510468 13.977051 -120.315552 -0.595093 0.00 -0.00 -7.8 -7.8 -5.3239 -2.5660 -0.5539 0.0054 0.000000 -0.005770 10.77 490 840 0.09 -47.68 0.0000 0.0000
4.059 2 4.420918 6.468349 -11.646865 -4.074097 -20.927429 0.915527 -0.08 0.08 8.6 8.6 -4.9716 -5.1613 -0.5557 0.0054 -0.002595 0.032229 11.56 490 870 0.05 21.32 0.0000 0.0000
4.068 2 -1.313809 -1.531978 -8.729155 -0.877380 14.717102 1.785278 0.00 -0.00 -8.1 -8.1 15.0252 15.0252 -0.5527 0.0054 0.000000 0.089873 11.09 490 770 -0.01 -27.06 -0.0000 -0.0000
4.077 2 -4.718203 -6.300527 -9.505932 13.626099 -104.110718 10.200500 0.08 -0.08 -7.8 -7.8 -5.2211 3.3891 -0.5513 0.0054 0.002595 0.012757 10.76 510 890 0.07 -70.00 0.0000 0.0000
4.086 2 9.251801 8.415088 -14.653281 5.424500 -50.704956 -17.936707 0.17 -0.17 9.4 9.4 -9.1991 -7.1172 -0.5539 0.0054 0.005191 0.018061 12.40 490 800 0.06 37.37 0.0000 0.0000
4.095 2 2.301562 -0.007192 -6.142295 -6.546021 35.171509 -11.642456 0.25 -0.25 7.8 7.8 8.8384 13.1288 -0.5529 0.0054 0.007786 0.106958 10.82 490 810 -0.03 57.45 0.0000 0.0000
4.104 2 -9.887129 -13.761425 -10.680688 10.032654 -64.941406 -7.339478 0.33 -0.33 -8.1 -8.1 5.0837 5.6111 -0.5503 0.0054 0.010382 0.051573 11.12 490 880 0.03 -70.00 -0.0000 -0.0000
4.113 2 3.236572 -0.712046 -11.675634 11.672974 -82.756042 -12.741089 0.33 -0.33 -9.4 -9.4 -12.6380 -11.8620 -0.5527 0.0054 0.010382 0.003867 12.42 490 800 0.08 -27.77 -0.0000 -0.0000
4.122 2 7.506450 -1.033306 -7.134843 -2.395630 53.169250 -10.360718 0.50 -0.50 7.9 7.9 3.6449 7.9545 -0.5535 0.0054 0.015573 0.098703 10.85 510 870 -0.02 70.00 0.0000 0.0000
