%  1    time 0.000 sec
%  2    mission (0) state 2
%  3  4  5 Acc x,y,z: 8.774707 0.704853 4.859653
%  6  7  8 Gyro x,y,z: -0.099182 -0.076294 -1.205444
%  9 10 Motor velocity ref left, right: 0.84 0.84
% 11 12 Motor voltage [V] left, right: 0.8 0.8
% 13 14 Motor current left, right [A]: 0.006 0.032
% 15 16 Wheel velocity [r/s] left, right: 0.0000 0.0000
% 17 18 19 20 Pose x,y,h,tilt [m,m,rad,rad]: 0.0000 0.0000 0.000000 -1.065138
% 21    Battery voltage [V]: 11.94
% 22 23 Get data time [us]: 510 +ctrl 800
% 24 25 26 27 Extra pt.: balE[0], balU[0], balUI[0], balUI[1]: 0.00 0.0000 0.0000 0.0000
0.001 2 8.777104 0.714443 4.845268 -0.244141 0.114441 -1.258850 1.68 1.68 0.9 0.9 0.006 0.013 0.0000 0.0000 0.0000 0.0000 0.000000 -1.065149 11.94 490 720 0.00 0.00 0.0000 0.0000
0.002 2 8.793886 0.688071 4.842871 -0.465393 0.160217 -1.243591 2.52 2.52 1.4 1.4 0.025 -0.006 0.0000 0.0000 0.0000 0.0000 0.000000 -1.065181 11.94 490 670 0.00 0.00 0.0000 0.0000
0.003 2 8.791489 0.707251 4.924385 -0.457764 -0.198364 -1.167297 3.36 3.36 1.9 1.9 0.177 0.089 0.0000 0.0000 0.0000 0.0000 0.000000 -1.065154 11.94 490 670 0.00 0.00 0.0000 0.0000
0.004 2 8.774707 0.637725 4.850063 -0.282288 -0.373840 -1.197815 4.20 4.20 2.4 2.4 0.329 0.247 0.0000 0.0000 0.0000 0.0000 0.000000 -1.065117 11.94 490 670 0.00 0.00 0.0000 0.0000
0.005 2 8.769912 0.649712 4.862051 -0.167847 -0.190735 -1.190186 5.04 5.04 2.9 2.9 0.443 0.386 0.0000 0.0000 0.0000 0.0000 0.000000 -1.065124 11.77 510 690 0.00 0.00 0.0000 0.0000
0.006 2 8.645244 0.630532 4.862051 -0.480652 -0.007629 -1.022339 5.88 5.88 3.5 3.5 0.564 0.551 0.0000 0.0000 0.0002 -0.0000 -0.002595 -1.065055 11.77 490 700 0.00 0.00 0.0000 0.0000
0.007 2 8.676411 0.642520 4.802114 -0.579834 0.335693 -1.190186 6.72 6.72 4.0 4.0 0.697 0.703 0.0000 0.0000 0.0002 -0.0000 -0.002595 -1.064989 11.77 490 700 0.00 0.00 0.0000 0.0000
0.008 2 8.721963 0.704853 4.749370 -0.595093 0.633240 -1.327515 7.56 7.56 4.6 4.6 0.842 0.899 0.0000 0.0000 0.0002 -0.0000 -0.002595 -1.065055 11.77 490 700 0.00 0.00 0.0000 0.0000
0.009 2 8.633257 0.647314 4.840474 -0.480652 0.495911 -1.327515 8.40 8.40 5.2 5.2 1.026 1.102 0.0000 0.0000 0.0002 -0.0000 -0.002595 -1.065063 11.77 490 700 0.00 0.00 0.0000 0.0000
0.010 2 8.580512 0.666494 4.816499 -0.427246 0.732422 -1.129150 9.24 9.24 5.8 5.8 1.229 1.185 0.0000 0.0000 0.0002 -0.0000 -0.002595 -1.064943 11.52 510 720 0.00 0.00 0.0000 0.0000
0.011 2 8.932940 0.752803 4.933974 -0.366211 -0.854492 -0.587463 10.08 10.08 4.2 6.4 1.235 1.235 2.7997 0.0000 0.0006 -0.0000 -0.002595 -1.064900 11.52 490 760 0.00 0.00 0.0000 0.0000
0.012 2 10.148452 0.251733 5.039463 -0.717163 -7.553101 0.267029 10.92 10.92 4.4 7.0 1.248 1.368 2.7997 0.0000 0.0006 -0.0000 -0.002595 -1.065431 11.52 490 760 0.00 0.00 0.0000 0.0000
0.013 2 7.837299 -1.294629 4.226724 -1.815796 2.761841 -3.379822 11.76 11.76 3.5 3.8 1.235 1.552 5.9051 5.7543 0.0010 -0.0000 -0.002595 -1.066019 11.52 490 820 0.00 0.00 0.0000 0.0000
0.014 2 4.938769 4.238711 7.947583 -3.982544 5.111694 3.349304 12.61 12.61 4.2 3.1 1.128 1.596 5.9051 9.3260 0.0012 -0.0000 0.000000 -1.061002 11.52 490 790 0.00 0.00 0.0000 0.0000
0.015 2 9.858359 5.272017 2.802632 -0.175476 23.216248 20.126343 13.45 13.45 4.4 2.4 1.020 1.311 7.6833 11.4599 0.0016 -0.0000 0.000000 -1.058063 11.71 510 750 0.00 0.00 0.0000 0.0000
0.016 2 10.790972 -2.558091 2.864966 11.825562 28.137207 19.317627 14.29 14.29 4.9 2.9 1.007 0.988 7.6833 11.4599 0.0018 -0.0000 -0.002595 -1.062460 11.71 490 750 0.00 0.00 0.0000 0.0000
0.017 2 8.558935 -2.390269 8.834643 9.979248 -10.704041 0.656128 15.13 15.13 5.2 3.0 1.020 0.716 8.2455 12.2934 0.0020 -0.0000 0.000000 -1.061873 11.71 490 750 0.00 0.00 0.0000 0.0000
0.018 2 9.175083 -0.553813 1.265859 -4.104614 8.125305 -14.915466 15.97 15.97 4.6 3.6 1.166 0.564 10.4021 12.0738 0.0024 -0.0000 0.000000 -1.062682 11.71 490 720 0.00 0.00 0.0000 0.0000
0.019 2 8.093828 1.500811 6.298130 -9.078979 8.232117 -4.676819 16.81 16.81 4.0 3.4 1.229 0.545 12.5210 13.3888 0.0028 -0.0000 0.000000 -1.064698 11.71 490 720 0.00 0.00 0.0000 0.0000
0.020 2 8.729155 0.951792 5.931318 1.777649 -9.986877 9.796143 17.65 17.65 4.3 3.7 1.134 0.564 12.8788 13.6593 0.0032 -0.0000 0.000000 -1.062278 11.77 510 740 0.00 0.00 0.0000 0.0000
0.021 2 8.645244 2.011470 4.030132 1.426697 -4.951477 10.704041 18.49 18.49 4.8 4.1 0.976 0.576 12.8788 13.9409 0.0036 -0.0000 0.000000 -1.062249 11.77 490 730 0.00 0.00 0.0000 0.0000
0.022 2 7.909224 1.920366 5.336748 -9.284973 -5.187988 5.607605 19.33 19.33 4.9 5.0 0.830 0.659 13.6593 13.2575 0.0040 -0.0000 0.000000 -1.062210 11.77 490 720 0.00 0.00 0.0000 0.0000
0.023 2 9.129531 -0.937407 3.728052 -5.676270 -1.594543 -2.716064 20.17 20.17 4.9 4.7 0.912 0.728 14.6986 14.8601 0.0046 -0.0000 0.002595 -1.062625 11.77 490 750 0.00 0.00 0.0000 0.0000
0.024 2 10.982768 0.786367 4.581548 -3.173828 -0.236511 -5.729675 21.01 21.01 5.3 4.9 1.007 0.823 15.0252 15.5433 0.0052 -0.0000 0.000000 -1.064952 11.77 490 750 0.00 0.00 0.0000 0.0000
0.025 2 9.086377 0.098296 4.763755 -4.539490 6.507874 -6.141663 21.85 21.85 5.3 5.3 1.026 0.861 16.0984 15.7241 0.0056 -0.0000 0.000000 -1.066220 11.60 510 750 0.00 0.00 0.0000 0.0000
0.026 2 7.038945 0.112681 6.425195 4.623413 6.759644 -2.578735 22.69 22.69 5.5 5.3 1.102 0.938 16.6947 16.6947 0.0060 -0.0000 0.000000 -1.063991 11.60 490 720 0.00 0.00 0.0000 0.0000
0.027 2 8.393511 1.038101 5.938510 9.025574 -0.579834 3.448486 23.53 23.53 5.6 5.2 1.197 0.861 17.5619 18.0303 0.0068 -0.0000 0.000000 -1.060552 11.60 490 730 0.00 0.00 0.0000 0.0000
0.028 2 8.695591 0.855894 4.905205 1.190186 -0.305176 4.417419 24.37 24.37 5.3 5.6 1.172 0.918 19.0460 18.2739 0.0072 -0.0000 0.000000 -1.059482 11.60 490 720 0.00 0.00 0.0000 0.0000
0.029 2 8.537358 0.273311 4.394546 -2.861023 2.693176 2.433777 25.21 25.21 5.7 5.4 1.001 0.969 19.3181 19.5981 0.0078 -0.0000 0.002595 -1.059794 11.60 490 750 0.00 0.00 0.0000 0.0000
0.030 2 9.517920 0.304478 2.349512 0.785828 11.802673 0.221252 26.05 26.05 5.8 5.5 1.077 1.045 20.1831 20.4889 0.0084 0.0000 0.000000 -1.062685 11.56 510 750 0.00 0.00 0.0000 0.0000
0.031 2 8.470229 2.733105 5.614853 -1.502991 -10.139465 3.295898 26.89 26.89 6.0 5.1 1.096 1.039 20.8041 22.1684 0.0093 0.0000 0.000000 -1.064540 11.56 490 690 0.00 0.00 0.0000 0.0000
0.032 2 5.806650 1.711787 4.377764 -6.843567 -19.393921 5.043030 27.73 27.73 5.8 6.0 1.185 1.001 22.1684 21.4646 0.0097 0.0000 0.000000 -1.062628 11.56 480 700 0.00 0.00 0.0000 0.0000
0.033 2 8.422280 0.901445 4.337007 -6.347656 -6.950378 5.966187 28.57 28.57 5.7 5.1 1.109 0.899 23.3150 24.1477 0.0105 0.0000 0.000000 -1.061814 11.56 490 700 0.00 0.00 0.0000 0.0000
0.034 2 11.186552 -0.436338 5.236054 -3.715515 -1.060486 2.540588 29.41 29.41 6.0 6.3 1.071 0.874 23.7240 22.9198 0.0113 0.0000 0.000000 -1.062919 11.56 480 700 0.00 0.00 0.0000 0.0000
0.035 2 9.575459 -0.939805 4.416123 -4.478455 8.094788 -5.638123 30.25 30.25 5.9 6.2 1.121 0.906 25.0420 24.1477 0.0121 0.0000 0.000000 -1.064303 11.60 510 720 0.00 0.00 0.0000 0.0000
0.036 2 7.993134 -0.563403 6.118320 0.900269 7.286072 -7.469177 31.09 31.09 6.2 5.7 1.153 0.938 25.5145 26.0052 0.0129 0.0000 0.000000 -1.063452 11.60 490 700 0.00 0.00 0.0000 0.0000
0.037 2 8.530166 1.683017 7.175601 9.742737 0.335693 0.862122 31.93 31.93 6.2 6.3 1.204 0.899 26.5151 26.0052 0.0137 0.0000 0.000000 -1.060040 11.60 490 700 0.00 0.00 0.0000 0.0000
0.038 2 9.690536 1.500811 3.011211 7.774353 22.293091 5.386353 32.77 32.77 6.1 6.5 0.988 0.931 27.5973 26.5151 0.0145 0.0000 0.000000 -1.060051 11.60 490 700 0.00 0.00 0.0000 0.0000
0.039 2 8.340766 0.616147 4.413725 4.730225 17.272949 4.165649 33.61 33.61 6.3 6.5 0.950 1.014 28.1723 27.5973 0.0153 0.0000 0.000000 -1.062021 11.60 490 700 0.00 0.00 0.0000 0.0000
0.040 2 5.648418 0.757598 4.969936 -0.358582 -13.481140 -2.075195 34.45 34.45 6.5 7.1 1.052 1.071 28.7717 27.5973 0.0161 0.0000 0.000000 -1.060099 11.52 510 720 0.00 0.00 0.0000 0.0000
0.041 2 7.981147 3.629756 3.143071 -10.124207 -15.968323 1.586914 35.29 35.29 6.4 7.0 1.026 1.007 30.0504 28.7717 0.0169 0.0000 0.000000 -1.059607 11.52 490 690 0.00 0.00 0.0000 0.0000
0.042 2 11.323208 0.611353 3.730449 -7.858276 -4.783630 9.757996 36.13 36.13 6.6 7.2 1.001 1.077 30.7334 29.3972 0.0177 0.0000 0.000000 -1.063044 11.52 490 700 0.00 0.00 0.0000 0.0000
0.043 2 9.800820 -1.706992 6.427593 0.465393 -12.962341 5.279541 36.97 36.97 7.1 6.7 1.071 1.147 30.7334 31.4481 0.0189 0.0000 0.000000 -1.064354 11.52 490 690 0.00 0.00 0.0000 0.0000
0.044 2 7.568784 1.246680 5.029873 -4.432678 -7.987976 -1.731873 37.82 37.82 6.4 6.8 1.178 1.115 32.9822 32.1969 0.0197 0.0000 0.000000 -1.063009 11.52 490 690 0.00 0.00 0.0000 0.0000
0.045 2 8.762719 1.002139 3.929438 -2.418518 13.938904 1.640320 38.66 38.66 6.5 6.5 1.033 1.052 33.8067 33.8067 0.0207 0.0000 0.002595 -1.063031 11.52 510 740 0.00 0.00 0.0000 0.0000
0.046 2 8.741142 -1.462451 6.372451 9.956360 9.849548 0.076294 39.50 39.50 7.5 6.5 0.976 1.039 32.9822 34.6736 0.0217 0.0000 0.000000 -1.062470 11.52 490 730 0.00 0.00 0.0000 0.0000
0.047 2 6.892700 0.863086 6.384439 8.323669 -3.288269 -7.118225 40.34 40.34 7.6 6.0 1.109 0.982 33.8067 36.5478 0.0227 0.0000 0.002595 -1.058844 11.52 490 720 0.00 0.00 0.0000 0.0000
0.048 2 9.347700 1.335386 3.939028 -2.410889 -4.234314 -3.265381 41.18 41.18 7.2 6.6 1.064 0.874 35.5860 36.5478 0.0239 0.0000 0.002595 -1.057701 11.52 490 730 0.00 0.00 0.0000 0.0000
0.049 2 11.160180 0.220566 4.768549 1.777649 -9.567261 11.207581 42.02 42.02 7.8 6.5 1.153 0.842 35.5860 37.5630 0.0249 0.0000 0.000000 -1.060034 11.52 490 730 0.00 0.00 0.0000 0.0000
0.050 2 10.299492 0.803149 4.953154 -1.113892 -6.614685 12.496948 42.86 42.86 7.8 6.5 1.235 0.804 36.5478 38.6363 0.0259 0.0000 0.002595 -1.061852 11.47 510 750 0.00 0.00 0.0000 0.0000
0.051 2 10.299492 0.803149 4.953154 -11.039734 17.700195 1.205444 43.70 43.70 7.8 7.0 1.140 0.817 37.5630 38.6363 0.0272 0.0000 0.002595 -1.062957 11.47 490 730 0.00 0.00 0.0000 0.0000
0.052 2 6.621787 1.273052 3.509883 -10.437012 -4.608154 -2.090454 44.54 44.54 7.8 6.9 1.159 0.849 38.6363 39.7726 0.0284 0.0000 0.002595 -1.063636 11.47 490 720 0.00 0.00 0.0000 0.0000
0.053 2 4.171582 2.728310 8.347959 0.503540 -4.386902 6.027222 45.38 45.38 7.7 6.1 1.242 0.893 39.7726 42.2584 0.0296 0.0000 0.002595 -1.057967 11.47 490 710 0.00 0.00 0.0000 0.0000
0.054 2 8.705180 2.776260 2.035444 -0.320435 6.713867 8.209229 46.22 46.22 8.2 7.3 1.178 0.798 39.7726 40.9779 0.0308 0.0000 0.002595 -1.054864 11.47 490 730 0.00 0.00 0.0000 0.0000
0.055 2 12.989443 -0.177412 2.917710 3.334045 -1.472473 -0.862122 47.06 47.06 8.2 7.2 1.254 0.773 40.9779 42.2584 0.0320 0.0000 0.002595 -1.060573 11.41 510 740 0.00 0.00 0.0000 0.0000
0.056 2 10.692676 -3.598589 5.547724 8.949280 10.154724 -11.054993 47.90 47.90 8.0 6.9 1.432 0.798 42.2584 43.6216 0.0332 0.0000 0.002595 -1.063675 11.41 490 720 0.00 0.00 0.0000 0.0000
0.057 2 7.029355 -0.805547 4.524009 2.006531 16.868591 -1.441956 48.74 48.74 7.7 7.5 1.185 0.868 43.6216 43.6216 0.0344 0.0000 0.002595 -1.063083 11.41 490 730 0.00 0.00 0.0000 0.0000
0.058 2 6.763237 4.389751 6.585825 1.609802 17.082214 11.703491 49.58 49.58 8.2 8.0 1.204 0.906 43.6216 43.6216 0.0356 0.0000 0.002595 -1.059536 11.41 490 720 0.00 0.00 0.0000 0.0000
0.059 2 8.515781 0.323657 3.013608 14.732361 16.075134 4.615784 50.00 50.00 7.6 7.5 1.185 0.899 45.0756 45.0756 0.0370 0.0000 -0.000000 -1.058361 11.41 490 730 0.00 0.00 0.0000 0.0000
0.060 2 6.681724 -2.414243 3.797578 6.942749 -32.554626 -3.997803 50.00 50.00 6.8 7.6 1.235 1.007 46.6300 45.0756 0.0382 0.0000 -0.000000 -1.060166 11.41 510 720 0.00 0.00 0.0000 0.0000
0.061 2 6.897495 3.250957 9.601830 -10.284424 -34.553528 9.628296 50.00 50.00 5.9 6.8 1.102 0.969 48.2953 46.6300 0.0396 0.0000 0.002595 -1.056356 11.41 490 720 0.00 0.00 0.0000 0.0000
0.062 2 11.495825 4.938769 1.510400 -7.888794 -2.700806 28.656006 50.00 50.00 6.8 5.9 0.811 0.899 46.6300 48.2953 0.0410 0.0000 -0.000000 -1.056187 11.41 490 720 0.00 0.00 0.0000 0.0000
0.063 2 12.867172 -0.033564 1.879609 -2.708435 4.539490 16.174316 50.00 50.00 5.9 8.4 0.690 0.811 48.2953 43.6216 0.0424 0.0000 0.002595 -1.063631 11.41 490 730 0.00 0.00 0.0000 0.0000
0.064 2 9.093569 -2.630015 6.756045 -17.295837 -16.838074 -6.362915 50.00 50.00 5.9 5.9 0.652 0.773 48.2953 48.2953 0.0439 0.0000 -0.000000 -1.066018 11.41 490 730 0.00 0.00 0.0000 0.0000
0.065 2 3.344458 2.409448 7.614336 -9.346008 14.183044 3.997803 50.00 50.00 5.9 5.0 0.665 0.792 48.2953 50.0841 0.0453 0.0000 0.002595 -1.058255 11.72 510 750 0.00 0.00 0.0000 0.0000
0.066 2 6.959829 3.917451 0.290093 19.233704 -0.816345 20.950317 50.00 50.00 5.9 5.0 0.519 0.595 48.2953 50.0841 0.0467 0.0000 -0.000000 -1.056422 11.72 490 730 0.00 0.00 0.0000 0.0000
0.067 2 11.845854 -1.105229 9.187070 18.699646 -26.359558 10.078430 50.00 50.00 5.9 5.9 0.456 0.424 48.2953 48.2953 0.0481 0.0000 0.002595 -1.059899 11.72 490 730 0.00 0.00 0.0000 0.0000
0.068 2 11.627686 -2.409448 7.053330 -1.831055 11.199951 -6.492615 50.00 50.00 5.9 5.0 0.437 0.367 48.2953 50.0841 0.0495 0.0001 -0.000000 -1.058217 11.72 490 730 0.00 0.00 0.0000 0.0000
0.069 2 9.671357 -1.371348 3.819155 -8.850098 19.477844 -9.513855 50.00 50.00 5.9 5.0 0.450 0.342 48.2953 50.0841 0.0509 0.0001 0.002595 -1.058979 11.72 490 720 0.00 0.00 0.0000 0.0000
0.070 2 6.075166 -1.848442 7.221152 -0.976562 36.743164 -2.708435 50.00 50.00 5.0 5.0 0.450 0.298 50.0841 50.0841 0.0523 0.0001 -0.000000 -1.056277 11.80 510 750 0.00 0.00 0.0000 0.0000
0.071 2 8.383921 0.867881 2.176894 -4.814148 29.853821 5.943298 50.00 50.00 5.0 5.0 0.469 0.266 50.0841 50.0841 0.0537 0.0001 0.002595 -1.054747 11.80 490 720 0.00 0.00 0.0000 0.0000
0.072 2 9.527510 3.651333 3.442754 -0.442505 -10.421753 15.281677 50.00 50.00 5.0 4.9 0.355 0.234 50.0841 50.0841 0.0551 0.0001 -0.000000 -1.058849 11.80 490 730 0.00 0.00 0.0000 0.0000
0.073 2 5.713149 3.303701 3.905464 8.567810 -32.180786 19.332886 50.00 50.00 5.0 4.9 0.361 0.266 50.0841 50.0841 0.0565 0.0001 0.002595 -1.059985 11.80 490 720 0.00 0.00 0.0000 0.0000
0.074 2 7.194780 3.147866 2.661181 -0.831604 -22.415161 10.261536 50.00 50.00 4.9 4.9 0.323 0.228 50.0841 50.0841 0.0579 0.0001 -0.000000 -1.061128 11.80 490 720 0.00 0.00 0.0000 0.0000
0.075 2 12.030458 1.685415 3.279727 -14.953613 -4.875183 -6.088257 50.00 50.00 3.9 3.9 0.272 0.253 52.0104 52.0104 0.0595 0.0001 -0.000000 -1.065313 11.87 510 720 0.00 0.00 0.0000 0.0000
0.076 2 10.896460 -0.239746 4.356186 -5.783081 2.182007 -11.962891 50.00 50.00 4.9 3.9 0.209 0.158 50.0841 52.0104 0.0609 0.0001 0.002595 -1.068945 11.87 490 730 0.00 0.00 0.0000 0.0000
0.077 2 8.335972 -0.263721 6.921470 7.049561 -2.799988 -12.779236 50.00 50.00 4.9 4.9 0.203 0.120 50.0841 50.0841 0.0624 0.0001 -0.000000 -1.068262 11.87 480 730 0.00 0.00 0.0000 0.0000
0.078 2 6.825571 -0.438735 8.463037 7.446289 13.526917 -7.049561 50.00 50.00 4.9 4.9 0.279 0.070 50.0841 50.0841 0.0638 0.0001 0.002595 -1.062427 11.87 490 730 0.00 0.00 0.0000 0.0000
0.079 2 8.309599 1.330591 5.269619 9.948730 18.417358 6.484985 50.00 50.00 4.9 4.9 0.298 0.146 50.0841 50.0841 0.0652 0.0001 -0.000000 -1.057789 11.87 480 730 0.00 0.00 0.0000 0.0000
0.080 2 10.766996 -0.712046 4.051709 14.221191 -6.126404 4.852295 50.00 50.00 4.9 4.9 0.291 0.184 50.0841 50.0841 0.0666 0.0001 0.002595 -1.058682 11.82 510 750 0.00 0.00 0.0000 0.0000
0.081 2 8.971298 -4.061299 4.543189 0.122070 -21.537781 -9.819031 50.00 50.00 4.9 4.9 0.266 0.196 50.0841 50.0841 0.0680 0.0001 -0.000000 -1.060858 11.82 490 730 0.00 0.00 0.0000 0.0000
0.082 2 6.305322 -1.241885 4.953154 -16.555786 -3.433228 -3.921509 50.00 50.00 4.9 4.9 0.304 0.190 50.0841 50.0841 0.0694 0.0001 0.002595 -1.059937 11.82 490 730 0.00 0.00 0.0000 0.0000
0.083 2 6.645761 3.435561 3.862309 -14.808655 16.677856 19.470215 50.00 50.00 4.9 4.9 0.317 0.196 50.0841 50.0841 0.0708 0.0001 -0.000000 -1.058133 11.82 490 730 0.00 0.00 0.0000 0.0000
0.084 2 9.378867 2.313550 3.179033 -5.577087 2.471924 24.757385 50.00 50.00 4.9 4.9 0.323 0.215 50.0841 50.0841 0.0722 0.0001 0.002595 -1.059671 11.82 490 720 0.00 0.00 0.0000 0.0000
0.085 2 10.167631 -0.469902 5.032270 -5.958557 -9.689331 5.683899 50.00 50.00 4.9 5.8 0.291 0.196 50.0841 48.2953 0.0736 0.0001 -0.000000 -1.062069 11.87 510 750 0.00 0.00 0.0000 0.0000
0.086 2 8.019506 0.915830 4.751768 -5.920410 5.981445 -4.096985 50.00 50.00 4.9 4.9 0.171 0.266 50.0841 50.0841 0.0750 0.0001 0.002595 -1.062328 11.87 490 730 0.00 0.00 0.0000 0.0000
0.087 2 8.956914 4.401738 4.356186 3.120422 12.603760 0.885010 50.00 50.00 4.9 4.9 0.285 0.285 50.0841 50.0841 0.0764 0.0001 -0.000000 -1.062458 11.87 490 730 0.00 0.00 0.0000 0.0000
0.088 2 10.968384 3.284521 4.998706 10.055542 12.046814 -8.293152 50.00 50.00 4.9 5.9 0.285 0.266 50.0841 48.2953 0.0778 0.0001 0.002595 -1.063596 11.87 490 730 0.00 0.00 0.0000 0.0000
0.089 2 9.155903 -0.594570 4.646279 9.902954 9.933472 -23.445129 50.00 50.00 5.9 6.8 0.285 0.291 48.2953 46.6300 0.0795 0.0001 0.002595 -1.064566 11.87 490 730 0.00 0.00 0.0000 0.0000
0.090 2 7.348217 0.707251 5.279209 10.833740 1.625061 -21.697998 50.00 50.00 4.9 5.0 0.279 0.386 50.0841 50.0841 0.0807 0.0001 0.002595 -1.063673 11.77 510 750 0.00 0.00 0.0000 0.0000
0.091 2 6.851943 1.244282 5.370312 12.001038 -18.234253 -8.567810 50.00 50.00 4.9 5.0 0.342 0.437 50.0841 50.0841 0.0823 0.0001 0.002595 -1.061108 11.77 490 720 0.00 0.00 0.0000 0.0000
0.092 2 8.681206 -1.114819 5.701162 8.010864 -30.281067 6.141663 50.00 50.00 4.9 5.0 0.348 0.336 50.0841 50.0841 0.0835 0.0001 0.002595 -1.059285 11.77 490 720 0.00 0.00 0.0000 0.0000
0.093 2 10.637534 -1.177153 5.331953 -6.294250 -18.829346 12.313843 50.00 50.00 7.6 5.0 0.342 0.317 45.0756 50.0841 0.0851 0.0001 0.002595 -1.059485 11.77 490 730 0.00 0.00 0.0000 0.0000
0.094 2 8.374331 -1.181948 5.588481 -17.349243 7.545471 10.848999 50.00 50.00 5.0 4.9 0.405 0.266 50.0841 50.0841 0.0863 0.0001 0.002595 -1.059281 11.77 490 720 0.00 0.00 0.0000 0.0000
0.095 2 6.130307 -0.740815 4.593535 -17.089844 6.027222 6.805420 50.00 50.00 5.9 3.9 0.532 0.209 48.2953 52.0104 0.0879 0.0001 0.002595 -1.057099 11.82 510 750 0.00 0.00 0.0000 0.0000
0.096 2 7.791748 -0.668892 5.180913 -8.392334 -9.902954 6.179810 50.00 50.00 5.0 4.9 0.456 0.139 50.0841 50.0841 0.0891 0.0001 0.002595 -1.055128 11.82 490 720 0.00 0.00 0.0000 0.0000
0.097 2 9.927885 0.985356 4.725395 -1.823425 -7.781982 7.217407 50.00 50.00 5.0 4.9 0.374 0.152 50.0841 50.0841 0.0905 0.0001 0.005191 -1.055284 11.82 490 730 0.00 0.00 0.0000 0.0000
0.098 2 10.932422 1.774121 3.960605 5.317688 12.237549 4.821777 50.00 50.00 5.0 4.9 0.304 0.196 50.0841 50.0841 0.0919 0.0001 0.002595 -1.057613 11.82 490 730 0.00 0.00 0.0000 0.0000
0.099 2 11.452670 0.942202 3.783193 4.547119 10.215759 -2.304077 50.00 50.00 5.0 4.9 0.260 0.215 50.0841 50.0841 0.0933 0.0001 0.005191 -1.060981 11.82 490 730 0.00 0.00 0.0000 0.0000
0.100 2 8.278432 2.140933 6.590620 -3.173828 21.621704 -6.423950 50.00 50.00 4.9 4.9 0.247 0.203 50.0841 50.0841 0.0949 0.0001 0.005191 -1.060985 11.85 510 750 0.00 0.00 0.0000 0.0000
0.101 2 5.904946 4.864448 4.514419 -4.714966 31.700134 -4.402161 50.00 50.00 4.9 4.9 0.260 0.203 50.0841 50.0841 0.0961 0.0001 0.005191 -1.057500 11.85 490 730 0.00 0.00 0.0000 0.0000
0.102 2 8.160956 3.991772 3.941426 8.941650 13.137817 -5.630493 50.00 50.00 4.9 4.9 0.228 0.222 50.0841 50.0841 0.0978 0.0002 0.005191 -1.056359 11.85 490 730 0.00 0.00 0.0000 0.0000
0.103 2 11.332797 0.143848 3.392407 20.378113 -13.252258 -16.143799 50.00 50.00 5.9 4.9 0.241 0.203 48.2953 50.0841 0.0990 0.0002 0.005191 -1.059212 11.85 490 720 0.00 0.00 0.0000 0.0000
0.104 2 9.949463 -1.603901 3.531460 13.916016 -24.276733 -24.787903 50.00 50.00 5.0 4.9 0.266 0.228 50.0841 50.0841 0.1006 0.0002 0.005191 -1.063410 11.85 490 720 0.00 0.00 0.0000 0.0000
0.105 2 6.588223 -1.033306 4.823691 4.737854 -18.646240 -10.574341 50.00 50.00 5.0 4.9 0.304 0.203 50.0841 50.0841 0.1018 0.0002 0.005191 -1.064194 11.85 510 750 0.00 0.00 0.0000 0.0000
0.106 2 7.516040 0.709648 5.144951 0.396729 -18.280029 13.740540 50.00 50.00 5.0 4.9 0.298 0.247 50.0841 50.0841 0.1034 0.0002 0.005191 -1.062344 11.85 490 710 0.00 0.00 0.0000 0.0000
0.107 2 8.479819 -0.712046 7.259511 -11.352539 -14.434814 16.525269 50.00 50.00 5.0 4.9 0.260 0.209 50.0841 50.0841 0.1046 0.0002 0.005191 -1.059742 11.85 490 730 0.00 0.00 0.0000 0.0000
0.108 2 6.883110 -2.898530 6.736865 -22.361755 2.456665 12.031555 50.00 50.00 4.9 5.9 0.260 0.203 50.0841 48.2953 0.1062 0.0002 0.005191 -1.055285 11.85 490 710 0.00 0.00 0.0000 0.0000
0.109 2 8.558935 -0.086309 4.085273 -18.363953 10.940552 17.181396 50.00 50.00 4.9 5.9 0.291 0.272 50.0841 48.2953 0.1074 0.0002 0.005191 -1.053299 11.85 490 730 0.00 0.00 0.0000 0.0000
0.110 2 10.798163 0.865483 2.953672 -7.728577 -2.197266 11.116028 50.00 50.00 4.9 5.0 0.329 0.298 50.0841 50.0841 0.1090 0.0002 0.005191 -1.056418 11.85 510 750 0.00 0.00 0.0000 0.0000
0.111 2 9.031235 -1.433682 4.701421 -0.648499 0.617981 -4.478455 50.00 50.00 4.9 5.0 0.291 0.361 50.0841 50.0841 0.1102 0.0002 0.005191 -1.059221 11.85 490 730 0.00 0.00 0.0000 0.0000
0.112 2 8.079443 1.198730 4.483252 2.700806 9.727478 -5.020142 50.00 50.00 4.9 5.0 0.247 0.285 50.0841 50.0841 0.1116 0.0002 0.007786 -1.059494 11.85 490 730 0.00 0.00 0.0000 0.0000
0.113 2 8.597295 4.826089 5.559712 5.790710 15.815735 2.044678 50.00 50.00 4.9 5.0 0.209 0.253 50.0841 50.0841 0.1130 0.0002 0.005191 -1.058698 11.85 490 730 0.00 0.00 0.0000 0.0000
0.114 2 8.585307 3.258149 4.898013 5.828857 22.727966 -3.417969 50.00 50.00 4.9 4.9 0.209 0.234 50.0841 50.0841 0.1145 0.0002 0.007786 -1.057689 11.85 490 730 0.00 0.00 0.0000 0.0000
0.115 2 10.076528 1.798096 3.807168 4.920959 18.066406 -15.022278 50.00 50.00 4.9 7.6 0.209 0.184 50.0841 45.0756 0.1161 0.0003 0.007786 -1.058787 11.85 510 750 0.00 0.00 0.0000 0.0000
0.116 2 9.985424 2.241626 4.368174 7.583618 4.737854 -21.148682 50.00 50.00 4.9 3.9 0.177 0.342 50.0841 52.0104 0.1173 0.0003 0.007786 -1.061069 11.85 490 730 0.00 0.00 0.0000 0.0000
0.117 2 7.295474 1.251475 4.317827 12.306213 -10.894775 -17.524719 50.00 50.00 5.9 4.9 0.165 0.399 48.2953 50.0841 0.1189 0.0003 0.007786 -1.061842 11.85 490 720 0.00 0.00 0.0000 0.0000
0.118 2 6.988598 0.177412 4.799716 10.566711 -21.614075 -9.605408 50.00 50.00 5.9 4.9 0.285 0.222 48.2953 50.0841 0.1201 0.0003 0.007786 -1.060951 11.85 490 720 0.00 0.00 0.0000 0.0000
0.119 2 8.072250 -1.143589 5.123374 -0.022888 -23.193359 -0.930786 50.00 50.00 5.9 4.9 0.405 0.203 48.2953 50.0841 0.1217 0.0003 0.007786 -1.059877 11.85 490 730 0.00 0.00 0.0000 0.0000
0.120 2 8.151367 -1.778916 5.389492 -9.567261 -15.304565 10.047913 50.00 50.00 5.0 3.9 0.437 0.215 50.0841 52.0104 0.1231 0.0003 0.010382 -1.058943 11.77 510 750 0.00 0.00 0.0000 0.0000
0.121 2 8.484614 -1.903584 4.938769 -12.512207 -6.759644 18.180847 50.00 50.00 5.0 3.9 0.393 0.158 50.0841 52.0104 0.1243 0.0003 0.010382 -1.058266 11.77 490 730 0.00 0.00 0.0000 0.0000
0.122 2 9.719306 -1.558350 5.101797 -14.312744 -4.127502 14.862061 50.00 50.00 5.0 3.8 0.323 0.082 50.0841 52.0104 0.1259 0.0003 0.010382 -1.058504 11.77 490 730 0.00 0.00 0.0000 0.0000
0.123 2 9.014453 -1.359360 5.475801 -12.863159 1.258850 6.866455 50.00 50.00 5.0 4.8 0.361 0.032 50.0841 50.0841 0.1271 0.0004 0.010382 -1.058483 11.77 490 730 0.00 0.00 0.0000 0.0000
0.124 2 7.549604 0.815137 5.655610 -7.148743 6.973267 4.287720 50.00 50.00 4.9 4.8 0.361 0.095 50.0841 50.0841 0.1287 0.0004 0.010382 -1.056786 11.77 490 720 0.00 0.00 0.0000 0.0000
0.125 2 8.762719 2.356704 5.226465 -1.022339 17.951965 0.679016 50.00 50.00 4.9 4.8 0.329 0.171 50.0841 50.0841 0.1299 0.0004 0.010382 -1.055058 11.87 510 750 0.00 0.00 0.0000 0.0000
0.126 2 10.826933 1.543965 3.747231 1.472473 17.417908 -6.332397 50.00 50.00 4.9 5.8 0.329 0.190 50.0841 48.2953 0.1316 0.0004 0.010382 -1.056341 11.87 490 720 0.00 0.00 0.0000 0.0000
0.127 2 9.366879 2.387871 4.859653 0.617981 16.448975 -12.275696 50.00 50.00 4.9 4.9 0.241 0.253 50.0841 50.0841 0.1328 0.0004 0.010382 -1.058198 11.87 490 730 0.00 0.00 0.0000 0.0000
0.128 2 6.238193 3.457139 5.219272 1.838684 14.419556 -11.306763 50.00 50.00 4.9 4.9 0.241 0.272 50.0841 50.0841 0.1344 0.0004 0.010382 -1.056445 11.87 490 720 0.00 0.00 0.0000 0.0000
0.129 2 7.930800 3.430767 4.708613 6.294250 2.449036 -2.929688 50.00 50.00 4.9 4.9 0.190 0.253 50.0841 50.0841 0.1356 0.0004 0.010382 -1.054282 11.87 490 730 0.00 0.00 0.0000 0.0000
0.130 2 11.766738 3.111904 4.190762 9.254456 -3.227234 -5.302429 50.00 50.00 4.9 4.9 0.184 0.203 50.0841 50.0841 0.1372 0.0005 0.010382 -1.055824 11.87 510 740 0.00 0.00 0.0000 0.0000
0.131 2 9.374072 -0.565801 3.565024 8.026123 -5.714417 -18.280029 50.00 50.00 5.9 5.8 0.184 0.253 48.2953 48.2953 0.1384 0.0005 0.010382 -1.059113 11.87 490 720 0.00 0.00 0.0000 0.0000
0.132 2 5.463813 -1.074062 5.490185 5.378723 -14.328003 -16.716003 50.00 50.00 5.9 4.9 0.310 0.247 48.2953 50.0841 0.1398 0.0005 0.012977 -1.058020 11.87 490 720 0.00 0.00 0.0000 0.0000
0.133 2 7.185190 0.803149 5.662803 2.975464 -18.798828 -0.549316 50.00 50.00 5.9 4.9 0.380 0.253 48.2953 50.0841 0.1412 0.0005 0.010382 -1.054052 11.87 490 730 0.00 0.00 0.0000 0.0000
0.134 2 10.057348 -1.138794 4.480855 -3.143311 -23.246765 8.911133 50.00 50.00 5.9 4.9 0.481 0.266 48.2953 50.0841 0.1426 0.0005 0.012977 -1.053890 11.87 490 730 0.00 0.00 0.0000 0.0000
0.135 2 9.534702 -3.747231 5.420659 -12.290955 -20.462036 7.888794 50.00 50.00 5.0 4.9 0.424 0.222 50.0841 50.0841 0.1442 0.0005 0.012977 -1.055235 11.82 510 750 0.00 0.00 0.0000 0.0000
0.136 2 7.880454 -2.630015 6.444375 -15.518188 3.494263 11.062622 50.00 50.00 5.0 4.9 0.418 0.203 50.0841 50.0841 0.1454 0.0006 0.012977 -1.053686 11.82 490 730 0.00 0.00 0.0000 0.0000
0.137 2 8.319189 0.297285 4.886025 -12.565613 19.920349 14.953613 50.00 50.00 5.0 4.9 0.367 0.203 50.0841 50.0841 0.1470 0.0006 0.012977 -1.051679 11.82 490 720 0.00 0.00 0.0000 0.0000
0.138 2 10.086118 0.021577 4.576753 -6.347656 2.578735 15.037537 50.00 50.00 5.0 4.9 0.329 0.253 50.0841 50.0841 0.1482 0.0006 0.012977 -1.052288 11.82 490 730 0.00 0.00 0.0000 0.0000
0.139 2 9.000068 1.997085 6.209424 -3.616333 0.831604 9.796143 50.00 50.00 4.9 4.9 0.317 0.241 50.0841 50.0841 0.1499 0.0006 0.012977 -1.052329 11.82 490 720 0.00 0.00 0.0000 0.0000
0.140 2 7.619131 3.572217 4.423316 -4.264832 12.580872 -1.266479 50.00 50.00 4.9 5.8 0.291 0.222 50.0841 48.2953 0.1511 0.0006 0.012977 -1.051292 11.83 510 750 0.00 0.00 0.0000 0.0000
0.141 2 8.844234 3.164648 5.013091 -3.334045 13.175964 -7.705688 50.00 50.00 5.9 4.9 0.260 0.222 48.2953 50.0841 0.1527 0.0007 0.012977 -1.051043 11.83 490 730 0.00 0.00 0.0000 0.0000
0.142 2 10.479301 4.464072 4.233916 -1.564026 19.828796 -9.605408 50.00 50.00 5.0 4.9 0.317 0.285 50.0841 50.0841 0.1539 0.0007 0.012977 -1.052143 11.83 490 720 0.00 0.00 0.0000 0.0000
0.143 2 9.103159 3.708872 2.807427 4.867554 29.975891 -16.838074 50.00 50.00 5.0 3.8 0.342 0.285 50.0841 52.0104 0.1553 0.0007 0.015573 -1.055219 11.83 490 730 0.00 0.00 0.0000 0.0000
0.144 2 7.777363 0.599365 2.675566 14.411926 6.546021 -25.970459 50.00 50.00 5.0 4.9 0.291 0.171 50.0841 50.0841 0.1567 0.0007 0.012977 -1.058870 11.83 490 730 0.00 0.00 0.0000 0.0000
0.145 2 7.650298 -1.023716 6.029614 19.386292 -14.450073 -25.558472 50.00 50.00 5.9 4.9 0.260 0.158 48.2953 50.0841 0.1581 0.0007 0.015573 -1.059186 11.85 510 750 0.00 0.00 0.0000 0.0000
0.146 2 8.465434 -1.004536 4.583945 17.036438 -21.095276 -7.164001 50.00 50.00 5.0 4.9 0.291 0.158 50.0841 50.0841 0.1595 0.0008 0.012977 -1.058102 11.85 480 730 0.00 0.00 0.0000 0.0000
0.147 2 9.330917 -0.196592 5.547724 7.568359 -19.172668 11.116028 50.00 50.00 5.0 4.9 0.342 0.209 50.0841 50.0841 0.1609 0.0008 0.015573 -1.058378 11.85 490 730 0.00 0.00 0.0000 0.0000
0.148 2 8.388716 -1.790903 6.295732 -13.427734 -23.033142 13.442993 50.00 50.00 5.0 4.9 0.279 0.196 50.0841 50.0841 0.1623 0.0008 0.012977 -1.057204 11.85 490 730 0.00 0.00 0.0000 0.0000
0.149 2 5.492583 -2.234433 7.024560 -27.908325 -2.182007 14.930725 50.00 50.00 5.0 4.9 0.241 0.215 50.0841 50.0841 0.1637 0.0008 0.015573 -1.052236 11.85 490 730 0.00 0.00 0.0000 0.0000
0.150 2 7.595156 -0.177412 3.191020 -26.687622 6.744385 23.452759 50.00 50.00 4.9 5.8 0.222 0.196 50.0841 48.2953 0.1651 0.0008 0.012977 -1.049545 11.88 510 750 0.00 0.00 0.0000 0.0000
0.151 2 11.433491 0.726431 3.493100 -20.790100 -18.081665 22.010803 50.00 50.00 4.9 4.9 0.222 0.228 50.0841 50.0841 0.1665 0.0009 0.015573 -1.053091 11.88 490 730 0.00 0.00 0.0000 0.0000
0.152 2 9.342905 -0.134258 6.075166 -15.235901 -17.044067 10.086060 50.00 50.00 4.9 4.9 0.234 0.291 50.0841 50.0841 0.1680 0.0009 0.012977 -1.055002 11.88 490 720 0.00 0.00 0.0000 0.0000
0.153 2 7.667080 1.344976 4.715806 -6.179810 9.750366 2.845764 50.00 50.00 4.9 5.9 0.241 0.266 50.0841 48.2953 0.1694 0.0009 0.015573 -1.054110 11.88 490 730 0.00 0.00 0.0000 0.0000
0.154 2 10.174824 2.673169 5.013091 4.135132 25.535583 -1.808167 50.00 50.00 4.9 5.9 0.253 0.279 50.0841 48.2953 0.1706 0.0009 0.015573 -1.054044 11.88 490 730 0.00 0.00 0.0000 0.0000
0.155 2 10.812549 2.186484 5.684380 11.192322 31.250000 -9.742737 50.00 50.00 4.9 4.9 0.215 0.348 50.0841 50.0841 0.1722 0.0009 0.015573 -1.054461 11.80 510 750 0.00 0.00 0.0000 0.0000
0.156 2 8.276035 3.277329 5.473403 18.508911 33.218384 -16.632080 50.00 50.00 4.9 5.9 0.253 0.361 50.0841 48.2953 0.1734 0.0010 0.015573 -1.053551 11.80 490 720 0.00 0.00 0.0000 0.0000
0.157 2 7.609541 3.497895 4.998706 24.703979 19.744873 -19.882202 50.00 50.00 4.9 5.0 0.247 0.323 50.0841 50.0841 0.1750 0.0010 0.015573 -1.051796 11.80 490 720 0.00 0.00 0.0000 0.0000
0.158 2 8.297612 2.366294 4.303442 23.239136 0.816345 -19.180298 50.00 50.00 4.9 5.0 0.234 0.298 50.0841 50.0841 0.1762 0.0010 0.015573 -1.051404 11.80 490 730 0.00 0.00 0.0000 0.0000
0.159 2 8.513384 1.584722 3.322881 13.908386 -23.597717 -16.418457 50.00 50.00 5.9 5.0 0.222 0.260 48.2953 50.0841 0.1778 0.0010 0.015573 -1.053464 11.80 490 720 0.00 0.00 0.0000 0.0000
0.160 2 8.232881 -0.563403 4.629497 1.884460 -30.181885 -13.519287 50.00 50.00 5.9 5.0 0.279 0.266 48.2953 50.0841 0.1792 0.0010 0.018168 -1.055417 11.82 510 750 0.00 0.00 0.0000 0.0000
0.161 2 7.731811 -2.656387 4.344199 -13.687134 -22.956848 -4.478455 50.00 50.00 5.9 4.9 0.374 0.247 48.2953 50.0841 0.1806 0.0011 0.015573 -1.055942 11.82 490 730 0.00 0.00 0.0000 0.0000
0.162 2 7.065317 -1.915571 5.924126 -24.360657 -10.971069 14.480591 50.00 50.00 5.0 5.9 0.437 0.209 50.0841 48.2953 0.1820 0.0011 0.018168 -1.054453 11.82 490 730 0.00 0.00 0.0000 0.0000
0.163 2 7.436924 -0.860688 5.806650 -21.186829 1.136780 30.952454 50.00 50.00 5.0 3.9 0.437 0.247 50.0841 52.0104 0.1832 0.0011 0.018168 -1.051291 11.82 490 730 0.00 0.00 0.0000 0.0000
0.164 2 9.573061 -1.766929 4.631895 -12.054443 -4.119873 28.503418 50.00 50.00 5.0 3.9 0.348 0.241 50.0841 52.0104 0.1849 0.0011 0.018168 -1.050578 11.82 490 730 0.00 0.00 0.0000 0.0000
0.165 2 10.261132 -2.210459 5.646020 -6.813049 -10.894775 14.755249 50.00 50.00 5.0 4.9 0.329 0.133 50.0841 50.0841 0.1863 0.0012 0.020764 -1.051567 11.85 510 750 0.00 0.00 0.0000 0.0000
0.166 2 9.491548 0.889458 5.658008 -4.257202 8.293152 5.928040 50.00 50.00 4.9 4.9 0.342 0.082 50.0841 50.0841 0.1877 0.0012 0.018168 -1.051569 11.85 490 730 0.00 0.00 0.0000 0.0000
0.167 2 8.834643 3.267739 4.260288 0.205994 25.703430 0.419617 50.00 50.00 4.9 5.9 0.374 0.152 50.0841 48.2953 0.1891 0.0012 0.020764 -1.051785 11.85 490 730 0.00 0.00 0.0000 0.0000
0.168 2 9.294956 3.406792 4.912397 3.143311 23.460388 -8.377075 50.00 50.00 4.9 4.9 0.329 0.203 50.0841 50.0841 0.1905 0.0013 0.018168 -1.052375 11.85 490 730 0.00 0.00 0.0000 0.0000
0.169 2 8.805874 3.951015 4.840474 4.653931 13.938904 -13.694763 50.00 50.00 4.9 4.9 0.323 0.260 50.0841 50.0841 0.1919 0.0013 0.020764 -1.052527 11.85 490 730 0.00 0.00 0.0000 0.0000
0.170 2 7.928403 4.802114 4.207544 9.376526 9.010315 -14.579773 50.00 50.00 4.9 4.9 0.380 0.241 50.0841 50.0841 0.1933 0.0013 0.018168 -1.052785 11.82 510 750 0.00 0.00 0.0000 0.0000
0.171 2 8.280829 2.289575 3.013608 12.329102 -9.155273 -13.504028 50.00 50.00 4.9 4.9 0.329 0.196 50.0841 50.0841 0.1947 0.0013 0.020764 -1.054757 11.82 490 730 0.00 0.00 0.0000 0.0000
0.172 2 8.568525 1.253872 5.530942 6.111145 -16.983032 -10.002136 50.00 50.00 4.9 4.9 0.291 0.234 50.0841 50.0841 0.1961 0.0014 0.018168 -1.056071 11.82 490 730 0.00 0.00 0.0000 0.0000
0.173 2 9.333315 0.637725 4.058901 2.807617 -5.760193 -7.835388 50.00 50.00 5.9 4.9 0.279 0.196 48.2953 50.0841 0.1975 0.0014 0.020764 -1.056723 11.82 490 730 0.00 0.00 0.0000 0.0000
0.174 2 9.223032 -2.764272 4.185966 2.754211 -15.235901 -6.774902 50.00 50.00 5.9 4.9 0.310 0.241 48.2953 50.0841 0.1987 0.0014 0.020764 -1.058804 11.82 490 730 0.00 0.00 0.0000 0.0000
0.175 2 8.026699 -3.176636 7.065317 -3.860474 -16.723633 -1.937866 50.00 50.00 5.9 4.9 0.386 0.203 48.2953 50.0841 0.2003 0.0015 0.020764 -1.057854 11.80 510 750 0.00 0.00 0.0000 0.0000
0.176 2 6.147089 -0.793560 6.015229 -9.201050 6.256104 14.167786 50.00 50.00 5.9 3.9 0.431 0.241 48.2953 52.0104 0.2017 0.0015 0.023359 -1.053287 11.80 490 720 0.00 0.00 0.0000 0.0000
0.177 2 8.345561 0.791162 3.886284 -4.577637 3.494263 24.604797 50.00 50.00 6.8 4.9 0.405 0.133 46.6300 50.0841 0.2032 0.0015 0.020764 -1.051466 11.80 490 730 0.00 0.00 0.0000 0.0000
0.178 2 11.457465 -2.529321 4.794922 -2.540588 -11.970520 12.779236 50.00 50.00 5.9 4.9 0.469 0.127 48.2953 50.0841 0.2046 0.0015 0.023359 -1.053584 11.80 490 730 0.00 0.00 0.0000 0.0000
0.179 2 9.714512 -2.095381 4.567163 -11.184692 -10.490417 2.105713 50.00 50.00 5.9 4.9 0.500 0.203 48.2953 50.0841 0.2060 0.0016 0.020764 -1.055744 11.80 490 730 0.00 0.00 0.0000 0.0000
0.180 2 7.082099 3.313291 5.339145 -13.465881 9.460449 5.783081 50.00 50.00 5.9 4.9 0.481 0.190 48.2953 50.0841 0.2074 0.0016 0.023359 -1.055205 11.80 510 750 0.00 0.00 0.0000 0.0000
0.181 2 7.249922 4.070889 4.905205 -3.890991 21.385193 10.620117 50.00 50.00 6.8 4.9 0.431 0.196 46.6300 50.0841 0.2088 0.0016 0.020764 -1.052863 11.80 490 720 0.00 0.00 0.0000 0.0000
0.182 2 10.174824 3.059160 4.432905 1.686096 13.847351 0.587463 50.00 50.00 5.0 4.9 0.450 0.215 50.0841 50.0841 0.2102 0.0017 0.023359 -1.052857 11.80 490 730 0.00 0.00 0.0000 0.0000
0.183 2 10.042964 2.265600 4.689434 4.943848 9.132385 -12.107849 50.00 50.00 3.9 5.9 0.443 0.215 52.0104 48.2953 0.2116 0.0017 0.020764 -1.054521 11.80 490 730 0.00 0.00 0.0000 0.0000
0.184 2 7.587964 3.622563 4.279468 10.650635 8.010864 -12.489319 50.00 50.00 3.9 4.9 0.285 0.253 52.0104 50.0841 0.2130 0.0017 0.023359 -1.055186 11.80 490 730 0.00 0.00 0.0000 0.0000
0.185 2 8.180137 3.344458 4.358584 13.259888 4.051208 -13.771057 50.00 50.00 3.8 4.9 0.114 0.285 52.0104 50.0841 0.2144 0.0018 0.020764 -1.055360 11.90 510 760 0.00 0.00 0.0000 0.0000
0.186 2 9.784038 -0.170220 4.444892 10.116577 0.366211 -19.302368 50.00 50.00 3.8 4.9 0.070 0.266 52.0104 50.0841 0.2158 0.0018 0.023359 -1.056460 11.90 490 730 0.00 0.00 0.0000 0.0000
0.187 2 9.232622 -1.285039 4.648676 9.452820 -3.349304 -16.029358 50.00 50.00 4.8 4.9 0.019 0.228 50.0841 50.0841 0.2172 0.0018 0.020764 -1.057830 11.90 490 730 0.00 0.00 0.0000 0.0000
0.188 2 7.791748 -1.102832 5.185708 10.200500 -11.291504 -4.814148 50.00 50.00 4.8 4.9 0.082 0.253 50.0841 50.0841 0.2186 0.0019 0.023359 -1.057682 11.90 490 720 0.00 0.00 0.0000 0.0000
0.189 2 7.288281 -1.802891 5.868984 3.700256 -17.791748 4.997253 50.00 50.00 4.8 4.9 0.177 0.241 50.0841 50.0841 0.2200 0.0019 0.020764 -1.055568 11.90 490 730 0.00 0.00 0.0000 0.0000
0.190 2 7.803735 -2.009072 5.629238 -5.897522 -14.976501 13.618469 50.00 50.00 4.8 3.8 0.234 0.228 50.0841 52.0104 0.2215 0.0019 0.023359 -1.053154 11.85 510 760 0.00 0.00 0.0000 0.0000
0.191 2 8.868208 -1.021318 4.967539 -9.346008 -9.040833 20.683289 50.00 50.00 4.8 4.9 0.222 0.133 50.0841 50.0841 0.2229 0.0019 0.020764 -1.052369 11.85 490 730 0.00 0.00 0.0000 0.0000
0.192 2 9.136724 -0.134258 4.701421 -11.344910 -6.950378 19.653320 50.00 50.00 4.8 5.8 0.234 0.139 50.0841 48.2953 0.2243 0.0020 0.023359 -1.053012 11.85 490 730 0.00 0.00 0.0000 0.0000
0.193 2 8.187329 1.419297 5.497378 -15.441895 -6.797791 13.229370 50.00 50.00 4.8 5.9 0.247 0.241 50.0841 48.2953 0.2259 0.0020 0.023359 -1.052825 11.85 490 720 0.00 0.00 0.0000 0.0000
0.194 2 8.662026 2.956069 5.295991 -12.275696 7.881165 4.676819 50.00 50.00 4.8 4.9 0.222 0.329 50.0841 50.0841 0.2271 0.0020 0.023359 -1.051784 11.85 490 730 0.00 0.00 0.0000 0.0000
0.195 2 9.939873 1.668633 3.435561 -3.082275 8.872986 -5.691528 50.00 50.00 4.8 4.9 0.234 0.317 50.0841 50.0841 0.2287 0.0021 0.023359 -1.053189 11.82 510 740 0.00 0.00 0.0000 0.0000
0.196 2 9.731294 1.222705 5.842612 5.691528 11.558533 -10.559082 50.00 50.00 4.8 4.9 0.215 0.291 50.0841 50.0841 0.2299 0.0021 0.023359 -1.054613 11.82 490 730 0.00 0.00 0.0000 0.0000
0.197 2 8.554140 3.792783 5.384697 10.658264 25.993347 -7.034302 50.00 50.00 4.8 3.9 0.228 0.260 50.0841 52.0104 0.2313 0.0021 0.025955 -1.053594 11.82 490 730 0.00 0.00 0.0000 0.0000
0.198 2 8.333574 4.169184 4.627100 15.754700 25.978088 -7.858276 50.00 50.00 4.8 4.9 0.247 0.165 50.0841 50.0841 0.2327 0.0022 0.023359 -1.052805 11.82 490 730 0.00 0.00 0.0000 0.0000
0.199 2 9.232622 0.860688 4.157197 19.737244 7.034302 -18.440247 50.00 50.00 4.8 5.9 0.272 0.177 50.0841 48.2953 0.2341 0.0022 0.025955 -1.053570 11.82 490 730 0.00 0.00 0.0000 0.0000
0.200 2 9.299750 -0.721636 4.140415 17.364502 -9.117126 -23.818970 50.00 50.00 5.8 5.9 0.247 0.209 48.2953 48.2953 0.2355 0.0022 0.023359 -1.055494 11.85 510 750 0.00 0.00 0.0000 0.0000
0.201 2 8.669218 0.232554 4.202749 11.451721 -17.883301 -13.206482 50.00 50.00 5.8 4.9 0.266 0.310 48.2953 50.0841 0.2369 0.0023 0.025955 -1.057314 11.85 490 730 0.00 0.00 0.0000 0.0000
0.202 2 7.201972 0.395581 5.379902 3.570557 -17.501831 -1.129150 50.00 50.00 6.7 4.9 0.342 0.355 46.6300 50.0841 0.2383 0.0023 0.023359 -1.056967 11.85 490 730 0.00 0.00 0.0000 0.0000
0.203 2 6.394028 -2.080996 5.116181 -6.690979 -14.175415 6.111145 50.00 50.00 4.9 4.9 0.513 0.279 50.0841 50.0841 0.2398 0.0024 0.025955 -1.054381 11.85 490 730 0.00 0.00 0.0000 0.0000
0.204 2 8.712373 -2.443013 4.598330 -13.114929 -16.723633 16.769409 50.00 50.00 4.9 5.9 0.557 0.234 50.0841 48.2953 0.2410 0.0024 0.025955 -1.053385 11.85 490 730 0.00 0.00 0.0000 0.0000
0.205 2 10.309082 -0.999741 4.595932 -15.251160 -19.599915 24.414062 50.00 50.00 4.9 5.0 0.412 0.266 50.0841 50.0841 0.2426 0.0024 0.025955 -1.054984 11.80 510 750 0.00 0.00 0.0000 0.0000
0.206 2 8.973696 -0.570596 5.391890 -16.906738 -13.465881 22.338867 50.00 50.00 4.9 5.0 0.374 0.317 50.0841 50.0841 0.2438 0.0025 0.025955 -1.055975 11.80 490 730 0.00 0.00 0.0000 0.0000
0.207 2 7.937993 0.748008 5.753906 -16.418457 0.450134 15.190125 50.00 50.00 4.9 5.0 0.386 0.279 50.0841 50.0841 0.2454 0.0025 0.025955 -1.054715 11.80 490 720 0.00 0.00 0.0000 0.0000
0.208 2 8.693193 1.965918 5.396684 -9.269714 16.616821 7.255554 50.00 50.00 4.9 5.0 0.374 0.247 50.0841 50.0841 0.2466 0.0025 0.025955 -1.053076 11.80 490 730 0.00 0.00 0.0000 0.0000
0.209 2 10.090913 2.241626 4.835679 0.953674 20.538330 -1.770020 50.00 50.00 6.8 4.9 0.361 0.222 46.6300 50.0841 0.2482 0.0026 0.025955 -1.053082 11.80 490 730 0.00 0.00 0.0000 0.0000
0.210 2 9.796025 2.872158 5.451826 9.963989 23.223877 -10.116577 50.00 50.00 5.9 5.9 0.367 0.203 48.2953 48.2953 0.2494 0.0026 0.025955 -1.053502 11.77 510 750 0.00 0.00 0.0000 0.0000
0.211 2 8.676411 3.747231 4.886025 16.334534 23.841858 -13.702393 50.00 50.00 5.0 5.0 0.431 0.266 50.0841 50.0841 0.2508 0.0026 0.028550 -1.053233 11.77 490 730 0.00 0.00 0.0000 0.0000
0.212 2 8.798681 3.713667 4.253096 19.485474 15.480042 -17.730713 50.00 50.00 5.0 5.0 0.456 0.291 50.0841 50.0841 0.2524 0.0027 0.028550 -1.053605 11.77 490 720 0.00 0.00 0.0000 0.0000
0.213 2 8.755527 1.117217 4.094863 17.738342 1.403809 -24.497986 50.00 50.00 5.0 5.0 0.336 0.260 50.0841 50.0841 0.2536 0.0027 0.028550 -1.054911 11.77 490 730 0.00 0.00 0.0000 0.0000
0.214 2 7.911621 -0.385991 4.538393 12.100220 -7.896423 -22.834778 50.00 50.00 5.9 5.0 0.310 0.228 48.2953 50.0841 0.2552 0.0028 0.028550 -1.055695 11.77 480 730 0.00 0.00 0.0000 0.0000
0.215 2 7.468091 -0.052744 4.713408 6.820679 -11.375427 -9.040833 50.00 50.00 5.9 4.9 0.304 0.247 48.2953 50.0841 0.2564 0.0028 0.028550 -1.055331 11.82 510 750 0.00 0.00 0.0000 0.0000
0.216 2 7.961967 -0.994946 4.528803 0.244141 -18.058777 5.615234 50.00 50.00 5.9 4.9 0.367 0.228 48.2953 50.0841 0.2580 0.0028 0.028550 -1.055098 11.82 490 730 0.00 0.00 0.0000 0.0000
0.217 2 8.630859 -2.766670 4.790127 -8.903503 -23.170471 14.297485 50.00 50.00 5.9 3.9 0.424 0.215 48.2953 52.0104 0.2595 0.0029 0.031146 -1.055529 11.82 490 730 0.00 0.00 0.0000 0.0000
0.218 2 8.393511 -2.725913 5.053847 -15.213013 -18.302917 20.462036 50.00 50.00 5.0 4.9 0.424 0.114 50.0841 50.0841 0.2609 0.0029 0.028550 -1.055708 11.82 490 730 0.00 0.00 0.0000 0.0000
0.219 2 8.055469 -0.865483 5.715547 -16.761780 -12.466431 24.421692 50.00 50.00 5.0 4.9 0.399 0.139 50.0841 50.0841 0.2623 0.0030 0.031146 -1.054698 11.82 490 730 0.00 0.00 0.0000 0.0000
0.220 2 8.551743 0.479492 6.264565 -15.579224 -5.187988 22.827148 50.00 50.00 5.0 4.9 0.374 0.190 50.0841 50.0841 0.2637 0.0030 0.028550 -1.052701 11.83 510 750 0.00 0.00 0.0000 0.0000
0.221 2 9.422021 1.313809 5.315171 -13.824463 3.791809 14.541626 50.00 50.00 5.0 4.9 0.361 0.209 50.0841 50.0841 0.2651 0.0031 0.031146 -1.051627 11.83 490 730 0.00 0.00 0.0000 0.0000
0.222 2 9.599433 1.397720 4.895615 -7.881165 12.107849 1.075745 50.00 50.00 4.9 4.9 0.310 0.203 50.0841 50.0841 0.2665 0.0031 0.028550 -1.052016 11.83 480 730 0.00 0.00 0.0000 0.0000
0.223 2 9.673755 2.368691 5.204887 2.494812 18.913269 -7.583618 50.00 50.00 4.9 4.9 0.329 0.196 50.0841 50.0841 0.2679 0.0031 0.031146 -1.052464 11.83 490 730 0.00 0.00 0.0000 0.0000
0.224 2 9.302148 4.078081 5.058642 10.391235 21.858215 -10.269165 50.00 50.00 4.9 4.9 0.266 0.228 50.0841 50.0841 0.2693 0.0032 0.028550 -1.052556 11.83 490 730 0.00 0.00 0.0000 0.0000
0.225 2 8.230483 4.054106 4.814101 13.549805 19.050598 -13.442993 50.00 50.00 4.9 4.9 0.285 0.209 50.0841 50.0841 0.2707 0.0032 0.031146 -1.052293 11.85 510 750 0.00 0.00 0.0000 0.0000
0.226 2 7.964365 2.330332 4.037324 15.937805 12.603760 -19.149780 50.00 50.00 4.9 5.9 0.317 0.222 50.0841 48.2953 0.2721 0.0033 0.028550 -1.052402 11.85 490 730 0.00 0.00 0.0000 0.0000
0.227 2 8.827451 0.503467 3.483511 15.968323 -0.068665 -22.415161 50.00 50.00 4.9 4.9 0.310 0.272 50.0841 50.0841 0.2735 0.0033 0.031146 -1.054192 11.85 490 730 0.00 0.00 0.0000 0.0000
0.228 2 9.445995 -0.354824 4.478457 14.083862 -16.700745 -16.639709 50.00 50.00 5.9 4.9 0.323 0.279 48.2953 50.0841 0.2751 0.0034 0.031146 -1.056462 11.85 490 730 0.00 0.00 0.0000 0.0000
0.229 2 8.542153 -0.716841 5.295991 8.453369 -21.903992 -3.791809 50.00 50.00 5.0 4.9 0.323 0.260 50.0841 50.0841 0.2763 0.0034 0.031146 -1.057102 11.85 490 730 0.00 0.00 0.0000 0.0000
0.230 2 7.098882 -1.191538 5.595674 -4.005432 -14.572144 5.149841 50.00 50.00 5.0 4.9 0.386 0.241 50.0841 50.0841 0.2780 0.0034 0.031146 -1.055485 11.82 510 750 0.00 0.00 0.0000 0.0000
0.231 2 6.947842 -2.375884 5.533340 -15.243530 -8.712769 10.803223 50.00 50.00 5.0 5.9 0.367 0.215 50.0841 48.2953 0.2792 0.0035 0.031146 -1.052623 11.82 490 730 0.00 0.00 0.0000 0.0000
0.232 2 8.642846 -2.263203 4.699023 -15.953064 -8.880615 18.600464 50.00 50.00 5.0 5.0 0.355 0.266 50.0841 50.0841 0.2808 0.0035 0.031146 -1.051446 11.82 490 720 0.00 0.00 0.0000 0.0000
0.233 2 10.515264 -1.347373 4.269878 -12.718201 -17.318726 21.011353 50.00 50.00 4.9 5.0 0.336 0.304 50.0841 50.0841 0.2820 0.0036 0.031146 -1.053207 11.82 490 720 0.00 0.00 0.0000 0.0000
0.234 2 9.489150 -0.549019 5.444633 -11.970520 -17.379761 16.387939 50.00 50.00 4.9 5.0 0.348 0.285 50.0841 50.0841 0.2836 0.0036 0.031146 -1.054780 11.82 490 730 0.00 0.00 0.0000 0.0000
0.235 2 7.712632 1.625479 6.252578 -11.482239 -0.610352 12.336731 50.00 50.00 4.9 4.9 0.342 0.247 50.0841 50.0841 0.2850 0.0037 0.033741 -1.053251 11.82 510 750 0.00 0.00 0.0000 0.0000
0.236 2 8.276035 3.246162 5.499775 -6.927490 22.537231 7.598877 50.00 50.00 6.8 4.9 0.323 0.228 46.6300 50.0841 0.2864 0.0037 0.031146 -1.050758 11.82 490 720 0.00 0.00 0.0000 0.0000
0.237 2 9.731294 3.198213 4.979526 -1.350403 29.396057 -4.043579 50.00 50.00 5.0 4.9 0.374 0.209 50.0841 50.0841 0.2876 0.0038 0.031146 -1.050116 11.82 490 730 0.00 0.00 0.0000 0.0000
0.238 2 10.208388 2.742695 4.770947 6.294250 16.670227 -15.319824 50.00 50.00 5.0 3.9 0.412 0.209 50.0841 52.0104 0.2892 0.0038 0.031146 -1.051017 11.82 490 730 0.00 0.00 0.0000 0.0000
0.239 2 9.134326 3.629756 4.804512 14.587402 12.847900 -16.250610 50.00 50.00 5.0 4.9 0.393 0.152 50.0841 50.0841 0.2906 0.0038 0.033741 -1.051932 11.82 490 730 0.00 0.00 0.0000 0.0000
0.240 2 8.647641 3.771206 3.488306 18.295288 11.535645 -17.578125 50.00 50.00 5.0 4.9 0.380 0.152 50.0841 50.0841 0.2920 0.0039 0.031146 -1.053405 11.85 510 750 0.00 0.00 0.0000 0.0000
0.241 2 8.127393 0.187002 4.082876 17.089844 -0.907898 -22.323608 50.00 50.00 4.9 4.9 0.355 0.139 50.0841 50.0841 0.2934 0.0039 0.033741 -1.055153 11.85 490 730 0.00 0.00 0.0000 0.0000
0.242 2 7.525630 -1.217910 4.514419 13.038635 -9.078979 -18.714905 50.00 50.00 5.9 4.9 0.298 0.247 48.2953 50.0841 0.2948 0.0040 0.031146 -1.055491 11.85 490 730 0.00 0.00 0.0000 0.0000
0.243 2 8.288022 -0.951792 3.888681 6.309509 -15.373230 -4.135132 50.00 50.00 5.0 4.9 0.304 0.203 50.0841 50.0841 0.2962 0.0040 0.033741 -1.056213 11.85 490 730 0.00 0.00 0.0000 0.0000
0.244 2 8.791489 -1.555952 5.202490 -4.653931 -23.498535 8.216858 50.00 50.00 5.0 4.9 0.323 0.203 50.0841 50.0841 0.2975 0.0041 0.033741 -1.057105 11.85 480 730 0.00 0.00 0.0000 0.0000
0.245 2 7.753388 -3.095122 5.964883 -15.220642 -20.591736 14.801025 50.00 50.00 5.0 5.9 0.386 0.177 50.0841 48.2953 0.2991 0.0041 0.033741 -1.055875 11.80 510 750 0.00 0.00 0.0000 0.0000
0.246 2 8.261650 -2.128945 5.401479 -19.012451 -6.011963 23.063660 50.00 50.00 5.0 4.9 0.317 0.241 50.0841 50.0841 0.3003 0.0042 0.033741 -1.054076 11.80 490 720 0.00 0.00 0.0000 0.0000
0.247 2 9.956655 0.206182 4.658267 -18.173218 -5.210876 26.611328 50.00 50.00 4.9 4.9 0.291 0.329 50.0841 50.0841 0.3019 0.0042 0.033741 -1.054339 11.80 490 720 0.00 0.00 0.0000 0.0000
0.248 2 8.558935 0.496274 6.020024 -15.098572 -7.362366 17.097473 50.00 50.00 4.9 4.9 0.323 0.317 50.0841 50.0841 0.3031 0.0043 0.033741 -1.054273 11.80 490 730 0.00 0.00 0.0000 0.0000
0.249 2 7.163613 1.059678 5.085014 -9.292603 6.538391 6.927490 50.00 50.00 4.9 4.9 0.317 0.247 50.0841 50.0841 0.3047 0.0043 0.033741 -1.052327 11.80 490 730 0.00 0.00 0.0000 0.0000
0.250 2 9.644985 3.612973 4.298647 -1.251221 12.428284 3.936768 50.00 50.00 4.9 4.9 0.355 0.209 50.0841 50.0841 0.3059 0.0044 0.033741 -1.052167 11.85 510 750 0.00 0.00 0.0000 0.0000
0.251 2 11.057090 3.965400 5.089809 4.859924 13.801575 -4.882812 50.00 50.00 4.9 4.9 0.336 0.215 50.0841 50.0841 0.3075 0.0044 0.033741 -1.053787 11.85 490 720 0.00 0.00 0.0000 0.0000
0.252 2 8.664424 2.596450 4.852461 7.072449 19.493103 -16.952515 50.00 50.00 4.9 4.9 0.329 0.209 50.0841 50.0841 0.3087 0.0045 0.033741 -1.054411 11.85 490 730 0.00 0.00 0.0000 0.0000
0.253 2 7.758183 3.387612 4.567163 10.337830 18.066406 -20.111084 50.00 50.00 4.9 4.9 0.336 0.215 50.0841 50.0841 0.3103 0.0045 0.033741 -1.053989 11.85 490 720 0.00 0.00 0.0000 0.0000
0.254 2 8.676411 2.658784 4.763755 15.357971 10.856628 -19.462585 50.00 50.00 4.9 4.9 0.342 0.209 50.0841 50.0841 0.3115 0.0045 0.033741 -1.053734 11.85 490 730 0.00 0.00 0.0000 0.0000
0.255 2 8.566128 -0.098296 4.078081 16.990662 0.473022 -19.096375 50.00 50.00 4.9 4.9 0.317 0.203 50.0841 50.0841 0.3131 0.0046 0.033741 -1.054504 11.80 510 750 0.00 0.00 0.0000 0.0000
0.256 2 8.285625 -1.371348 4.214736 13.824463 -13.061523 -14.511108 50.00 50.00 5.9 4.9 0.291 0.241 48.2953 50.0841 0.3145 0.0047 0.036337 -1.055778 11.80 490 730 0.00 0.00 0.0000 0.0000
0.257 2 8.048276 -1.795698 4.758960 5.401611 -22.079468 -4.058838 50.00 50.00 5.9 4.9 0.298 0.228 48.2953 50.0841 0.3160 0.0047 0.033741 -1.056334 11.80 490 730 0.00 0.00 0.0000 0.0000
0.258 2 7.916416 -1.980303 4.744575 -7.858276 -21.011353 9.521484 50.00 50.00 5.9 4.9 0.374 0.209 48.2953 50.0841 0.3174 0.0047 0.036337 -1.056261 11.80 490 730 0.00 0.00 0.0000 0.0000
0.259 2 8.192123 -1.882007 5.029873 -18.753052 -15.625000 20.820618 50.00 50.00 5.0 4.9 0.424 0.196 50.0841 50.0841 0.3186 0.0048 0.036337 -1.055969 11.80 490 730 0.00 0.00 0.0000 0.0000
0.260 2 8.662026 -1.436079 5.303184 -21.293640 -10.658264 25.856018 50.00 50.00 5.0 4.9 0.418 0.247 50.0841 50.0841 0.3202 0.0049 0.036337 -1.055499 11.82 510 750 0.00 0.00 0.0000 0.0000
0.261 2 8.892182 -0.088706 5.437441 -19.119263 -7.850647 23.803711 50.00 50.00 5.0 4.9 0.380 0.215 50.0841 50.0841 0.3214 0.0049 0.036337 -1.054990 11.82 490 730 0.00 0.00 0.0000 0.0000
0.262 2 8.669218 1.436079 5.526147 -15.159607 -2.761841 16.433716 50.00 50.00 5.0 4.9 0.380 0.228 50.0841 50.0841 0.3230 0.0050 0.036337 -1.054243 11.82 490 730 0.00 0.00 0.0000 0.0000
0.263 2 8.815464 2.313550 5.154541 -7.316589 7.408142 6.240845 50.00 50.00 4.9 4.9 0.348 0.209 50.0841 50.0841 0.3242 0.0050 0.036337 -1.053574 11.82 490 730 0.00 0.00 0.0000 0.0000
0.264 2 10.007002 2.500552 4.869243 2.182007 14.877319 -5.882263 50.00 50.00 4.9 4.9 0.361 0.215 50.0841 50.0841 0.3258 0.0051 0.036337 -1.053901 11.82 490 720 0.00 0.00 0.0000 0.0000
0.265 2 9.999809 2.898530 5.252837 8.346558 19.386292 -13.412476 50.00 50.00 4.9 3.9 0.323 0.222 50.0841 52.0104 0.3270 0.0051 0.036337 -1.054567 11.82 510 750 0.00 0.00 0.0000 0.0000
0.266 2 8.506191 4.293852 5.108989 11.039734 24.635315 -14.068604 50.00 50.00 4.9 4.9 0.342 0.171 50.0841 50.0841 0.3286 0.0052 0.036337 -1.054265 11.82 490 720 0.00 0.00 0.0000 0.0000
0.267 2 7.722221 3.265342 3.972593 12.763977 18.302917 -16.311646 50.00 50.00 4.9 5.8 0.355 0.158 50.0841 48.2953 0.3298 0.0052 0.036337 -1.054063 11.82 490 730 0.00 0.00 0.0000 0.0000
0.268 2 8.333574 0.496274 4.176377 14.625549 2.517700 -20.080566 50.00 50.00 4.9 4.9 0.348 0.177 50.0841 50.0841 0.3314 0.0053 0.036337 -1.054811 11.82 490 720 0.00 0.00 0.0000 0.0000
0.269 2 9.273378 -0.453120 4.097260 14.068604 -8.094788 -17.784119 50.00 50.00 4.9 4.9 0.317 0.272 50.0841 50.0841 0.3326 0.0053 0.036337 -1.056358 11.82 490 730 0.00 0.00 0.0000 0.0000
0.270 2 8.662026 -1.002139 3.919848 9.193420 -14.770508 -9.269714 50.00 50.00 5.9 4.9 0.323 0.253 48.2953 50.0841 0.3342 0.0054 0.036337 -1.058416 11.83 510 750 0.00 0.00 0.0000 0.0000
0.271 2 6.792006 -1.347373 5.317568 -0.198364 -23.551941 5.264282 50.00 50.00 5.0 4.9 0.329 0.234 50.0841 50.0841 0.3357 0.0054 0.038932 -1.058109 11.83 490 730 0.00 0.00 0.0000 0.0000
0.272 2 7.880454 -0.853496 5.770689 -10.978699 -16.983032 14.930725 50.00 50.00 5.0 5.9 0.361 0.222 50.0841 48.2953 0.3369 0.0055 0.038932 -1.055777 11.83 490 730 0.00 0.00 0.0000 0.0000
0.273 2 9.513124 -3.035185 4.286660 -15.754700 -13.282776 15.411377 50.00 50.00 5.0 4.9 0.380 0.241 50.0841 50.0841 0.3385 0.0055 0.038932 -1.055787 11.83 490 720 0.00 0.00 0.0000 0.0000
0.274 2 9.081582 -2.718721 6.043999 -17.768860 -19.332886 16.609192 50.00 50.00 5.0 4.9 0.348 0.329 50.0841 50.0841 0.3397 0.0056 0.038932 -1.056262 11.83 490 720 0.00 0.00 0.0000 0.0000
0.275 2 7.125254 1.685415 6.499516 -19.187927 -2.990723 24.528503 50.00 50.00 4.9 5.9 0.317 0.298 50.0841 48.2953 0.3413 0.0056 0.038932 -1.053508 11.85 510 750 0.00 0.00 0.0000 0.0000
0.276 2 7.954775 3.665718 3.413984 -12.130737 14.923096 25.711060 50.00 50.00 4.9 4.9 0.348 0.291 50.0841 50.0841 0.3425 0.0057 0.038932 -1.052312 11.85 490 730 0.00 0.00 0.0000 0.0000
0.277 2 10.762202 0.771982 4.547983 -2.799988 0.556946 5.340576 50.00 50.00 4.9 4.9 0.291 0.298 50.0841 50.0841 0.3441 0.0057 0.038932 -1.054472 11.85 490 720 0.00 0.00 0.0000 0.0000
0.278 2 9.975835 -0.107886 5.835420 1.579285 5.554199 -14.701843 50.00 50.00 4.9 5.9 0.241 0.266 50.0841 48.2953 0.3453 0.0058 0.038932 -1.055445 11.85 490 730 0.00 0.00 0.0000 0.0000
0.279 2 8.376728 4.423316 4.924385 4.447937 24.971008 -12.161255 50.00 50.00 6.8 5.0 0.215 0.272 46.6300 50.0841 0.3469 0.0059 0.038932 -1.054883 11.85 490 730 0.00 0.00 0.0000 0.0000
0.280 2 8.621269 5.634033 4.665459 11.489868 28.244019 -7.217407 50.00 50.00 5.0 5.0 0.304 0.285 50.0841 50.0841 0.3481 0.0059 0.038932 -1.054466 11.79 510 750 0.00 0.00 0.0000 0.0000
0.281 2 8.832246 1.186743 4.706216 14.419556 12.069702 -18.173218 50.00 50.00 5.0 5.0 0.424 0.260 50.0841 50.0841 0.3495 0.0060 0.041528 -1.054584 11.79 490 730 0.00 0.00 0.0000 0.0000
0.282 2 8.422280 -0.484287 4.828486 11.039734 -3.028870 -25.390625 50.00 50.00 5.0 5.0 0.342 0.234 50.0841 50.0841 0.3511 0.0060 0.041528 -1.054726 11.79 490 730 0.00 0.00 0.0000 0.0000
0.283 2 8.292817 1.047690 4.456880 10.406494 -1.907349 -14.518738 50.00 50.00 5.0 4.9 0.298 0.241 50.0841 50.0841 0.3523 0.0061 0.041528 -1.054952 11.79 490 730 0.00 0.00 0.0000 0.0000
0.284 2 8.280829 0.002397 4.082876 5.851746 -12.626648 -3.860474 50.00 50.00 5.9 5.9 0.247 0.215 48.2953 48.2953 0.3539 0.0061 0.041528 -1.055874 11.79 490 720 0.00 0.00 0.0000 0.0000
0.285 2 7.746196 -3.025596 5.756303 -2.609253 -16.021729 -0.511169 50.00 50.00 5.0 3.9 0.291 0.266 50.0841 52.0104 0.3553 0.0062 0.038932 -1.055455 11.80 510 760 0.00 0.00 0.0000 0.0000
0.286 2 8.537358 -2.721118 4.320224 -6.141663 -8.964539 8.842468 50.00 50.00 5.0 4.9 0.336 0.253 50.0841 50.0841 0.3568 0.0063 0.041528 -1.054910 11.80 490 730 0.00 0.00 0.0000 0.0000
0.287 2 9.772051 -0.942202 5.224067 -6.431580 -18.119812 18.218994 50.00 50.00 5.0 4.9 0.285 0.228 50.0841 50.0841 0.3580 0.0063 0.041528 -1.055860 11.80 490 730 0.00 0.00 0.0000 0.0000
0.288 2 8.242471 -1.141191 6.746455 -8.491516 -17.066956 18.531799 50.00 50.00 5.0 4.9 0.215 0.215 50.0841 50.0841 0.3596 0.0064 0.041528 -1.054709 11.80 490 730 0.00 0.00 0.0000 0.0000
0.289 2 6.485132 0.580186 5.554917 -12.847900 5.630493 15.495300 50.00 50.00 4.9 4.9 0.228 0.228 50.0841 50.0841 0.3608 0.0064 0.041528 -1.051224 11.80 490 730 0.00 0.00 0.0000 0.0000
0.290 2 8.283227 3.224585 4.392148 -8.232117 15.167236 18.608093 50.00 50.00 4.9 4.9 0.272 0.234 50.0841 50.0841 0.3624 0.0065 0.041528 -1.049492 11.83 510 750 0.00 0.00 0.0000 0.0000
0.291 2 10.651918 4.965141 5.137759 1.449585 3.532410 11.871338 50.00 50.00 4.9 4.9 0.266 0.215 50.0841 50.0841 0.3638 0.0065 0.044123 -1.050377 11.83 490 730 0.00 0.00 0.0000 0.0000
0.292 2 10.330659 1.539170 4.075684 4.051208 -1.777649 -14.335632 50.00 50.00 4.9 3.9 0.234 0.209 50.0841 52.0104 0.3652 0.0066 0.041528 -1.052496 11.83 490 730 0.00 0.00 0.0000 0.0000
0.293 2 8.525371 0.196592 4.802114 2.449036 7.377625 -27.442932 50.00 50.00 4.9 3.8 0.234 0.139 50.0841 52.0104 0.3666 0.0067 0.044123 -1.053912 11.83 490 730 0.00 0.00 0.0000 0.0000
0.294 2 7.993134 4.205146 5.037066 5.401611 20.248413 -16.929626 50.00 50.00 7.6 4.9 0.253 0.108 45.0756 50.0841 0.3680 0.0067 0.041528 -1.053262 11.83 490 730 0.00 0.00 0.0000 0.0000
0.295 2 7.568784 3.035185 5.406274 10.192871 20.286560 -7.225037 50.00 50.00 5.0 4.9 0.380 0.057 50.0841 50.0841 0.3694 0.0068 0.044123 -1.051451 11.77 510 750 0.00 0.00 0.0000 0.0000
0.296 2 8.254457 -0.664097 4.353789 14.205933 12.260437 -9.422302 50.00 50.00 5.0 4.9 0.519 0.171 50.0841 50.0841 0.3708 0.0069 0.041528 -1.050507 11.77 490 730 0.00 0.00 0.0000 0.0000
0.297 2 10.520059 -2.092983 3.394804 13.732910 -4.760742 -12.237549 50.00 50.00 5.9 4.9 0.380 0.190 48.2953 50.0841 0.3722 0.0069 0.044123 -1.052849 11.77 490 730 0.00 0.00 0.0000 0.0000
0.298 2 9.803218 -1.632671 4.020542 8.926392 -16.311646 -8.430481 50.00 50.00 5.9 5.8 0.323 0.196 48.2953 48.2953 0.3736 0.0070 0.041528 -1.056343 11.77 490 730 0.00 0.00 0.0000 0.0000
0.299 2 6.350874 -0.867881 5.056245 0.877380 -14.266968 3.051758 50.00 50.00 5.0 5.9 0.380 0.190 50.0841 48.2953 0.3750 0.0070 0.044123 -1.056284 11.77 490 730 0.00 0.00 0.0000 0.0000
0.300 2 7.089292 0.568198 5.377505 -8.216858 -7.308960 12.931824 50.00 50.00 5.0 4.9 0.386 0.310 50.0841 50.0841 0.3764 0.0071 0.041528 -1.053576 11.82 510 750 0.00 0.00 0.0000 0.0000
0.301 4 9.040825 -1.565542 4.401738 -11.650085 -12.054443 15.274048 49.16 49.16 4.5 4.5 0.310 0.355 50.0841 50.0841 0.3779 0.0072 0.044123 -1.053074 11.82 490 830 0.00 0.00 0.0000 0.0000
0.302 4 8.465434 -0.441133 5.936113 -13.114929 -22.384644 16.860962 48.32 48.32 5.0 4.0 0.291 0.260 48.2953 50.0841 0.3793 0.0072 0.041528 -1.053083 11.82 490 790 0.00 0.00 0.0000 0.0000
0.303 4 8.609282 2.128945 5.641225 -12.336731 -11.657715 16.555786 47.48 47.48 3.6 3.5 0.285 0.196 50.0841 50.0841 0.3807 0.0073 0.044123 -1.051831 11.82 490 720 0.00 0.00 0.0000 0.0000
0.304 4 9.196660 1.925161 4.610317 -8.178711 5.119324 10.925293 46.64 46.64 3.1 3.0 0.203 0.038 50.0841 50.0841 0.3819 0.0073 0.044123 -1.051820 11.82 490 730 0.00 0.00 0.0000 0.0000
0.305 4 10.035771 1.318604 4.931577 -3.242493 6.965637 -2.052307 45.80 45.80 2.6 3.5 0.057 -0.013 50.0841 48.2953 0.3835 0.0074 0.044123 -1.052869 11.93 510 750 0.00 0.00 0.0000 0.0000
0.306 4 8.240073 2.109766 6.379643 0.160217 16.716003 -8.110046 44.96 44.96 2.0 2.0 -0.025 -0.082 50.0841 50.0841 0.3847 0.0075 0.044123 -1.051875 11.93 490 730 0.00 0.00 0.0000 0.0000
0.307 4 8.635654 4.305840 4.603125 7.835388 31.951904 -10.330200 44.12 44.12 2.5 1.4 -0.120 -0.120 48.2953 50.0841 0.3863 0.0075 0.044123 -1.050358 11.93 490 730 0.00 0.00 0.0000 0.0000
0.308 4 10.532045 0.774380 3.792783 16.662598 14.411926 -18.707275 43.28 43.28 1.9 1.9 -0.139 -0.234 48.2953 48.2953 0.3875 0.0076 0.044123 -1.051992 11.93 490 730 0.00 0.00 0.0000 0.0000
0.309 4 9.587446 -0.865483 5.890561 15.365601 2.059937 -24.238586 42.44 42.44 1.4 1.3 -0.190 -0.361 48.2953 48.2953 0.3889 0.0076 0.046719 -1.053246 11.93 490 730 0.00 0.00 0.0000 0.0000
0.310 4 7.460898 1.313809 4.106851 8.979797 10.414124 -14.732361 41.60 41.60 0.9 0.8 -0.298 -0.317 48.2953 48.2953 0.3903 0.0077 0.044123 -1.052949 11.96 510 760 0.00 0.00 0.0000 0.0000
0.311 4 7.295474 1.191538 4.044517 8.300781 7.194519 -3.219604 40.76 40.76 1.2 0.8 -0.399 -0.475 46.6300 48.2953 0.3915 0.0078 0.044123 -1.053057 11.96 490 730 0.00 0.00 0.0000 0.0000
0.312 4 7.743799 -2.092983 4.744575 5.821228 -6.332397 -1.258850 39.92 39.92 0.8 0.8 -0.557 -0.583 46.6300 46.6300 0.3927 0.0078 0.044123 -1.052847 11.96 490 730 0.00 0.00 0.0000 0.0000
0.313 4 7.748593 -1.419297 4.042119 -2.937317 -14.472961 4.997253 39.08 39.08 0.9 1.6 -0.532 -0.602 45.0756 43.6216 0.3941 0.0079 0.046719 -1.053080 11.96 490 740 0.00 0.00 0.0000 0.0000
0.314 4 8.096226 0.870278 3.982183 -7.026672 -25.955200 17.242432 38.24 38.24 0.8 0.8 -0.589 -0.621 45.0756 45.0756 0.3953 0.0079 0.046719 -1.054395 11.96 490 720 0.00 0.00 0.0000 0.0000
0.315 4 10.057348 -1.143589 4.835679 -12.527466 -39.428711 14.198303 37.39 37.39 0.8 0.8 -0.747 -0.443 43.6216 43.6216 0.3967 0.0080 0.044123 -1.056223 12.02 510 750 0.00 0.00 0.0000 0.0000
0.316 4 8.973696 -3.605781 6.135102 -21.400452 -37.910461 8.186340 36.55 36.55 0.8 -0.8 -0.652 -0.564 42.2584 43.6216 0.3977 0.0080 0.046719 -1.056706 12.02 490 720 0.00 0.00 0.0000 0.0000
0.317 4 6.808789 1.186743 7.492065 -27.618408 3.013611 21.118164 35.71 35.71 0.8 0.8 -0.779 -0.722 42.2584 42.2584 0.3988 0.0081 0.044123 -1.053001 12.02 490 710 0.00 0.00 0.0000 0.0000
0.318 4 7.674272 6.317309 4.346597 -17.837524 44.929504 34.683228 34.87 34.87 0.8 -0.8 -0.722 -0.640 40.9779 42.2584 0.4000 0.0081 0.044123 -1.049489 12.02 490 720 0.00 0.00 0.0000 0.0000
0.319 4 10.508071 3.099917 3.111904 5.073547 39.413452 17.288208 34.03 34.03 0.8 0.8 -0.627 -0.741 39.7726 39.7726 0.4012 0.0082 0.044123 -1.051130 12.02 490 720 0.00 0.00 0.0000 0.0000
0.320 4 11.778726 -1.702197 4.648676 18.997192 -11.962891 -21.926880 33.19 33.19 1.7 0.8 -0.722 -0.754 36.5478 38.6363 0.4024 0.0082 0.044123 -1.054610 11.96 510 740 0.00 0.00 0.0000 0.0000
0.321 4 9.321328 -0.769585 6.916675 16.304016 -17.364502 -40.969849 32.35 32.35 0.8 0.8 -0.551 -0.589 38.6363 37.5630 0.4032 0.0083 0.044123 -1.055043 11.96 490 730 0.00 0.00 0.0000 0.0000
0.322 4 7.530425 3.982183 4.521611 14.472961 19.653320 -21.156311 31.51 31.51 0.8 0.8 -0.475 -0.640 37.5630 36.5478 0.4044 0.0083 0.044123 -1.053561 11.96 490 720 0.00 0.00 0.0000 0.0000
0.323 4 8.659629 4.416123 4.833281 17.555237 37.521362 -2.059937 30.67 30.67 0.8 -0.8 -0.602 -0.589 36.5478 36.5478 0.4052 0.0084 0.044123 -1.052915 11.96 490 730 0.00 0.00 0.0000 0.0000
0.324 4 8.530166 -0.479492 5.195298 12.573242 19.256592 -9.162903 29.83 29.83 0.8 0.8 -0.627 -0.551 35.5860 34.6736 0.4064 0.0084 0.044123 -1.052223 11.96 490 720 0.00 0.00 0.0000 0.0000
0.325 4 6.298130 -1.203525 6.072768 3.021240 -3.684998 -14.610291 28.99 28.99 -0.8 -0.8 -0.551 -0.640 34.6736 34.6736 0.4072 0.0085 0.044123 -1.049345 11.96 510 750 0.00 0.00 0.0000 0.0000
0.326 4 7.779760 1.026113 3.416382 2.975464 -7.644653 -0.610352 28.15 28.15 0.8 0.8 -0.671 -0.690 32.9822 32.9822 0.4084 0.0085 0.044123 -1.048076 11.96 490 730 0.00 0.00 0.0000 0.0000
0.327 4 10.805356 -0.057539 1.728569 -3.051758 -24.848938 6.004333 27.31 27.31 -0.8 0.8 -0.735 -0.513 33.8067 32.1969 0.4092 0.0085 0.044123 -1.053040 11.96 490 710 0.00 0.00 0.0000 0.0000
0.328 4 8.566128 -3.212598 5.204887 -15.327454 -25.138855 -0.976562 26.47 26.47 -0.8 0.8 -0.621 -0.507 32.9822 31.4481 0.4100 0.0086 0.044123 -1.056748 11.96 490 720 0.00 0.00 0.0000 0.0000
0.329 4 5.727534 -1.647056 4.509624 -15.968323 -9.941101 4.402161 25.63 25.63 0.8 -0.8 -0.665 -0.507 29.3972 30.7334 0.4108 0.0086 0.044123 -1.055221 11.96 490 730 0.00 0.00 0.0000 0.0000
0.330 4 7.715029 1.332988 6.554658 -7.019043 -8.583069 21.537781 24.79 24.79 -0.8 0.8 -0.741 -0.551 30.0504 28.1723 0.4116 0.0087 0.044123 -1.052014 11.94 500 740 0.00 0.00 0.0000 0.0000
0.331 4 11.234502 1.608696 6.242988 -3.036499 2.998352 24.803162 23.95 23.95 0.8 -0.8 -0.690 -0.418 28.1723 29.3972 0.4124 0.0087 0.044123 -1.050340 11.94 490 720 0.00 0.00 0.0000 0.0000
0.332 4 11.354375 0.601763 4.073286 -2.929688 6.881714 8.819580 23.11 23.11 -0.8 0.8 -0.526 -0.456 28.7717 26.5151 0.4132 0.0087 0.044123 -1.052129 11.94 490 720 0.00 0.00 0.0000 0.0000
0.333 4 8.676411 0.970972 5.475801 0.473022 6.095886 -8.567810 22.27 22.27 -0.8 0.8 -0.557 -0.545 27.0454 26.0052 0.4140 0.0088 0.044123 -1.053303 11.94 490 720 0.00 0.00 0.0000 0.0000
0.334 4 7.321846 2.972852 5.104194 4.760742 12.542725 -13.801575 21.43 21.43 -0.8 -0.8 -0.652 -0.412 26.0052 26.5151 0.4148 0.0088 0.044123 -1.051787 11.94 490 730 0.00 0.00 0.0000 0.0000
0.335 4 8.793886 3.881489 4.636689 5.035400 11.848450 -15.609741 20.59 20.59 -0.8 0.8 -0.697 -0.424 26.0052 24.5867 0.4156 0.0088 0.044123 -1.051022 11.91 510 750 0.00 0.00 0.0000 0.0000
0.336 4 8.793886 0.668892 4.859653 5.569458 4.142761 -18.127441 19.75 19.75 -0.8 -0.8 -0.551 -0.393 24.5867 24.5867 0.4164 0.0089 0.044123 -1.051373 11.91 490 720 0.00 0.00 0.0000 0.0000
0.337 4 8.834643 -0.421953 3.991772 7.362366 -0.816345 -10.604858 18.91 18.91 -0.8 -1.0 -0.583 -0.456 23.7240 24.5867 0.4170 0.0089 0.041528 -1.052430 11.91 490 730 0.00 0.00 0.0000 0.0000
0.338 4 9.534702 0.081514 4.051709 4.501343 -1.747131 -1.800537 18.07 18.07 -0.8 -1.3 -0.621 -0.538 23.3150 24.1477 0.4176 0.0089 0.044123 -1.054536 11.91 490 730 0.00 0.00 0.0000 0.0000
0.339 4 8.407895 -0.529839 5.077822 -1.541138 -1.152039 3.532410 17.23 17.23 -0.8 -1.0 -0.678 -0.507 22.1684 22.5378 0.4184 0.0090 0.044123 -1.055426 11.91 490 720 0.00 0.00 0.0000 0.0000
0.340 4 6.878315 0.680879 5.669995 -4.379272 -5.035400 8.277893 16.39 16.39 -0.9 -1.5 -0.621 -0.507 21.4646 22.5378 0.4189 0.0090 0.044123 -1.053480 11.93 510 750 0.00 0.00 0.0000 0.0000
0.341 4 7.463295 0.877471 5.449429 -3.257751 -4.798889 8.171082 15.55 15.55 -0.9 -1.3 -0.481 -0.570 20.4889 21.1292 0.4197 0.0090 0.044123 -1.050739 11.93 490 720 0.00 0.00 0.0000 0.0000
0.342 4 9.635395 -0.652109 3.835938 -3.173828 -2.616882 0.022888 14.71 14.71 -1.3 -1.7 -0.481 -0.671 20.1831 20.8041 0.4201 0.0090 0.044123 -1.051105 11.93 490 730 0.00 0.00 0.0000 0.0000
0.343 4 10.289902 -1.181948 4.387353 -3.944397 -6.286621 -6.454468 13.87 13.87 -1.3 -1.6 -0.538 -0.716 19.3181 19.5981 0.4209 0.0091 0.044123 -1.053731 11.93 490 750 0.00 0.00 0.0000 0.0000
0.344 4 8.136982 0.855894 5.703559 -3.227234 -5.126953 -0.587463 13.03 13.03 -1.7 -1.4 -0.621 -0.760 19.0460 18.2739 0.4213 0.0091 0.044123 -1.054025 11.93 490 750 0.00 0.00 0.0000 0.0000
0.345 4 7.065317 2.817017 5.610058 -3.273010 4.188538 7.156372 12.18 12.18 -2.0 -1.8 -0.684 -0.659 18.5242 18.0303 0.4217 0.0091 0.044123 -1.051569 11.82 510 770 0.00 0.00 0.0000 0.0000
0.346 4 8.997670 1.371348 4.524009 -3.166199 10.398865 5.889893 11.34 11.34 -2.0 -1.7 -0.754 -0.608 17.5619 16.9034 0.4223 0.0091 0.041528 -1.050467 11.82 490 750 0.00 0.00 0.0000 0.0000
0.347 4 10.270722 0.299683 4.087671 0.068665 5.981445 -2.098083 10.50 10.50 -2.2 -2.2 -0.709 -0.678 16.9034 16.6947 0.4229 0.0091 0.044123 -1.052266 11.82 490 750 0.00 0.00 0.0000 0.0000
0.348 4 8.602090 1.438477 4.341802 3.814697 1.480103 -8.331299 9.66 9.66 -2.5 -2.3 -0.823 -0.766 16.2924 15.9091 0.4233 0.0092 0.044123 -1.054091 11.82 490 750 0.00 0.00 0.0000 0.0000
0.349 4 6.904687 1.675825 5.159336 3.463745 0.198364 -9.506226 8.82 8.82 -2.6 -1.3 -0.899 -0.830 15.5433 13.1288 0.4237 0.0092 0.044123 -1.053326 11.82 490 750 0.00 0.00 0.0000 0.0000
0.350 4 8.434267 1.208320 5.029873 0.953674 0.801086 -5.233765 7.98 7.98 -2.1 -1.9 -0.988 -0.811 13.5227 13.1288 0.4241 0.0092 0.044123 -1.051887 11.80 510 770 0.00 0.00 0.0000 0.0000
0.351 4 10.436147 0.179810 4.265083 -0.305176 1.770020 -1.625061 7.14 7.14 -1.7 -1.8 -0.988 -0.671 11.8620 12.0738 0.4245 0.0092 0.044123 -1.052975 11.80 490 750 0.00 0.00 0.0000 0.0000
0.352 4 8.920952 -1.057280 4.713408 -0.663757 -2.639771 -2.029419 6.30 6.30 -1.8 -2.4 -0.925 -0.640 10.9941 12.0738 0.4247 0.0092 0.041528 -1.054582 11.80 490 750 0.00 0.00 0.0000 0.0000
0.353 4 6.863930 -0.031167 5.883369 -0.366211 -4.211426 1.609802 5.46 5.46 -2.3 -2.3 -0.798 -0.576 10.9941 10.9941 0.4249 0.0092 0.044123 -1.053035 11.80 490 750 0.00 0.00 0.0000 0.0000
0.354 4 7.784555 1.834058 5.276811 -0.862122 -1.770020 7.415771 4.62 4.62 -2.4 -1.9 -0.754 -0.678 10.0916 9.2621 0.4253 0.0093 0.044123 -1.050425 11.80 490 740 0.00 0.00 0.0000 0.0000
0.355 4 9.239814 0.038359 4.454482 -2.952576 -7.698059 4.211426 3.78 3.78 -2.2 -2.5 -0.690 -0.716 8.7810 9.2621 0.4255 0.0093 0.041528 -1.050465 11.82 510 780 0.00 0.00 0.0000 0.0000
0.356 4 9.170288 -1.191538 4.643882 -5.699158 -10.932922 -1.235962 2.94 2.94 -2.7 -2.9 -0.703 -0.722 8.7810 9.0151 0.4257 0.0093 0.044123 -1.051841 11.82 490 750 0.00 0.00 0.0000 0.0000
0.357 4 8.753130 0.939805 4.907602 -6.347656 -1.831055 1.159668 2.10 2.10 -2.8 -2.5 -0.785 -0.741 7.8620 7.3895 0.4259 0.0093 0.041528 -1.052527 11.82 490 760 0.00 0.00 0.0000 0.0000
0.358 4 8.664424 1.953931 5.260029 -4.196167 4.234314 4.348755 1.26 1.26 -3.3 -2.9 -0.861 -0.823 7.8620 7.1549 0.4261 0.0093 0.044123 -1.052307 11.82 490 750 0.00 0.00 0.0000 0.0000
0.359 4 8.276035 0.980561 5.571699 -0.320435 7.369995 0.053406 0.42 0.42 -2.8 -3.4 -0.944 -0.836 6.5644 6.9705 0.4263 0.0093 0.041528 -1.051205 11.82 490 780 0.00 0.00 0.0000 0.0000
0.360 4 9.247006 0.177412 3.864707 4.188538 9.590149 -4.493713 0.00 0.00 -3.0 -2.1 -1.033 -0.849 6.5644 4.6791 0.4265 0.0093 0.044123 -1.051561 11.71 510 850 0.00 0.00 0.0000 0.0000
0.361 4 10.462520 1.071665 4.277070 3.799438 0.305176 -4.379272 0.00 0.00 -2.5 -2.0 -0.976 -0.855 5.6345 4.6791 0.4265 0.0093 0.044123 -1.053996 11.71 490 810 0.00 0.00 0.0000 0.0000
0.362 4 7.724619 1.577529 5.708354 -0.129700 0.190735 -5.447388 0.00 0.00 -1.6 -2.1 -0.944 -0.747 3.9773 4.6791 0.4265 0.0093 0.044123 -1.054082 11.71 490 820 0.00 0.00 0.0000 0.0000
0.363 4 5.892959 1.071665 5.564507 -0.885010 6.385803 -4.501343 0.00 0.00 -1.2 -2.0 -0.880 -0.640 3.2902 4.4337 0.4267 0.0093 0.041528 -1.050463 11.71 490 820 0.00 0.00 0.0000 0.0000
0.364 4 9.031235 0.616147 5.029873 2.479553 8.064270 -0.129700 0.00 0.00 -1.3 -1.4 -0.621 -0.602 3.2902 3.3389 0.4267 0.0093 0.041528 -1.048118 11.71 490 820 0.00 0.00 0.0000 0.0000
0.365 4 11.459863 -0.040757 3.603384 3.578186 2.174377 1.159668 0.00 0.00 -1.4 -1.0 -0.450 -0.500 3.2902 2.6672 0.4267 0.0093 0.041528 -1.050332 11.90 510 840 0.00 0.00 0.0000 0.0000
0.366 4 8.976093 -0.968574 3.826348 3.021240 -10.704041 -3.974915 0.00 0.00 -1.5 -0.8 -0.367 -0.367 3.2902 2.2352 0.4267 0.0093 0.041528 -1.053706 11.90 490 820 0.00 0.00 0.0000 0.0000
0.367 4 5.327158 -0.815137 6.027216 -1.632690 -22.338867 -3.715515 0.00 0.00 -1.5 -0.8 -0.380 -0.222 3.1521 1.9181 0.4267 0.0093 0.041528 -1.051856 11.90 490 820 0.00 0.00 0.0000 0.0000
0.368 4 6.202231 2.143330 6.573838 -9.254456 -8.377075 9.941101 0.00 0.00 -1.2 -0.8 -0.361 -0.101 2.5563 1.6798 0.4265 0.0093 0.038932 -1.045947 11.90 490 830 0.00 0.00 0.0000 0.0000
0.369 4 10.340249 2.351909 3.807168 -8.728027 11.222839 21.186829 0.00 0.00 1.4 1.2 -0.285 -0.025 -2.1567 -1.6695 0.4263 0.0093 0.041528 -1.044758 11.90 490 820 0.00 0.00 0.0000 0.0000
0.370 4 11.910585 -1.006934 3.740039 -3.318787 -2.532959 9.605408 0.00 0.00 1.3 1.1 -0.082 0.070 -2.1567 -1.6695 0.4263 0.0093 0.041528 -1.048595 11.90 510 840 0.00 0.00 0.0000 0.0000
0.371 4 8.664424 -2.085791 5.562109 -0.701904 -11.398315 -9.773254 0.00 0.00 1.1 1.0 0.101 0.184 -2.1567 -1.6695 0.4263 0.0093 0.041528 -1.050393 11.90 490 820 0.00 0.00 0.0000 0.0000
0.372 4 6.559453 2.196074 5.502172 0.518799 1.716614 -9.414673 0.00 0.00 1.0 0.8 0.279 0.196 -2.1567 -1.6695 0.4263 0.0093 0.041528 -1.048221 11.90 490 820 0.00 0.00 0.0000 0.0000
0.373 4 8.160956 3.773603 6.187847 3.730774 13.290405 0.579834 0.00 0.00 0.9 0.8 0.317 0.165 -2.1567 -1.6695 0.4263 0.0093 0.041528 -1.045105 11.90 490 820 0.00 0.00 0.0000 0.0000
0.374 4 9.700127 0.412363 5.224067 4.051208 15.151978 -1.579285 0.00 0.00 0.9 0.8 0.209 0.082 -2.1567 -1.6695 0.4263 0.0093 0.041528 -1.043954 11.90 490 810 0.00 0.00 0.0000 0.0000
0.375 4 9.419623 -1.086050 4.109248 0.930786 14.328003 -7.820129 0.00 0.00 0.9 0.8 0.127 0.076 -2.1567 -1.6695 0.4263 0.0093 0.041528 -1.045168 11.94 510 840 0.00 0.00 0.0000 0.0000
0.376 4 8.983286 1.071665 3.859912 1.327515 6.217957 -4.165649 0.00 0.00 0.8 0.8 0.070 0.051 -1.9263 -1.6695 0.4263 0.0093 0.041528 -1.047308 11.94 490 810 0.00 0.00 0.0000 0.0000
0.377 4 7.511245 1.623081 5.001103 3.753662 -6.393433 -0.244141 0.00 0.00 0.8 0.8 0.038 0.019 -1.6861 -1.5109 0.4263 0.0093 0.041528 -1.047841 11.94 490 800 0.00 0.00 0.0000 0.0000
0.378 4 6.295732 0.026372 5.547724 1.358032 -9.773254 -0.396729 0.00 0.00 0.8 0.8 0.032 0.025 -1.4992 -1.3591 0.4263 0.0093 0.041528 -1.045369 11.94 490 810 0.00 0.00 0.0000 0.0000
0.379 4 8.522973 0.378799 4.610317 -3.181458 -6.553650 4.890442 0.00 0.00 0.8 0.8 0.000 0.019 -1.3496 -1.2349 0.4263 0.0093 0.041528 -1.043853 11.94 490 810 0.00 0.00 0.0000 0.0000
0.380 4 10.364223 0.577788 4.183569 -6.065369 -6.408691 9.330750 0.00 0.00 0.8 0.8 0.013 0.013 -1.2249 -1.1297 0.4263 0.0093 0.041528 -1.045692 11.94 510 830 0.00 0.00 0.0000 0.0000
0.381 4 8.863413 -0.606558 5.003501 -6.828308 -6.584167 4.867554 0.00 0.00 0.8 0.8 0.025 -0.000 -1.1250 -1.0442 0.4263 0.0093 0.041528 -1.047315 11.94 490 810 0.00 0.00 0.0000 0.0000
0.382 4 7.575976 0.407568 5.821035 -3.974915 -3.059387 2.319336 0.00 0.00 0.8 0.8 0.006 0.013 -1.0386 -0.9694 0.4263 0.0093 0.041528 -1.046190 11.94 490 810 0.00 0.00 0.0000 0.0000
0.383 4 8.614077 2.220049 5.626841 0.038147 0.877380 4.295349 0.00 0.00 0.8 0.8 0.000 0.013 -0.9645 -0.9045 0.4263 0.0093 0.041528 -1.044381 11.94 490 800 0.00 0.00 0.0000 0.0000
0.384 4 9.369277 0.829521 4.907602 0.671387 3.829956 0.419617 0.00 0.00 0.8 0.8 0.006 0.006 -0.9003 -0.8478 0.4263 0.0093 0.041528 -1.044258 11.94 490 810 0.00 0.00 0.0000 0.0000
0.385 4 9.095966 -0.587378 4.636689 -0.877380 6.439209 -5.546570 0.00 0.00 0.8 0.8 0.006 0.006 -0.8431 -0.7969 0.4263 0.0093 0.041528 -1.045151 11.93 510 840 0.00 0.00 0.0000 0.0000
0.386 4 9.119941 0.968574 4.967539 -0.930786 7.698059 -3.623962 0.00 0.00 0.8 0.8 -0.006 0.019 -0.7945 -0.7534 0.4263 0.0093 0.041528 -1.045832 11.93 490 810 0.00 0.00 0.0000 0.0000
0.387 4 8.388716 1.860430 5.267221 0.289917 6.889343 0.625610 0.00 0.00 0.8 0.8 0.019 -0.000 -0.7504 -0.7136 0.4263 0.0093 0.041528 -1.045612 11.93 490 810 0.00 0.00 0.0000 0.0000
0.388 4 7.674272 0.580186 4.960347 1.235962 3.456116 0.144958 0.00 0.00 0.8 0.8 0.006 0.006 -0.7110 -0.6778 0.4263 0.0093 0.041528 -1.044689 11.93 490 810 0.00 0.00 0.0000 0.0000
0.389 4 8.681206 0.165425 4.442495 1.518250 -1.144409 -0.022888 0.00 0.00 0.8 0.8 0.013 0.006 -0.6755 -0.6455 0.4263 0.0093 0.041528 -1.044723 11.93 490 810 0.00 0.00 0.0000 0.0000
0.390 4 9.117543 0.839111 4.411328 0.038147 -2.655029 1.403809 0.00 0.00 -0.8 0.8 0.006 0.019 -0.6427 -0.6155 0.4263 0.0093 0.041528 -1.046028 11.98 510 840 0.00 0.00 0.0000 0.0000
0.391 4 8.151367 0.676084 4.785332 -2.601624 -3.181458 1.724243 0.00 0.00 0.8 -0.8 0.013 0.013 -0.6141 -0.5892 0.4263 0.0093 0.041528 -1.046753 11.98 490 810 0.00 0.00 0.0000 0.0000
0.392 4 8.002725 0.515454 4.993911 -3.730774 -4.684448 2.380371 0.00 0.00 0.8 0.8 0.032 -0.013 -0.5874 -0.5646 0.4263 0.0093 0.041528 -1.046418 11.98 490 810 0.00 0.00 0.0000 0.0000
0.393 4 8.930542 0.565801 4.734985 -3.585815 -5.065918 3.448486 0.00 0.00 0.8 0.8 0.019 0.013 -0.5630 -0.5420 0.4263 0.0093 0.041528 -1.046535 11.98 490 810 0.00 0.00 0.0000 0.0000
0.394 4 9.057607 0.196592 4.706216 -2.708435 -3.326416 2.983093 0.00 0.00 0.8 0.8 0.013 0.025 -0.5405 -0.5211 0.4263 0.0093 0.041528 -1.047418 11.98 490 810 0.00 0.00 0.0000 0.0000
0.395 4 8.630859 0.158232 5.125772 -0.930786 -0.793457 2.510071 0.00 0.00 0.8 0.8 0.019 0.013 -0.5193 -0.5014 0.4263 0.0093 0.041528 -1.047767 11.93 510 840 0.00 0.00 0.0000 0.0000
0.396 4 8.767514 0.805547 5.348735 -0.175476 2.899170 2.845764 0.00 0.00 -0.8 0.8 0.019 0.019 -0.5005 -0.4838 0.4263 0.0093 0.041528 -1.047376 11.93 490 820 0.00 0.00 0.0000 0.0000
0.397 4 8.961709 0.987754 4.991514 -1.091003 6.874084 1.655579 0.00 0.00 0.8 0.0 -0.019 -0.000 -0.4826 -0.4671 0.4263 0.0093 0.041528 -1.047201 11.93 490 810 0.00 0.00 0.0000 0.0000
0.398 4 9.009658 0.678481 4.766152 -1.014709 7.667542 -1.022339 0.00 0.00 0.8 0.8 0.000 -0.006 -0.4660 -0.4515 0.4263 0.0093 0.041528 -1.047594 11.93 490 810 0.00 0.00 0.0000 0.0000
0.399 4 8.822656 0.721636 4.763755 0.381470 6.027222 -2.517700 0.00 0.00 0.8 0.8 0.006 -0.006 -0.4505 -0.4369 0.4263 0.0093 0.041528 -1.048116 11.93 490 810 0.00 0.00 0.0000 0.0000
0.400 4 8.508589 0.990151 4.814101 0.724792 3.852844 -1.998901 0.00 0.00 0.8 0.0 0.006 0.025 -0.4357 -0.4230 0.4263 0.0093 0.041528 -1.048381 11.94 510 840 0.00 0.00 0.0000 0.0000
0.401 4 8.283227 0.870278 4.866846 -0.015259 1.777649 -0.228882 0.00 0.00 0.0 0.8 0.006 -0.006 -0.4223 -0.4104 0.4263 0.0093 0.041528 -1.048320 11.94 490 810 0.00 0.00 0.0000 0.0000
0.402 4 8.465434 0.599365 4.658267 -0.617981 0.137329 1.899719 0.00 0.00 0.8 0.8 0.032 0.013 -0.4095 -0.3983 0.4263 0.0093 0.041528 -1.048409 11.94 490 810 0.00 0.00 0.0000 0.0000
0.403 4 8.858618 0.326055 4.512022 -1.136780 -1.380920 2.677917 0.00 0.00 0.8 0.8 0.006 0.006 -0.3975 -0.3869 0.4263 0.0093 0.041528 -1.049119 11.94 490 810 0.00 0.00 0.0000 0.0000
0.404 4 8.700385 0.383594 4.761357 -1.525879 -3.295898 2.517700 0.00 0.00 -0.0 -0.8 0.000 0.013 -0.3861 -0.3762 0.4263 0.0093 0.041528 -1.049868 11.94 490 810 0.00 0.00 0.0000 0.0000
0.405 4 8.323984 0.776777 5.087412 -1.571655 -3.944397 2.838135 0.00 0.00 0.8 0.8 -0.013 -0.019 -0.3752 -0.3658 0.4263 0.0093 0.041528 -1.049856 11.90 510 840 0.00 0.00 0.0000 0.0000
0.406 4 8.518178 0.707251 4.993911 -1.556396 -2.662659 2.159119 0.00 0.00 0.8 0.8 -0.013 -0.006 -0.3653 -0.3563 0.4263 0.0093 0.041528 -1.049547 11.90 490 810 0.00 0.00 0.0000 0.0000
0.407 4 9.165493 0.292490 4.933974 -1.533508 -0.404358 0.541687 0.00 0.00 -0.0 0.8 0.025 -0.006 -0.3557 -0.3472 0.4263 0.0093 0.041528 -1.049756 11.90 490 810 0.00 0.00 0.0000 0.0000
0.408 4 9.184672 0.335645 5.017886 -1.335144 2.159119 -0.038147 0.00 0.00 0.0 0.8 0.038 -0.000 -0.3466 -0.3385 0.4263 0.0093 0.041528 -1.050218 11.90 490 810 0.00 0.00 0.0000 0.0000
0.409 4 8.594897 0.855894 5.243247 -0.999451 4.196167 0.808716 0.00 0.00 0.8 0.0 0.006 -0.006 -0.3379 -0.3302 0.4263 0.0093 0.041528 -1.050097 11.90 490 810 0.00 0.00 0.0000 0.0000
0.410 4 8.530166 0.975767 5.063437 -0.701904 5.111694 0.747681 0.00 0.00 0.8 0.8 0.019 -0.006 -0.3295 -0.3222 0.4263 0.0093 0.041528 -1.049600 11.93 510 840 0.00 0.00 0.0000 0.0000
0.411 4 8.997670 0.628135 4.622304 0.015259 5.271912 -0.839233 0.00 0.00 0.8 0.8 0.013 0.006 -0.3218 -0.3148 0.4263 0.0093 0.041528 -1.049829 11.93 490 810 0.00 0.00 0.0000 0.0000
0.412 4 8.901772 0.601763 4.559970 0.335693 3.921509 -1.701355 0.00 0.00 0.0 0.0 0.013 0.013 -0.3143 -0.3077 0.4263 0.0093 0.041528 -1.050679 11.93 490 810 0.00 0.00 0.0000 0.0000
0.413 4 8.359946 1.189141 5.051450 -0.480652 2.037048 -0.839233 0.00 0.00 0.8 0.8 0.006 -0.000 -0.3072 -0.3008 0.4263 0.0093 0.041528 -1.050858 11.93 490 810 0.00 0.00 0.0000 0.0000
0.414 4 8.453447 0.875073 4.715806 -1.396179 2.380371 -0.694275 0.00 0.00 0.8 0.8 -0.019 -0.000 -0.3004 -0.2943 0.4263 0.0093 0.041528 -1.050696 11.93 490 810 0.00 0.00 0.0000 0.0000
