%  1    time 0.000 sec
%  2    mission (3) line 0
%  3  4  5 Acc x,y,z: 5.430249 0.342837 8.345561
%  6  7  8 Gyro x,y,z: 0.671387 -3.265381 -0.701904
%  9 10 Motor velocity ref left, right: -0.99 -0.99
% 11 12 Motor voltage [V] left, right: -0.8 -0.8
% 13 14 Motor current left, right [A]: 0.013 0.006
% 15 16 Wheel velocity [r/s] left, right: 0.0000 0.0000
% 17 18 19 21 Pose x,y,h,tilt [m,m,rad,rad]: 0.0000 0.0000 0.000000 -0.578373
% 21    Battery voltage [V]: 11.93
% 22 23 Get data time [us]: 490 +ctrl 740
% 24 25 26 27 Extra pt.: balE[0], balU[0], balUI[0], balUI[1]: 0.09 -0.9862 0.0000 0.0000
0.001 0 5.437441 0.369209 8.400702 0.747681 -3.074646 -0.732422 -1.95 -1.96 -1.1 -1.1 -0.032 -0.025 0.0000 0.0000 0.0000 0.0000 0.000000 -0.578374 11.91 510 770 0.09 -0.99 0.0000 0.0000
0.002 0 5.454224 0.378799 8.347959 0.518799 -3.097534 -0.595093 -2.92 -2.93 -1.6 -1.6 -0.025 -0.038 0.0000 0.0000 0.0000 0.0000 0.000000 -0.578392 11.91 490 690 0.09 -0.99 0.0000 0.0000
0.003 0 5.490185 0.328452 8.300010 0.534058 -3.356934 -0.663757 -3.89 -3.90 -2.2 -2.2 -0.038 -0.120 0.0000 0.0000 0.0000 0.0000 0.000000 -0.578511 11.91 490 690 0.09 -0.99 0.0000 0.0000
0.004 0 5.399082 0.318862 8.290420 0.724792 -3.379822 -0.724792 -4.86 -4.86 -2.8 -2.8 -0.247 -0.215 0.0000 0.0000 0.0000 0.0000 0.000000 -0.578614 11.91 490 700 0.09 -0.99 0.0000 0.0000
0.005 0 5.439839 0.333247 8.314394 0.701904 -3.303528 -0.579834 -5.83 -5.83 -3.4 -3.4 -0.399 -0.374 0.0000 0.0000 0.0000 0.0000 0.000000 -0.578666 11.91 490 690 0.09 -0.99 0.0000 0.0000
0.006 0 5.444633 0.354824 8.350356 0.633240 -3.326416 -0.610352 -6.80 -6.80 -4.0 -4.0 -0.545 -0.500 0.0000 0.0000 -0.0002 0.0000 -0.002595 -0.578722 11.79 510 750 0.09 -0.99 0.0000 0.0000
0.007 0 5.375107 0.421953 8.345561 0.427246 -3.471375 -0.694275 -7.77 -7.77 -4.7 -4.7 -0.728 -0.671 0.0000 0.0000 -0.0002 0.0000 -0.002595 -0.578707 11.79 490 730 0.09 -0.99 0.0000 0.0000
0.008 0 5.509365 0.412363 8.417485 0.434875 -3.570557 -0.679016 -8.74 -8.74 -5.3 -5.3 -0.899 -0.842 0.0000 0.0000 -0.0002 0.0000 -0.002595 -0.578711 11.79 490 730 0.09 -0.99 0.0000 0.0000
0.010 0 5.468608 0.287695 8.335972 0.656128 -3.684998 -0.480652 -9.71 -9.71 -6.0 -6.0 -1.128 -1.102 0.0000 0.0000 -0.0002 0.0000 -0.002595 -0.578801 11.79 490 1010 0.09 -0.99 0.0000 0.0000
0.010 0 5.463813 0.335645 8.391113 0.488281 -3.906250 -0.503540 -10.68 -10.68 -6.7 -6.7 -1.273 -1.356 0.0000 0.0000 -0.0004 0.0000 0.000000 -0.578868 11.79 480 720 0.09 -0.99 0.0000 0.0000
0.011 0 5.535737 0.263721 8.520576 0.236511 -3.952026 -0.473022 -11.65 -11.65 -7.4 -5.2 -1.438 -1.482 0.0000 -2.6156 -0.0006 0.0000 -0.002595 -0.578893 11.39 510 810 0.09 -0.99 0.0000 0.0000
0.012 0 5.444633 0.302080 8.314394 0.198364 -3.868103 -0.694275 -12.62 -12.62 -4.2 -5.4 -1.799 -1.362 -5.9051 -2.6156 -0.0008 0.0000 0.000000 -0.578942 11.39 490 850 0.09 -0.99 0.0000 0.0000
0.013 0 5.444633 0.275708 8.410293 0.167847 -3.601074 -0.617981 -13.59 -13.59 -4.7 -4.3 -1.508 -1.330 -5.9051 -6.2896 -0.0010 0.0000 -0.002595 -0.578971 11.39 490 850 0.09 -0.99 0.0000 0.0000
0.014 0 5.504570 0.362017 8.515781 0.267029 -3.433228 -0.686646 -14.56 -14.56 -4.9 -5.1 -1.185 -1.299 -8.0974 -6.2896 -0.0012 0.0000 0.000000 -0.578937 11.39 490 810 0.09 -0.99 0.0000 0.0000
0.015 0 5.487788 0.251733 8.597295 0.343323 -3.364563 -0.640869 -15.53 -15.53 -4.7 -5.2 -1.102 -1.223 -9.6591 -8.7243 -0.0016 0.0000 0.000000 -0.578838 11.39 490 750 0.09 -0.99 0.0000 0.0000
0.016 0 5.643623 0.467505 8.086636 0.297546 -3.776550 -0.610352 -16.50 -16.50 -4.8 -5.3 -1.071 -1.204 -10.6478 -9.6591 -0.0020 0.0000 0.000000 -0.579095 11.56 510 770 0.09 -0.99 0.0000 0.0000
0.017 0 5.576494 0.110283 8.288022 0.640869 -3.852844 -0.938416 -17.47 -17.47 -5.4 -5.9 -1.052 -1.197 -10.6478 -9.6591 -0.0020 0.0000 0.000000 -0.579591 11.56 490 750 0.09 -0.99 0.0000 0.0000
0.018 0 5.298388 0.438735 8.407895 0.556946 -3.913879 -0.930786 -18.44 -18.44 -5.4 -5.4 -1.090 -1.229 -11.8620 -11.7589 -0.0024 0.0000 0.000000 -0.579612 11.56 490 750 0.09 -0.99 0.0000 0.0000
0.019 0 5.387094 0.467505 8.789091 0.236511 -3.303528 -0.869751 -19.40 -19.41 -5.5 -4.8 -1.166 -1.299 -12.7573 -14.0861 -0.0030 0.0000 -0.002595 -0.579209 11.56 490 780 0.09 -0.99 0.0000 0.0000
0.020 0 5.468608 0.249336 8.117803 -0.213623 -3.387451 -0.572205 -20.37 -20.38 -5.9 -5.4 -1.185 -1.273 -13.2575 -14.0861 -0.0034 0.0000 -0.002595 -0.579111 11.56 490 780 0.09 -0.99 0.0000 0.0000
0.021 0 5.667597 0.472300 8.067456 -0.663757 -3.204346 -0.381470 -21.34 -21.35 -6.2 -5.6 -1.267 -1.140 -13.7987 -14.8601 -0.0040 0.0000 0.000000 -0.579633 11.47 510 800 0.09 -0.99 0.0000 0.0000
0.022 0 5.334351 0.002397 8.650039 0.190735 -2.960205 -0.740051 -22.31 -22.31 -6.2 -6.2 -1.387 -1.014 -15.0252 -15.0252 -0.0044 0.0000 0.000000 -0.579744 11.47 490 740 0.09 -0.99 0.0000 0.0000
0.023 0 5.329556 0.100693 8.160956 1.144409 -3.028870 -1.296997 -23.28 -23.28 -6.5 -6.1 -1.229 -1.045 -15.5433 -16.2924 -0.0048 0.0000 0.000000 -0.579515 11.47 490 750 0.09 -0.99 0.0000 0.0000
0.024 0 5.646020 0.702456 7.806133 0.900269 -3.105164 -1.243591 -24.25 -24.25 -6.7 -5.9 -1.248 -1.140 -16.4911 -17.7930 -0.0054 0.0000 -0.002595 -0.580020 11.47 490 780 0.09 -0.99 0.0000 0.0000
0.025 0 5.403877 0.395581 8.760322 -0.083923 -3.623962 -0.770569 -25.22 -25.22 -6.4 -6.3 -1.387 -1.178 -18.2739 -18.2739 -0.0060 0.0000 0.000000 -0.580265 11.47 490 770 0.09 -0.99 0.0000 0.0000
0.026 0 5.590879 0.115078 10.131670 -0.488281 -3.608704 -0.450134 -26.19 -26.19 -6.6 -5.7 -1.476 -1.267 -19.0460 -20.4889 -0.0066 0.0000 -0.002595 -0.579302 11.41 510 790 0.09 -0.99 0.0000 0.0000
0.027 0 5.809048 0.443530 7.861274 0.190735 -3.784180 -0.831604 -27.16 -27.16 -6.4 -6.0 -1.470 -1.121 -20.4889 -21.1292 -0.0072 0.0000 0.000000 -0.579188 11.41 490 740 0.09 -0.99 0.0000 0.0000
0.028 0 5.264824 -0.071924 6.720083 0.663757 -3.738403 -0.862122 -28.13 -28.13 -6.7 -6.3 -1.223 -1.020 -21.1292 -21.8108 -0.0078 0.0000 -0.002595 -0.580664 11.41 490 740 0.09 -0.99 0.0000 0.0000
0.030 0 4.593535 1.356963 8.369535 -0.839233 -3.761292 -0.648499 -29.10 -29.10 -6.6 -6.7 -1.185 -1.020 -22.5378 -22.1684 -0.0084 0.0000 0.000000 -0.580781 11.41 490 1000 0.09 -0.99 0.0000 0.0000
0.030 0 6.240591 -0.450723 9.920693 0.717163 -2.426147 -0.793457 -30.07 -30.07 -6.6 -6.7 -1.248 -1.140 -23.7240 -23.3150 -0.0093 0.0000 0.000000 -0.579863 11.41 490 720 0.09 -0.99 0.0000 0.0000
0.031 0 5.365518 -0.055142 7.106074 1.930237 -3.517151 -1.174927 -31.04 -31.04 -6.5 -6.9 -1.305 -1.280 -25.0420 -24.1477 -0.0101 0.0000 0.000000 -0.580394 11.39 510 740 0.09 -0.99 0.0000 0.0000
0.032 0 5.485391 0.731226 7.233140 1.495361 -4.791260 -1.213074 -32.01 -32.01 -6.9 -6.5 -1.413 -1.235 -25.5145 -26.0052 -0.0109 0.0000 0.000000 -0.581800 11.39 490 720 0.09 -0.99 0.0000 0.0000
0.033 0 5.221670 0.381196 10.915639 -1.251221 -2.754211 -0.419617 -32.98 -32.98 -7.5 -6.9 -1.210 -1.102 -25.5145 -26.5151 -0.0115 0.0000 -0.002595 -0.581187 11.39 490 760 0.09 -0.99 0.0000 0.0000
0.034 0 5.439839 1.042895 8.971298 -2.349854 -2.090454 -0.106812 -33.95 -33.95 -7.3 -8.0 -1.261 -1.115 -27.0454 -25.5145 -0.0125 0.0000 -0.000000 -0.579535 11.39 490 750 0.09 -0.99 0.0000 0.0000
0.035 0 6.384439 -0.978164 7.312256 -0.030518 -1.754761 -0.373840 -34.92 -34.92 -8.2 -7.6 -1.387 -1.267 -26.5151 -27.5973 -0.0133 0.0000 -0.000000 -0.580595 11.39 490 730 0.09 -0.99 0.0000 0.0000
0.036 0 4.782934 0.539429 5.140156 3.303528 -4.447937 -1.724243 -35.89 -35.89 -7.7 -7.9 -1.330 -1.166 -28.7717 -28.1723 -0.0141 0.0000 -0.000000 -0.583678 11.31 510 750 0.09 -0.99 0.0000 0.0000
0.037 0 5.938510 -0.071924 10.846113 3.372192 -2.937317 -2.044678 -36.85 -36.86 -7.6 -7.5 -1.318 -1.261 -30.0504 -30.0504 -0.0151 0.0000 -0.002595 -0.584564 11.31 490 760 0.09 -0.99 0.0000 0.0000
0.038 0 5.576494 1.879609 9.853564 0.556946 -2.143860 -1.159668 -37.82 -37.83 -7.5 -7.4 -1.394 -1.381 -31.4481 -31.4481 -0.0159 0.0000 -0.002595 -0.583091 11.31 490 750 0.09 -0.99 0.0000 0.0000
0.039 0 5.003501 0.098296 7.568784 -1.899719 -2.510071 -0.289917 -38.79 -38.80 -7.7 -7.2 -1.514 -1.546 -32.1969 -32.9822 -0.0169 0.0000 -0.000000 -0.582467 11.31 490 760 0.09 -0.99 0.0000 0.0000
0.040 0 6.497119 0.462710 8.357549 -2.555847 -3.944397 -0.068665 -39.76 -39.76 -7.4 -7.3 -1.299 -1.147 -33.8067 -33.8067 -0.0179 0.0000 -0.002595 -0.583315 11.31 490 740 0.09 -0.99 0.0000 0.0000
0.041 0 5.780278 -1.205923 7.957172 -0.312805 -4.020691 -0.648499 -40.73 -40.73 -8.1 -7.5 -1.235 -1.147 -33.8067 -34.6736 -0.0191 0.0000 -0.002595 -0.584596 11.36 510 770 0.09 -0.99 0.0000 0.0000
0.042 0 5.092207 0.455518 7.971557 1.266479 -2.723694 -0.686646 -41.70 -41.70 -8.2 -8.1 -1.394 -1.235 -34.6736 -34.6736 -0.0199 0.0000 -0.002595 -0.584927 11.36 490 750 0.09 -0.99 0.0000 0.0000
0.043 0 4.655869 0.455518 8.036289 3.364563 -1.319885 -1.823425 -42.67 -42.67 -7.9 -7.7 -1.242 -1.083 -36.5478 -36.5478 -0.0211 0.0000 -0.002595 -0.584206 11.36 490 760 0.09 -0.99 0.0000 0.0000
0.044 0 5.085014 0.587378 6.034409 2.464294 -2.288818 -1.831055 -43.64 -43.64 -8.5 -7.8 -1.204 -1.172 -36.5478 -37.5630 -0.0223 0.0000 -0.002595 -0.584801 11.36 490 760 0.09 -0.99 0.0000 0.0000
0.045 0 6.283745 1.129204 9.060004 -0.335693 -2.372742 -1.434326 -44.61 -44.61 -8.6 -7.9 -1.343 -1.261 -37.5630 -38.6363 -0.0231 0.0000 -0.002595 -0.586198 11.36 490 760 0.09 -0.99 0.0000 0.0000
0.046 0 5.693970 0.448325 12.476386 -1.991272 -1.998901 -0.434875 -45.58 -45.58 -8.6 -7.9 -1.419 -1.121 -38.6363 -39.7726 -0.0243 0.0000 -0.002595 -0.584871 11.34 510 770 0.09 -0.99 0.0000 0.0000
0.047 0 5.648418 -0.584980 7.329038 -2.166748 -3.555298 -0.244141 -46.55 -46.55 -9.2 -7.8 -1.292 -1.128 -38.6363 -40.9779 -0.0255 0.0000 -0.002595 -0.584077 11.34 490 760 0.09 -0.99 0.0000 0.0000
0.048 0 5.391890 -0.050347 5.713149 -0.221252 -4.371643 -0.984192 -47.52 -47.52 -9.2 -8.4 -1.501 -1.102 -39.7726 -40.9779 -0.0268 0.0000 -0.002595 -0.586571 11.34 490 760 0.09 -0.99 0.0000 0.0000
0.050 0 5.101797 -0.100693 8.714770 0.968933 -3.166199 -1.144409 -48.49 -48.49 -9.0 -8.3 -1.387 -1.077 -40.9779 -42.2584 -0.0280 0.0000 -0.002595 -0.587754 11.34 490 1060 0.09 -0.99 0.0000 0.0000
0.050 0 4.262685 0.445928 10.973178 1.876831 0.198364 -1.197815 -49.46 -49.46 -9.6 -8.1 -1.476 -1.273 -40.9779 -43.6216 -0.0292 0.0000 -0.002595 -0.585054 11.34 480 750 0.09 -0.99 0.0000 0.0000
0.051 0 5.828228 1.404912 6.444375 1.785278 -0.801086 -0.762939 -50.43 -50.43 -8.7 -7.9 -1.679 -1.172 -43.6216 -45.0756 -0.0304 0.0000 -0.002595 -0.584422 11.33 510 780 0.09 -0.99 0.0000 0.0000
0.052 0 6.079961 0.577788 5.085014 0.671387 -3.509521 -0.724792 -51.40 -51.40 -8.4 -9.2 -1.406 -1.058 -45.0756 -43.6216 -0.0318 0.0001 0.000000 -0.588822 11.33 490 760 0.09 -0.99 0.0000 0.0000
0.053 0 5.348735 0.632930 10.855702 -0.045776 -3.326416 -0.938416 -52.37 -52.37 -8.1 -8.9 -1.470 -1.058 -46.6300 -45.0756 -0.0332 0.0001 -0.002595 -0.590410 11.33 490 750 0.09 -0.99 0.0000 0.0000
0.054 0 5.566904 -0.362017 14.029941 0.099182 -0.198364 -1.037598 -53.34 -53.34 -7.7 -8.6 -1.140 -1.102 -48.2953 -46.6300 -0.0344 0.0001 -0.002595 -0.587022 11.33 490 750 0.09 -0.99 0.0000 0.0000
0.055 0 5.442236 1.208320 6.012832 0.740051 -0.663757 -1.190186 -54.30 -54.31 -9.1 -9.1 -1.115 -1.362 -46.6300 -46.6300 -0.0360 0.0001 -0.002595 -0.586429 11.33 490 750 0.09 -0.99 0.0000 0.0000
0.056 0 6.573838 1.865225 2.884145 -0.366211 -3.501892 -0.793457 -55.27 -55.28 -8.7 -8.7 -1.115 -1.172 -48.2953 -48.2953 -0.0372 0.0001 -0.002595 -0.593595 11.33 510 780 0.09 -0.99 0.0000 0.0000
0.057 0 4.653471 -0.151040 9.489150 -1.861572 -2.243042 -0.610352 -56.24 -56.25 -9.3 -11.0 -1.140 -1.223 -48.2953 -45.0756 -0.0386 0.0001 -0.005191 -0.597863 11.33 490 750 0.09 -0.99 0.0000 0.0000
0.058 0 5.305581 -0.261323 13.056572 -0.709534 0.595093 -0.991821 -57.21 -57.21 -9.8 -8.8 -1.159 -1.254 -48.2953 -50.0841 -0.0400 0.0001 -0.002595 -0.594374 11.33 490 760 0.09 -0.99 0.0000 0.0000
0.059 0 6.108730 -2.109766 6.909482 2.517700 0.289917 -1.091003 -58.18 -58.18 -10.3 -8.3 -1.147 -1.463 -48.2953 -52.0104 -0.0414 0.0001 -0.005191 -0.593586 11.33 490 760 0.09 -0.99 0.0000 0.0000
0.060 0 4.787729 0.414761 3.212598 3.623962 -3.234863 -1.274109 -59.15 -59.15 -9.9 -7.7 -1.577 -1.280 -50.0841 -54.0908 -0.0430 0.0001 -0.005191 -0.598726 11.33 490 740 0.09 -0.99 0.0000 0.0000
0.061 0 5.715547 -0.390786 11.479043 3.204346 -2.082825 -1.098633 -60.12 -60.12 -10.4 -8.2 -1.527 -1.020 -50.0841 -54.0908 -0.0445 0.0001 -0.002595 -0.601191 11.31 510 770 0.09 -0.99 0.0000 0.0000
0.062 0 4.854858 2.419038 10.210786 -0.038147 -0.503540 -0.793457 -61.09 -61.09 -9.9 -8.8 -1.672 -0.887 -52.0104 -54.0908 -0.0461 0.0001 -0.002595 -0.598277 11.31 490 750 0.09 -0.99 0.0000 0.0000
0.063 0 5.291196 -1.110024 4.917192 -0.480652 -1.861572 0.228882 -62.06 -62.06 -9.3 -9.3 -1.514 -0.842 -54.0908 -54.0908 -0.0475 0.0001 -0.005191 -0.598984 11.31 490 750 0.09 -0.99 0.0000 0.0000
0.064 0 5.703559 1.368950 9.762461 -1.640320 -1.976013 0.144958 -63.03 -63.03 -9.8 -9.8 -1.565 -1.090 -54.0908 -54.0908 -0.0491 0.0001 -0.005191 -0.600530 11.31 490 740 0.09 -0.99 0.0000 0.0000
0.065 0 4.974731 -0.472300 11.450274 0.755310 -0.732422 0.350952 -64.00 -64.00 -9.1 -10.3 -1.356 -1.001 -56.3446 -54.0908 -0.0507 0.0001 -0.005191 -0.597954 11.31 490 750 0.09 -0.99 0.0000 0.0000
0.066 0 6.331694 1.786108 7.451308 1.693726 -1.068115 -0.267029 -64.97 -64.97 -9.6 -8.3 -1.280 -1.134 -56.3446 -58.7943 -0.0525 0.0001 -0.002595 -0.597161 11.14 510 790 0.09 -0.99 0.0000 0.0000
0.067 0 5.933716 0.064731 5.264824 3.181458 -3.364563 -0.213623 -65.94 -65.94 -8.8 -8.8 -1.096 -1.185 -58.7943 -58.7943 -0.0541 0.0001 -0.002595 -0.600715 11.14 490 760 0.09 -0.99 0.0000 0.0000
0.068 0 4.298647 1.131602 10.275517 2.456665 -1.930237 0.831604 -66.91 -66.91 -9.4 -9.4 -1.210 -1.248 -58.7943 -58.7943 -0.0557 0.0001 -0.002595 -0.601155 11.14 490 750 0.09 -0.99 0.0000 0.0000
0.070 0 5.097002 3.390010 11.694814 -1.770020 0.724792 0.144958 -67.88 -67.88 -9.9 -9.9 -1.077 -1.045 -58.7943 -58.7943 -0.0575 0.0001 -0.005191 -0.597254 11.14 490 1060 0.09 -0.99 0.0000 0.0000
0.070 0 7.439321 -0.695264 6.171064 -0.030518 -1.022339 -1.663208 -68.85 -68.85 -10.4 -9.0 -1.102 -1.064 -58.7943 -61.4668 -0.0593 0.0001 -0.002595 -0.598195 11.14 480 760 0.09 -0.99 0.0000 0.0000
0.071 0 5.681982 -2.936890 3.099917 2.784729 -3.623962 -1.502991 -69.82 -69.82 -10.9 -9.5 -1.090 -1.121 -58.7943 -61.4668 -0.0609 0.0002 -0.002595 -0.605693 11.11 510 780 0.09 -0.99 0.0000 0.0000
0.072 0 5.166528 1.848442 11.479043 2.540588 -2.563477 -1.655579 -70.79 -70.79 -11.1 -11.1 -1.622 -1.014 -58.7943 -58.7943 -0.0628 0.0002 -0.005191 -0.608548 11.11 490 760 0.09 -0.99 0.0000 0.0000
0.073 0 3.704077 -0.239746 12.387680 0.427246 0.793457 0.900269 -71.75 -71.76 -10.5 -10.5 -1.552 -1.159 -61.4668 -61.4668 -0.0644 0.0002 -0.005191 -0.603577 11.11 490 750 0.09 -0.99 0.0000 0.0000
0.074 0 4.471264 -0.311670 3.301304 -1.205444 -0.251770 3.623962 -72.72 -72.73 -9.5 -9.5 -1.609 -1.223 -64.3938 -64.3938 -0.0662 0.0002 -0.002595 -0.603752 11.11 490 760 0.09 -0.99 0.0000 0.0000
0.075 0 6.365259 -1.397720 6.041601 -0.083923 -1.983643 2.433777 -73.69 -73.69 -10.0 -10.0 -1.470 -1.470 -64.3938 -64.3938 -0.0680 0.0002 -0.005191 -0.609106 11.11 490 760 0.09 -0.99 0.0000 0.0000
0.076 0 5.734726 -1.119614 12.087997 1.274109 -1.564026 2.136230 -74.66 -74.66 -8.8 -10.5 -1.324 -1.197 -67.6135 -64.3938 -0.0700 0.0002 -0.005191 -0.609495 11.28 510 780 0.09 -0.99 0.0000 0.0000
0.077 0 5.168926 0.925420 10.862895 2.464294 -0.297546 1.052856 -75.63 -75.63 -11.0 -9.3 -1.159 -1.128 -64.3938 -67.6135 -0.0718 0.0002 -0.002595 -0.606225 11.28 490 760 0.09 -0.99 0.0000 0.0000
0.078 0 5.737124 1.263462 6.499516 3.868103 -1.571655 0.534058 -76.60 -76.60 -9.8 -9.8 -1.014 -1.185 -67.6135 -67.6135 -0.0736 0.0002 -0.005191 -0.605795 11.28 490 750 0.09 -0.99 0.0000 0.0000
0.079 0 5.739522 2.109766 7.602348 4.386902 -1.159668 0.541687 -77.57 -77.57 -10.3 -10.3 -1.349 -1.090 -67.6135 -67.6135 -0.0756 0.0002 -0.005191 -0.607385 11.28 490 750 0.09 -0.99 0.0000 0.0000
0.080 0 5.159336 4.298647 9.937475 0.671387 0.923157 1.007080 -78.54 -78.54 -10.9 -10.9 -1.216 -1.166 -67.6135 -67.6135 -0.0776 0.0002 -0.005191 -0.606504 11.28 490 740 0.09 -0.99 0.0000 0.0000
0.081 0 6.684121 1.038101 7.297871 -2.861023 0.907898 0.091553 -79.51 -79.51 -11.1 -9.5 -1.261 -1.159 -67.6135 -71.1721 -0.0797 0.0002 -0.005191 -0.606561 11.07 510 770 0.09 -0.99 0.0000 0.0000
0.082 0 6.051191 -1.982700 5.430249 -0.946045 -1.205444 -1.960754 -80.48 -80.48 -11.1 -10.0 -1.444 -1.223 -67.6135 -71.1721 -0.0817 0.0002 -0.005191 -0.610206 11.07 490 760 0.09 -0.99 0.0000 0.0000
0.083 0 4.456880 -0.047949 8.259253 0.656128 -2.532959 -2.113342 -81.45 -81.45 -11.1 -10.5 -1.413 -1.064 -67.6135 -71.1721 -0.0835 0.0003 -0.007786 -0.611365 11.07 490 760 0.09 -0.99 0.0000 0.0000
0.084 0 6.633774 1.479233 12.195884 3.433228 -0.587463 -2.166748 -82.42 -82.42 -11.1 -11.0 -1.470 -1.033 -67.6135 -71.1721 -0.0853 0.0003 -0.005191 -0.609118 11.07 490 760 0.09 -0.99 0.0000 0.0000
0.085 0 3.473921 -4.238711 8.252060 4.806519 0.434875 -1.487732 -83.39 -83.39 -11.1 -11.1 -1.349 -1.444 -71.1721 -71.1721 -0.0877 0.0003 -0.005191 -0.605935 11.07 490 750 0.09 -0.99 0.0000 0.0000
0.086 0 0.184604 0.462710 4.272275 -0.656128 -0.701904 2.029419 -84.36 -84.36 -10.0 -10.0 -1.394 -1.254 -75.1261 -75.1261 -0.0897 0.0003 -0.005191 -0.598311 11.07 510 770 0.09 -0.99 0.0000 0.0000
0.087 0 7.022163 4.356186 11.330400 -3.334045 0.297546 2.700806 -85.33 -85.33 -10.5 -10.5 -1.324 -1.121 -75.1261 -75.1261 -0.0917 0.0003 -0.005191 -0.592388 11.07 490 760 0.09 -0.99 0.0000 0.0000
0.088 0 10.131670 -4.677446 8.733950 1.708984 -1.075745 2.899170 -86.30 -86.30 -11.0 -11.0 -1.172 -1.292 -75.1261 -75.1261 -0.0937 0.0003 -0.005191 -0.594666 11.07 490 760 0.09 -0.99 0.0000 0.0000
0.090 0 5.240849 -0.546621 5.037066 5.210876 -3.898621 -1.091003 -87.27 -87.27 -9.1 -11.1 -1.261 -1.178 -79.5453 -75.1261 -0.0959 0.0003 -0.007786 -0.599414 11.07 490 1070 0.09 -0.99 0.0000 0.0000
0.090 0 3.584204 1.433682 12.725722 6.019592 -1.541138 -1.998901 -88.24 -88.24 -9.7 -11.1 -1.178 -1.197 -79.5453 -75.1261 -0.0984 0.0004 -0.007786 -0.598282 11.07 490 760 0.09 -0.99 0.0000 0.0000
0.091 0 7.209165 5.921728 10.496083 -0.335693 1.632690 0.236511 -89.20 -89.21 -10.2 -10.2 -0.912 -1.343 -79.5453 -79.5453 -0.1004 0.0004 -0.007786 -0.595111 11.17 510 780 0.09 -0.99 0.0000 0.0000
0.092 0 9.915898 1.227500 0.400376 -2.464294 -1.670837 1.091003 -90.17 -90.18 -10.7 -10.7 -0.918 -1.172 -79.5453 -79.5453 -0.1024 0.0004 -0.007786 -0.604439 11.17 490 750 0.09 -0.99 0.0000 0.0000
0.093 0 3.368433 -3.119097 5.351133 -1.365662 -4.928589 0.106812 -91.14 -91.14 -11.2 -11.2 -1.058 -1.102 -79.5453 -79.5453 -0.1048 0.0004 -0.007786 -0.613242 11.17 490 760 0.09 -0.99 0.0000 0.0000
0.094 0 0.057539 -1.246680 18.167959 -1.472473 -0.236511 -0.740051 -92.11 -92.11 -11.2 -11.2 -1.096 -1.362 -79.5453 -79.5453 -0.1068 0.0004 -0.007786 -0.606737 11.17 490 740 0.09 -0.99 0.0000 0.0000
0.095 0 4.567163 0.549019 11.603710 -1.785278 4.768372 0.709534 -93.08 -93.08 -11.2 -11.2 -1.204 -1.166 -79.5453 -79.5453 -0.1092 0.0004 -0.007786 -0.598427 11.17 490 750 0.09 -0.99 0.0000 0.0000
0.096 0 7.197177 0.131860 -1.479233 -1.045227 -0.617981 1.579285 -94.05 -94.05 -11.2 -11.2 -1.191 -1.039 -79.5453 -79.5453 -0.1116 0.0005 -0.007786 -0.607813 11.22 510 780 0.09 -0.99 0.0000 0.0000
0.097 0 6.187847 0.314067 6.777622 1.464844 -4.005432 2.372742 -95.02 -95.02 -11.2 -11.2 -1.178 -1.204 -79.5453 -79.5453 -0.1136 0.0005 -0.007786 -0.620703 11.22 490 760 0.09 -0.99 0.0000 0.0000
0.098 0 6.111128 0.843906 12.625029 3.402710 -2.616882 1.731873 -95.99 -95.99 -11.2 -11.2 -1.191 -1.172 -79.5453 -79.5453 -0.1161 0.0005 -0.007786 -0.620259 11.22 490 750 0.09 -0.99 0.0000 0.0000
0.099 0 5.327158 -1.395322 11.560556 4.371643 0.885010 -0.289917 -96.96 -96.96 -11.2 -11.2 -1.121 -1.039 -79.5453 -84.5168 -0.1183 0.0005 -0.010382 -0.616730 11.22 490 760 0.09 -0.99 0.0000 0.0000
0.100 0 4.547983 4.154799 6.748852 1.380920 1.457214 0.694275 -97.93 -97.93 -11.2 -11.2 -1.172 -1.026 -79.5453 -84.5168 -0.1207 0.0005 -0.010382 -0.614643 11.22 490 750 0.09 -0.99 0.0000 0.0000
0.101 0 7.091689 0.558608 5.777881 -0.999451 -1.556396 1.083374 -98.90 -98.90 -11.2 -11.2 -1.121 -1.014 -79.5453 -84.5168 -0.1231 0.0006 -0.010382 -0.617128 11.22 510 770 0.09 -0.99 0.0000 0.0000
0.102 0 7.000586 -0.575391 9.043222 -2.273560 -2.632141 -2.922058 -99.87 -99.87 -11.2 -11.2 -1.077 -1.109 -84.5168 -84.5168 -0.1253 0.0006 -0.012977 -0.620249 11.22 490 750 0.09 -0.99 0.0000 0.0000
0.103 0 4.737383 -1.867622 9.676152 -0.770569 -2.410889 -1.296997 -100.84 -100.84 -11.2 -11.2 -1.197 -1.001 -84.5168 -84.5168 -0.1277 0.0006 -0.012977 -0.619041 11.22 490 730 0.09 -0.99 0.0000 0.0000
0.104 0 3.044775 -1.630273 9.474766 -0.358582 0.495911 2.212524 -101.81 -101.81 -11.2 -11.2 -1.109 -0.918 -84.5168 -90.1513 -0.1301 0.0006 -0.012977 -0.614386 11.22 490 740 0.09 -0.99 0.0000 0.0000
0.105 0 4.480855 1.560747 7.329038 1.167297 1.922607 3.883362 -102.78 -102.78 -11.2 -11.2 -1.058 -1.071 -90.1513 -90.1513 -0.1326 0.0007 -0.012977 -0.610710 11.22 490 760 0.09 -0.99 0.0000 0.0000
0.106 0 6.171064 0.258926 6.322104 3.852844 1.159668 2.304077 -103.75 -103.75 -11.2 -11.2 -1.064 -1.033 -90.1513 -90.1513 -0.1350 0.0007 -0.012977 -0.611680 11.18 510 770 0.09 -0.99 0.0000 0.0000
0.107 0 7.122856 1.157974 7.501655 3.440857 -2.357483 -2.815247 -104.72 -104.72 -11.2 -11.2 -1.064 -0.950 -90.1513 -79.5453 -0.1376 0.0007 -0.015573 -0.614754 11.18 490 770 0.09 -0.99 0.0000 0.0000
0.108 0 8.323984 2.960864 10.234760 -0.045776 -4.241943 -3.921509 -105.68 -105.69 -11.2 -11.2 -1.020 -0.912 -90.1513 -90.1513 -0.1400 0.0008 -0.015573 -0.616918 11.18 490 760 0.09 -0.99 0.0000 0.0000
0.110 0 5.197695 1.090845 8.439062 -2.555847 -3.959656 -1.243591 -106.65 -106.66 -11.2 -11.2 -1.026 -0.893 -90.1513 -90.1513 -0.1424 0.0008 -0.015573 -0.616999 11.18 490 1090 0.09 -0.99 0.0000 0.0000
0.110 0 3.270137 2.162510 8.436665 -5.218506 0.900269 1.541138 -107.62 -107.63 -11.2 -11.2 -0.995 -1.026 -90.1513 -90.1513 -0.1452 0.0009 -0.015573 -0.613934 11.18 490 750 0.09 -0.99 0.0000 0.0000
0.111 0 2.637207 -1.913174 6.485132 -3.440857 2.853394 5.584717 -108.59 -108.59 -11.2 -11.2 -1.134 -0.906 -90.1513 -90.1513 -0.1474 0.0009 -0.018168 -0.609230 11.20 510 780 0.09 -0.99 0.0000 0.0000
0.112 0 4.718203 -3.996567 5.684380 0.221252 0.938416 3.585815 -109.56 -109.56 -11.2 -11.2 -1.033 -0.880 -90.1513 -90.1513 -0.1499 0.0009 -0.018168 -0.607817 11.20 490 760 0.09 -0.99 0.0000 0.0000
0.113 0 7.163613 -0.304478 13.607987 3.433228 1.739502 0.282288 -110.53 -110.53 -11.2 -11.2 -0.969 -0.912 -90.1513 -90.1513 -0.1527 0.0010 -0.018168 -0.607414 11.20 490 760 0.09 -0.99 0.0000 0.0000
0.114 0 6.664941 -1.160371 11.059487 4.341125 1.426697 1.213074 -111.50 -111.50 -11.2 -11.2 -1.014 -0.874 -90.1513 -90.1513 -0.1551 0.0010 -0.018168 -0.605526 11.20 490 760 0.09 -0.99 0.0000 0.0000
0.115 0 5.940908 2.953672 2.416641 2.639771 -3.776550 6.546021 -112.47 -112.47 -11.2 -11.2 -0.963 -0.906 -90.1513 -96.5907 -0.1575 0.0011 -0.018168 -0.610653 11.20 490 760 0.09 -0.99 0.0000 0.0000
0.116 0 6.183052 3.699282 9.412432 -3.318787 -3.601074 6.507874 -113.44 -113.44 -11.1 -11.1 -1.007 -0.887 -90.1513 -96.5907 -0.1603 0.0011 -0.018168 -0.616107 11.14 510 790 0.09 -0.99 0.0000 0.0000
0.117 0 6.489926 -0.877471 11.884213 -3.318787 -0.160217 3.570557 -114.41 -114.41 -11.1 -11.1 -0.931 -0.842 -90.1513 -96.5907 -0.1627 0.0012 -0.018168 -0.614643 11.14 490 770 0.09 -0.99 0.0000 0.0000
0.118 0 5.248042 -0.031167 5.643623 -2.708435 0.053406 -0.892639 -115.38 -115.38 -11.1 -11.1 -0.912 -0.830 -90.1513 -96.5907 -0.1653 0.0012 -0.020764 -0.614838 11.14 490 770 0.09 -0.99 0.0000 0.0000
0.119 0 2.325537 -2.785850 7.914018 -0.686646 -0.312805 -0.228882 -116.35 -116.35 -11.1 -11.1 -0.982 -0.792 -90.1513 -96.5907 -0.1680 0.0013 -0.023359 -0.612912 11.14 490 760 0.09 -0.99 0.0000 0.0000
0.120 0 3.586601 2.023457 10.776587 -2.220154 2.052307 2.456665 -117.32 -117.32 -11.1 -11.1 -0.906 -0.842 -96.5907 -96.5907 -0.1706 0.0013 -0.020764 -0.606771 11.14 490 760 0.09 -0.99 0.0000 0.0000
0.121 0 7.189985 0.553813 8.388716 -1.266479 1.777649 3.547668 -118.29 -118.29 -11.3 -11.3 -0.950 -0.855 -96.5907 -96.5907 -0.1732 0.0014 -0.023359 -0.604919 11.30 510 790 0.09 -0.99 0.0000 0.0000
0.122 0 8.043481 0.525044 4.663061 0.488281 -2.273560 3.791809 -119.26 -119.26 -11.3 -11.3 -0.912 -0.855 -90.1513 -96.5907 -0.1760 0.0015 -0.023359 -0.610311 11.30 490 760 0.09 -0.99 0.0000 0.0000
0.123 0 6.480337 0.740815 8.793886 3.273010 -4.226685 -0.556946 -120.23 -120.23 -11.3 -11.3 -0.855 -0.773 -96.5907 -96.5907 -0.1784 0.0015 -0.023359 -0.614921 11.30 490 760 0.09 -0.99 0.0000 0.0000
0.124 0 4.725395 2.045034 10.937217 2.593994 -2.227783 -7.171631 -121.20 -121.20 -11.3 -11.3 -0.874 -0.760 -96.5907 -96.5907 -0.1812 0.0016 -0.023359 -0.613125 11.30 490 750 0.09 -0.99 0.0000 0.0000
0.125 0 3.461933 1.098037 8.323984 -2.151489 1.983643 -1.441956 -122.17 -122.17 -11.3 -11.3 -0.874 -0.798 -96.5907 -96.5907 -0.1838 0.0017 -0.025955 -0.608927 11.30 490 750 0.09 -0.99 0.0000 0.0000
0.126 0 5.269619 -1.052485 7.484873 -6.187439 3.273010 4.035950 -123.13 -123.14 -11.3 -11.3 -0.925 -0.728 -96.5907 -96.5907 -0.1867 0.0017 -0.025955 -0.606799 11.28 510 780 0.09 -0.99 0.0000 0.0000
0.127 0 5.358325 -0.309272 8.590102 -5.920410 1.747131 2.014160 -124.10 -124.11 -11.3 -11.3 -0.861 -0.830 -96.5907 -96.5907 -0.1893 0.0018 -0.028550 -0.606335 11.28 490 770 0.09 -0.99 0.0000 0.0000
0.128 0 4.917192 -2.337524 8.592500 -1.754761 0.175476 -0.953674 -125.07 -125.08 -11.3 -11.3 -0.811 -0.785 -96.5907 -96.5907 -0.1919 0.0019 -0.025955 -0.604980 11.28 490 770 0.09 -0.99 0.0000 0.0000
0.130 0 6.422798 -2.059419 7.937993 4.356384 -0.450134 -3.341675 -126.04 -126.04 -11.3 -11.3 -0.842 -0.754 -96.5907 -104.0207 -0.1945 0.0019 -0.028550 -0.604885 11.28 490 1100 0.09 -0.99 0.0000 0.0000
0.130 0 6.506709 0.913433 9.055210 7.301331 1.007080 -1.380920 -127.01 -127.01 -11.3 -11.3 -0.811 -0.754 -96.5907 -104.0207 -0.1977 0.0020 -0.028550 -0.605806 11.28 480 750 0.09 -0.99 0.0000 0.0000
0.131 0 5.130566 4.001362 8.796284 1.953125 1.510620 -1.144409 -127.98 -127.98 -11.4 -11.4 -0.899 -0.722 -90.1513 -104.0207 -0.2001 0.0021 -0.028550 -0.605185 11.36 510 790 0.09 -0.99 0.0000 0.0000
0.132 0 5.758701 3.461933 8.276035 -4.783630 1.159668 -3.875732 -128.95 -128.95 -11.4 -11.4 -0.874 -0.741 -96.5907 -104.0207 -0.2027 0.0022 -0.031146 -0.604425 11.36 490 770 0.09 -0.99 0.0000 0.0000
0.133 0 5.034668 -0.299683 6.408413 -7.751465 0.587463 -1.991272 -129.92 -129.92 -11.4 -11.4 -0.823 -0.703 -96.5907 -104.0207 -0.2056 0.0023 -0.031146 -0.605054 11.36 490 760 0.09 -0.99 0.0000 0.0000
0.134 0 4.277070 -0.935010 8.563730 -5.477905 1.243591 -1.380920 -130.89 -130.89 -11.4 -11.4 -0.830 -0.773 -96.5907 -104.0207 -0.2082 0.0024 -0.033741 -0.604236 11.36 490 760 0.09 -0.99 0.0000 0.0000
0.135 0 3.998965 -1.201128 11.009140 -0.663757 3.417969 0.564575 -131.86 -131.86 -11.4 -11.4 -0.785 -0.722 -96.5907 -104.0207 -0.2110 0.0025 -0.033741 -0.600266 11.36 490 760 0.09 -0.99 0.0000 0.0000
0.136 0 5.880971 -1.229897 7.379385 4.608154 2.426147 -3.944397 -132.83 -132.83 -11.4 -11.4 -0.817 -0.747 -96.5907 -104.0207 -0.2138 0.0025 -0.033741 -0.598441 11.37 510 790 0.09 -0.99 0.0000 0.0000
0.137 0 7.676670 0.899048 6.952637 6.622314 0.114441 -2.052307 -133.80 -133.80 -11.4 -11.4 -0.766 -0.722 -96.5907 -104.0207 -0.2166 0.0026 -0.033741 -0.601497 11.37 490 760 0.09 -0.99 0.0000 0.0000
0.138 0 6.979009 3.267739 9.359687 2.517700 -1.388550 0.671387 -134.77 -134.77 -11.4 -11.4 -0.849 -0.678 -96.5907 -104.0207 -0.2194 0.0027 -0.033741 -0.604206 11.37 490 760 0.09 -0.99 0.0000 0.0000
0.139 0 6.171064 1.047690 10.925229 -1.853943 -0.007629 6.553650 -135.74 -135.74 -11.4 -11.4 -0.798 -0.690 -96.5907 -104.0207 -0.2220 0.0028 -0.036337 -0.603688 11.37 490 770 0.09 -0.99 0.0000 0.0000
0.140 0 4.245903 0.637725 8.151367 -5.363464 0.854492 9.483337 -136.71 -136.71 -11.4 -11.4 -0.754 -0.652 -96.5907 -104.0207 -0.2249 0.0029 -0.036337 -0.601572 11.37 490 760 0.09 -0.99 0.0000 0.0000
0.141 0 2.409448 -1.006934 6.616992 -3.768921 3.211975 5.760193 -137.68 -137.68 -11.5 -11.5 -0.747 -0.709 -96.5907 -104.0207 -0.2279 0.0030 -0.038932 -0.597837 11.45 510 790 0.09 -0.99 0.0000 0.0000
0.142 0 4.531201 1.052485 6.765635 -0.541687 4.081726 -0.328064 -138.65 -138.65 -11.5 -11.5 -0.722 -0.678 -96.5907 -104.0207 -0.2307 0.0032 -0.038932 -0.595236 11.45 490 770 0.09 -0.99 0.0000 0.0000
0.143 0 6.605005 -3.267739 7.127651 4.257202 1.792908 -2.014160 -139.62 -139.62 -11.5 -11.5 -0.785 -0.659 -104.0207 -104.0207 -0.2335 0.0033 -0.038932 -0.596640 11.45 490 760 0.09 -0.99 0.0000 0.0000
0.144 0 6.089550 0.033564 10.666304 8.316040 1.480103 -1.449585 -140.58 -140.59 -11.5 -11.5 -0.741 -0.671 -104.0207 -104.0207 -0.2363 0.0034 -0.038932 -0.597333 11.45 490 760 0.09 -0.99 0.0000 0.0000
0.145 0 7.079702 2.737900 11.495825 4.997253 2.258301 2.784729 -141.55 -141.56 -11.5 -11.5 -0.792 -0.722 -96.5907 -104.0207 -0.2391 0.0035 -0.038932 -0.596074 11.45 490 760 0.09 -0.99 0.0000 0.0000
0.146 0 5.020283 3.159853 6.868725 -3.402710 1.419067 3.700256 -142.52 -142.53 -11.4 -11.4 -0.773 -0.678 -90.1513 -104.0207 -0.2421 0.0036 -0.041528 -0.595953 11.41 510 790 0.09 -0.99 0.0000 0.0000
0.147 0 4.408930 0.047949 6.559453 -8.872986 1.045227 0.740051 -143.49 -143.49 -11.4 -11.4 -0.741 -0.671 -104.0207 -104.0207 -0.2450 0.0037 -0.041528 -0.596239 11.41 490 760 0.09 -0.99 0.0000 0.0000
0.148 0 5.171323 -1.565542 7.501655 -7.499695 2.632141 1.274109 -144.46 -144.46 -11.4 -11.4 -0.735 -0.652 -104.0207 -104.0207 -0.2476 0.0038 -0.044123 -0.596235 11.41 490 770 0.09 -0.99 0.0000 0.0000
0.150 0 4.948359 -1.498413 7.168408 -0.839233 2.799988 3.784180 -145.43 -145.43 -11.4 -11.4 -0.716 -0.646 -104.0207 -112.6891 -0.2506 0.0040 -0.041528 -0.596340 11.41 490 1100 0.09 -0.99 0.0000 0.0000
0.150 0 5.116181 -0.290093 10.512866 5.401611 2.151489 1.564026 -146.40 -146.40 -11.4 -11.4 -0.722 -0.608 -104.0207 -112.6891 -0.2536 0.0041 -0.044123 -0.594954 11.41 480 750 0.09 -0.99 0.0000 0.0000
0.151 0 5.317568 1.759736 9.501138 4.928589 2.731323 2.265930 -147.37 -147.37 -11.5 -11.5 -0.716 -0.595 -96.5907 -112.6891 -0.2564 0.0042 -0.044123 -0.592667 11.52 510 780 0.09 -0.99 0.0000 0.0000
0.152 0 7.671875 4.200351 6.000844 -0.144958 2.845764 1.541138 -148.34 -148.34 -11.5 -11.5 -0.773 -0.627 -104.0207 -112.6891 -0.2592 0.0043 -0.044123 -0.594915 11.52 490 760 0.09 -0.99 0.0000 0.0000
0.153 0 7.166010 -1.790903 5.509365 -2.891541 0.892639 -2.098083 -149.31 -149.31 -11.5 -11.5 -0.747 -0.595 -104.0207 -112.6891 -0.2618 0.0045 -0.046719 -0.601146 11.52 490 770 0.09 -0.99 0.0000 0.0000
0.154 0 3.541050 0.402773 10.095708 -5.676270 1.808167 0.114441 -150.28 -150.28 -11.5 -11.5 -0.735 -0.614 -104.0207 -112.6891 -0.2650 0.0046 -0.046719 -0.601621 11.52 500 760 0.09 -0.99 0.0000 0.0000
0.155 0 4.274673 0.596968 11.848251 -7.232666 4.264832 0.648499 -151.25 -151.25 -11.5 -11.5 -0.741 -0.589 -104.0207 -112.6891 -0.2679 0.0047 -0.046719 -0.596424 11.52 490 760 0.09 -0.99 0.0000 0.0000
0.156 0 5.037066 -0.906240 8.311996 -4.325867 5.836487 3.044128 -152.22 -152.22 -11.5 -11.5 -0.678 -0.627 -104.0207 -112.6891 -0.2709 0.0049 -0.049314 -0.593348 11.49 510 790 0.09 -0.99 0.0000 0.0000
0.157 0 5.214478 -0.390786 5.535737 3.082275 4.623413 3.143311 -153.19 -153.19 -11.5 -11.5 -0.716 -0.608 -104.0207 -112.6891 -0.2737 0.0050 -0.049314 -0.594383 11.49 490 760 0.09 -0.99 0.0000 0.0000
0.158 0 6.003242 1.301821 8.546948 6.835938 2.960205 2.593994 -154.16 -154.16 -11.5 -11.5 -0.640 -0.595 -104.0207 -112.6891 -0.2765 0.0052 -0.049314 -0.596091 11.49 490 770 0.09 -0.99 0.0000 0.0000
0.159 0 6.513901 0.172617 11.253681 5.798340 1.670837 4.615784 -155.13 -155.13 -11.5 -11.5 -0.703 -0.564 -104.0207 -112.6891 -0.2795 0.0053 -0.051910 -0.595504 11.49 490 770 0.09 -0.99 0.0000 0.0000
0.160 0 6.053589 2.383076 8.515781 -1.068115 2.906799 4.516602 -156.10 -156.10 -11.5 -11.5 -0.697 -0.583 -104.0207 -112.6891 -0.2823 0.0055 -0.051910 -0.594986 11.49 490 760 0.09 -0.99 0.0000 0.0000
0.161 0 5.478198 0.033564 5.459018 -5.889893 3.288269 10.993958 -157.07 -157.07 -11.5 -11.5 -0.697 -0.570 -104.0207 -112.6891 -0.2853 0.0056 -0.054505 -0.597063 11.49 510 780 0.09 -0.99 0.0000 0.0000
0.162 0 4.262685 0.731226 7.010176 -6.889343 3.936768 8.644104 -158.04 -158.04 -11.5 -11.5 -0.690 -0.570 -104.0207 -112.6891 -0.2882 0.0058 -0.054505 -0.598381 11.49 490 760 0.09 -0.99 0.0000 0.0000
0.163 0 3.965400 -1.126807 10.448134 -2.235413 5.485535 6.423950 -159.00 -159.01 -11.5 -11.5 -0.640 -0.564 -104.0207 -104.0207 -0.2914 0.0059 -0.054505 -0.595451 11.49 490 750 0.09 -0.99 0.0000 0.0000
0.164 0 5.607661 -0.836714 11.968124 4.295349 6.660461 -2.784729 -159.97 -159.98 -11.5 -11.5 -0.646 -0.570 -104.0207 -112.6891 -0.2942 0.0061 -0.054505 -0.591484 11.49 490 770 0.09 -0.99 0.0000 0.0000
0.165 0 6.715288 1.052485 7.681465 6.996155 4.730225 -6.599426 -160.94 -160.94 -11.5 -11.5 -0.614 -0.557 -104.0207 -112.6891 -0.2972 0.0063 -0.057101 -0.591124 11.49 490 770 0.09 -0.99 0.0000 0.0000
0.167 1 6.022422 0.915830 5.739522 3.768921 1.991272 -1.464844 -161.91 -161.91 -11.5 -11.5 -0.665 -0.564 -104.0207 -112.6891 -0.3000 0.0064 -0.057101 -0.594488 11.50 510 1120 0.09 -0.99 0.0000 0.0000
0.168 1 6.705698 2.567681 6.938252 -5.638123 1.091003 3.372192 -162.88 -162.88 -11.5 -11.5 -0.608 -0.570 -104.0207 -112.6891 -0.3034 0.0066 -0.059696 -0.598311 11.50 490 890 0.09 -0.99 0.0000 0.0000
0.168 1 5.806650 -1.354565 7.808530 -9.353638 2.830505 5.729675 -163.85 -163.85 -11.5 -11.5 -0.602 -0.551 -104.0207 -112.6891 -0.3062 0.0068 -0.059696 -0.600367 11.50 490 760 0.09 -0.99 0.0000 0.0000
0.170 1 3.181431 -0.218169 8.383921 -7.583618 3.974915 1.968384 -164.82 -164.82 -11.5 -11.5 -0.652 -0.570 -104.0207 -112.6891 -0.3090 0.0070 -0.059696 -0.598342 11.50 490 1140 0.09 -0.99 0.0000 0.0000
0.170 1 4.655869 -0.795957 12.999033 -0.205994 6.126404 3.837585 -165.79 -165.79 -11.5 -11.5 -0.671 -0.545 -112.6891 -112.6891 -0.3122 0.0072 -0.059696 -0.593402 11.50 490 750 0.09 -0.99 0.0000 0.0000
0.171 1 6.605005 -0.040757 9.944668 3.852844 5.821228 3.242493 -166.76 -166.76 -11.5 -11.5 -0.646 -0.614 -112.6891 -112.6891 -0.3149 0.0073 -0.062292 -0.590759 11.45 510 790 0.09 -0.99 0.0000 0.0000
0.172 1 7.343422 -0.016782 4.917192 5.317688 3.311157 -0.831604 -167.73 -167.73 -11.5 -11.5 -0.671 -0.545 -112.6891 -112.6891 -0.3179 0.0075 -0.059696 -0.594497 11.45 490 760 0.09 -0.99 0.0000 0.0000
0.173 1 7.424936 1.730967 6.835161 0.419617 1.213074 -2.220154 -168.70 -168.70 -11.5 -11.5 -0.659 -0.595 -112.6891 -112.6891 -0.3209 0.0077 -0.062292 -0.600581 11.45 490 770 0.09 -0.99 0.0000 0.0000
0.174 1 4.802114 1.006934 8.964107 -5.516052 0.877380 -5.447388 -169.67 -169.67 -11.5 -11.5 -0.583 -0.570 -112.6891 -112.6891 -0.3239 0.0079 -0.064887 -0.601725 11.45 490 770 0.09 -0.99 0.0000 0.0000
0.175 1 3.991772 1.239487 7.947583 -9.582520 3.051758 -0.999451 -170.64 -170.64 -11.5 -11.5 -0.595 -0.551 -112.6891 -112.6891 -0.3267 0.0081 -0.064887 -0.599254 11.45 490 750 0.09 -0.99 0.0000 0.0000
0.176 1 4.322622 -1.517593 7.465693 -6.027222 4.074097 5.134583 -171.61 -171.61 -11.5 -11.5 -0.576 -0.551 -112.6891 -112.6891 -0.3299 0.0083 -0.064887 -0.597130 11.49 510 780 0.09 -0.99 0.0000 0.0000
0.177 1 5.435044 -1.217910 10.076528 1.296997 4.829407 3.410339 -172.58 -172.58 -11.5 -11.5 -0.595 -0.545 -112.6891 -112.6891 -0.3327 0.0085 -0.064887 -0.595323 11.49 490 760 0.09 -0.99 0.0000 0.0000
0.178 1 7.142036 -1.004536 12.459604 5.935669 5.073547 -4.219055 -173.55 -173.55 -11.5 -11.5 -0.570 -0.538 -112.6891 -112.6891 -0.3357 0.0087 -0.067483 -0.593500 11.49 490 770 0.09 -0.99 0.0000 0.0000
0.179 1 6.372451 1.232295 8.386318 3.929138 3.677368 -4.272461 -174.52 -174.52 -11.5 -11.5 -0.646 -0.538 -112.6891 -112.6891 -0.3387 0.0089 -0.070078 -0.593259 11.49 490 760 0.09 -0.99 0.0000 0.0000
0.180 1 5.765893 4.126030 3.600986 -3.425598 2.792358 0.106812 -175.49 -175.49 -11.5 -11.5 -0.583 -0.526 -112.6891 -112.6891 -0.3418 0.0091 -0.067483 -0.597913 11.49 490 770 0.09 -0.99 0.0000 0.0000
0.181 1 7.173203 0.894253 4.818896 -9.567261 1.213074 4.440308 -176.45 -176.46 -11.5 -11.5 -0.583 -0.545 -112.6891 -112.6891 -0.3448 0.0093 -0.070078 -0.605760 11.53 510 780 0.09 -0.99 0.0000 0.0000
0.182 1 3.051968 -1.802891 8.448652 -7.652283 1.800537 8.079529 -177.42 -177.43 -11.5 -11.5 -0.602 -0.526 -112.6891 -104.0207 -0.3478 0.0095 -0.072674 -0.606866 11.53 490 760 0.09 -0.99 0.0000 0.0000
0.183 1 2.701938 -1.944341 14.825898 -0.572205 6.942749 -0.419617 -178.39 -178.39 -11.5 -11.5 -0.640 -0.507 -96.5907 -112.6891 -0.3508 0.0097 -0.070078 -0.599990 11.53 490 760 0.09 -0.99 0.0000 0.0000
0.184 1 5.878574 -1.155576 12.521938 5.920410 8.628845 -3.524780 -179.36 -179.36 -11.5 -11.5 -0.633 -0.538 -112.6891 -112.6891 -0.3538 0.0099 -0.072674 -0.594105 11.53 490 770 0.09 -0.99 0.0000 0.0000
0.185 1 7.645503 1.548760 6.029614 5.714417 5.294800 -3.128052 -180.33 -180.33 -11.5 -11.5 -0.595 -0.513 -112.6891 -104.0207 -0.3568 0.0101 -0.075269 -0.595507 11.53 490 770 0.09 -0.99 0.0000 0.0000
0.186 1 8.422280 1.836455 4.502431 0.221252 1.037598 -1.274109 -181.30 -181.30 -11.5 -11.5 -0.608 -0.526 -112.6891 -112.6891 -0.3600 0.0104 -0.075269 -0.603292 11.50 510 790 0.09 -0.99 0.0000 0.0000
0.187 1 6.398823 0.656904 8.762719 -5.592346 0.823975 6.378174 -182.27 -182.27 -11.5 -11.5 -0.583 -0.526 -112.6891 -112.6891 -0.3628 0.0106 -0.075269 -0.608266 11.50 490 760 0.09 -0.99 0.0000 0.0000
0.188 1 3.380420 0.210977 10.371416 -7.637024 3.410339 4.714966 -183.24 -183.24 -11.5 -11.5 -0.595 -0.526 -112.6891 -112.6891 -0.3658 0.0108 -0.077865 -0.605549 11.50 490 760 0.09 -0.99 0.0000 0.0000
0.190 1 1.750146 -0.911035 8.669218 -4.631042 6.080627 -1.380920 -184.21 -184.21 -11.5 -11.5 -0.602 -0.513 -112.6891 -112.6891 -0.3688 0.0111 -0.075269 -0.598568 11.50 490 1160 0.09 -0.99 0.0000 0.0000
0.190 1 3.648935 -1.009331 9.457983 3.280640 6.927490 -7.034302 -185.18 -185.18 -11.5 -11.5 -0.614 -0.532 -112.6891 -112.6891 -0.3726 0.0113 -0.077865 -0.592221 11.50 490 760 0.09 -0.99 0.0000 0.0000
0.191 1 7.623926 0.448325 9.342905 4.318237 6.187439 -2.067566 -186.15 -186.15 -11.6 -11.6 -0.589 -0.500 -112.6891 -112.6891 -0.3751 0.0115 -0.077865 -0.590802 11.56 510 790 0.09 -0.99 0.0000 0.0000
0.192 1 9.194263 2.040239 6.602607 1.884460 2.647400 0.572205 -187.12 -187.12 -11.6 -11.6 -0.627 -0.532 -112.6891 -112.6891 -0.3781 0.0118 -0.080460 -0.595190 11.56 490 770 0.09 -0.99 0.0000 0.0000
0.193 1 8.089033 1.431284 7.168408 -3.036499 -0.717163 -1.640320 -188.09 -188.09 -11.6 -11.6 -0.589 -0.513 -112.6891 -112.6891 -0.3811 0.0120 -0.083056 -0.601146 11.56 490 760 0.09 -0.99 0.0000 0.0000
0.194 1 4.857256 1.102832 9.762461 -7.125854 1.411438 -12.626648 -189.06 -189.06 -11.6 -11.6 -0.608 -0.532 -112.6891 -112.6891 -0.3841 0.0123 -0.080460 -0.602180 11.56 490 760 0.09 -0.99 0.0000 0.0000
0.195 1 2.737900 -1.589517 8.554140 -4.219055 4.257202 -10.040283 -190.03 -190.03 -11.6 -11.6 -0.595 -0.481 -112.6891 -112.6891 -0.3871 0.0125 -0.083056 -0.597845 11.56 490 760 0.09 -0.99 0.0000 0.0000
0.196 1 2.819414 0.285298 8.666821 0.411987 7.049561 -2.037048 -191.00 -191.00 -11.4 -11.4 -0.640 -0.576 -112.6891 -112.6891 -0.3903 0.0128 -0.083056 -0.592090 11.39 510 770 0.09 -0.99 0.0000 0.0000
0.197 1 5.415864 -1.910776 10.563212 5.737305 7.705688 -2.838135 -191.97 -191.97 -11.4 -11.4 -0.627 -0.507 -112.6891 -112.6891 -0.3931 0.0130 -0.083056 -0.588042 11.39 490 750 0.09 -0.99 0.0000 0.0000
0.198 1 8.247266 1.687812 10.050156 6.927490 6.248474 -2.449036 -192.94 -192.94 -11.4 -11.4 -0.589 -0.532 -104.0207 -112.6891 -0.3963 0.0133 -0.083056 -0.587772 11.39 490 760 0.09 -0.99 0.0000 0.0000
0.199 1 8.376728 0.568198 3.955810 4.211426 1.853943 0.701904 -193.90 -193.91 -11.4 -11.4 -0.608 -0.551 -112.6891 -112.6891 -0.3993 0.0135 -0.085651 -0.594050 11.39 490 770 0.09 -0.99 0.0000 0.0000
0.200 1 6.609799 1.122012 4.840474 -2.670288 -0.175476 6.950378 -194.87 -194.88 -11.4 -11.4 -0.576 -0.545 -112.6891 -112.6891 -0.4023 0.0138 -0.088246 -0.602751 11.39 490 770 0.09 -0.99 0.0000 0.0000
0.201 1 2.745093 0.220566 10.455327 -6.507874 2.822876 3.921509 -195.84 -195.85 -11.5 -11.5 -0.583 -0.532 -112.6891 -112.6891 -0.4055 0.0141 -0.088246 -0.602629 11.53 510 780 0.09 -0.99 0.0000 0.0000
0.202 1 1.306616 2.030649 11.186552 -7.148743 8.049011 1.922607 -196.81 -196.81 -11.5 -11.5 -0.570 -0.513 -112.6891 -112.6891 -0.4083 0.0143 -0.088246 -0.594295 11.53 490 750 0.09 -0.99 0.0000 0.0000
0.203 1 3.915054 -2.061816 8.738745 -0.030518 9.201050 0.785828 -197.78 -197.78 -11.5 -11.5 -0.589 -0.507 -112.6891 -112.6891 -0.4115 0.0146 -0.088246 -0.587699 11.53 490 760 0.09 -0.99 0.0000 0.0000
0.204 1 8.048276 -1.263462 8.647641 6.126404 7.644653 -1.701355 -198.75 -198.75 -11.5 -11.5 -0.557 -0.500 -112.6891 -112.6891 -0.4145 0.0149 -0.090842 -0.587507 11.53 490 770 0.09 -0.99 0.0000 0.0000
0.205 1 9.949463 1.313809 6.741660 6.942749 3.562927 -4.737854 -199.72 -199.72 -11.5 -11.5 -0.589 -0.532 -112.6891 -112.6891 -0.4177 0.0152 -0.090842 -0.592853 11.53 490 750 0.09 -0.99 0.0000 0.0000
0.206 1 7.429731 3.238970 6.672133 -0.999451 1.243591 -0.503540 -200.69 -200.69 -11.5 -11.5 -0.589 -0.488 -112.6891 -112.6891 -0.4208 0.0155 -0.093437 -0.599036 11.53 510 790 0.09 -0.99 0.0000 0.0000
0.207 1 2.795439 3.013608 7.945185 -8.720398 2.609253 2.136230 -201.66 -201.66 -11.5 -11.5 -0.621 -0.462 -112.6891 -112.6891 -0.4238 0.0157 -0.090842 -0.598798 11.53 490 760 0.09 -0.99 0.0000 0.0000
0.208 1 2.224844 -1.685415 8.031494 -7.965088 7.553101 5.523682 -202.63 -202.63 -11.5 -11.5 -0.583 -0.469 -112.6891 -112.6891 -0.4268 0.0160 -0.093437 -0.592878 11.53 490 760 0.09 -0.99 0.0000 0.0000
0.210 1 2.232036 -1.824468 9.398046 -1.098633 9.811401 -3.150940 -203.60 -203.60 -11.5 -11.5 -0.627 -0.475 -112.6891 -112.6891 -0.4300 0.0163 -0.093437 -0.585972 11.53 490 1150 0.09 -0.99 0.0000 0.0000
0.210 1 6.410810 -3.121494 13.612782 9.078979 11.169434 -11.299133 -204.57 -204.57 -11.5 -11.5 -0.576 -0.488 -96.5907 -112.6891 -0.4336 0.0166 -0.093437 -0.580853 11.53 490 760 0.09 -0.99 0.0000 0.0000
0.211 1 10.968384 2.392666 7.367397 9.620667 8.140564 -4.249573 -205.54 -205.54 -11.5 -11.5 -0.608 -0.494 -112.6891 -112.6891 -0.4362 0.0169 -0.096033 -0.583238 11.49 510 780 0.09 -0.99 0.0000 0.0000
0.212 1 9.527510 2.390269 0.927817 3.356934 1.022339 4.447937 -206.51 -206.51 -11.5 -11.5 -0.583 -0.494 -112.6891 -122.9336 -0.4392 0.0172 -0.098628 -0.595897 11.49 490 770 0.09 -0.99 0.0000 0.0000
0.213 1 3.203008 2.229639 8.772309 -4.371643 -0.686646 0.747681 -207.48 -207.48 -11.5 -11.5 -0.595 -0.481 -112.6891 -122.9336 -0.4424 0.0175 -0.098628 -0.602152 11.49 490 750 0.09 -0.99 0.0000 0.0000
0.214 1 1.788506 0.225361 15.197504 -6.233215 6.660461 7.049561 -208.45 -208.45 -11.5 -11.5 -0.576 -0.469 -112.6891 -122.9336 -0.4452 0.0178 -0.098628 -0.594802 11.49 490 760 0.09 -0.99 0.0000 0.0000
0.215 1 1.117217 -0.323657 7.331435 -2.471924 12.306213 3.967285 -209.42 -209.42 -11.5 -11.5 -0.576 -0.481 -112.6891 -122.9336 -0.4484 0.0181 -0.098628 -0.585517 11.49 490 750 0.09 -0.99 0.0000 0.0000
0.216 1 3.939028 -0.824727 5.001103 3.219604 9.346008 -1.693726 -210.39 -210.39 -11.6 -11.6 -0.570 -0.456 -104.0207 -122.9336 -0.4516 0.0184 -0.098628 -0.581838 11.56 510 790 0.09 -0.99 0.0000 0.0000
0.217 1 9.743281 0.822329 10.464916 4.898071 7.507324 -9.010315 -211.35 -211.36 -11.6 -11.6 -0.557 -0.475 -112.6891 -122.9336 -0.4546 0.0187 -0.101224 -0.584199 11.56 490 770 0.09 -0.99 0.0000 0.0000
0.218 1 11.958535 1.361758 6.753647 3.395081 2.426147 -17.929077 -212.32 -212.33 -11.6 -11.6 -0.570 -0.443 -112.6891 -122.9336 -0.4578 0.0190 -0.101224 -0.590430 11.56 490 760 0.09 -0.99 0.0000 0.0000
0.219 1 6.569043 1.443271 5.370312 -0.701904 -0.198364 -5.126953 -213.29 -213.30 -11.6 -11.6 -0.557 -0.475 -112.6891 -122.9336 -0.4608 0.0194 -0.103819 -0.597949 11.56 490 770 0.09 -0.99 0.0000 0.0000
0.220 1 0.249336 2.562886 11.280053 -4.875183 2.304077 5.493164 -214.26 -214.26 -11.6 -11.6 -0.564 -0.450 -112.6891 -122.9336 -0.4640 0.0197 -0.103819 -0.595076 11.56 490 760 0.09 -0.99 0.0000 0.0000
0.221 1 1.038101 -1.603901 12.931904 -4.898071 10.482788 1.838684 -215.23 -215.23 -11.6 -11.6 -0.551 -0.481 -112.6891 -122.9336 -0.4672 0.0200 -0.103819 -0.584193 11.58 510 780 0.09 -0.99 0.0000 0.0000
0.222 1 3.068750 -1.762134 4.905205 -1.533508 12.313843 -5.943298 -216.20 -216.20 -11.6 -11.6 -0.570 -0.437 -112.6891 -122.9336 -0.4702 0.0203 -0.106415 -0.578756 11.58 490 770 0.09 -0.99 0.0000 0.0000
0.223 1 8.947324 -1.467246 6.302925 3.479004 7.476807 -5.020142 -217.17 -217.17 -11.6 -11.6 -0.526 -0.475 -112.6891 -122.9336 -0.4734 0.0207 -0.106415 -0.582136 11.58 490 760 0.09 -0.99 0.0000 0.0000
0.224 1 12.593862 1.083652 10.222774 4.135132 2.967834 -9.506226 -218.14 -218.14 -11.6 -11.6 -0.557 -0.443 -112.6891 -122.9336 -0.4764 0.0210 -0.109010 -0.588795 11.58 490 770 0.09 -0.99 0.0000 0.0000
0.225 1 8.290420 1.335386 7.878057 0.251770 2.197266 -4.287720 -219.11 -219.11 -11.6 -11.6 -0.545 -0.456 -112.6891 -122.9336 -0.4794 0.0213 -0.106415 -0.593922 11.58 490 770 0.09 -0.99 0.0000 0.0000
0.226 1 0.527441 1.656645 3.358843 -3.952026 0.541687 4.264832 -220.08 -220.08 -11.6 -11.6 -0.576 -0.443 -112.6891 -122.9336 -0.4826 0.0217 -0.106415 -0.591708 11.61 510 780 0.09 -0.99 0.0000 0.0000
0.227 1 -0.913433 0.489082 12.958276 -6.515503 7.835388 7.049561 -221.05 -221.05 -11.6 -11.6 -0.551 -0.469 -112.6891 -122.9336 -0.4856 0.0220 -0.109010 -0.580764 11.61 490 760 0.09 -0.99 0.0000 0.0000
0.228 1 2.462192 -0.136655 9.937475 -6.149292 14.678955 6.172180 -222.02 -222.02 -11.6 -11.6 -0.576 -0.450 -112.6891 -122.9336 -0.4888 0.0223 -0.109010 -0.570777 11.61 490 760 0.09 -0.99 0.0000 0.0000
0.230 1 9.707319 -1.582324 2.567681 -0.885010 9.040833 0.686646 -222.99 -222.99 -11.6 -11.6 -0.545 -0.456 -112.6891 -122.9336 -0.4918 0.0227 -0.111606 -0.574666 11.61 490 1160 0.09 -0.99 0.0000 0.0000
0.230 1 12.622631 0.592173 11.574941 2.059937 0.671387 -4.760742 -223.96 -223.96 -11.6 -11.6 -0.576 -0.456 -112.6891 -122.9336 -0.4956 0.0231 -0.114201 -0.584400 11.61 490 770 0.09 -0.99 0.0000 0.0000
0.231 1 10.582393 2.445410 14.231328 0.122070 1.907349 -0.480652 -224.93 -224.93 -11.6 -11.6 -0.570 -0.469 -112.6891 -122.9336 -0.4982 0.0234 -0.111606 -0.587340 11.56 510 790 0.09 -0.99 0.0000 0.0000
0.232 1 1.517593 3.541050 -0.858291 -4.760742 2.563477 -0.907898 -225.90 -225.90 -11.6 -11.6 -0.583 -0.475 -112.6891 -122.9336 -0.5012 0.0237 -0.114201 -0.602650 11.56 490 770 0.09 -0.99 0.0000 0.0000
0.233 1 -1.913174 -0.143848 5.149746 -7.942200 0.396729 1.701355 -226.87 -226.87 -11.6 -11.6 -0.570 -0.475 -112.6891 -122.9336 -0.5044 0.0241 -0.114201 -0.607818 11.56 490 760 0.09 -0.99 0.0000 0.0000
0.234 1 2.407051 -1.512798 19.639400 -5.905151 12.672424 6.500244 -227.84 -227.84 -11.6 -11.6 -0.513 -0.412 -112.6891 -122.9336 -0.5074 0.0245 -0.116797 -0.593354 11.56 490 760 0.09 -0.99 0.0000 0.0000
0.235 1 7.417744 -2.596450 4.380161 1.266479 13.488770 2.723694 -228.80 -228.81 -11.6 -11.6 -0.551 -0.450 -112.6891 -122.9336 -0.5106 0.0248 -0.116797 -0.592857 11.56 490 760 0.09 -0.99 0.0000 0.0000
0.236 1 10.937217 -1.045293 -3.965400 5.142212 0.297546 0.831604 -229.77 -229.78 -11.6 -11.6 -0.538 -0.431 -112.6891 -122.9336 -0.5138 0.0252 -0.116797 -0.610266 11.56 510 790 0.09 -0.99 0.0000 0.0000
0.237 1 9.594639 1.721377 15.329365 2.449036 -0.923157 0.045776 -230.74 -230.75 -11.6 -11.6 -0.551 -0.450 -112.6891 -122.9336 -0.5168 0.0256 -0.119392 -0.622720 11.56 490 770 0.09 -0.99 0.0000 0.0000
0.238 1 4.449687 2.591655 10.033374 -3.791809 3.517151 3.494263 -231.71 -231.71 -11.6 -11.6 -0.545 -0.418 -112.6891 -122.9336 -0.5200 0.0259 -0.119392 -0.620036 11.56 490 770 0.09 -0.99 0.0000 0.0000
0.239 1 1.119614 0.081514 2.040239 -7.919312 2.502441 3.036499 -232.68 -232.68 -11.6 -11.6 -0.532 -0.469 -112.6891 -112.6891 -0.5232 0.0263 -0.119392 -0.616809 11.56 490 760 0.09 -0.99 0.0000 0.0000
0.240 1 0.369209 0.925420 16.674341 -7.781982 8.926392 -2.120972 -233.65 -233.65 -11.6 -11.6 -0.519 -0.424 -112.6891 -112.6891 -0.5262 0.0267 -0.121988 -0.609684 11.56 490 760 0.09 -0.99 0.0000 0.0000
0.241 1 5.931318 -2.071406 11.692416 -2.670288 12.527466 -6.172180 -234.62 -234.62 -11.6 -11.6 -0.551 -0.450 -112.6891 -122.9336 -0.5294 0.0271 -0.121988 -0.602293 11.58 520 780 0.09 -0.99 0.0000 0.0000
0.242 1 9.894321 0.064731 -0.774380 1.953125 4.806519 -4.615784 -235.59 -235.59 -11.6 -11.6 -0.526 -0.450 -112.6891 -112.6891 -0.5325 0.0275 -0.121988 -0.611190 11.58 490 760 0.09 -0.99 0.0000 0.0000
0.243 1 9.510727 1.424092 8.707578 3.578186 -1.205444 -7.438660 -236.56 -236.56 -11.6 -11.6 -0.545 -0.481 -112.6891 -122.9336 -0.5355 0.0278 -0.124583 -0.623595 11.58 490 770 0.09 -0.99 0.0000 0.0000
0.244 1 7.206768 -0.179810 12.548310 -0.236511 -0.785828 -6.362915 -237.53 -237.53 -11.6 -11.6 -0.538 -0.431 -112.6891 -122.9336 -0.5385 0.0282 -0.121988 -0.624637 11.58 490 770 0.09 -0.99 0.0000 0.0000
0.245 1 1.953931 2.596450 6.415605 -5.424500 -0.122070 2.044678 -238.50 -238.50 -11.6 -11.6 -0.551 -0.469 -112.6891 -122.9336 -0.5419 0.0286 -0.124583 -0.620365 11.58 490 760 0.09 -0.99 0.0000 0.0000
0.246 1 -0.323657 0.431543 11.076269 -7.232666 6.576538 7.492065 -239.47 -239.47 -11.6 -11.6 -0.538 -0.431 -122.9336 -112.6891 -0.5449 0.0290 -0.127179 -0.610663 11.60 510 790 0.09 -0.99 0.0000 0.0000
0.247 1 3.253354 -2.596450 9.414829 -3.051758 10.643005 10.131836 -240.44 -240.44 -11.6 -11.6 -0.570 -0.475 -122.9336 -122.9336 -0.5479 0.0294 -0.124583 -0.601426 11.60 490 760 0.09 -0.99 0.0000 0.0000
0.248 1 9.841577 -1.201128 5.888164 2.532959 5.645752 3.829956 -241.41 -241.41 -11.6 -11.6 -0.532 -0.450 -112.6891 -122.9336 -0.5513 0.0298 -0.127179 -0.602884 11.60 490 770 0.09 -0.99 0.0000 0.0000
0.250 1 13.003828 0.882266 7.492065 4.356384 -0.869751 -1.701355 -242.38 -242.38 -11.6 -11.6 -0.570 -0.488 -122.9336 -122.9336 -0.5541 0.0302 -0.127179 -0.611496 11.60 490 1160 0.09 -0.99 0.0000 0.0000
0.250 1 6.276553 0.314067 8.954516 1.846313 -2.685547 -1.022339 -243.35 -243.35 -11.6 -11.6 -0.545 -0.437 -122.9336 -122.9336 -0.5579 0.0307 -0.129774 -0.615848 11.60 490 770 0.09 -0.99 0.0000 0.0000
0.251 1 0.270913 2.725913 7.458501 -4.089355 -3.089905 -2.723694 -244.32 -244.32 -11.6 -11.6 -0.557 -0.469 -122.9336 -122.9336 -0.5607 0.0310 -0.129774 -0.610116 11.60 510 780 0.09 -0.99 0.0000 0.0000
0.252 1 1.565542 1.323398 14.236122 -9.552002 4.783630 -3.524780 -245.29 -245.29 -11.6 -11.6 -0.538 -0.443 -122.9336 -122.9336 -0.5635 0.0314 -0.129774 -0.599463 11.60 490 750 0.09 -0.99 0.0000 0.0000
0.253 1 4.248301 0.815137 8.045878 -9.277344 8.659363 2.677917 -246.26 -246.26 -11.6 -11.6 -0.557 -0.469 -122.9336 -122.9336 -0.5667 0.0318 -0.129774 -0.593371 11.60 490 760 0.09 -0.99 0.0000 0.0000
0.254 1 9.208647 -2.805029 2.977646 -1.899719 3.746033 10.940552 -247.22 -247.23 -11.6 -11.6 -0.557 -0.431 -122.9336 -122.9336 -0.5699 0.0322 -0.129774 -0.598780 11.60 490 760 0.09 -0.99 0.0000 0.0000
0.255 1 9.865551 0.690469 10.452929 4.570007 -1.045227 7.865906 -248.19 -248.20 -11.6 -11.6 -0.551 -0.431 -122.9336 -122.9336 -0.5728 0.0326 -0.132370 -0.606845 11.60 490 770 0.09 -0.99 0.0000 0.0000
0.256 1 5.075425 -1.431284 10.378608 8.132935 0.114441 -1.472473 -249.16 -249.16 -11.5 -11.5 -0.551 -0.450 -122.9336 -122.9336 -0.5762 0.0331 -0.134965 -0.606830 11.55 510 780 0.09 -0.99 0.0000 0.0000
0.257 1 3.226982 2.222446 1.757339 2.677917 -2.265930 -14.869690 -250.13 -250.13 -11.5 -11.5 -0.532 -0.469 -122.9336 -122.9336 -0.5792 0.0335 -0.132370 -0.609950 11.55 490 770 0.09 -0.99 0.0000 0.0000
0.258 1 2.809824 2.699541 13.082944 -5.470276 3.128052 -3.295898 -251.10 -251.10 -11.5 -11.5 -0.507 -0.418 -122.9336 -122.9336 -0.5824 0.0339 -0.132370 -0.610574 11.55 490 750 0.09 -0.99 0.0000 0.0000
0.259 1 2.934492 -1.436079 13.830952 -8.201599 9.475708 13.542175 -252.07 -252.07 -11.5 -11.5 -0.538 -0.469 -122.9336 -122.9336 -0.5854 0.0343 -0.134965 -0.602539 11.55 490 760 0.09 -0.99 0.0000 0.0000
0.260 1 6.962226 -1.723774 4.106851 -3.730774 6.164551 4.089355 -253.04 -253.04 -11.5 -11.5 -0.507 -0.462 -122.9336 -122.9336 -0.5886 0.0347 -0.134965 -0.602818 11.55 490 770 0.09 -0.99 0.0000 0.0000
0.261 1 10.304287 -0.330850 7.355410 4.402161 0.419617 -7.453918 -254.01 -254.01 -11.6 -11.6 -0.519 -0.431 -122.9336 -112.6891 -0.5920 0.0352 -0.137561 -0.610515 11.60 510 790 0.09 -0.99 0.0000 0.0000
0.262 1 6.698506 -0.443530 10.735829 7.736206 0.152588 -7.057190 -254.98 -254.98 -11.6 -11.6 -0.564 -0.431 -122.9336 -122.9336 -0.5948 0.0356 -0.137561 -0.613358 11.60 490 760 0.09 -0.99 0.0000 0.0000
0.263 1 3.919848 5.607661 4.073286 1.396179 -1.594543 -2.220154 -255.95 -255.95 -11.6 -11.6 -0.526 -0.475 -122.9336 -122.9336 -0.5980 0.0360 -0.137561 -0.614334 11.60 490 760 0.09 -0.99 0.0000 0.0000
0.264 1 3.025596 0.299683 7.645503 -5.134583 1.205444 2.784729 -256.92 -256.92 -11.6 -11.6 -0.538 -0.443 -122.9336 -122.9336 -0.6012 0.0365 -0.137561 -0.613489 11.60 490 750 0.09 -0.99 0.0000 0.0000
0.265 1 2.363896 -2.457397 12.399668 -5.073547 5.760193 -2.563477 -257.89 -257.89 -11.6 -11.6 -0.500 -0.456 -112.6891 -122.9336 -0.6043 0.0369 -0.137561 -0.606877 11.60 490 750 0.09 -0.99 0.0000 0.0000
0.266 1 5.799458 -0.378799 10.584789 -1.327515 7.270813 -9.536743 -258.86 -258.86 -11.6 -11.6 -0.507 -0.431 -122.9336 -122.9336 -0.6077 0.0374 -0.140156 -0.601575 11.60 510 790 0.09 -0.99 0.0000 0.0000
0.267 1 10.004604 1.371348 6.593018 2.616882 3.501892 -6.515503 -259.83 -259.83 -11.6 -11.6 -0.507 -0.443 -122.9336 -122.9336 -0.6105 0.0378 -0.140156 -0.604315 11.60 490 750 0.09 -0.99 0.0000 0.0000
0.268 1 8.638051 1.673428 7.163613 4.562378 -0.595093 -2.593994 -260.80 -260.80 -11.6 -11.6 -0.545 -0.431 -122.9336 -122.9336 -0.6137 0.0382 -0.140156 -0.610804 11.60 490 760 0.09 -0.99 0.0000 0.0000
0.270 1 4.876435 -0.421953 7.758183 3.524780 -2.922058 -2.258301 -261.77 -261.77 -11.6 -11.6 -0.507 -0.437 -122.9336 -122.9336 -0.6171 0.0387 -0.142752 -0.612993 11.60 490 1160 0.09 -0.99 0.0000 0.0000
0.270 1 2.270396 -0.421953 9.980630 0.503540 2.357483 5.348206 -262.74 -262.74 -11.6 -11.6 -0.519 -0.412 -104.0207 -122.9336 -0.6207 0.0392 -0.142752 -0.608630 11.60 490 760 0.09 -0.99 0.0000 0.0000
0.271 1 1.309014 0.853496 9.151108 -0.938416 7.080078 8.613586 -263.71 -263.71 -11.6 -11.6 -0.507 -0.418 -122.9336 -122.9336 -0.6233 0.0396 -0.145347 -0.600118 11.61 510 780 0.09 -0.99 0.0000 0.0000
0.272 1 4.802114 0.227759 7.094087 -0.587463 7.774353 2.899170 -264.67 -264.68 -11.6 -11.6 -0.532 -0.424 -122.9336 -122.9336 -0.6264 0.0401 -0.145347 -0.595404 11.61 490 770 0.09 -0.99 0.0000 0.0000
0.273 1 9.194263 1.419297 9.019248 2.960205 4.638672 0.663757 -265.64 -265.65 -11.6 -11.6 -0.513 -0.424 -122.9336 -122.9336 -0.6296 0.0405 -0.145347 -0.597270 11.61 490 750 0.09 -0.99 0.0000 0.0000
0.274 1 10.280313 0.064731 8.417485 6.454468 0.190735 0.946045 -266.61 -266.61 -11.6 -11.6 -0.532 -0.393 -122.9336 -122.9336 -0.6326 0.0410 -0.147943 -0.602032 11.61 490 770 0.09 -0.99 0.0000 0.0000
0.275 1 5.449429 1.124409 6.161474 5.317688 -2.212524 -7.377625 -267.58 -267.58 -11.6 -11.6 -0.519 -0.462 -122.9336 -122.9336 -0.6358 0.0415 -0.147943 -0.606057 11.61 490 760 0.09 -0.99 0.0000 0.0000
0.276 1 1.186743 1.304219 9.515522 0.564575 -0.450134 -7.492065 -268.55 -268.55 -11.6 -11.6 -0.551 -0.418 -122.9336 -122.9336 -0.6390 0.0419 -0.147943 -0.602477 11.61 510 780 0.09 -0.99 0.0000 0.0000
0.277 1 1.774121 -0.371606 11.737968 -3.761292 6.294250 -4.539490 -269.52 -269.52 -11.6 -11.6 -0.513 -0.450 -122.9336 -122.9336 -0.6420 0.0424 -0.150538 -0.593210 11.61 490 760 0.09 -0.99 0.0000 0.0000
0.278 1 5.015488 0.023975 6.108730 -3.578186 8.392334 1.785278 -270.49 -270.49 -11.6 -11.6 -0.545 -0.418 -122.9336 -122.9336 -0.6451 0.0429 -0.150538 -0.589628 11.61 490 760 0.09 -0.99 0.0000 0.0000
0.279 1 9.664165 -1.076460 6.305322 1.518250 3.639221 4.447937 -271.46 -271.46 -11.6 -11.6 -0.532 -0.437 -122.9336 -122.9336 -0.6483 0.0433 -0.150538 -0.594483 11.61 490 750 0.09 -0.99 0.0000 0.0000
0.280 1 10.870088 -0.623340 10.170029 6.988525 -1.083374 -1.419067 -272.43 -272.43 -11.6 -11.6 -0.507 -0.393 -122.9336 -122.9336 -0.6515 0.0438 -0.150538 -0.600623 11.61 490 760 0.09 -0.99 0.0000 0.0000
0.281 1 4.425713 0.812739 7.338628 6.698608 -2.960205 -2.021790 -273.40 -273.40 -11.6 -11.6 -0.532 -0.437 -122.9336 -122.9336 -0.6547 0.0443 -0.150538 -0.602243 11.64 510 790 0.09 -0.99 0.0000 0.0000
0.282 1 0.712046 2.119355 7.930800 -0.175476 -0.938416 9.315491 -274.37 -274.37 -11.6 -11.6 -0.526 -0.393 -122.9336 -122.9336 -0.6577 0.0448 -0.153134 -0.596611 11.64 490 760 0.09 -0.99 0.0000 0.0000
0.283 1 3.032788 0.340439 11.594121 -5.653381 7.209778 9.506226 -275.34 -275.34 -11.6 -11.6 -0.532 -0.431 -122.9336 -122.9336 -0.6609 0.0453 -0.153134 -0.588162 11.64 490 750 0.09 -0.99 0.0000 0.0000
0.284 1 5.902549 0.544224 4.310635 -4.463196 8.155823 4.310608 -276.31 -276.31 -11.6 -11.6 -0.519 -0.431 -122.9336 -122.9336 -0.6640 0.0457 -0.153134 -0.588223 11.64 490 760 0.09 -0.99 0.0000 0.0000
0.285 1 9.294956 0.637725 6.664941 0.030518 0.701904 -5.981445 -277.28 -277.28 -11.6 -11.6 -0.526 -0.437 -112.6891 -122.9336 -0.6672 0.0462 -0.153134 -0.595198 11.64 490 770 0.09 -0.99 0.0000 0.0000
0.286 1 8.973696 0.208579 15.564316 4.562378 -0.442505 -12.413025 -278.25 -278.25 -11.5 -11.5 -0.526 -0.399 -112.6891 -122.9336 -0.6706 0.0468 -0.155729 -0.597982 11.55 510 790 0.09 -0.99 0.0000 0.0000
0.287 1 4.440097 1.603901 6.029614 3.349304 1.289368 -6.446838 -279.22 -279.22 -11.5 -11.5 -0.513 -0.399 -122.9336 -112.6891 -0.6734 0.0472 -0.155729 -0.597596 11.55 490 760 0.09 -0.99 0.0000 0.0000
0.288 1 2.685156 -0.659302 0.537031 0.076294 -1.731873 -1.647949 -280.19 -280.19 -11.5 -11.5 -0.481 -0.418 -122.9336 -122.9336 -0.6768 0.0477 -0.158325 -0.605648 11.55 490 760 0.09 -0.99 0.0000 0.0000
0.290 1 2.915312 0.786367 15.617060 -4.875183 1.533508 3.189087 -281.15 -281.16 -11.5 -11.5 -0.519 -0.443 -122.9336 -122.9336 -0.6799 0.0482 -0.158325 -0.609082 11.55 490 1150 0.09 -0.99 0.0000 0.0000
0.290 1 5.159336 -0.088706 12.768877 -5.569458 8.392334 1.602173 -282.12 -282.13 -11.5 -11.5 -0.519 -0.437 -122.9336 -122.9336 -0.6835 0.0488 -0.158325 -0.602564 11.55 490 760 0.09 -0.99 0.0000 0.0000
0.291 1 8.256855 0.647314 0.709648 -3.730774 4.211426 0.648499 -283.09 -283.09 -11.6 -11.6 -0.538 -0.412 -122.9336 -122.9336 -0.6863 0.0493 -0.158325 -0.609029 11.56 510 780 0.09 -0.99 0.0000 0.0000
0.292 1 9.081582 -0.819932 8.288022 0.869751 -1.724243 -2.288818 -284.06 -284.06 -11.6 -11.6 -0.494 -0.405 -122.9336 -122.9336 -0.6893 0.0497 -0.160920 -0.619879 11.56 490 760 0.09 -0.99 0.0000 0.0000
0.293 1 5.586084 -0.374004 12.975059 3.883362 -0.900269 -0.282288 -285.03 -285.03 -11.6 -11.6 -0.507 -0.424 -122.9336 -122.9336 -0.6924 0.0503 -0.160920 -0.619880 11.56 490 760 0.09 -0.99 0.0000 0.0000
0.294 1 3.087929 -0.774380 7.750991 2.899170 0.038147 0.732422 -286.00 -286.00 -11.6 -11.6 -0.519 -0.431 -122.9336 -122.9336 -0.6956 0.0508 -0.160920 -0.615392 11.56 490 750 0.09 -0.99 0.0000 0.0000
0.295 1 2.829004 2.169702 8.578115 -3.662109 3.761292 3.173828 -286.97 -286.97 -11.6 -11.6 -0.519 -0.431 -122.9336 -122.9336 -0.6988 0.0513 -0.160920 -0.610081 11.56 490 760 0.09 -0.99 0.0000 0.0000
0.296 1 5.252837 2.397461 4.183569 -8.644104 4.920959 7.621765 -287.94 -287.94 -11.5 -11.5 -0.513 -0.424 -122.9336 -112.6891 -0.7022 0.0518 -0.163516 -0.609972 11.55 510 790 0.09 -0.99 0.0000 0.0000
0.297 1 8.709975 0.218169 6.993393 -6.011963 1.251221 3.158569 -288.91 -288.91 -11.5 -11.5 -0.519 -0.418 -122.9336 -122.9336 -0.7050 0.0523 -0.163516 -0.615588 11.55 490 760 0.09 -0.99 0.0000 0.0000
0.298 1 8.254457 1.529580 13.749438 0.534058 -0.869751 0.923157 -289.88 -289.88 -11.5 -11.5 -0.513 -0.405 -122.9336 -122.9336 -0.7081 0.0528 -0.163516 -0.617602 11.55 490 760 0.09 -0.99 0.0000 0.0000
0.299 1 2.802632 -1.229897 9.388456 4.745483 0.892639 -4.219055 -290.85 -290.85 -11.5 -11.5 -0.519 -0.424 -104.0207 -122.9336 -0.7113 0.0533 -0.163516 -0.613598 11.55 490 760 0.09 -0.99 0.0000 0.0000
0.300 1 3.442754 -1.309014 5.120976 2.609253 0.282288 -2.899170 -291.82 -291.82 -11.5 -11.5 -0.513 -0.437 -122.9336 -122.9336 -0.7147 0.0539 -0.166111 -0.610169 11.55 490 770 0.09 -0.99 0.0000 0.0000
0.301 1 7.427334 2.596450 11.850649 -5.043030 3.425598 3.509521 -292.79 -292.79 -11.6 -11.6 -0.513 -0.431 -122.9336 -122.9336 -0.7176 0.0544 -0.168707 -0.609458 11.61 510 790 0.09 -0.99 0.0000 0.0000
0.302 1 5.842612 0.731226 7.242729 -10.612488 3.532410 8.522034 -293.76 -293.76 -11.6 -11.6 -0.469 -0.405 -122.9336 -122.9336 -0.7208 0.0549 -0.168707 -0.609593 11.61 490 760 0.09 -0.99 0.0000 0.0000
0.303 1 4.718203 -0.767187 6.811186 -8.293152 -0.831604 6.126404 -294.73 -294.73 -11.6 -11.6 -0.488 -0.393 -122.9336 -122.9336 -0.7240 0.0555 -0.168707 -0.610218 11.61 490 760 0.09 -0.99 0.0000 0.0000
0.304 1 5.691572 -1.347373 13.289125 -0.518799 -1.029968 -5.729675 -295.70 -295.70 -11.6 -11.6 -0.513 -0.399 -122.9336 -122.9336 -0.7272 0.0560 -0.168707 -0.608155 11.61 490 760 0.09 -0.99 0.0000 0.0000
0.305 1 5.758701 -2.049829 10.234760 5.737305 1.495361 -7.575989 -296.67 -296.67 -11.6 -11.6 -0.513 -0.431 -122.9336 -122.9336 -0.7301 0.0565 -0.171302 -0.605189 11.61 490 760 0.09 -0.99 0.0000 0.0000
0.306 1 5.149746 1.222705 4.746973 3.295898 0.450134 -6.057739 -297.63 -297.64 -11.6 -11.6 -0.450 -0.437 -122.9336 -122.9336 -0.7333 0.0571 -0.171302 -0.606442 11.58 510 780 0.09 -0.99 0.0000 0.0000
0.307 1 5.797060 1.896392 4.953154 -4.508972 -2.067566 -1.686096 -298.60 -298.61 -11.6 -11.6 -0.507 -0.424 -122.9336 -122.9336 -0.7365 0.0576 -0.171302 -0.611178 11.58 490 760 0.09 -0.99 0.0000 0.0000
0.308 1 5.430249 2.953672 9.508329 -11.482239 -1.731873 3.822327 -299.57 -299.58 -11.6 -11.6 -0.494 -0.399 -122.9336 -122.9336 -0.7397 0.0582 -0.171302 -0.612798 11.58 490 760 0.09 -0.99 0.0000 0.0000
0.310 1 4.847666 1.795698 13.092534 -10.978699 0.564575 10.345459 -300.54 -300.54 -11.6 -11.6 -0.526 -0.418 -122.9336 -122.9336 -0.7428 0.0587 -0.171302 -0.609322 11.58 490 1150 0.09 -0.99 0.0000 0.0000
0.310 1 6.365259 -0.954189 10.014194 -2.593994 -0.045776 4.013062 -301.51 -301.51 -11.6 -11.6 -0.488 -0.450 -122.9336 -122.9336 -0.7466 0.0594 -0.173897 -0.606368 11.58 490 770 0.09 -0.99 0.0000 0.0000
0.311 1 6.839956 -1.908379 7.985942 2.456665 -1.617432 -2.853394 -302.48 -302.48 -11.6 -11.6 -0.500 -0.418 -122.9336 -122.9336 -0.7494 0.0599 -0.173897 -0.606994 11.58 510 780 0.09 -0.99 0.0000 0.0000
0.312 1 6.235795 -0.302080 7.683862 3.219604 -3.707886 -10.292053 -303.45 -303.45 -11.6 -11.6 -0.494 -0.412 -122.9336 -112.6891 -0.7523 0.0604 -0.176493 -0.608782 11.58 490 770 0.09 -0.99 0.0000 0.0000
0.313 1 4.742177 1.673428 7.923608 -2.151489 -2.784729 -2.273560 -304.42 -304.42 -11.6 -11.6 -0.513 -0.418 -122.9336 -122.9336 -0.7555 0.0610 -0.176493 -0.608873 11.58 490 770 0.09 -0.99 0.0000 0.0000
0.314 1 4.320224 2.217651 6.811186 -8.026123 -1.853943 7.690430 -305.39 -305.39 -11.6 -11.6 -0.507 -0.431 -122.9336 -122.9336 -0.7587 0.0615 -0.176493 -0.607792 11.58 490 760 0.09 -0.99 0.0000 0.0000
0.315 1 4.588740 1.028511 9.050415 -9.109497 -2.052307 -0.106812 -306.36 -306.36 -11.6 -11.6 -0.513 -0.437 -122.9336 -122.9336 -0.7618 0.0621 -0.176493 -0.606033 11.58 490 750 0.09 -0.99 0.0000 0.0000
0.316 1 5.607661 -1.136396 12.047241 -4.188538 -0.885010 -6.965637 -307.33 -307.33 -11.6 -11.6 -0.469 -0.386 -104.0207 -122.9336 -0.7650 0.0627 -0.176493 -0.603017 11.58 510 790 0.09 -0.99 0.0000 0.0000
0.317 1 6.547466 -3.469126 9.477162 2.807617 -1.037598 -10.231018 -308.30 -308.30 -11.6 -11.6 -0.532 -0.386 -122.9336 -122.9336 -0.7680 0.0632 -0.179088 -0.601392 11.58 490 770 0.09 -0.99 0.0000 0.0000
0.318 1 7.252319 0.163027 5.447031 3.005981 -3.067017 -10.330200 -309.27 -309.27 -11.6 -11.6 -0.488 -0.431 -122.9336 -122.9336 -0.7711 0.0638 -0.179088 -0.604679 11.58 490 760 0.09 -0.99 0.0000 0.0000
0.319 1 6.367656 1.177153 5.653213 -1.884460 -4.249573 -2.548218 -310.24 -310.24 -11.6 -11.6 -0.545 -0.418 -122.9336 -122.9336 -0.7743 0.0643 -0.179088 -0.610307 11.58 490 760 0.09 -0.99 0.0000 0.0000
0.320 1 4.262685 4.039721 9.841577 -8.773804 -2.967834 8.132935 -311.21 -311.21 -11.6 -11.6 -0.481 -0.412 -122.9336 -122.9336 -0.7775 0.0649 -0.179088 -0.610695 11.58 490 750 0.09 -0.99 0.0000 0.0000
0.321 1 3.222188 3.423574 11.515004 -11.543274 -1.037598 11.497498 -312.18 -312.18 -11.6 -11.6 -0.519 -0.431 -122.9336 -122.9336 -0.7808 0.0655 -0.181684 -0.605385 11.56 510 790 0.09 -0.99 0.0000 0.0000
0.322 1 4.981924 -0.865483 9.987822 -5.714417 0.404358 9.223938 -313.15 -313.15 -11.6 -11.6 -0.475 -0.450 -122.9336 -122.9336 -0.7836 0.0660 -0.181684 -0.600685 11.56 490 750 0.09 -0.99 0.0000 0.0000
0.323 1 7.062920 -1.491221 8.273638 1.823425 -0.106812 0.907898 -314.11 -314.12 -11.6 -11.6 -0.532 -0.412 -122.9336 -112.6891 -0.7870 0.0667 -0.184279 -0.600365 11.56 490 770 0.09 -0.99 0.0000 0.0000
0.324 1 7.230742 -1.503208 6.763237 4.142761 -3.227234 -4.951477 -315.08 -315.09 -11.6 -11.6 -0.513 -0.469 -122.9336 -122.9336 -0.7901 0.0672 -0.184279 -0.603608 11.56 490 760 0.09 -0.99 0.0000 0.0000
0.325 1 5.588481 -0.496274 7.050932 0.305176 -5.401611 -6.103516 -316.05 -316.06 -11.6 -11.6 -0.500 -0.431 -122.9336 -122.9336 -0.7933 0.0678 -0.184279 -0.606473 11.56 490 760 0.09 -0.99 0.0000 0.0000
0.326 1 4.308237 2.946479 9.515522 -6.515503 -3.379822 -1.373291 -317.02 -317.02 -11.5 -11.5 -0.519 -0.450 -122.9336 -122.9336 -0.7965 0.0684 -0.184279 -0.605384 11.55 510 790 0.09 -0.99 0.0000 0.0000
0.327 1 2.879350 2.133740 9.769653 -9.231567 -0.251770 -2.090454 -317.99 -317.99 -11.5 -11.5 -0.532 -0.424 -122.9336 -122.9336 -0.7994 0.0690 -0.186875 -0.600475 11.55 490 760 0.09 -0.99 0.0000 0.0000
0.328 1 4.852461 -0.493877 9.060004 -4.638672 0.816345 -6.088257 -318.96 -318.96 -11.5 -11.5 -0.513 -0.443 -122.9336 -122.9336 -0.8026 0.0696 -0.186875 -0.596286 11.55 490 760 0.09 -0.99 0.0000 0.0000
0.330 1 6.861533 -0.889458 9.165493 2.197266 -0.923157 -5.271912 -319.93 -319.93 -11.5 -11.5 -0.507 -0.405 -122.9336 -122.9336 -0.8058 0.0702 -0.186875 -0.595710 11.55 490 1150 0.09 -0.99 0.0000 0.0000
0.330 1 8.220893 -1.484028 8.513384 5.531311 -2.983093 -1.777649 -320.90 -320.90 -11.5 -11.5 -0.494 -0.443 -122.9336 -122.9336 -0.8095 0.0709 -0.189470 -0.597913 11.55 490 770 0.09 -0.99 0.0000 0.0000
0.331 1 6.219014 1.764531 7.036548 1.380920 -4.142761 -0.312805 -321.87 -321.87 -11.6 -11.6 -0.513 -0.418 -122.9336 -122.9336 -0.8123 0.0714 -0.189470 -0.600904 11.56 510 780 0.09 -0.99 0.0000 0.0000
0.332 1 3.809565 2.649194 6.425195 -5.867004 -5.073547 -2.861023 -322.84 -322.84 -11.6 -11.6 -0.507 -0.475 -122.9336 -122.9336 -0.8152 0.0720 -0.186875 -0.601550 11.56 490 770 0.09 -0.99 0.0000 0.0000
0.333 1 3.612973 4.550381 9.894321 -11.581421 -2.822876 -4.875183 -323.81 -323.81 -11.6 -11.6 -0.481 -0.437 -122.9336 -122.9336 -0.8182 0.0726 -0.189470 -0.598472 11.56 490 760 0.09 -0.99 0.0000 0.0000
0.334 1 4.456880 -1.510400 11.045102 -6.790161 -0.259399 -0.053406 -324.78 -324.78 -11.6 -11.6 -0.475 -0.456 -122.9336 -112.6891 -0.8216 0.0732 -0.192066 -0.593911 11.56 490 760 0.09 -0.99 0.0000 0.0000
0.335 1 6.497119 -2.584463 9.350098 1.380920 -2.021790 0.991821 -325.75 -325.75 -11.6 -11.6 -0.494 -0.412 -122.9336 -122.9336 -0.8247 0.0738 -0.192066 -0.591980 11.56 490 760 0.09 -0.99 0.0000 0.0000
0.336 1 8.216099 -2.836196 8.182534 6.698608 -3.776550 -0.770569 -326.72 -326.72 -11.6 -11.6 -0.488 -0.450 -122.9336 -122.9336 -0.8279 0.0744 -0.192066 -0.594117 11.56 520 780 0.09 -0.99 0.0000 0.0000
0.337 1 7.118061 1.778916 4.866846 1.037598 -5.584717 3.700256 -327.69 -327.69 -11.6 -11.6 -0.488 -0.405 -122.9336 -122.9336 -0.8310 0.0750 -0.192066 -0.599845 11.56 490 750 0.09 -0.99 0.0000 0.0000
0.338 1 4.526406 1.879609 5.252837 -6.492615 -6.408691 11.627197 -328.66 -328.66 -11.6 -11.6 -0.500 -0.443 -112.6891 -122.9336 -0.8342 0.0757 -0.192066 -0.604727 11.56 490 760 0.09 -0.99 0.0000 0.0000
0.339 1 3.289316 3.550640 10.922832 -11.749268 -4.768372 11.444092 -329.63 -329.63 -11.6 -11.6 -0.494 -0.380 -122.9336 -122.9336 -0.8374 0.0763 -0.192066 -0.602787 11.56 490 750 0.09 -0.99 0.0000 0.0000
0.340 1 3.289316 3.550640 10.922832 -10.437012 -1.075745 4.142761 -330.60 -330.60 -11.6 -11.6 -0.475 -0.418 -122.9336 -122.9336 -0.8403 0.0769 -0.194661 -0.596693 11.56 490 760 0.09 -0.99 0.0000 0.0000
0.341 1 3.061558 0.091104 13.015815 -3.768921 0.534058 -3.204346 -331.56 -331.57 -11.6 -11.6 -0.475 -0.393 -122.9336 -122.9336 -0.8439 0.0776 -0.194661 -0.590065 11.61 510 780 0.09 -0.99 0.0000 0.0000
0.342 1 5.823432 -2.009072 8.465434 2.937317 -2.243042 -7.774353 -332.53 -332.54 -11.6 -11.6 -0.500 -0.469 -122.9336 -122.9336 -0.8468 0.0781 -0.197257 -0.586649 11.61 490 770 0.09 -0.99 0.0000 0.0000
0.343 1 10.004604 -1.716582 6.605005 1.777649 -6.271362 -9.338379 -333.50 -333.50 -11.6 -11.6 -0.481 -0.399 -122.9336 -122.9336 -0.8500 0.0788 -0.197257 -0.590847 11.61 490 750 0.09 -0.99 0.0000 0.0000
0.344 1 7.456103 1.225103 5.399082 -6.408691 -8.186340 1.205444 -334.47 -334.47 -11.6 -11.6 -0.488 -0.424 -122.9336 -122.9336 -0.8531 0.0794 -0.197257 -0.598394 11.61 490 760 0.09 -0.99 0.0000 0.0000
0.345 1 3.394804 5.029873 7.199575 -11.123657 -4.852295 14.823914 -335.44 -335.44 -11.6 -11.6 -0.475 -0.399 -122.9336 -122.9336 -0.8563 0.0800 -0.197257 -0.600367 11.61 490 760 0.09 -0.99 0.0000 0.0000
0.346 1 2.411846 0.975767 10.249146 -9.666443 -0.404358 14.511108 -336.41 -336.41 -11.6 -11.6 -0.462 -0.431 -122.9336 -122.9336 -0.8595 0.0807 -0.197257 -0.595175 11.63 510 780 0.09 -0.99 0.0000 0.0000
0.347 1 3.461933 -0.776777 10.388198 -2.494812 1.411438 -0.015259 -337.38 -337.38 -11.6 -11.6 -0.469 -0.399 -122.9336 -122.9336 -0.8626 0.0813 -0.197257 -0.588854 11.63 490 750 0.09 -0.99 0.0000 0.0000
0.348 1 6.219014 -0.266118 9.079185 3.143311 -1.495361 -9.788513 -338.35 -338.35 -11.6 -11.6 -0.500 -0.437 -122.9336 -122.9336 -0.8656 0.0819 -0.199852 -0.586325 11.63 490 760 0.09 -0.99 0.0000 0.0000
0.350 1 9.493945 -2.970454 7.175601 1.571655 -5.142212 -5.233765 -339.32 -339.32 -11.6 -11.6 -0.475 -0.405 -122.9336 -112.6891 -0.8689 0.0826 -0.202448 -0.589863 11.63 490 1160 0.09 -0.99 0.0000 0.0000
0.350 1 4.991514 1.419297 7.261909 -7.041931 -6.080627 4.714966 -340.29 -340.29 -11.6 -11.6 -0.475 -0.424 -122.9336 -122.9336 -0.8725 0.0833 -0.202448 -0.593386 11.63 490 760 0.09 -0.99 0.0000 0.0000
0.351 1 4.991514 1.419297 7.261909 -11.299133 -3.684998 12.100220 -341.26 -341.26 -11.6 -11.6 -0.481 -0.374 -122.9336 -122.9336 -0.8752 0.0839 -0.202448 -0.593645 11.63 510 780 0.09 -0.99 0.0000 0.0000
0.352 1 3.565024 2.670771 8.973696 -11.817932 -0.389099 14.114380 -342.23 -342.23 -11.6 -11.6 -0.513 -0.418 -122.9336 -122.9336 -0.8784 0.0845 -0.202448 -0.591631 11.63 490 760 0.09 -0.99 0.0000 0.0000
0.353 1 2.114560 1.963520 10.038169 -4.463196 0.885010 6.210327 -343.20 -343.20 -11.6 -11.6 -0.469 -0.405 -112.6891 -122.9336 -0.8815 0.0852 -0.202448 -0.585711 11.63 490 760 0.09 -0.99 0.0000 0.0000
0.354 1 4.564765 -2.622822 10.162837 2.227783 -0.083923 -7.507324 -344.17 -344.17 -11.6 -11.6 -0.494 -0.424 -122.9336 -122.9336 -0.8845 0.0858 -0.205043 -0.580341 11.63 490 770 0.09 -0.99 0.0000 0.0000
0.355 1 9.309340 -0.479492 9.481957 0.961304 -4.241943 -8.781433 -345.14 -345.14 -11.6 -11.6 -0.481 -0.412 -122.9336 -122.9336 -0.8876 0.0864 -0.205043 -0.580751 11.63 490 750 0.09 -0.99 0.0000 0.0000
0.356 1 9.539496 1.491221 4.332212 -6.568909 -8.338928 -0.167847 -346.11 -346.11 -11.6 -11.6 -0.494 -0.412 -122.9336 -122.9336 -0.8910 0.0871 -0.207639 -0.588377 11.64 510 790 0.09 -0.99 0.0000 0.0000
0.357 1 4.274673 2.860171 5.094604 -12.237549 -6.637573 11.062622 -347.08 -347.08 -11.6 -11.6 -0.475 -0.412 -122.9336 -122.9336 -0.8939 0.0877 -0.205043 -0.595099 11.64 490 760 0.09 -0.99 0.0000 0.0000
0.358 1 1.409707 1.124409 11.100244 -12.733459 0.473022 10.993958 -348.04 -348.05 -11.6 -11.6 -0.488 -0.412 -122.9336 -122.9336 -0.8973 0.0884 -0.207639 -0.591531 11.64 490 760 0.09 -0.99 0.0000 0.0000
0.359 1 2.474180 1.953931 13.267549 -5.966187 3.074646 0.114441 -349.01 -349.02 -11.6 -11.6 -0.469 -0.399 -122.9336 -122.9336 -0.9004 0.0891 -0.207639 -0.582863 11.64 490 760 0.09 -0.99 0.0000 0.0000
0.360 1 5.058642 -2.627617 7.261909 2.014160 -0.488281 -4.188538 -349.98 -349.98 -11.6 -11.6 -0.526 -0.437 -112.6891 -122.9336 -0.9036 0.0898 -0.207639 -0.579148 11.64 490 770 0.09 -0.99 0.0000 0.0000
0.361 1 10.520059 -4.938769 6.300527 2.822876 -4.928589 -4.371643 -350.95 -350.95 -11.6 -11.6 -0.494 -0.405 -104.0207 -122.9336 -0.9067 0.0904 -0.207639 -0.583961 11.61 510 790 0.09 -0.99 0.0000 0.0000
0.362 1 10.148452 0.141450 7.314653 -4.837036 -7.934570 -0.213623 -351.92 -351.92 -11.6 -11.6 -0.494 -0.399 -122.9336 -122.9336 -0.9097 0.0911 -0.210234 -0.592087 11.61 490 770 0.09 -0.99 0.0000 0.0000
0.363 1 6.406015 3.423574 7.240332 -12.115479 -6.385803 -1.235962 -352.89 -352.89 -11.6 -11.6 -0.475 -0.393 -122.9336 -122.9336 -0.9128 0.0917 -0.210234 -0.597027 11.61 490 760 0.09 -0.99 0.0000 0.0000
0.364 1 0.887061 2.608438 11.783520 -12.466431 1.190186 -8.644104 -353.86 -353.86 -11.6 -11.6 -0.526 -0.399 -122.9336 -122.9336 -0.9160 0.0924 -0.210234 -0.593165 11.61 490 750 0.09 -0.99 0.0000 0.0000
0.365 1 0.364414 1.515195 12.989443 -3.929138 3.662109 -6.179810 -354.83 -354.83 -11.6 -11.6 -0.494 -0.386 -122.9336 -122.9336 -0.9191 0.0931 -0.210234 -0.582399 11.61 490 750 0.09 -0.99 0.0000 0.0000
0.366 1 4.567163 -2.740298 5.521352 2.571106 -1.670837 -2.784729 -355.80 -355.80 -11.6 -11.6 -0.519 -0.399 -122.9336 -122.9336 -0.9225 0.0938 -0.212830 -0.577969 11.64 510 790 0.09 -0.99 0.0000 0.0000
0.367 1 10.740624 -0.920625 4.564765 2.388000 -7.720947 0.770569 -356.77 -356.77 -11.6 -11.6 -0.494 -0.405 -122.9336 -122.9336 -0.9256 0.0945 -0.212830 -0.585022 11.64 490 760 0.09 -0.99 0.0000 0.0000
0.368 1 11.375952 -0.028770 9.316533 -5.233765 -8.270264 7.446289 -357.74 -357.74 -11.6 -11.6 -0.526 -0.386 -112.6891 -122.9336 -0.9288 0.0952 -0.212830 -0.593907 11.64 490 770 0.09 -0.99 0.0000 0.0000
0.370 1 4.289057 2.829004 8.925747 -9.971619 -7.263184 7.492065 -358.71 -358.71 -11.6 -11.6 -0.488 -0.418 -122.9336 -122.9336 -0.9319 0.0958 -0.212830 -0.595474 11.64 490 1160 0.09 -0.99 0.0000 0.0000
0.370 1 2.263203 3.272534 13.874106 -9.925842 3.257751 4.981995 -359.68 -359.68 -11.6 -11.6 -0.513 -0.405 -122.9336 -122.9336 -0.9354 0.0966 -0.212830 -0.589754 11.64 480 750 0.09 -0.99 0.0000 0.0000
0.371 1 2.263203 3.272534 13.874106 -4.302979 5.119324 5.577087 -360.65 -360.65 -11.6 -11.6 -0.488 -0.405 -122.9336 -122.9336 -0.9382 0.0972 -0.212830 -0.581205 11.61 510 770 0.09 -0.99 0.0000 0.0000
0.372 1 4.533598 -0.306875 7.770171 3.318787 -0.396729 1.335144 -361.62 -361.62 -11.6 -11.6 -0.500 -0.412 -122.9336 -122.9336 -0.9411 0.0978 -0.215425 -0.576485 11.61 490 770 0.09 -0.99 0.0000 0.0000
0.373 1 9.786435 -2.407051 4.543189 3.746033 -6.088257 -8.773804 -362.59 -362.59 -11.6 -11.6 -0.469 -0.399 -122.9336 -122.9336 -0.9445 0.0986 -0.218021 -0.581604 11.61 490 770 0.09 -0.99 0.0000 0.0000
0.374 1 11.601314 -3.001621 9.261392 -1.869202 -5.516052 -4.463196 -363.56 -363.56 -11.6 -11.6 -0.494 -0.405 -122.9336 -122.9336 -0.9474 0.0992 -0.215425 -0.590319 11.61 490 770 0.09 -0.99 0.0000 0.0000
0.375 1 5.713149 0.642520 7.798940 -9.811401 -7.141113 0.778198 -364.52 -364.53 -11.6 -11.6 -0.513 -0.424 -122.9336 -122.9336 -0.9508 0.1000 -0.218021 -0.593881 11.61 490 770 0.09 -0.99 0.0000 0.0000
0.376 1 2.006675 4.315430 4.799716 -10.772705 -2.281189 6.004333 -365.49 -365.50 -11.6 -11.6 -0.519 -0.393 -122.9336 -122.9336 -0.9539 0.1007 -0.218021 -0.592383 11.60 510 780 0.09 -0.99 0.0000 0.0000
0.377 1 -0.357222 1.059678 16.118130 -3.013611 5.210876 -1.495361 -366.46 -366.47 -11.6 -11.6 -0.494 -0.386 -122.9336 -122.9336 -0.9571 0.1013 -0.218021 -0.584328 11.60 490 750 0.09 -0.99 0.0000 0.0000
0.378 1 3.965400 -3.171841 12.987045 4.806519 2.548218 -6.690979 -367.43 -367.43 -11.6 -11.6 -0.519 -0.424 -122.9336 -122.9336 -0.9600 0.1020 -0.220616 -0.575405 11.60 490 760 0.09 -0.99 0.0000 0.0000
0.379 1 10.445737 0.198989 2.071406 6.446838 -8.308411 -4.737854 -368.40 -368.40 -11.6 -11.6 -0.475 -0.424 -122.9336 -122.9336 -0.9631 0.1027 -0.220616 -0.580609 11.60 490 760 0.09 -0.99 0.0000 0.0000
0.380 1 12.339731 -0.203784 4.437700 -0.411987 -9.025574 2.616882 -369.37 -369.37 -11.6 -11.6 -0.500 -0.405 -122.9336 -122.9336 -0.9663 0.1034 -0.220616 -0.595010 11.60 490 760 0.09 -0.99 0.0000 0.0000
0.381 1 6.593018 3.061558 13.485718 -7.415771 -6.225586 6.507874 -370.34 -370.34 -11.6 -11.6 -0.488 -0.412 -122.9336 -122.9336 -0.9694 0.1041 -0.220616 -0.599996 11.61 510 780 0.09 -0.99 0.0000 0.0000
0.382 1 -1.944341 2.375884 7.175601 -7.286072 0.205994 6.576538 -371.31 -371.31 -11.6 -11.6 -0.494 -0.424 -122.9336 -122.9336 -0.9726 0.1048 -0.220616 -0.590049 11.61 490 750 0.09 -0.99 0.0000 0.0000
0.383 1 -1.179551 0.278105 10.304287 -0.053406 5.798340 0.488281 -372.28 -372.28 -11.6 -11.6 -0.475 -0.437 -122.9336 -112.6891 -0.9759 0.1056 -0.223212 -0.574565 11.61 490 760 0.09 -0.99 0.0000 0.0000
0.384 1 5.276811 -1.862827 9.611421 6.729126 2.632141 -5.012512 -373.25 -373.25 -11.6 -11.6 -0.494 -0.405 -122.9336 -96.5907 -0.9790 0.1063 -0.223212 -0.566957 11.61 490 760 0.09 -0.99 0.0000 0.0000
0.385 1 11.646865 0.100693 5.065835 7.972717 -8.247375 -8.041382 -374.22 -374.22 -11.6 -11.6 -0.494 -0.418 -112.6891 -122.9336 -0.9822 0.1070 -0.223212 -0.572240 11.61 490 770 0.09 -0.99 0.0000 0.0000
0.386 1 13.818964 -1.711787 8.297612 0.915527 -7.209778 1.281738 -375.19 -375.19 -11.5 -11.5 -0.513 -0.386 -122.9336 -122.9336 -0.9853 0.1077 -0.223212 -0.582731 11.52 510 790 0.09 -0.99 0.0000 0.0000
0.387 1 4.437700 3.423574 12.275000 -6.301880 -4.508972 4.852295 -376.16 -376.16 -11.5 -11.5 -0.494 -0.405 -122.9336 -122.9336 -0.9883 0.1084 -0.225807 -0.584926 11.52 490 760 0.09 -0.99 0.0000 0.0000
0.388 1 -1.534375 3.915054 2.524526 -5.943298 -1.052856 2.388000 -377.13 -377.13 -11.5 -11.5 -0.488 -0.393 -122.9336 -122.9336 -0.9914 0.1091 -0.225807 -0.571419 11.52 490 760 0.09 -0.99 0.0000 0.0000
0.390 1 -0.254131 -2.335127 12.598657 1.808167 6.988525 2.426147 -378.10 -378.10 -11.5 -11.5 -0.500 -0.418 -122.9336 -122.9336 -0.9945 0.1098 -0.225807 -0.554445 11.52 490 1150 0.09 -0.99 0.0000 0.0000
0.390 1 10.436147 1.229897 -0.855894 8.293152 0.320435 0.610352 -379.07 -379.07 -11.5 -11.5 -0.526 -0.412 -122.9336 -122.9336 -0.9985 0.1107 -0.225807 -0.559566 11.52 490 760 0.09 -0.99 0.0000 0.0000
0.391 1 10.436147 1.229897 -0.855894 6.889343 -9.437561 -0.564575 -380.04 -380.04 -11.6 -11.6 -0.500 -0.412 -122.9336 -122.9336 -1.0010 0.1113 -0.228403 -0.581290 11.56 510 790 0.09 -0.99 0.0000 0.0000
0.392 1 13.147676 -0.021577 3.900669 0.900269 -7.759094 2.777100 -381.01 -381.01 -11.6 -11.6 -0.500 -0.380 -122.9336 -122.9336 -1.0041 0.1120 -0.228403 -0.598987 11.56 490 760 0.09 -0.99 0.0000 0.0000
0.393 1 6.123115 1.467246 17.386387 -4.356384 -3.417969 7.331848 -381.97 -381.98 -11.6 -11.6 -0.500 -0.418 -104.0207 -122.9336 -1.0073 0.1128 -0.228403 -0.603272 11.56 490 760 0.09 -0.99 0.0000 0.0000
0.394 1 -1.555952 2.220049 5.629238 -4.371643 -0.312805 6.011963 -382.94 -382.95 -11.6 -11.6 -0.507 -0.399 -104.0207 -122.9336 -1.0104 0.1135 -0.228403 -0.592041 11.56 490 760 0.09 -0.99 0.0000 0.0000
0.395 1 -1.659043 1.428887 8.712373 3.005981 6.340027 1.312256 -383.91 -383.91 -11.6 -11.6 -0.488 -0.424 -122.9336 -122.9336 -1.0135 0.1142 -0.228403 -0.575732 11.56 490 760 0.09 -0.99 0.0000 0.0000
0.396 1 5.617251 -4.334609 12.876762 8.483887 3.822327 -1.861572 -384.88 -384.88 -11.5 -11.5 -0.488 -0.431 -104.0207 -122.9336 -1.0169 0.1150 -0.230998 -0.566453 11.55 510 790 0.09 -0.99 0.0000 0.0000
0.397 1 12.812031 3.536255 2.215254 7.873535 -9.056091 0.885010 -385.85 -385.85 -11.5 -11.5 -0.481 -0.424 -122.9336 -122.9336 -1.0198 0.1157 -0.233594 -0.573211 11.55 490 770 0.09 -0.99 0.0000 0.0000
0.398 1 12.440424 -0.477095 5.065835 0.663757 -8.575439 6.233215 -386.82 -386.82 -11.5 -11.5 -0.462 -0.399 -122.9336 -122.9336 -1.0229 0.1164 -0.233594 -0.587594 11.55 490 760 0.09 -0.99 0.0000 0.0000
0.399 1 4.768549 4.214736 15.092016 -3.646851 -2.418518 3.173828 -387.79 -387.79 -11.5 -11.5 -0.481 -0.456 -122.9336 -122.9336 -1.0261 0.1172 -0.233594 -0.590807 11.55 490 750 0.09 -0.99 0.0000 0.0000
0.400 1 -1.030908 0.175015 2.627617 -1.777649 0.534058 1.434326 -388.76 -388.76 -11.5 -11.5 -0.462 -0.418 -122.9336 -122.9336 -1.0292 0.1179 -0.233594 -0.578453 11.55 490 760 0.09 -0.99 0.0000 0.0000
0.401 1 -0.088706 -2.821811 9.398046 1.007080 5.722046 1.747131 -389.73 -389.73 -11.6 -11.6 -0.462 -0.431 -122.9336 -122.9336 -1.0323 0.1187 -0.233594 -0.563149 11.58 510 770 0.09 -0.99 0.0000 0.0000
0.402 1 5.636430 -0.570596 17.470297 3.875732 4.089355 3.273010 -390.70 -390.70 -11.6 -11.6 -0.450 -0.405 -122.9336 -122.9336 -1.0355 0.1194 -0.233594 -0.554909 11.58 490 750 0.09 -0.99 0.0000 0.0000
0.403 1 11.457465 0.666494 3.804770 4.112244 -6.317139 -0.396729 -391.67 -391.67 -11.6 -11.6 -0.488 -0.412 -122.9336 -122.9336 -1.0388 0.1202 -0.236189 -0.559408 11.58 490 760 0.09 -0.99 0.0000 0.0000
0.404 1 11.819482 0.484287 2.574873 -0.640869 -6.370544 1.472473 -392.64 -392.64 -11.6 -11.6 -0.462 -0.393 -122.9336 -122.9336 -1.0419 0.1210 -0.236189 -0.574247 11.58 490 760 0.09 -0.99 0.0000 0.0000
0.405 1 3.560229 2.306357 12.742504 -3.387451 -3.700256 1.655579 -393.61 -393.61 -11.6 -11.6 -0.462 -0.405 -112.6891 -122.9336 -1.0450 0.1217 -0.236189 -0.579089 11.58 490 750 0.09 -0.99 0.0000 0.0000
0.406 1 -0.510659 1.416899 6.254975 -1.556396 2.159119 3.890991 -394.58 -394.58 -11.6 -11.6 -0.475 -0.380 -122.9336 -122.9336 -1.0482 0.1225 -0.236189 -0.569526 11.60 510 780 0.09 -0.99 0.0000 0.0000
0.407 1 0.565801 -3.332471 10.644726 2.525330 6.004333 7.698059 -395.55 -395.55 -11.6 -11.6 -0.456 -0.443 -122.9336 -122.9336 -1.0513 0.1232 -0.236189 -0.557897 11.60 490 750 0.09 -0.99 0.0000 0.0000
0.408 1 4.447290 -1.030908 10.426558 3.623962 2.655029 3.913879 -396.52 -396.52 -11.6 -11.6 -0.456 -0.412 -122.9336 -122.9336 -1.0544 0.1240 -0.236189 -0.551292 11.60 490 750 0.09 -0.99 0.0000 0.0000
0.410 1 12.265409 1.184346 5.087412 3.852844 -5.577087 -8.155823 -397.49 -397.49 -11.6 -11.6 -0.475 -0.437 -122.9336 -122.9336 -1.0574 0.1247 -0.238785 -0.556052 11.60 490 1160 0.09 -0.99 0.0000 0.0000
0.410 1 5.535737 2.215254 10.407377 0.183105 -6.149292 -5.477905 -398.45 -398.46 -11.6 -11.6 -0.481 -0.393 -122.9336 -122.9336 -1.0613 0.1257 -0.238785 -0.561642 11.60 500 770 0.09 -0.99 0.0000 0.0000
0.411 1 5.535737 2.215254 10.407377 -2.746582 -5.447388 2.838135 -399.42 -399.43 -11.6 -11.6 -0.475 -0.424 -122.9336 -122.9336 -1.0638 0.1263 -0.241380 -0.560301 11.60 510 790 0.09 -0.99 0.0000 0.0000
0.412 1 -0.637725 0.894253 5.413466 -3.784180 0.724792 4.249573 -400.39 -400.39 -11.6 -11.6 -0.443 -0.380 -122.9336 -122.9336 -1.0669 0.1270 -0.241380 -0.552926 11.60 490 750 0.09 -0.99 0.0000 0.0000
0.413 1 -0.004795 1.519990 13.116508 0.640869 7.659912 12.420654 -401.36 -401.36 -11.6 -11.6 -0.469 -0.412 -122.9336 -122.9336 -1.0701 0.1278 -0.241380 -0.540739 11.60 490 740 0.09 -0.99 0.0000 0.0000
0.414 1 4.734985 -2.028252 11.071474 6.217957 3.868103 11.550903 -402.33 -402.33 -11.6 -11.6 -0.437 -0.399 -122.9336 -122.9336 -1.0732 0.1286 -0.241380 -0.533930 11.60 490 750 0.09 -0.99 0.0000 0.0000
