%  1    time 0.001 sec
%  2    mission (2) state 2
%  3  4  5 Acc x,y,z: -0.534634 -0.079116 -10.244350
%  6  7  8 Gyro x,y,z: 2.723694 8.972168 16.036987
%  9 10 Motor velocity ref left, right: -99.00 -99.00
% 11 12 Motor voltage [V] left, right: -9.0 -9.0
% 13 14 Wheel velocity [r/s] left, right: 0.0088 0.0142
% 15 16 17 18 Pose x,y,h,tilt [m,m,rad,rad]: 0.0000 0.0000 0.000000 -0.036552
% 19    Battery voltage [V]: 11.25
0.006 2 -0.733623 0.091104 -10.225170 3.242493 8.163452 15.205383 -99.08 -98.92 -9.0 -9.0 -0.0088 -0.0142 -0.0006 0.0000 -0.002595 -0.036339 10.71 
0.011 2 -1.802891 -0.282900 -10.949203 4.005432 -2.693176 33.775330 -98.92 -99.08 -9.0 -9.0 -13.7987 -9.4564 -0.0022 -0.0000 0.002595 -0.035860 9.59 
0.016 2 -7.000586 0.505864 -8.211304 10.009766 -23.132324 15.197754 -98.75 -99.25 -9.0 -9.0 -16.2924 -13.0026 -0.0042 -0.0000 0.007786 -0.030578 7.75 
0.021 2 -9.680947 -1.810083 -6.967021 5.241394 -45.234680 17.364502 -98.75 -99.25 -9.0 -9.0 -17.5619 -15.0252 -0.0066 -0.0000 0.007786 -0.018683 8.02 
0.026 2 -9.563472 1.356963 -7.583169 3.112793 -58.670044 5.615234 -91.40 -92.07 -9.0 -9.0 -20.1831 -17.3368 -0.0093 -0.0001 0.010382 -0.004406 8.67 
0.031 2 -7.621528 -1.953931 -9.223032 0.022888 -59.310913 12.458801 -89.58 -90.58 -9.0 -9.0 -22.5378 -19.8863 -0.0125 -0.0001 0.015573 0.008037 8.99 
0.036 2 -7.041343 0.275708 -8.887387 -1.129150 -67.283630 3.799438 -76.06 -77.06 -9.0 -9.0 -25.0420 -21.8108 -0.0157 -0.0002 0.015573 0.020563 9.13 
0.041 2 -8.237676 -0.568198 -8.554140 -0.061035 -77.537537 3.189087 -64.01 -65.19 -9.0 -9.0 -25.5145 -24.5867 -0.0195 -0.0002 0.018168 0.033348 9.16 
0.046 2 -9.062402 -0.057539 -9.328520 2.357483 -88.943481 -10.543823 -47.82 -49.16 -9.0 -9.0 -27.5973 -27.0454 -0.0233 -0.0003 0.020764 0.047165 8.54 
0.051 2 -7.914018 -0.287695 -8.475024 1.213074 -99.220276 -9.834290 -29.58 -30.75 -5.4 -5.7 -28.7717 -29.3972 -0.0276 -0.0004 0.018168 0.062678 9.60 
0.056 2 -6.053589 0.644917 -7.398564 0.091553 -109.695435 -14.739990 -17.31 -18.49 1.0 1.6 -27.5973 -30.0504 -0.0316 -0.0005 0.018168 0.079085 11.75 
0.061 2 -5.708354 -0.134258 -8.652436 -3.814697 -114.570618 -5.645752 -6.70 -7.87 3.6 2.8 -19.5981 -19.3181 -0.0352 -0.0005 0.018168 0.095835 10.96 
0.066 2 -4.305840 0.477095 -9.582651 -10.551453 -111.892700 -1.190186 -0.36 -1.70 1.6 0.8 -7.1549 -7.3493 -0.0366 -0.0005 0.020764 0.111692 11.20 
0.071 2 0.043154 3.483511 -10.879678 -15.480042 -92.956543 6.507874 -3.06 -4.24 -1.5 -2.7 -4.1102 -3.5124 -0.0372 -0.0006 0.018168 0.124152 11.77 
0.076 2 7.043740 -2.620425 -15.979076 -1.785278 -74.340820 -0.610352 -30.02 -31.19 -9.0 -9.0 -6.9347 -7.2314 -0.0380 -0.0006 0.018168 0.127223 10.69 
0.081 2 7.103676 -0.647314 -15.288608 7.316589 -57.136536 7.057190 -36.08 -37.42 -9.0 -9.0 -21.1292 -19.0460 -0.0406 -0.0006 0.020764 0.127073 10.49 
0.086 2 7.070112 6.700903 -14.670063 7.827759 -61.439514 3.776550 -34.16 -35.50 -8.2 -9.0 -28.1723 -27.0454 -0.0446 -0.0007 0.020764 0.126448 10.96 
0.091 2 -3.306098 -2.140933 -7.765376 21.858215 -86.456299 -9.529114 -0.92 -2.43 9.0 9.0 -27.0454 -27.0454 -0.0489 -0.0008 0.023359 0.132177 10.77 
0.096 2 -18.731361 0.990151 0.402773 -6.141663 -106.208801 14.183044 63.34 61.83 9.0 9.0 -16.4911 -15.3667 -0.0513 -0.0009 0.023359 0.151585 8.67 
0.101 2 -10.870088 3.342060 0.203784 -17.105103 -110.870361 4.867554 90.72 89.21 9.0 9.0 -5.5879 -5.2211 -0.0521 -0.0009 0.023359 0.175792 6.71 
0.106 2 5.343940 -4.653471 -9.966245 -14.198303 -92.918396 8.758545 18.78 17.11 9.0 9.0 2.4858 5.9051 -0.0515 -0.0009 0.025955 0.186203 6.96 
0.111 2 12.409258 1.517593 -19.639999 8.247375 -66.940308 5.226135 10.76 9.09 6.5 4.7 7.9080 9.4564 -0.0503 -0.0008 0.025955 0.185597 9.71 
0.116 2 12.912724 0.522646 -19.373880 11.116028 -42.846680 12.496948 -0.46 -2.30 1.4 0.3 5.1417 5.2823 -0.0493 -0.0008 0.028550 0.182951 11.66 
0.121 2 7.969160 -1.201128 -19.639999 6.317139 -16.555786 17.631531 -4.50 -6.34 0.5 2.5 2.2500 -4.0127 -0.0497 -0.0008 0.028550 0.179400 11.69 
0.126 2 3.972593 3.382817 -12.195884 4.974365 -2.876282 10.032654 -13.33 -15.18 -1.7 -2.7 -2.8231 -2.9144 -0.0501 -0.0008 0.028550 0.174562 11.82 
0.131 2 4.102056 0.899048 -6.741660 -5.126953 1.998901 6.553650 -26.28 -27.95 -8.0 -8.5 -4.0366 -5.1417 -0.0507 -0.0008 0.025955 0.167743 10.77 
0.136 2 -1.165166 -5.487788 -7.314653 -0.961304 3.196716 6.904602 -7.10 -8.95 5.3 3.9 -13.5227 -13.5227 -0.0525 -0.0009 0.028550 0.163874 11.93 
0.141 2 -4.262685 2.908120 -10.241953 -1.014709 -8.674622 3.753662 6.19 4.68 9.0 9.0 -7.1549 -10.6478 -0.0541 -0.0009 0.023359 0.166645 10.12 
0.146 2 -7.300268 1.726172 -10.853305 1.998901 -23.994446 2.769470 22.00 20.66 9.0 9.0 5.2010 4.3763 -0.0539 -0.0009 0.020764 0.173028 7.47 
0.151 2 -1.951533 2.843389 -10.524853 -1.968384 -23.857117 11.062622 17.12 15.78 9.0 8.3 9.3260 9.5906 -0.0527 -0.0009 0.020764 0.178432 8.50 
0.156 2 7.000586 -4.543189 -15.478007 2.563477 -7.072449 8.941650 -7.39 -8.57 -6.0 -6.4 11.3636 10.8182 -0.0513 -0.0009 0.018168 0.175786 11.34 
0.161 2 7.602348 2.721118 -12.330141 5.371094 4.981995 10.391235 -26.95 -28.13 -9.0 -8.1 2.8589 -6.2317 -0.0513 -0.0009 0.018168 0.169013 10.71 
0.166 2 5.384697 4.617510 -11.591723 5.027771 -2.326965 20.164490 -29.92 -30.93 -7.7 -7.7 -14.8601 -15.5433 -0.0531 -0.0009 0.015573 0.160567 10.33 
0.171 2 -4.334609 -11.615698 -17.194590 18.898010 -16.548157 5.477905 -0.06 -1.07 9.0 9.0 -18.5242 -17.5619 -0.0559 -0.0010 0.015573 0.158430 11.64 
0.176 2 -15.377314 3.939028 -1.591914 -5.271912 -33.767700 32.684326 48.58 47.41 9.0 9.0 -9.6591 -7.8620 -0.0573 -0.0010 0.018168 0.168415 9.94 
0.181 2 -12.701748 0.748008 0.304478 -4.959106 -56.007385 0.358582 78.35 77.18 9.0 9.0 2.3155 2.2132 -0.0569 -0.0010 0.018168 0.186608 7.44 
0.186 2 -0.400376 -3.941426 -12.788056 -16.349792 -44.845581 18.577576 50.04 48.87 9.0 9.0 11.6575 13.0026 -0.0553 -0.0009 0.018168 0.201227 7.58 
0.191 2 11.363964 -3.857515 -15.410878 4.341125 -9.132385 7.621765 -4.70 -6.04 -6.4 -8.3 15.1940 17.1173 -0.0531 -0.0009 0.020764 0.195633 11.07 
0.196 2 5.228862 2.083394 -19.639999 9.605408 14.259338 22.018433 -4.15 -5.49 -1.5 -1.3 5.5421 3.6847 -0.0523 -0.0009 0.020764 0.189629 11.74 
0.201 2 3.948618 4.360981 -19.639999 13.793945 21.194458 13.084412 -11.55 -13.05 -0.9 -2.4 -4.0246 -1.9457 -0.0529 -0.0009 0.023359 0.182791 11.74 
0.206 2 0.978164 -0.330850 -11.884213 8.193970 16.296387 28.854370 -10.59 -11.76 -0.8 -0.4 -4.0008 -7.4301 -0.0537 -0.0009 0.018168 0.177516 11.87 
0.211 2 -8.295215 2.577271 -1.781313 4.882812 16.914368 23.391724 41.71 40.71 9.0 9.0 -3.5033 -5.8287 -0.0543 -0.0009 0.015573 0.180125 10.58 
0.216 2 -11.613300 -4.756562 -2.057021 -1.976013 13.954163 17.265320 57.60 56.60 9.0 9.0 7.1549 7.8166 -0.0535 -0.0009 0.015573 0.190653 8.94 
0.221 2 1.136396 1.215513 -5.272017 -12.077332 19.783020 35.530090 14.21 13.04 6.9 4.9 10.7323 13.2575 -0.0517 -0.0009 0.018168 0.196646 7.66 
0.226 2 5.931318 0.896650 -19.639999 3.593445 38.566589 23.521423 -12.09 -13.43 -9.0 -9.0 13.0026 15.5433 -0.0495 -0.0008 0.020764 0.191332 10.65 
0.231 2 9.501138 -3.874297 -19.388266 24.589539 51.918030 20.889282 -27.85 -29.19 -9.0 -9.0 3.2429 3.4409 -0.0491 -0.0008 0.020764 0.181039 9.14 
0.236 2 6.142295 7.386577 -11.184155 18.981934 40.306091 25.413513 -35.18 -36.36 -9.0 -9.0 -9.5230 -11.8620 -0.0505 -0.0009 0.018168 0.169766 7.75 
0.241 2 -4.392148 -9.702524 -18.546757 22.605896 26.687622 28.747559 -7.03 -8.37 4.0 1.2 -15.9091 -13.1288 -0.0527 -0.0009 0.020764 0.164625 12.09 
0.246 2 -19.639999 -0.908638 0.098296 -8.117676 20.034790 70.724487 47.60 46.09 9.0 9.0 -13.3888 -9.4564 -0.0545 -0.0009 0.023359 0.173505 10.20 
0.251 2 -12.155127 -4.181172 -0.865483 -11.978149 6.652832 36.399841 63.66 61.99 9.0 9.0 -3.0457 5.1417 -0.0547 -0.0009 0.025955 0.187341 7.75 
0.256 2 6.221411 -0.292490 -6.916675 -14.671326 3.929138 38.101196 6.94 5.60 0.8 2.1 14.6986 10.9054 -0.0531 -0.0009 0.020764 0.195702 7.64 
0.261 2 13.123701 -1.131602 -18.422089 12.054443 11.199951 5.722046 -12.78 -14.12 -8.5 -8.3 9.8706 8.3992 -0.0515 -0.0009 0.020764 0.189057 11.30 
0.266 2 7.621528 -3.867104 -19.297163 30.204773 21.743774 25.833130 -16.69 -18.03 -3.5 -4.0 -2.2727 -2.8055 -0.0519 -0.0009 0.020764 0.181117 11.14 
0.271 2 -1.093242 9.124736 -14.257700 9.880066 23.376465 26.443481 -8.11 -9.28 2.9 3.3 -10.1674 -12.1826 -0.0533 -0.0009 0.018168 0.174888 11.96 
0.276 2 -13.679912 0.589775 0.242144 8.239746 18.356323 39.443970 46.18 45.01 9.0 9.0 -4.8643 -6.7613 -0.0541 -0.0009 0.018168 0.178708 10.30 
0.281 2 -19.639999 -1.112422 0.692866 -9.819031 19.874573 33.874512 61.98 60.80 9.0 9.0 8.3473 6.4089 -0.0533 -0.0009 0.018168 0.190598 8.31 
0.286 2 -14.044326 -1.342578 -0.716841 -12.199402 35.545349 35.545349 52.87 51.70 9.0 9.0 14.8601 14.8601 -0.0513 -0.0009 0.018168 0.200830 7.21 
0.291 2 1.989892 1.601504 -11.277656 -2.487183 59.684753 26.580811 -2.26 -3.77 -5.8 -9.0 17.1173 22.9198 -0.0481 -0.0008 0.023359 0.198553 11.58 
0.296 2 10.934819 -4.413725 -19.639999 16.456604 90.354919 49.804688 -36.30 -38.31 -9.0 -9.0 4.5685 11.4599 -0.0467 -0.0008 0.031146 0.185814 10.03 
0.301 2 8.503794 2.591655 -19.639999 45.799255 88.661194 3.181458 -45.86 -48.20 -9.0 -9.0 -9.3260 -3.9425 -0.0471 -0.0008 0.036337 0.171111 8.21 
0.306 2 1.493618 6.516299 -6.147089 22.392273 63.133240 15.266418 -38.46 -40.97 -9.0 -9.0 -14.0861 -11.2689 -0.0489 -0.0009 0.038932 0.159755 8.75 
0.311 2 -15.159145 7.393769 3.910259 5.233765 63.804626 41.755676 23.51 20.49 9.0 9.0 -21.1292 -14.0861 -0.0515 -0.0010 0.046719 0.160190 11.63 
0.316 2 -17.014780 0.863086 7.854082 -10.322571 46.897888 62.278748 40.71 37.53 9.0 9.0 -12.5210 -9.7286 -0.0533 -0.0011 0.049314 0.170104 9.60 
0.321 2 -3.505088 3.488306 -2.191279 -24.681091 39.657593 56.121826 41.26 38.07 9.0 9.0 -2.9526 -2.8172 -0.0537 -0.0011 0.049314 0.181099 6.85 
0.326 2 4.485649 2.052227 -16.101347 0.617981 42.015076 32.363892 -27.64 -30.99 -9.0 -9.0 7.0066 8.4517 -0.0527 -0.0010 0.051910 0.172863 8.24 
0.331 2 5.207285 -5.756303 -19.639999 26.557922 40.618896 13.969421 -30.91 -34.42 -9.0 -9.0 -2.7767 2.2998 -0.0529 -0.0010 0.054505 0.163098 6.49 
0.336 2 -2.502949 3.133481 -18.616283 32.600403 27.328491 4.493713 -17.73 -21.25 -6.8 -9.0 -6.9347 -7.5970 -0.0537 -0.0011 0.054505 0.157962 7.66 
0.341 2 -10.812549 2.493359 -5.638828 17.349243 7.843018 -15.945435 24.43 21.25 9.0 9.0 -9.4564 -13.0026 -0.0553 -0.0012 0.049314 0.161890 9.90 
0.346 2 -12.308564 -2.704336 -0.474697 -19.729614 1.228333 52.429199 49.41 46.57 9.0 9.0 3.4235 -4.6470 -0.0557 -0.0012 0.044123 0.173684 7.26 
0.351 2 1.110024 3.584204 -4.660664 -24.902344 1.289368 19.996643 42.25 39.57 9.0 9.0 11.7589 4.8295 -0.0547 -0.0011 0.041528 0.187241 7.80 
0.356 2 5.720342 -3.243765 -8.995274 -6.118774 6.721497 39.459229 -19.43 -21.94 -9.0 -9.0 9.7286 7.6833 -0.0529 -0.0011 0.038932 0.179646 5.32 
0.361 2 3.126289 -0.218169 -18.913568 5.760193 20.057678 31.539917 -15.59 -18.11 -3.1 -6.0 -3.0594 -3.0803 -0.0533 -0.0011 0.038932 0.172368 6.69 
0.366 2 0.424351 0.232554 -19.639999 26.931763 18.661499 23.376465 -11.07 -13.58 1.3 -0.8 -11.5579 -13.5227 -0.0549 -0.0011 0.038932 0.167869 11.69 
0.371 2 -5.214478 0.992549 -8.048276 32.363892 -6.507874 -0.495911 12.88 10.54 9.0 9.0 -5.3239 -9.6591 -0.0563 -0.0012 0.036337 0.168972 10.65 
0.376 2 -14.147416 0.865483 0.743213 -0.267029 -17.578125 37.658691 64.35 62.17 9.0 9.0 5.6818 2.2881 -0.0557 -0.0012 0.033741 0.180566 9.08 
0.381 2 -11.788315 1.196333 -2.275190 -12.817383 -17.112732 18.646240 72.27 70.09 9.0 9.0 14.0861 15.5433 -0.0537 -0.0011 0.033741 0.196450 8.19 
0.386 2 6.032012 -2.136138 -7.554399 -11.909485 5.134583 29.541016 1.72 -0.29 -5.2 -7.6 19.8863 22.1684 -0.0507 -0.0010 0.031146 0.196107 11.74 
0.391 2 7.161216 0.357222 -16.751059 -5.500793 28.915405 27.786255 -14.35 -16.70 -9.0 -9.0 8.0974 10.9941 -0.0487 -0.0009 0.036337 0.187261 10.11 
0.396 2 7.154023 -0.441133 -19.639999 11.100769 45.066833 35.537720 -22.33 -24.51 -6.9 -9.0 -5.7543 -2.7485 -0.0489 -0.0010 0.033741 0.179016 10.73 
0.401 2 2.404653 2.464590 -19.639999 25.138855 41.000366 13.488770 -17.60 -19.61 -2.3 -2.3 -12.5210 -15.9091 -0.0507 -0.0010 0.031146 0.172310 11.93 
0.406 2 -4.492842 1.174756 -2.579668 25.466919 20.591736 31.272888 15.73 13.89 9.0 9.0 -9.8706 -11.6575 -0.0525 -0.0011 0.028550 0.172121 10.73 
0.411 2 -16.043808 3.382817 0.481890 3.288269 10.612488 26.451111 58.03 56.19 9.0 9.0 -3.6351 -3.1595 -0.0529 -0.0011 0.028550 0.183683 8.91 
0.416 2 -8.760322 -3.411587 -2.550898 -5.073547 15.350342 32.287598 63.45 61.10 9.0 9.0 6.4089 13.7987 -0.0515 -0.0010 0.036337 0.198301 8.01 
0.421 2 4.025337 -1.858032 -12.565092 -11.955261 27.976990 31.028748 1.46 -1.05 -2.0 -5.4 13.9409 17.3368 -0.0493 -0.0009 0.038932 0.198179 11.53 
0.426 2 8.206509 0.829521 -19.639999 -1.335144 55.953979 21.301270 -18.38 -20.72 -9.0 -9.0 6.4702 7.9080 -0.0479 -0.0009 0.036337 0.188965 10.43 
0.431 2 9.235020 3.356445 -19.639999 10.032654 55.908203 20.256042 -29.86 -32.21 -9.0 -9.0 -5.5879 -6.5013 -0.0487 -0.0009 0.036337 0.177946 10.09 
0.436 2 -1.157974 -7.400962 -19.639999 21.781921 42.015076 21.736145 -22.31 -24.49 -5.2 -6.3 -12.8788 -14.5405 -0.0505 -0.0010 0.033741 0.169102 9.27 
0.441 2 -15.489995 4.219531 -1.891597 12.069702 44.731140 30.654907 34.41 32.23 9.0 9.0 -15.0252 -12.8788 -0.0529 -0.0011 0.033741 0.172891 7.32 
0.446 2 -19.639999 -0.791162 0.505864 -2.632141 27.511597 22.171021 58.54 56.19 9.0 9.0 -5.4970 -3.8970 -0.0535 -0.0011 0.036337 0.185053 6.31 
0.451 2 -1.273052 -0.184604 1.611094 -13.641357 21.560669 28.236389 78.85 76.51 9.0 9.0 8.0492 8.2961 -0.0527 -0.0011 0.036337 0.198630 6.88 
0.456 2 6.746455 -1.635068 -12.399668 2.326965 35.629272 4.966736 -10.91 -13.26 -8.9 -9.0 12.1826 10.6478 -0.0507 -0.0010 0.036337 0.190185 10.71 
0.461 2 6.173462 -3.735244 -19.639999 8.895874 58.258057 12.191772 -28.43 -30.78 -9.0 -9.0 -4.7117 2.5515 -0.0507 -0.0010 0.036337 0.179643 9.19 
0.466 2 4.329814 5.600469 -19.639999 9.567261 52.062988 12.382507 -29.15 -31.50 -9.0 -9.0 -10.8182 -11.2689 -0.0523 -0.0011 0.036337 0.170525 9.37 
0.471 2 -1.651851 -6.523491 -17.494272 20.843506 29.991150 3.593445 -14.16 -16.50 0.1 -3.3 -15.0252 -12.8788 -0.0543 -0.0011 0.036337 0.165142 11.64 
0.476 2 -17.398373 0.088706 -0.738418 -4.966736 23.803711 28.221130 41.29 38.78 9.0 9.0 -11.7589 -10.5646 -0.0561 -0.0012 0.038932 0.172016 10.06 
0.481 2 -13.140483 -0.014385 1.311411 -4.920959 19.462585 4.264832 59.33 56.82 9.0 9.0 -3.4148 -2.7263 -0.0565 -0.0012 0.038932 0.185041 7.26 
0.486 2 2.433423 -0.915830 -4.118838 -12.451172 32.524109 12.298584 8.31 5.96 2.5 1.8 13.0026 11.8620 -0.0551 -0.0012 0.036337 0.193317 7.23 
0.491 2 8.127393 1.366553 -14.950566 -4.623413 51.788330 -0.099182 -25.38 -27.73 -9.0 -9.0 6.7953 8.5587 -0.0535 -0.0011 0.036337 0.184879 8.56 
0.496 2 5.365518 -2.766670 -19.639999 13.977051 61.210632 1.243591 -29.61 -32.12 -9.0 -9.0 -6.1189 -3.3891 -0.0541 -0.0011 0.038932 0.174220 7.13 
0.501 2 6.207026 3.536255 -16.540083 9.391785 45.326233 8.148193 -34.37 -36.88 -9.0 -9.0 -12.8788 -10.1674 -0.0557 -0.0012 0.038932 0.164372 8.01 
0.506 2 -4.416123 -2.445410 -7.062920 15.480042 36.666870 10.124207 -12.45 -15.13 1.1 -2.9 -16.6947 -14.2344 -0.0579 -0.0013 0.041528 0.159780 9.94 
0.511 2 -15.818447 4.454482 -2.258408 -3.860474 19.775391 19.798279 38.48 35.80 9.0 9.0 -10.2445 -11.6575 -0.0599 -0.0014 0.041528 0.168863 5.11 
0.516 2 -8.144175 1.424092 -0.762393 -13.618469 15.327454 7.926941 60.30 57.62 9.0 9.0 -2.8231 -2.9333 -0.0603 -0.0014 0.041528 0.182998 6.68 
0.521 2 2.941684 -2.428628 -6.233398 -8.659363 26.184082 -0.549316 -17.50 -20.18 -9.0 -9.0 10.9941 10.7323 -0.0591 -0.0013 0.041528 0.186553 10.27 
0.526 2 6.842353 0.635327 -18.683413 -0.572205 50.872803 4.798889 -28.70 -31.38 -9.0 -9.0 6.6288 5.7789 -0.0579 -0.0013 0.041528 0.176826 8.69 
0.531 2 7.062920 1.191538 -19.639999 15.464783 54.008484 0.076294 -32.76 -35.61 -9.0 -9.0 -7.8620 -2.0183 -0.0585 -0.0013 0.044123 0.166810 7.28 
0.536 2 4.818896 3.567422 -18.345371 8.956909 38.902283 5.485535 -34.96 -38.15 -9.0 -9.0 -15.7241 -12.0738 -0.0605 -0.0014 0.049314 0.158301 7.28 
0.541 2 -5.595674 0.925420 -8.117803 16.227722 23.056030 -0.076294 -7.75 -11.10 3.7 -1.8 -18.5242 -14.6986 -0.0627 -0.0015 0.051910 0.155461 10.87 
0.546 2 -17.170614 1.949136 4.610317 -9.414673 11.146545 21.858215 44.44 41.09 9.0 9.0 -13.1288 -12.6380 -0.0651 -0.0016 0.051910 0.165790 8.97 
0.551 2 -7.362602 4.034926 -0.973369 -21.293640 6.492615 7.354736 58.25 54.73 9.0 9.0 -5.6345 -3.6548 -0.0657 -0.0017 0.054505 0.180865 6.58 
0.556 2 7.767773 -3.588999 -7.976352 -8.262634 7.621765 7.514954 -28.63 -31.82 -9.0 -9.0 8.6684 1.7270 -0.0649 -0.0016 0.049314 0.186489 11.85 
0.561 2 9.491548 1.141191 -16.518505 4.425049 26.412964 12.237549 -25.02 -28.20 -7.4 -9.0 -7.1549 4.0731 -0.0649 -0.0016 0.049314 0.176318 10.41 
0.566 2 4.943564 0.474697 -19.639999 21.598816 20.019531 13.359070 -21.57 -24.92 -3.1 -7.1 -13.7987 -10.9054 -0.0664 -0.0017 0.051910 0.168457 10.98 
0.571 2 -4.828486 -6.576235 -16.626390 31.311035 3.746033 -5.928040 -2.75 -6.10 6.5 4.4 -13.3888 -14.5405 -0.0684 -0.0018 0.051910 0.164432 11.80 
0.576 2 -10.330659 5.394287 -3.795181 0.350952 -4.089355 36.239624 33.11 29.76 9.0 9.0 -7.2703 -8.1956 -0.0696 -0.0019 0.051910 0.168569 10.43 
0.581 2 -12.454809 1.563144 3.349253 -7.202148 -16.815186 16.700745 73.38 70.03 9.0 9.0 2.8529 2.3155 -0.0692 -0.0018 0.051910 0.184506 8.57 
0.586 2 -4.567163 -2.589258 1.671030 -19.943237 -19.065857 30.502319 79.13 75.95 9.0 9.0 14.5405 12.7573 -0.0674 -0.0018 0.049314 0.201761 7.66 
0.591 2 9.664165 1.225103 -11.174565 -6.546021 0.114441 26.229858 -6.73 -10.08 -8.5 -9.0 16.0984 17.1173 -0.0647 -0.0016 0.051910 0.195103 6.44 
0.596 2 11.100244 1.179551 -18.069662 9.704590 12.382507 36.987305 -11.85 -15.37 -4.3 -8.1 2.8711 4.6791 -0.0641 -0.0016 0.054505 0.186952 9.27 
0.601 2 5.612456 1.138794 -19.639999 20.751953 17.395020 10.803223 -15.11 -18.63 -0.8 -2.3 -10.3227 -12.8788 -0.0657 -0.0017 0.054505 0.178967 11.53 
0.606 2 -2.840991 -2.843389 -12.711337 18.440247 2.586365 22.987366 -3.88 -7.23 4.5 2.7 -9.2621 -11.2689 -0.0672 -0.0018 0.051910 0.173784 11.83 
0.611 2 -10.783779 6.190244 -0.544224 5.180359 4.745483 40.191650 40.05 36.70 9.0 9.0 -5.0084 -4.4926 -0.0680 -0.0018 0.051910 0.177275 10.52 
0.616 2 -16.396235 1.117217 3.584204 -6.835938 -5.477905 27.168274 70.85 67.66 9.0 9.0 8.9554 9.1370 -0.0670 -0.0017 0.049314 0.192279 8.95 
0.621 2 -1.052485 2.229639 -1.980303 -20.523071 -2.052307 45.478821 70.78 67.60 9.0 9.0 14.6986 16.9034 -0.0649 -0.0016 0.049314 0.207761 7.97 
0.626 2 10.285107 2.191279 -13.207612 -1.853943 8.293152 35.690308 -7.78 -11.30 -8.2 -9.0 14.2344 21.4646 -0.0621 -0.0015 0.054505 0.198965 6.14 
0.631 2 9.616216 -2.864966 -19.639999 20.378113 27.221680 46.752930 -11.90 -15.92 -4.3 -9.0 2.7824 8.3473 -0.0611 -0.0014 0.062292 0.189997 8.37 
0.636 2 5.624443 1.431284 -19.639999 29.365540 31.150818 21.301270 -16.82 -21.01 -1.4 -5.2 -11.1758 -11.7589 -0.0625 -0.0015 0.064887 0.180844 10.24 
0.641 2 -3.382817 -0.131860 -15.521162 22.132874 12.428284 23.101807 -2.38 -6.06 4.7 3.4 -8.2961 -13.1288 -0.0643 -0.0016 0.057101 0.175423 11.90 
0.646 2 -13.449756 6.715288 -2.421435 3.738403 13.076782 61.477661 44.76 41.24 9.0 9.0 -3.7459 -4.9173 -0.0649 -0.0017 0.054505 0.179690 10.36 
0.651 2 -17.017178 -2.131343 1.512798 -6.278992 -0.305176 36.895752 72.41 69.06 9.0 9.0 10.4021 9.9432 -0.0639 -0.0016 0.051910 0.193678 8.43 
0.656 2 -3.826348 -1.301821 -1.083652 -28.099060 4.455566 73.333740 69.65 66.47 9.0 9.0 17.3368 16.9034 -0.0617 -0.0015 0.049314 0.210349 8.32 
0.661 2 11.232104 3.598589 -11.668442 0.953674 14.266968 41.282654 -5.53 -9.05 -8.6 -9.0 17.3368 21.1292 -0.0585 -0.0013 0.054505 0.201666 8.88 
0.666 2 11.260874 -4.126030 -15.943114 21.240234 25.054932 77.522278 -14.19 -18.21 -6.1 -9.0 3.4235 9.8706 -0.0575 -0.0013 0.062292 0.191722 8.51 
0.671 2 3.490703 -1.160371 -19.639999 41.015625 33.638000 35.888672 -12.23 -16.58 0.3 -4.2 -10.0168 -9.7286 -0.0587 -0.0014 0.067483 0.182926 10.95 
0.676 2 0.656904 1.237090 -14.813910 28.411865 20.034790 37.017822 -6.77 -10.62 2.2 1.2 -7.5970 -13.3888 -0.0601 -0.0015 0.059696 0.178380 11.74 
0.681 2 -12.485976 3.874297 -5.674790 10.253906 9.742737 62.561035 40.83 37.32 9.0 9.0 -2.0123 -4.3481 -0.0605 -0.0015 0.054505 0.182610 10.39 
0.686 2 -14.224135 -0.855894 1.155576 -7.110596 0.518799 62.110901 73.54 70.19 9.0 9.0 9.9432 11.1758 -0.0591 -0.0014 0.051910 0.196560 9.59 
0.691 2 2.603642 2.718721 -2.783452 -21.064758 3.059387 79.856873 58.95 55.60 9.0 9.0 19.3181 18.2739 -0.0567 -0.0013 0.051910 0.210694 7.93 
0.696 2 9.824795 -0.592173 -8.592500 4.150391 6.912231 60.104370 -8.72 -12.23 -9.0 -9.0 17.5619 17.7930 -0.0537 -0.0011 0.054505 0.199497 4.92 
0.701 2 6.645761 3.135879 -15.276621 13.015747 16.769409 80.703735 -10.24 -13.93 -6.0 -9.0 5.2010 7.5546 -0.0527 -0.0011 0.057101 0.189544 6.50 
0.706 2 -2.795439 -4.413725 -19.639999 33.737183 27.618408 52.574158 -0.41 -4.26 4.2 0.8 -5.7789 -2.2881 -0.0533 -0.0011 0.059696 0.183354 10.36 
0.711 2 -1.083652 -2.701938 -13.138085 25.520325 19.615173 47.599792 -0.59 -4.11 2.2 2.7 -2.7767 -9.5230 -0.0541 -0.0011 0.054505 0.179455 11.83 
0.716 2 -4.396943 3.603384 0.728828 17.700195 9.269714 47.859192 45.72 42.71 9.0 9.0 1.4042 -5.6345 -0.0543 -0.0012 0.046719 0.181844 10.68 
0.721 2 -7.103676 -3.128686 2.941684 2.319336 7.095337 58.158875 75.36 72.35 9.0 9.0 11.9670 10.9941 -0.0531 -0.0011 0.046719 0.193428 9.32 
0.726 2 -1.294629 4.699023 0.525044 -14.869690 17.242432 65.513611 95.83 92.98 9.0 9.0 20.8041 17.3368 -0.0505 -0.0010 0.044123 0.207281 8.56 
0.731 2 4.399341 -1.114819 -9.177480 -2.510071 19.432068 45.867920 2.24 -0.27 -8.0 -7.5 25.0420 21.8108 -0.0473 -0.0008 0.038932 0.203573 11.39 
0.736 2 4.353789 -2.769067 -16.324310 -3.242493 43.762207 36.834717 -5.55 -7.90 -6.6 -6.1 11.6575 8.6684 -0.0455 -0.0008 0.036337 0.195427 11.23 
0.741 2 9.199058 1.217910 -19.639999 3.196716 48.423767 46.920776 -23.19 -25.20 -9.0 -8.4 2.1952 -6.7953 -0.0459 -0.0008 0.031146 0.185290 10.85 
0.746 2 4.207544 -3.951015 -19.335522 32.638550 28.617859 36.811829 -19.75 -21.42 -5.5 -3.7 -9.2621 -13.5227 -0.0475 -0.0008 0.025955 0.176321 11.20 
0.751 2 -14.531011 3.301304 -3.771206 20.591736 33.683777 55.389404 27.70 25.85 9.0 9.0 -12.7573 -9.8706 -0.0493 -0.0009 0.028550 0.175439 10.85 
0.756 2 -19.251610 1.925161 0.405171 -0.267029 15.167236 41.168213 62.14 59.96 9.0 9.0 -6.1747 4.2658 -0.0497 -0.0009 0.033741 0.187968 9.13 
0.761 2 -2.630015 -2.687554 2.354306 -12.222290 4.943848 54.306030 91.44 89.10 9.0 9.0 6.3487 12.7573 -0.0487 -0.0009 0.036337 0.203929 7.17 
0.766 2 7.197177 -2.941684 -12.315757 -3.524780 20.164490 38.574219 0.06 -2.62 -2.4 -6.1 13.5227 17.3368 -0.0467 -0.0008 0.041528 0.204104 11.68 
0.771 2 10.810151 1.678223 -19.639999 10.986328 42.190552 37.071228 -13.58 -16.26 -8.0 -8.8 7.1929 6.7613 -0.0451 -0.0007 0.041528 0.194101 10.60 
0.776 2 13.241177 1.735762 -19.639999 18.821716 45.982361 29.663086 -28.14 -30.65 -9.0 -9.0 -5.3239 -2.1162 -0.0453 -0.0007 0.038932 0.182782 10.62 
0.781 2 4.866846 -0.091104 -12.819223 19.508362 26.268005 43.258667 -24.77 -27.28 -6.9 -8.7 -11.6575 -12.2934 -0.0469 -0.0008 0.038932 0.173365 10.65 
0.786 2 -11.610903 5.806650 -2.330332 8.094788 36.605835 51.231384 26.18 23.66 9.0 9.0 -13.2575 -14.3858 -0.0489 -0.0009 0.038932 0.173511 10.41 
0.791 2 -19.194071 -0.191797 5.204887 -7.736206 19.004822 48.866272 58.21 55.70 9.0 9.0 -5.8287 -4.7282 -0.0497 -0.0009 0.038932 0.185655 8.08 
0.796 2 -2.299165 2.879350 1.083652 -20.858765 1.922607 53.840637 74.35 72.00 9.0 9.0 7.1172 7.5546 -0.0487 -0.0009 0.036337 0.200314 7.28 
0.801 2 6.041601 -0.539429 -11.579736 0.602722 16.036987 28.152466 -3.68 -6.03 -6.2 -6.5 16.0984 14.2344 -0.0467 -0.0008 0.036337 0.199662 10.69 
0.806 2 8.906568 -2.747490 -19.639999 20.935059 34.019470 33.561707 -14.68 -16.86 -9.0 -7.2 7.5546 4.1228 -0.0457 -0.0007 0.033741 0.190181 9.65 
0.811 2 5.406274 6.614594 -19.639999 29.251099 28.205872 31.745911 -12.91 -15.09 -1.1 -0.2 -6.7613 -11.6575 -0.0469 -0.0008 0.033741 0.182120 11.85 
0.816 2 -3.027993 -2.267998 -9.000068 23.200989 7.369995 34.461975 11.50 9.49 9.0 9.0 -6.6614 -8.2961 -0.0479 -0.0008 0.031146 0.178493 11.34 
0.821 2 -13.941235 1.577529 0.798354 -5.538940 5.462646 70.434570 55.29 53.28 9.0 9.0 -2.1741 -2.3037 -0.0479 -0.0008 0.031146 0.184133 10.22 
0.826 2 -12.934301 -2.857773 2.493359 -10.513306 -3.654480 47.592163 82.11 80.26 9.0 9.0 14.8601 12.6380 -0.0461 -0.0008 0.028550 0.199160 8.37 
0.831 2 -0.973369 -1.783711 -5.562109 -20.164490 3.463745 71.807861 44.39 42.55 9.0 9.0 19.5981 21.1292 -0.0432 -0.0007 0.028550 0.213541 8.10 
0.836 2 14.756371 0.906240 -13.898081 1.815796 21.629333 60.417175 -4.14 -6.49 -7.1 -9.0 16.2924 21.1292 -0.0402 -0.0006 0.036337 0.204997 11.31 
0.841 2 14.420727 -4.289057 -19.639999 28.739929 37.033081 80.528259 -17.62 -20.30 -3.1 -9.0 -5.3661 7.4301 -0.0394 -0.0005 0.041528 0.194493 10.81 
0.846 2 3.603384 5.365518 -19.639999 40.809631 33.134460 43.945312 -14.91 -17.26 -3.1 -3.3 -4.2524 -10.7323 -0.0402 -0.0006 0.036337 0.184604 11.04 
0.851 2 -5.821035 -5.454224 -15.585893 28.839111 27.053833 54.428101 12.05 10.21 9.0 9.0 -5.7058 -10.7323 -0.0416 -0.0006 0.028550 0.180953 11.28 
0.856 2 -15.446840 3.847925 -0.544224 -5.722046 15.136719 98.495483 57.29 55.45 9.0 9.0 3.7668 6.7953 -0.0416 -0.0006 0.028550 0.188524 9.78 
0.861 2 -9.728896 -1.709390 4.468867 -8.605957 1.274109 72.135925 82.04 80.37 9.0 9.0 12.8788 10.0916 -0.0402 -0.0006 0.025955 0.202473 7.75 
0.866 2 1.709390 -2.349512 -2.368691 -18.341064 5.538940 99.609375 -5.57 -7.41 -8.5 -9.0 19.3181 19.8863 -0.0376 -0.0005 0.028550 0.208019 8.38 
0.871 2 11.251284 2.155317 -18.386127 6.134033 31.806946 84.091187 -7.03 -8.87 -7.5 -9.0 12.8788 13.3888 -0.0352 -0.0005 0.028550 0.198844 6.26 
0.876 2 13.682309 -1.131602 -19.639999 27.442932 35.995483 98.083496 -20.70 -22.70 -6.0 -9.0 -3.5033 3.5774 -0.0350 -0.0004 0.031146 0.188262 6.80 
0.881 2 0.620942 5.780278 -19.639999 39.604187 24.398804 67.039490 -9.90 -11.57 -0.6 0.9 -7.3096 -13.0026 -0.0362 -0.0005 0.025955 0.180114 11.33 
0.886 2 -7.810927 -3.253354 -2.687554 35.110474 15.296936 52.017212 39.20 37.69 9.0 9.0 -6.1467 -7.5970 -0.0376 -0.0005 0.023359 0.181035 10.65 
0.891 2 -14.322432 1.148384 4.185966 -8.934021 4.119873 106.384277 67.49 65.98 9.0 9.0 3.1375 3.3555 -0.0372 -0.0005 0.023359 0.192115 9.11 
0.896 2 -3.356445 4.514419 -0.489082 -18.302917 2.090454 82.374573 88.31 86.64 9.0 9.0 12.2934 15.3667 -0.0354 -0.0005 0.025955 0.208004 7.56 
0.901 2 11.363964 -6.195039 -10.524853 -10.017395 10.841370 94.337463 -7.48 -9.15 -9.0 -9.0 20.1831 20.8041 -0.0326 -0.0004 0.025955 0.205914 11.06 
0.906 2 11.328003 6.010434 -15.120786 7.431030 22.346497 86.044312 -15.26 -17.10 -9.0 -9.0 9.0151 10.0916 -0.0308 -0.0003 0.028550 0.196158 10.44 
0.911 2 7.643105 -3.085532 -19.639999 21.331787 27.595520 65.483093 -14.23 -16.24 -2.9 -6.9 -3.2197 2.3436 -0.0310 -0.0004 0.031146 0.187212 10.95 
0.916 2 -1.306616 -2.421435 -19.639999 29.472351 17.318726 55.160522 3.28 1.61 5.6 7.4 -5.0458 -10.6478 -0.0322 -0.0004 0.025955 0.182068 11.61 
0.921 2 -9.498740 5.231260 -3.063955 22.041321 4.516602 37.536621 43.64 42.13 9.0 9.0 5.4748 -3.4062 -0.0324 -0.0004 0.023359 0.186309 10.36 
0.926 2 -13.188432 -2.812222 1.107627 -5.973816 -4.524231 61.386108 76.35 74.84 9.0 9.0 13.2575 13.3888 -0.0308 -0.0004 0.023359 0.199753 9.37 
0.931 2 -2.963262 4.392148 -3.016006 -21.522522 -3.311157 60.188293 89.02 87.68 9.0 9.0 22.1684 20.1831 -0.0278 -0.0003 0.020764 0.216503 7.45 
0.936 2 8.539756 -6.614594 -11.939355 1.258850 8.285522 45.166016 7.76 6.58 -4.0 -4.8 22.5378 22.9198 -0.0243 -0.0002 0.018168 0.209609 10.76 
0.941 2 8.551743 5.305581 -14.847475 2.929688 25.840759 59.463501 -8.13 -9.47 -7.0 -7.1 9.3908 8.0016 -0.0225 -0.0002 0.020764 0.199782 10.50 
0.946 2 8.789091 -0.402773 -19.639999 13.885498 30.578613 45.654297 -15.59 -16.76 -3.8 -4.0 -3.1158 -7.0431 -0.0231 -0.0002 0.018168 0.190014 11.52 
0.951 2 -4.816499 -10.062143 -16.794214 34.637451 12.542725 35.438538 3.50 2.33 5.8 7.0 -5.0837 -8.5048 -0.0243 -0.0002 0.018168 0.184121 11.88 
0.956 2 -15.012900 9.623408 -3.445151 10.353088 12.054443 50.689697 48.52 47.51 9.0 9.0 2.6831 3.0117 -0.0241 -0.0002 0.015573 0.189563 10.62 
0.961 2 -12.936699 -0.498672 4.073286 -4.203796 -6.645203 43.228149 81.82 80.82 9.0 9.0 12.8788 13.1288 -0.0229 -0.0002 0.015573 0.204122 9.29 
0.966 2 -4.166787 -2.443013 -4.372969 -17.539978 -9.208679 52.558899 81.50 80.49 9.0 9.0 20.4889 20.1831 -0.0201 -0.0002 0.015573 0.220351 8.97 
0.971 2 10.397788 -5.681982 -15.135170 3.051758 10.787964 38.887024 4.04 2.87 -5.7 -6.3 22.1684 21.8108 -0.0163 -0.0001 0.018168 0.212514 9.60 
0.976 2 10.764599 7.762978 -16.127720 6.774902 26.618958 60.714722 -6.77 -8.11 -3.5 -6.0 5.7300 7.1929 -0.0149 -0.0001 0.020764 0.202330 9.37 
0.981 2 9.292559 -0.230156 -19.639999 19.905090 25.360107 31.463623 -11.87 -13.04 -2.0 -1.7 -1.9828 -6.2605 -0.0155 -0.0001 0.018168 0.192588 11.63 
0.986 2 -5.564507 -13.066162 -15.418071 29.098511 12.817383 36.346436 8.97 7.96 8.7 9.0 -4.6470 -7.1929 -0.0161 -0.0001 0.015573 0.187717 11.52 
0.991 2 -15.806459 10.395391 -2.956069 0.228882 11.863708 50.018311 55.24 54.24 9.0 9.0 1.9627 2.3195 -0.0157 -0.0001 0.015573 0.195377 9.92 
0.996 2 -9.469971 -1.965918 3.413984 -7.255554 -1.327515 37.811279 86.35 85.18 9.0 9.0 15.1940 17.5619 -0.0135 -0.0000 0.018168 0.209812 9.00 
1.001 2 6.525888 1.596709 -3.075942 -27.435303 4.226685 57.754517 37.99 36.82 9.0 9.0 23.3150 25.0420 -0.0103 0.0000 0.018168 0.222290 9.00 
1.006 2 11.944150 -0.460312 -15.231069 4.096985 18.218994 34.667969 -4.17 -5.51 -9.0 -9.0 22.1684 24.5867 -0.0064 0.0001 0.020764 0.212161 8.84 
1.011 2 10.138862 1.428887 -19.639999 13.145447 43.273926 61.950684 -10.12 -11.80 -7.0 -8.7 7.1929 7.4301 -0.0048 0.0001 0.025955 0.201793 8.70 
1.016 2 0.445928 -1.321001 -19.639999 34.568787 56.182861 19.439697 -9.28 -11.12 0.5 -1.9 -5.9051 -3.7879 -0.0054 0.0001 0.028550 0.191331 10.92 
1.021 2 -5.823432 -3.668115 -7.652695 27.206421 48.950195 22.605896 10.58 8.90 9.0 7.7 -5.7300 -5.3875 -0.0064 0.0001 0.025955 0.186464 11.53 
1.026 2 -17.427143 7.336230 -0.357222 0.076294 47.050476 49.949646 47.97 46.29 9.0 9.0 2.3641 3.7773 -0.0060 0.0001 0.025955 0.192819 10.06 
1.031 2 -13.428178 -2.826606 0.134258 0.373840 55.656433 23.155212 63.93 62.09 9.0 9.0 13.3888 14.6986 -0.0042 0.0001 0.028550 0.202631 8.08 
1.036 2 2.107368 -4.732588 -3.459536 -15.464783 74.874878 43.907166 9.39 7.54 -2.5 -3.5 23.3150 23.3150 -0.0010 0.0002 0.028550 0.207187 8.19 
1.041 2 9.105556 -3.404394 -13.097329 -3.067017 99.449158 6.164551 -32.05 -33.89 -9.0 -9.0 17.7930 14.8601 0.0022 0.0003 0.028550 0.193879 5.17 
1.046 2 8.057866 -0.522646 -17.043549 -0.938416 107.490540 17.341614 -45.28 -46.95 -9.0 -9.0 5.7543 4.8123 0.0032 0.0003 0.025955 0.178501 6.07 
1.051 2 7.683862 -3.056763 -19.639999 9.223938 101.631165 9.757996 -54.40 -55.91 -9.0 -9.0 -4.2793 -4.8995 0.0026 0.0003 0.023359 0.163380 6.60 
1.056 2 -7.794145 0.153437 -8.666821 23.651123 83.564758 31.120300 -29.39 -30.73 -9.0 -9.0 -5.3661 -8.2961 0.0016 0.0003 0.020764 0.154365 6.69 
1.061 2 -19.639999 3.989375 3.198213 3.761292 67.291260 13.183594 23.91 22.73 9.0 9.0 -8.0974 -10.4021 0.0002 0.0003 0.018168 0.159999 9.73 
1.066 2 -8.110610 1.704595 5.065835 -12.695312 55.221558 17.776489 43.44 42.27 9.0 9.0 -2.3892 5.2617 0.0002 0.0003 0.018168 0.170059 7.01 
1.071 2 4.070889 -1.584722 -3.752026 -7.789612 56.236267 13.008118 -43.67 -44.67 -9.0 -9.0 12.7573 10.9054 0.0016 0.0003 0.015573 0.169897 10.31 
1.076 2 8.729155 -0.187002 -18.084047 9.124756 64.804077 3.303528 -50.81 -51.64 -9.0 -9.0 5.0647 6.5013 0.0026 0.0003 0.012977 0.156942 8.46 
1.081 2 8.719565 1.872417 -19.421831 10.871887 54.878235 10.040283 -55.79 -56.63 -9.0 -9.0 -4.4048 -5.8794 0.0018 0.0003 0.012977 0.146631 6.91 
1.086 2 -3.533857 -0.316465 -14.974541 23.757935 33.851624 -17.318726 -34.52 -35.53 -9.0 -9.0 -5.9835 -5.3030 0.0012 0.0003 0.015573 0.140781 7.64 
1.091 2 -16.878124 -1.699800 2.608438 0.511169 21.423340 15.060425 19.83 18.65 9.0 8.7 -9.3260 -5.9835 0.0002 0.0003 0.018168 0.146932 11.56 
1.096 2 -15.279018 6.127910 1.239487 -11.337280 6.507874 -6.248474 43.53 42.53 9.0 9.0 -5.8287 -5.7543 -0.0004 0.0003 0.015573 0.160846 9.89 
1.101 2 1.213115 -4.027734 -4.181172 -13.641357 5.310059 3.669739 17.66 16.49 4.1 3.1 12.7573 12.7573 0.0010 0.0003 0.018168 0.172650 7.61 
1.106 2 8.940131 -0.426748 -16.607212 -1.487732 21.614075 -10.223389 -29.26 -30.43 -9.0 -9.0 10.1674 10.3227 0.0026 0.0003 0.018168 0.163688 5.19 
1.111 2 10.196401 2.337524 -19.639999 10.971069 31.379700 12.443542 -42.43 -43.60 -9.0 -9.0 -2.3195 2.3235 0.0022 0.0003 0.018168 0.154025 6.76 
1.116 2 10.299492 2.862568 -19.639999 15.899658 25.520325 -1.144409 -47.65 -48.99 -9.0 -9.0 -11.8620 -11.1758 0.0008 0.0003 0.020764 0.145585 8.51 
1.121 2 -5.046655 2.502949 -10.534443 20.469666 10.261536 9.849548 -23.43 -24.94 -9.0 -9.0 -15.7241 -11.6575 -0.0010 0.0003 0.023359 0.142895 7.18 
1.126 2 -19.639999 1.277847 2.263203 0.923157 -6.370544 11.650085 37.58 35.90 9.0 9.0 -15.1940 -11.5579 -0.0032 0.0002 0.025955 0.154326 5.02 
1.131 2 -8.376728 2.447808 -0.345234 -14.328003 -11.100769 10.108948 53.23 51.39 9.0 9.0 -5.5195 -3.3555 -0.0038 0.0002 0.028550 0.170131 6.42 
1.136 2 6.593018 -0.431543 -6.768032 -10.803223 -12.580872 7.293701 -18.91 -20.92 -9.0 -9.0 3.2664 5.1222 -0.0032 0.0002 0.031146 0.159656 10.54 
1.141 2 11.637275 -0.695264 -15.636240 5.767822 -8.659363 -0.411987 -36.43 -38.44 -9.0 -9.0 -1.7770 -5.7543 -0.0040 0.0002 0.031146 0.152281 9.46 
1.146 2 3.514678 -0.889458 -19.639999 22.010803 -20.034790 0.381470 -29.05 -30.89 -9.0 -9.0 -13.0026 -14.3858 -0.0058 0.0001 0.028550 0.147766 7.26 
1.151 2 -6.465952 4.360981 -14.516625 18.798828 -40.740967 17.776489 0.46 -1.39 2.7 0.1 -13.5227 -10.7323 -0.0078 0.0001 0.028550 0.149540 11.25 
1.156 2 -18.582720 0.987754 -6.183052 3.822327 -60.417175 13.916016 52.50 50.66 9.0 9.0 -8.7810 -6.0640 -0.0091 0.0000 0.028550 0.164581 9.87 
1.161 2 -11.649262 -1.419297 0.043154 -14.366150 -76.446533 19.264221 94.02 92.17 9.0 9.0 2.7045 4.3204 -0.0086 0.0000 0.028550 0.185978 7.47 
1.166 2 2.610835 3.131084 -2.287178 -15.678406 -67.085266 18.798828 23.04 21.20 9.0 9.0 13.7987 13.2575 -0.0066 0.0001 0.028550 0.199322 7.99 
1.171 2 9.534702 -2.927300 -12.049639 8.354187 -41.320801 3.540039 4.91 3.06 -1.7 -3.1 15.7241 16.2924 -0.0042 0.0002 0.028550 0.193784 11.26 
1.176 2 6.207026 1.687812 -15.319775 -2.014160 -14.907837 26.359558 -0.50 -2.34 0.8 -0.8 4.8295 5.5879 -0.0034 0.0002 0.028550 0.189251 11.91 
1.181 2 4.384956 0.031167 -19.639999 7.705688 15.052795 17.692566 -10.22 -11.89 -2.9 -1.1 1.7337 -3.9773 -0.0036 0.0002 0.025955 0.183456 11.80 
1.186 2 5.065835 -0.407568 -10.345043 14.373779 18.417358 19.287109 -23.33 -25.00 -6.9 -8.5 -4.8295 -2.8529 -0.0044 0.0002 0.025955 0.176138 11.33 
1.191 2 -2.009072 -0.448325 -9.079185 8.331299 24.398804 15.556335 -3.77 -5.61 5.7 3.8 -12.5210 -11.5579 -0.0058 0.0001 0.028550 0.169306 11.61 
1.196 2 -7.448911 -1.608696 -3.421177 7.446289 19.836426 15.121460 38.89 37.05 9.0 9.0 -10.3227 -10.4021 -0.0074 0.0001 0.028550 0.171851 10.81 
1.201 2 -7.460898 -3.759219 -2.725913 -4.417419 6.462097 21.873474 43.13 41.12 9.0 9.0 -3.5400 3.2982 -0.0076 0.0001 0.031146 0.180257 9.02 
1.206 2 -3.845527 0.556211 -8.832246 -10.490417 1.472473 10.284424 28.78 26.60 9.0 9.0 9.4564 13.5227 -0.0062 0.0001 0.033741 0.186583 8.21 
1.211 2 3.351650 -8.403100 -14.471074 -3.211975 13.786316 1.876831 -3.04 -5.55 -5.2 -7.8 15.1940 17.1173 -0.0038 0.0002 0.038932 0.185035 11.60 
1.216 2 9.812807 3.804770 -15.125581 10.719299 39.810181 0.671387 -32.05 -34.40 -9.0 -9.0 7.5126 7.6399 -0.0024 0.0003 0.036337 0.175012 10.14 
1.221 2 13.468935 0.179810 -9.748075 12.779236 45.722961 3.005981 -55.55 -57.90 -9.0 -9.0 -6.3190 -6.3487 -0.0032 0.0002 0.036337 0.161550 8.57 
1.226 2 3.946221 0.788765 -15.559521 7.202148 36.804199 20.942688 -40.14 -42.65 -9.0 -9.0 -13.9409 -12.1826 -0.0050 0.0002 0.038932 0.151312 7.10 
1.231 2 -17.439131 6.523491 -9.311738 8.697510 27.923584 26.840210 6.70 4.02 9.0 4.7 -18.0303 -13.6593 -0.0072 0.0001 0.041528 0.151910 11.55 
1.236 2 -19.639999 -5.868984 -3.471523 -5.332947 -0.312805 17.929077 40.60 37.76 9.0 9.0 -8.0492 -6.4394 -0.0086 0.0000 0.044123 0.162639 9.75 
1.241 2 -3.898271 2.464590 0.033564 -19.783020 -12.634277 15.235901 58.12 55.44 9.0 9.0 6.8643 2.1602 -0.0080 0.0000 0.041528 0.176941 7.25 
1.246 2 6.322104 -1.541567 -9.534702 0.534058 -11.230469 10.475159 -22.15 -24.66 -9.0 -9.0 14.8601 13.5227 -0.0058 0.0001 0.038932 0.176045 9.54 
1.251 2 12.099985 -5.437441 -9.925488 23.170471 9.910583 7.743835 -35.85 -38.36 -9.0 -9.0 5.8794 5.2414 -0.0050 0.0002 0.038932 0.167319 6.87 
1.256 2 9.580254 2.929697 -16.602417 10.398865 17.616272 26.496887 -36.60 -39.12 -9.0 -9.0 -9.7991 -10.9941 -0.0062 0.0001 0.038932 0.158370 7.02 
1.261 2 -4.334609 1.232295 -19.639999 13.412476 5.935669 21.102905 -20.93 -23.61 -6.7 -9.0 -15.7241 -14.0861 -0.0084 0.0000 0.041528 0.153060 7.42 
1.266 2 -15.561918 0.011987 -6.012832 5.020142 -2.174377 38.688660 20.18 17.50 9.0 9.0 -17.1173 -14.5405 -0.0109 -0.0001 0.041528 0.155452 11.44 
1.271 2 -16.715097 -1.450464 -2.737900 -6.431580 -21.110535 27.236938 52.71 50.03 9.0 9.0 -5.4527 -8.3473 -0.0121 -0.0001 0.041528 0.169820 9.43 
1.276 2 -2.817017 -1.150781 0.841509 -20.202637 -30.212402 25.077820 78.82 76.31 9.0 9.0 2.3396 2.2060 -0.0115 -0.0001 0.038932 0.187402 7.23 
1.281 2 4.272275 -2.826606 -9.131928 -3.776550 -24.307251 18.386841 -5.53 -8.04 -6.0 -6.8 13.6593 12.5210 -0.0099 -0.0000 0.038932 0.186867 10.38 
1.286 2 8.295215 -1.512798 -14.986527 15.342712 -2.403259 36.643982 -17.11 -19.79 -1.8 -9.0 -8.8965 6.3190 -0.0088 -0.0000 0.041528 0.179247 8.86 
1.291 2 8.338368 1.321001 -19.639999 23.841858 8.674622 30.548096 -18.58 -21.09 -3.8 -4.9 -8.2961 -10.1674 -0.0099 -0.0001 0.038932 0.172161 11.23 
1.296 2 4.123633 -0.668892 -17.870674 10.147095 10.307312 34.744263 -15.79 -18.13 -1.0 -2.0 -11.5579 -13.3888 -0.0117 -0.0001 0.036337 0.167392 11.96 
1.301 2 -4.898013 7.384180 -6.976611 9.147644 -1.777649 39.230347 11.62 9.28 9.0 9.0 -6.8296 -8.0016 -0.0129 -0.0002 0.036337 0.168535 11.09 
1.306 2 -14.085083 0.007192 2.059419 -5.599976 -15.731812 46.051025 61.72 59.38 9.0 9.0 2.8957 2.1811 -0.0125 -0.0001 0.036337 0.181938 9.75 
1.311 2 -8.458241 -1.184346 -2.534116 -17.860413 -16.708374 43.312073 68.33 66.16 9.0 9.0 14.8601 13.7987 -0.0107 -0.0001 0.033741 0.197995 7.51 
1.316 2 5.480596 -2.287178 -9.163095 -5.889893 -7.545471 51.368713 -5.82 -7.99 -8.5 -9.0 17.7930 19.8863 -0.0082 -0.0000 0.033741 0.195703 9.73 
1.321 2 8.029097 2.876953 -19.067007 6.515503 18.981934 63.430786 -10.31 -12.82 -3.6 -9.0 3.7879 7.9080 -0.0070 0.0000 0.038932 0.187426 7.99 
1.326 2 10.968384 -1.148384 -19.639999 31.547546 23.574829 45.776367 -22.43 -24.78 -6.2 -6.6 -8.1956 -11.0842 -0.0080 -0.0000 0.036337 0.178480 10.54 
1.331 2 -3.231777 -2.052227 -14.593345 26.649475 11.451721 43.624878 -7.12 -9.29 4.4 2.6 -13.2575 -13.2575 -0.0103 -0.0001 0.033741 0.172809 11.96 
1.336 2 -14.583755 6.700903 -5.221670 14.678955 5.104065 66.535950 36.21 33.87 9.0 9.0 -6.5327 -5.5649 -0.0113 -0.0001 0.036337 0.175250 10.71 
1.341 2 -13.576821 -0.925420 1.872417 -4.104614 -5.531311 64.491272 70.10 67.59 9.0 9.0 6.8643 11.8620 -0.0103 -0.0001 0.038932 0.188952 9.27 
1.346 2 -0.306875 0.316465 0.748008 -30.151367 -8.300781 78.765869 95.16 92.48 9.0 9.0 13.6593 15.9091 -0.0084 -0.0000 0.041528 0.205623 8.08 
1.351 2 11.567749 0.920625 -11.553364 -2.586365 3.059387 50.849915 -9.08 -11.93 -9.0 -9.0 18.5242 22.5378 -0.0054 0.0001 0.044123 0.200382 9.73 
1.356 2 12.399668 0.043154 -17.314463 6.706238 21.438599 79.292297 -15.23 -18.41 -6.8 -9.0 4.4048 8.3992 -0.0042 0.0002 0.049314 0.190848 7.96 
1.361 2 7.866069 -0.666494 -19.639999 24.719238 34.255981 62.484741 -19.90 -23.25 -3.6 -8.1 -10.6478 -8.3992 -0.0052 0.0001 0.051910 0.181111 9.49 
1.366 2 2.109766 -6.075166 -17.561401 28.526306 31.120300 39.482117 -10.75 -13.93 0.5 1.3 -9.7286 -17.1173 -0.0070 0.0000 0.049314 0.175014 11.82 
1.371 2 -10.258735 6.921470 -4.663061 16.883850 17.204285 56.419373 31.29 28.45 9.0 9.0 -5.5421 -9.3260 -0.0082 -0.0000 0.044123 0.178744 10.31 
1.376 2 -15.914345 -0.357222 1.416899 -5.149841 1.663208 67.710876 71.61 68.93 9.0 9.0 6.3487 2.6207 -0.0076 0.0000 0.041528 0.192170 8.27 
1.381 2 -4.636689 -3.651333 -4.770947 -24.925232 3.280640 78.002930 75.65 73.14 9.0 9.0 15.9091 14.6986 -0.0054 0.0001 0.038932 0.209716 8.38 
1.386 2 8.525371 -2.704336 -12.675376 -0.862122 17.036438 53.901672 0.13 -2.38 -6.2 -7.4 18.7815 18.2739 -0.0026 0.0002 0.038932 0.201794 10.05 
1.391 2 10.440942 2.474180 -15.406083 -0.091553 34.904480 81.611633 -14.32 -17.00 -6.6 -9.0 4.3622 7.0799 -0.0016 0.0003 0.041528 0.191731 9.02 
1.396 2 8.566128 0.949395 -19.639999 20.996094 39.093018 54.832458 -24.31 -26.82 -6.5 -6.9 -10.7323 -13.2575 -0.0030 0.0002 0.038932 0.181034 9.38 
1.401 2 -1.958726 -11.292041 -11.984907 39.482117 21.278381 43.632507 -3.43 -5.77 4.3 3.8 -10.8182 -12.8788 -0.0048 0.0001 0.036337 0.174975 11.98 
1.406 2 -15.676996 4.936372 0.225361 6.935120 18.806458 80.566406 41.82 39.64 9.0 9.0 -5.3449 -5.4091 -0.0058 0.0001 0.033741 0.179361 10.52 
1.411 2 -13.986787 1.268257 3.332471 -4.463196 3.440857 63.507080 68.99 66.65 9.0 9.0 5.4308 5.9835 -0.0052 0.0001 0.036337 0.193089 8.70 
1.416 2 -4.917192 -5.638828 -0.489082 -18.280029 -2.059937 73.539734 76.19 73.68 9.0 9.0 14.8601 17.1173 -0.0030 0.0002 0.038932 0.208717 8.72 
1.421 2 8.551743 -4.214736 -16.281157 -0.282288 21.270752 56.823730 -8.39 -10.90 -9.0 -9.0 19.5981 20.4889 -0.0002 0.0003 0.038932 0.201093 8.97 
1.426 2 9.501138 6.348476 -16.942856 3.746033 39.535522 82.397461 -18.13 -20.81 -9.0 -9.0 6.7953 6.1467 0.0012 0.0004 0.041528 0.190484 6.30 
1.431 2 12.485976 -0.534634 -19.639999 20.111084 47.508240 46.218872 -30.58 -33.26 -9.0 -9.0 -9.3260 -10.0916 -0.0000 0.0003 0.041528 0.178865 7.07 
1.436 2 1.805288 -5.847407 -12.447617 27.473450 32.173157 50.849915 -21.61 -24.12 -6.1 -7.4 -12.7573 -14.0861 -0.0018 0.0003 0.038932 0.170186 7.77 
1.441 2 -15.499584 7.158818 -4.418520 7.957458 36.567688 64.064026 29.43 26.92 9.0 9.0 -15.1940 -15.0252 -0.0038 0.0002 0.038932 0.171691 8.80 
1.446 2 -15.861601 -1.004536 3.097519 -8.071899 17.700195 61.378479 60.59 58.08 9.0 9.0 -5.8794 -5.6818 -0.0050 0.0001 0.038932 0.183883 6.23 
1.451 2 -3.646538 0.668892 0.719238 -22.705078 10.467529 66.482544 71.19 68.68 9.0 9.0 5.6345 5.6818 -0.0042 0.0002 0.038932 0.198568 6.87 
1.456 2 9.851167 -5.125772 -12.157524 -0.564575 28.251648 49.011230 -16.53 -19.04 -9.0 -9.0 12.5210 11.8620 -0.0026 0.0002 0.038932 0.192876 9.38 
1.461 2 12.157524 2.718721 -18.563540 11.077881 38.993835 65.361023 -25.65 -28.17 -9.0 -9.0 2.9720 2.7541 -0.0022 0.0002 0.038932 0.182102 6.64 
1.466 2 6.691313 4.121235 -19.639999 25.466919 37.391663 40.916443 -26.66 -29.17 -8.9 -9.0 -9.5230 -10.7323 -0.0034 0.0002 0.038932 0.172309 7.78 
1.471 2 -2.771465 -9.453188 -15.437250 31.921387 21.537781 29.945374 -5.66 -8.17 3.8 2.0 -13.2575 -13.5227 -0.0054 0.0001 0.038932 0.167517 11.91 
1.476 2 -15.636240 3.473921 0.163027 -8.102417 14.976501 77.453613 40.23 37.72 9.0 9.0 -10.3227 -8.5048 -0.0070 0.0000 0.038932 0.172858 10.44 
1.481 2 -11.059487 1.553555 1.766929 -12.260437 -0.556946 53.985596 67.48 64.80 9.0 9.0 -3.3555 -2.3275 -0.0072 0.0000 0.041528 0.187312 8.37 
1.486 2 1.126807 -4.432905 -3.998965 -18.074036 0.579834 63.713074 13.04 10.20 7.0 3.6 9.2621 12.7573 -0.0058 0.0001 0.044123 0.197615 8.16 
1.491 2 8.206509 -0.508262 -14.068300 -0.381470 20.172119 53.009033 -15.05 -17.89 -9.0 -9.0 8.9554 11.0842 -0.0042 0.0002 0.044123 0.188566 7.26 
1.496 2 9.244609 3.066352 -19.639999 12.611389 32.928467 79.261780 -22.91 -26.09 -6.4 -9.0 -5.6818 2.8231 -0.0042 0.0002 0.049314 0.178888 8.50 
1.501 2 6.072768 4.418520 -19.639999 30.502319 26.885986 38.208008 -22.81 -25.99 -5.0 -7.4 -12.1826 -13.5227 -0.0058 0.0001 0.049314 0.170330 8.72 
1.506 2 -7.309858 -5.974473 -9.060004 30.570984 15.388489 25.131226 7.74 4.89 9.0 9.0 -12.2934 -15.3667 -0.0078 -0.0000 0.044123 0.167553 11.64 
1.511 2 -16.161283 3.653730 -0.565801 -8.773804 3.982544 77.941895 50.27 47.25 9.0 9.0 -5.3875 -4.2127 -0.0088 -0.0000 0.046719 0.175484 9.84 
1.516 2 -9.012055 2.327935 4.468867 -12.611389 -7.408142 44.921875 80.96 77.78 9.0 9.0 5.0837 12.4061 -0.0078 0.0000 0.049314 0.191084 7.51 
1.521 2 1.762134 -8.460639 -2.783452 -19.912720 6.172180 72.814941 7.27 3.92 0.7 -2.6 15.3667 18.0303 -0.0056 0.0001 0.051910 0.202103 7.53 
1.526 2 12.493169 3.167046 -11.335195 0.076294 20.790100 48.614502 -15.67 -19.36 -9.0 -9.0 7.6833 13.5227 -0.0036 0.0002 0.057101 0.192093 5.71 
1.531 2 13.634360 -3.593794 -19.421831 11.856079 31.417847 68.222046 -24.44 -28.29 -8.1 -9.0 -5.2211 -3.6647 -0.0038 0.0002 0.059696 0.181938 9.18 
1.536 2 6.091948 6.161474 -19.639999 25.466919 29.098511 39.131165 -23.61 -27.29 -6.6 -8.5 -10.1674 -13.7987 -0.0052 0.0001 0.057101 0.172501 9.56 
1.541 2 -5.190503 -7.540014 -7.542412 31.150818 22.384644 17.997742 3.78 0.26 8.5 7.2 -11.1758 -15.5433 -0.0074 -0.0000 0.054505 0.169157 11.85 
1.546 2 -16.619198 2.824209 -2.232036 -7.347107 7.392883 67.817688 48.78 45.43 9.0 9.0 -6.4089 -6.8643 -0.0084 -0.0001 0.051910 0.177770 10.19 
1.551 2 -7.935596 4.387353 4.629497 -15.197754 -1.197815 42.984009 80.09 76.74 9.0 9.0 2.4676 3.1595 -0.0080 -0.0000 0.051910 0.192936 8.08 
1.556 2 4.703818 -3.442754 -4.320224 -16.616821 3.105164 66.032410 3.39 0.04 -0.8 -2.2 14.2344 13.5227 -0.0060 0.0001 0.051910 0.202680 7.13 
1.561 2 9.824795 -0.059937 -17.192192 7.194519 21.423340 39.619446 -10.34 -13.52 -7.4 -9.0 9.0151 10.6478 -0.0042 0.0002 0.049314 0.192443 5.06 
1.566 2 12.584272 1.222705 -19.639999 7.682800 35.629272 69.816589 -22.39 -25.91 -6.8 -9.0 -7.0066 -3.9656 -0.0046 0.0001 0.054505 0.182272 7.40 
1.571 2 7.106074 4.641484 -19.639999 25.054932 32.630920 38.108826 -25.10 -28.78 -6.4 -9.0 -12.6380 -12.1826 -0.0060 0.0001 0.057101 0.172784 8.29 
1.576 2 -7.873261 -5.101797 -9.848769 31.791687 25.711060 15.556335 5.95 2.44 9.0 8.7 -13.7987 -15.3667 -0.0082 -0.0001 0.054505 0.169330 11.72 
1.581 2 -16.657558 1.855635 -2.399858 -8.590698 13.015747 63.537598 46.10 42.58 9.0 9.0 -8.5048 -7.0066 -0.0094 -0.0001 0.054505 0.177653 9.98 
1.586 2 -4.303442 3.675308 2.399858 -15.289307 -1.190186 38.162231 77.81 74.12 9.0 9.0 2.1129 6.8296 -0.0088 -0.0001 0.057101 0.192779 7.67 
1.591 2 7.463295 -4.279468 -5.557314 -20.362854 12.664795 61.401367 -7.63 -11.82 -5.4 -9.0 11.7589 16.2924 -0.0070 0.0000 0.064887 0.201895 8.15 
1.596 2 12.198281 3.279727 -16.530493 2.868652 26.245117 35.758972 -16.57 -21.09 -8.3 -9.0 6.6944 9.5230 -0.0054 0.0001 0.070078 0.191611 5.35 
1.601 2 10.345043 -1.802891 -19.639999 10.925293 35.751343 46.424866 -22.11 -26.96 -5.6 -9.0 -8.0974 2.5323 -0.0058 0.0001 0.075269 0.181388 7.40 
1.606 2 -0.309272 2.939287 -19.639999 22.010803 30.464172 23.338318 -15.00 -19.85 -0.9 -4.8 -11.4599 -13.3888 -0.0074 -0.0000 0.075269 0.172537 9.19 
1.611 2 -8.026699 -1.659043 -3.620166 28.251648 19.081116 -3.517151 22.94 18.25 9.0 9.0 -9.6591 -14.8601 -0.0092 -0.0002 0.072674 0.170971 11.11 
1.616 2 -17.796352 -1.826865 2.128945 -8.728027 7.255554 41.740417 59.62 55.26 9.0 9.0 -3.5215 -7.3493 -0.0100 -0.0002 0.067483 0.180322 9.27 
1.621 2 -10.819741 3.123892 0.486685 -20.439148 3.410339 17.120361 72.74 68.72 9.0 9.0 12.8788 7.0066 -0.0088 -0.0001 0.062292 0.195506 7.26 
1.626 2 9.632998 -6.489926 -4.435303 -16.685486 9.925842 45.669556 -1.40 -5.42 -5.3 -6.6 17.5619 15.9091 -0.0064 0.0000 0.062292 0.202520 7.97 
1.631 2 14.015556 3.526665 -14.111455 4.226685 27.664185 23.498535 -20.72 -24.74 -9.0 -9.0 11.7589 10.8182 -0.0044 0.0001 0.062292 0.191644 6.38 
1.636 2 12.145536 -1.608696 -19.639999 7.415771 46.119690 51.757812 -28.73 -32.74 -9.0 -9.0 -5.3449 -4.7282 -0.0044 0.0001 0.062292 0.180713 6.77 
1.641 2 5.461416 4.468867 -19.639999 21.400452 48.225403 35.438538 -27.10 -31.12 -9.0 -9.0 -10.8182 -12.4061 -0.0060 0.0000 0.062292 0.170481 8.13 
1.646 2 -0.338042 -3.883887 -10.527250 27.465820 33.584595 23.628235 -11.89 -15.91 0.8 -3.4 -15.9091 -14.5405 -0.0080 -0.0001 0.062292 0.165459 11.63 
1.651 2 -15.298198 0.798354 -2.270396 -4.081726 20.606995 53.466797 41.38 37.36 9.0 9.0 -9.0756 -10.8182 -0.0096 -0.0002 0.062292 0.172202 10.12 
1.656 2 -6.370053 2.749888 3.567422 -11.535645 11.314392 38.360596 69.62 65.60 9.0 9.0 3.1375 6.2031 -0.0096 -0.0002 0.062292 0.186160 7.59 
1.661 2 3.095122 -2.126548 -5.976870 -11.894226 9.513855 49.301147 -1.92 -5.94 -2.7 -5.2 12.4061 12.8788 -0.0080 -0.0001 0.062292 0.193865 7.89 
1.666 2 8.863413 -3.279727 -12.625029 4.684448 33.432007 34.294128 -24.75 -28.77 -9.0 -9.0 6.5013 7.9545 -0.0068 -0.0000 0.062292 0.183111 5.55 
1.671 2 9.882334 1.908379 -19.639999 9.254456 41.099548 55.603027 -29.57 -33.59 -9.0 -9.0 -2.2842 -2.4587 -0.0072 -0.0000 0.062292 0.172375 6.91 
1.676 2 5.243247 1.086050 -19.639999 20.584106 35.789490 33.729553 -31.51 -35.36 -9.0 -9.0 -10.0916 -11.6575 -0.0090 -0.0002 0.059696 0.163163 8.40 
1.681 2 -8.642846 1.611094 -11.174565 18.661499 21.797180 44.334412 -0.79 -4.65 5.0 1.4 -13.0026 -12.4061 -0.0111 -0.0003 0.059696 0.160889 11.26 
1.686 2 -19.639999 -0.582583 -0.978164 -3.944397 4.035950 47.981262 49.78 45.76 9.0 9.0 -8.3473 -8.0492 -0.0125 -0.0004 0.062292 0.171624 9.56 
1.691 2 -8.769912 0.534634 1.829263 -22.430420 -3.860474 49.240112 73.82 69.97 9.0 9.0 2.6991 3.0525 -0.0123 -0.0004 0.059696 0.187048 6.99 
1.696 2 5.027475 -0.997344 -5.996049 -11.276245 -2.052307 48.278809 -5.25 -8.94 -4.4 -6.3 11.8620 11.5579 -0.0108 -0.0003 0.057101 0.190696 11.82 
1.701 2 11.339990 -1.980303 -10.913241 9.864807 14.312744 41.709900 -26.23 -30.08 -9.0 -9.0 6.2605 6.2031 -0.0098 -0.0002 0.059696 0.180086 10.30 
1.706 2 10.366621 -0.304478 -19.639999 11.718750 24.200439 58.303833 -27.25 -31.27 -8.2 -9.0 -10.9054 -8.3473 -0.0108 -0.0003 0.062292 0.170470 9.21 
1.711 2 2.323140 1.793301 -19.639999 24.208069 20.317078 32.875061 -19.94 -23.79 -4.0 -6.2 -13.0026 -14.8601 -0.0131 -0.0004 0.059696 0.163994 10.69 
1.716 2 -7.465693 3.792783 -7.290679 16.304016 0.244141 34.339905 8.93 5.25 9.0 8.0 -9.4564 -10.9941 -0.0149 -0.0005 0.057101 0.165047 11.14 
1.721 2 -17.041151 0.357222 -2.315947 -6.187439 -11.131287 51.116943 55.14 51.46 9.0 9.0 -4.5378 -4.0246 -0.0153 -0.0005 0.057101 0.177534 9.49 
1.726 2 -7.142036 1.397720 -1.100435 -23.643494 -14.991760 45.753479 76.17 72.48 9.0 9.0 8.3473 10.0916 -0.0141 -0.0005 0.057101 0.195161 8.02 
1.731 2 7.302666 -0.664097 -7.098882 -14.701843 -2.311707 55.915833 -9.84 -13.52 -9.0 -9.0 15.0252 15.3667 -0.0121 -0.0004 0.057101 0.192138 10.05 
1.736 2 12.864775 2.646797 -10.973178 6.523132 3.776550 42.785645 -20.71 -24.56 -9.0 -9.0 4.6153 6.0913 -0.0110 -0.0003 0.059696 0.182623 8.54 
1.741 2 9.829590 -6.640966 -19.639999 16.815186 17.204285 53.596497 -21.77 -25.79 -7.2 -9.0 -6.9705 -2.2024 -0.0117 -0.0003 0.062292 0.174488 9.73 
1.746 2 2.033047 7.297871 -19.263597 14.427185 24.375916 48.133850 -17.73 -21.58 -3.4 -4.6 -11.1758 -15.1940 -0.0135 -0.0004 0.059696 0.168286 11.18 
1.751 2 -4.337007 -0.738418 -10.426558 27.557373 7.110596 12.840271 1.12 -2.40 5.8 6.2 -9.1991 -15.5433 -0.0155 -0.0006 0.054505 0.166455 11.64 
1.756 2 -12.680170 -1.133999 3.272534 -6.660461 -2.990723 62.744141 53.71 50.36 9.0 9.0 -3.4852 -4.8295 -0.0161 -0.0006 0.051910 0.176115 10.01 
1.761 2 -4.046914 5.571699 0.961382 -14.961243 -8.552551 35.987854 71.67 68.15 9.0 9.0 8.6684 10.9941 -0.0151 -0.0005 0.054505 0.191609 7.69 
1.766 2 6.509106 -7.448911 -10.457725 -14.091492 -0.740051 58.631897 6.15 2.46 0.6 -2.9 14.3858 17.1173 -0.0129 -0.0004 0.057101 0.200133 7.61 
1.771 2 12.629824 5.056245 -13.890888 -2.365112 21.499634 34.523010 -18.58 -22.43 -9.0 -9.0 12.4061 15.5433 -0.0106 -0.0003 0.059696 0.190561 6.95 
1.776 2 12.632221 -4.277070 -19.405048 9.597778 38.284302 54.702759 -27.82 -32.01 -9.0 -9.0 -2.2315 2.9786 -0.0106 -0.0003 0.064887 0.180332 6.80 
1.781 2 5.943305 3.195815 -19.639999 20.965576 42.419434 34.835815 -27.70 -31.72 -9.0 -9.0 -11.0842 -12.6380 -0.0121 -0.0004 0.062292 0.169958 8.34 
1.786 2 -3.318086 -8.175342 -14.296059 30.677795 31.265259 15.441895 -11.49 -15.51 1.1 -2.7 -15.3667 -15.7241 -0.0145 -0.0005 0.062292 0.164026 10.63 
1.791 2 -16.127720 3.322881 -3.473921 -6.317139 23.887634 58.013916 34.92 30.90 9.0 9.0 -11.8620 -10.6478 -0.0165 -0.0006 0.062292 0.169230 9.43 
1.796 2 -8.786695 0.848701 5.140156 -11.337280 3.456116 37.048340 68.10 63.91 9.0 9.0 -3.4235 5.0084 -0.0167 -0.0007 0.064887 0.182881 6.99 
1.801 2 -1.510400 -3.059160 -6.698506 -16.815186 6.904602 52.078247 16.16 11.97 8.5 4.6 9.7286 12.7573 -0.0155 -0.0006 0.064887 0.195105 7.28 
1.806 2 8.273638 -3.603384 -13.802182 -1.609802 28.205872 39.482117 -20.34 -24.53 -9.0 -9.0 12.1826 12.1826 -0.0135 -0.0004 0.064887 0.185869 5.68 
1.811 2 10.388198 6.581030 -19.639999 4.028320 46.180725 71.571350 -29.59 -33.78 -9.0 -9.0 -6.0640 -3.4235 -0.0135 -0.0004 0.064887 0.175026 6.61 
1.816 2 9.635395 3.378022 -19.639999 22.399902 45.143127 36.407471 -35.05 -39.24 -9.0 -9.0 -10.5646 -12.8788 -0.0151 -0.0006 0.064887 0.164766 7.83 
1.821 2 0.445928 -7.894839 -12.481181 30.151367 26.535034 31.303406 -18.15 -22.33 -4.0 -7.7 -14.5405 -14.3858 -0.0171 -0.0007 0.064887 0.159183 10.28 
1.826 2 -17.980957 3.085532 -1.215513 -6.332397 18.531799 65.551758 36.86 32.84 9.0 9.0 -14.8601 -12.5210 -0.0193 -0.0008 0.062292 0.164264 9.59 
1.831 2 -11.857841 1.433682 4.526406 -12.557983 2.288818 51.559448 62.38 58.19 9.0 9.0 -6.0640 -3.9425 -0.0199 -0.0009 0.064887 0.177755 6.74 
1.836 2 3.020801 -2.903325 -2.852978 -21.591187 2.487183 59.219360 -13.87 -18.05 -7.5 -9.0 9.3908 11.1758 -0.0187 -0.0008 0.064887 0.186125 7.01 
1.841 2 9.812807 -2.033047 -11.658853 -3.646851 19.775391 49.171448 -28.90 -33.09 -9.0 -9.0 8.2455 9.1370 -0.0175 -0.0007 0.064887 0.176990 5.79 
1.846 2 9.457983 5.295991 -18.419691 5.638123 27.023315 73.074341 -31.37 -35.72 -9.0 -9.0 -6.9347 -2.2765 -0.0181 -0.0007 0.067483 0.166500 7.26 
1.851 2 1.889199 -0.776777 -19.639999 27.229309 29.014587 35.171509 -24.76 -29.11 -7.6 -9.0 -13.1288 -12.7573 -0.0197 -0.0009 0.067483 0.159163 7.39 
1.856 2 -3.409189 -4.128428 -9.995014 30.540466 8.865356 -2.014160 -3.90 -8.09 3.5 1.2 -13.3888 -16.2924 -0.0219 -0.0010 0.064887 0.157079 11.63 
1.861 2 -13.687104 0.896650 1.325796 -7.270813 -1.144409 64.079285 40.37 36.02 9.0 9.0 -8.3473 -8.7810 -0.0237 -0.0011 0.067483 0.163927 10.33 
1.866 2 -9.426816 5.873779 2.910517 -12.557983 -11.131287 28.205872 66.86 62.33 9.0 9.0 -2.6991 2.7209 -0.0235 -0.0011 0.070078 0.179046 8.34 
1.871 2 1.186743 -5.365518 0.107886 -19.020081 -9.315491 58.013916 -16.70 -21.72 -9.0 -9.0 6.3786 14.6986 -0.0221 -0.0010 0.077865 0.186805 8.16 
1.876 2 7.357807 2.378281 -14.885835 1.525879 8.895874 27.435303 -16.70 -22.06 -8.6 -9.0 5.2823 8.3992 -0.0209 -0.0009 0.083056 0.176268 5.55 
1.881 2 10.666304 0.748008 -17.623735 -1.167297 19.363403 57.395935 -26.15 -32.02 -7.6 -9.0 -10.7323 -3.8636 -0.0215 -0.0010 0.090842 0.167659 6.91 
1.886 2 1.855635 6.266963 -19.639999 21.408081 19.424438 19.020081 -23.26 -28.79 -5.9 -9.0 -13.0026 -15.5433 -0.0235 -0.0011 0.085651 0.160749 7.85 
1.891 2 -3.699282 -8.005122 -8.132187 34.805298 1.823425 -17.829895 2.24 -3.28 8.6 5.1 -14.8601 -18.7815 -0.0259 -0.0013 0.085651 0.158782 11.96 
1.896 2 -15.425263 0.915830 0.107886 -8.232117 -8.651733 43.434143 43.39 38.20 9.0 9.0 -8.8384 -8.9554 -0.0275 -0.0015 0.080460 0.166364 10.22 
1.901 2 -7.918813 5.454224 5.070630 -11.711121 -22.537231 15.480042 83.02 77.83 9.0 9.0 2.8833 2.5182 -0.0271 -0.0014 0.080460 0.182803 7.97 
1.906 2 0.294888 -7.873261 -2.929697 -14.488220 -18.348694 41.229248 13.64 8.62 5.5 2.4 12.6380 13.5227 -0.0253 -0.0013 0.077865 0.194689 8.65 
1.911 2 8.873003 0.664097 -12.394873 1.846313 4.005432 14.442444 -10.28 -15.47 -8.1 -9.0 11.0842 10.3227 -0.0235 -0.0012 0.080460 0.186427 6.50 
1.916 2 10.450532 1.627876 -16.530493 1.907349 21.995544 55.931091 -21.68 -26.87 -6.3 -9.0 -5.8794 -2.5906 -0.0239 -0.0012 0.080460 0.177121 8.99 
1.921 2 5.444633 3.533857 -19.639999 17.440796 29.747009 24.902344 -22.51 -27.54 -4.1 -6.8 -13.5227 -16.2924 -0.0257 -0.0013 0.077865 0.168512 9.56 
1.926 2 1.838853 -8.055469 -12.660991 30.181885 12.145996 12.138367 -11.06 -15.91 2.1 0.2 -14.2344 -18.5242 -0.0283 -0.0015 0.075269 0.163820 11.88 
1.931 2 -13.677514 3.143071 -1.531978 -4.196167 4.028320 53.245544 41.21 36.52 9.0 9.0 -8.7810 -11.5579 -0.0297 -0.0016 0.072674 0.169080 10.55 
1.936 2 -9.915898 1.800493 5.655610 -10.543823 -10.383606 30.036926 76.23 71.37 9.0 9.0 -2.7997 3.4585 -0.0299 -0.0017 0.075269 0.184189 8.81 
1.941 2 -4.188364 -3.584204 -7.384180 -18.295288 -8.216858 48.202515 31.67 26.81 9.0 9.0 8.5587 11.3636 -0.0287 -0.0016 0.075269 0.187709 10.22 
1.946 2 8.467832 -0.328452 -14.969746 -3.112793 10.734558 32.684326 -11.73 -16.92 -4.9 -9.0 6.1467 9.4564 -0.0275 -0.0015 0.080460 0.181111 10.38 
1.951 2 13.260356 2.006675 -19.639999 7.240295 24.703979 55.870056 -26.25 -31.61 -8.4 -9.0 -6.8296 -3.0388 -0.0281 -0.0015 0.083056 0.171836 10.63 
1.956 2 9.870346 5.852202 -19.639999 21.621704 28.488159 32.737732 -30.56 -35.75 -8.6 -9.0 -13.2575 -16.0984 -0.0303 -0.0017 0.080460 0.163460 10.96 
1.961 2 -2.896133 -6.806391 -14.370380 32.249451 9.414673 13.092041 -11.38 -16.40 2.1 -1.2 -15.1940 -18.0303 -0.0325 -0.0019 0.077865 0.158977 11.79 
1.966 2 -19.639999 -0.668892 0.400376 -8.300781 2.845764 62.698364 45.58 40.55 9.0 9.0 -9.7286 -10.5646 -0.0345 -0.0020 0.077865 0.166075 10.52 
1.971 2 -12.428437 4.066093 3.943823 -16.326904 -10.452271 40.000916 71.62 66.76 9.0 9.0 -2.5276 -3.7048 -0.0347 -0.0020 0.075269 0.181049 8.57 
1.976 2 2.721118 -2.546103 -2.157715 -21.903992 -5.752563 56.892395 9.72 4.87 3.6 2.3 12.2934 9.9432 -0.0331 -0.0019 0.075269 0.191871 7.45 
1.981 2 9.462778 -0.453120 -15.842422 -1.678467 13.069153 46.783447 -17.68 -22.54 -9.0 -9.0 9.5230 10.9941 -0.0315 -0.0018 0.075269 0.181959 5.63 
1.986 2 11.980112 2.265600 -18.290230 6.874084 28.221130 78.170776 -29.41 -34.60 -9.0 -9.0 -7.6833 -3.3807 -0.0319 -0.0018 0.080460 0.172330 6.98 
1.991 2 6.732070 4.044517 -19.639999 29.655457 30.242920 31.921387 -29.30 -34.66 -9.0 -9.0 -12.7573 -10.6478 -0.0333 -0.0020 0.083056 0.163282 8.07 
1.996 2 -6.686518 -11.503017 -15.533149 27.824402 26.191711 10.459900 -17.59 -22.95 -1.9 -6.4 -16.9034 -18.0303 -0.0357 -0.0022 0.083056 0.157790 8.80 
2.001 2 -11.805098 7.101279 -3.924644 -4.547119 21.911621 47.843933 20.36 15.00 9.0 9.0 -15.9091 -13.1288 -0.0381 -0.0024 0.083056 0.162171 6.15 
2.006 2 -8.702783 2.402256 2.145727 -6.256104 6.378174 33.042908 61.83 56.64 9.0 9.0 -4.7282 -5.7300 -0.0391 -0.0024 0.080460 0.175984 6.71 
2.011 2 0.280503 -5.236054 -3.632153 -24.047852 6.736755 48.599243 6.78 1.59 4.4 1.9 1.7381 3.1893 -0.0387 -0.0024 0.080460 0.185765 7.06 
2.016 2 8.041083 4.871641 -14.566972 -7.667542 21.690369 46.318054 -21.88 -27.07 -9.0 -9.0 5.3449 4.4048 -0.0379 -0.0023 0.080460 0.176105 5.55 
2.021 2 11.193745 -3.457139 -18.585117 12.496948 28.755188 41.465759 -30.01 -35.20 -9.0 -9.0 -5.0458 -2.0274 -0.0387 -0.0024 0.080460 0.167420 7.28 
2.026 2 6.758442 -0.731226 -19.639999 16.952515 32.325745 45.204163 -33.45 -38.64 -9.0 -9.0 -13.9409 -14.5405 -0.0407 -0.0026 0.080460 0.158955 7.06 
2.031 2 -3.219790 2.680361 -9.925488 26.985168 15.113831 20.729065 -17.48 -22.67 -1.3 -5.8 -16.9034 -16.9034 -0.0431 -0.0028 0.080460 0.154848 10.50 
2.036 2 -17.604555 -1.179551 2.102573 -1.007080 4.287720 57.601929 42.43 37.24 9.0 9.0 -13.2575 -15.7241 -0.0455 -0.0030 0.080460 0.162627 9.49 
2.041 2 -11.951343 3.823950 2.745093 -17.784119 -5.050659 44.754028 61.41 56.22 9.0 9.0 -6.5013 -4.5840 -0.0463 -0.0030 0.080460 0.176618 6.31 
2.046 2 0.335645 -2.665977 -2.946479 -12.039185 -5.470276 48.522949 8.07 3.04 4.2 2.4 6.5327 2.0740 -0.0457 -0.0030 0.077865 0.186407 7.12 
2.051 2 8.170547 -3.330073 -13.313100 -3.402710 13.336182 43.632507 -20.30 -25.49 -9.0 -9.0 6.8643 6.0369 -0.0443 -0.0029 0.080460 0.178689 6.15 
2.056 2 10.347441 2.241626 -19.639999 6.126404 36.979675 62.896729 -29.39 -34.58 -9.0 -9.0 -6.0913 -5.1417 -0.0451 -0.0029 0.080460 0.169690 6.90 
2.061 2 8.781899 7.103676 -19.639999 16.845703 37.689209 36.697388 -33.94 -39.30 -9.0 -9.0 -14.2344 -13.5227 -0.0469 -0.0031 0.083056 0.160661 7.29 
2.066 2 1.066870 -8.920952 -19.639999 28.266907 23.605347 15.464783 -21.15 -26.34 -3.1 -7.0 -17.5619 -18.2739 -0.0496 -0.0033 0.080460 0.154832 10.84 
2.071 2 -13.030200 1.929956 -1.793301 -3.684998 15.327454 53.054810 29.75 24.73 9.0 9.0 -17.3368 -16.6947 -0.0522 -0.0035 0.077865 0.159453 10.43 
2.076 2 -9.604228 1.603901 3.320483 -8.804321 3.410339 27.061462 56.41 51.39 9.0 9.0 -5.9051 -8.6684 -0.0534 -0.0036 0.077865 0.172534 8.10 
2.081 2 0.028770 -1.560747 -4.751768 -19.309998 0.083923 45.455933 -32.81 -37.84 -9.0 -9.0 2.2352 2.3396 -0.0530 -0.0036 0.077865 0.180032 7.12 
2.086 2 3.922246 1.651851 -13.070956 -5.187988 15.617371 30.014038 -19.73 -24.75 -9.0 -9.0 8.0974 7.7717 -0.0518 -0.0035 0.077865 0.174182 9.30 
2.091 2 9.472368 1.234692 -19.639999 6.454468 38.139343 53.405762 -31.71 -36.57 -9.0 -9.0 -4.7282 -3.1893 -0.0520 -0.0035 0.075269 0.164556 7.59 
2.096 2 9.275776 3.799975 -19.639999 16.777039 42.152405 36.460876 -38.76 -43.61 -9.0 -9.0 -14.0861 -15.1940 -0.0540 -0.0036 0.075269 0.155199 7.23 
2.101 2 3.008813 -4.883628 -10.764599 22.178650 19.386292 36.827087 -34.29 -39.15 -9.0 -9.0 -17.1173 -15.9091 -0.0564 -0.0038 0.075269 0.148360 8.13 
2.106 2 -16.472954 0.827124 -0.064731 0.144958 13.237000 59.349060 26.60 21.74 9.0 9.0 -20.4889 -17.3368 -0.0592 -0.0040 0.075269 0.152303 10.00 
2.111 2 -16.408222 -1.220308 3.891079 -13.130188 1.464844 51.818848 51.57 46.55 9.0 9.0 -8.8384 -7.1549 -0.0606 -0.0041 0.077865 0.165485 6.90 
2.116 2 -3.310894 -0.268516 -3.989375 -23.269653 0.251770 54.580688 40.73 35.71 9.0 9.0 3.3639 4.6311 -0.0606 -0.0041 0.077865 0.181992 7.07 
2.121 2 11.615698 -3.378022 -9.103159 -5.859375 9.292603 46.928406 -33.64 -38.66 -9.0 -9.0 7.0431 7.4301 -0.0598 -0.0041 0.077865 0.172268 6.42 
2.126 2 10.488892 3.720859 -17.889853 4.455566 23.971558 69.557190 -30.61 -35.64 -9.0 -9.0 -7.0799 -2.7485 -0.0606 -0.0041 0.077865 0.162826 6.74 
2.131 2 8.889785 0.187002 -19.639999 24.337769 25.291443 43.769836 -34.40 -39.59 -9.0 -9.0 -13.6593 -14.3858 -0.0624 -0.0043 0.080460 0.155320 8.27 
2.136 2 -0.467505 -3.339663 -14.890630 27.442932 5.264282 18.821716 -18.55 -23.57 -3.0 -7.5 -16.4911 -17.5619 -0.0650 -0.0045 0.077865 0.151976 11.17 
2.141 2 -13.586411 2.833799 -2.548501 -1.815796 -2.830505 61.645508 33.21 28.36 9.0 9.0 -12.2934 -12.7573 -0.0672 -0.0046 0.075269 0.158213 10.46 
2.146 2 -9.987822 3.627358 1.560747 -12.145996 -12.184143 44.563293 57.89 53.03 9.0 9.0 -5.4308 -6.9705 -0.0680 -0.0047 0.075269 0.172744 8.48 
2.151 2 1.505605 -2.709131 -1.620684 -19.920349 -17.906189 57.731628 12.72 8.03 7.7 5.2 2.7710 2.7882 -0.0674 -0.0047 0.072674 0.186563 7.29 
2.156 2 7.353013 2.028252 -10.788574 -2.830505 -5.226135 45.417786 -21.98 -26.84 -9.0 -9.0 6.8993 7.5970 -0.0664 -0.0046 0.075269 0.175685 5.16 
2.161 2 9.254199 1.213115 -17.403168 -0.526428 15.869141 71.655273 -25.30 -30.49 -9.0 -9.0 -6.7953 -2.2463 -0.0672 -0.0047 0.080460 0.167307 6.83 
2.166 2 8.443857 2.999223 -19.639999 22.689819 23.948669 32.981873 -29.68 -34.87 -7.8 -9.0 -15.5433 -14.8601 -0.0692 -0.0048 0.080460 0.160192 8.86 
2.171 2 0.393184 -6.621787 -14.988925 30.334473 1.968384 14.030457 -17.27 -22.30 -1.1 -4.3 -16.4911 -19.3181 -0.0718 -0.0050 0.077865 0.156203 11.50 
2.176 2 -14.658075 2.018662 -5.530942 -0.808716 -1.541138 53.131104 33.96 29.11 9.0 9.0 -11.8620 -15.5433 -0.0740 -0.0052 0.075269 0.161509 10.58 
2.181 2 -12.533925 4.967539 6.983803 -8.743286 -18.730164 37.391663 70.83 66.14 9.0 9.0 -3.3555 -4.6470 -0.0746 -0.0052 0.072674 0.177013 8.72 
2.186 2 -2.083394 -4.310635 -3.946221 -24.070740 -17.807007 51.803589 50.39 45.53 9.0 9.0 1.6079 7.7717 -0.0740 -0.0052 0.075269 0.193276 7.77 
2.191 2 10.683085 0.877471 -11.836265 -4.692078 -2.410889 37.109375 -13.44 -18.63 -6.5 -9.0 6.6614 8.4517 -0.0728 -0.0051 0.080460 0.184516 7.80 
2.196 2 12.946289 0.064731 -17.062729 1.792908 17.189026 67.138672 -24.72 -30.08 -6.1 -9.0 -9.2621 -3.5586 -0.0734 -0.0051 0.083056 0.175627 9.05 
2.201 2 9.062402 3.488306 -19.639999 20.393372 27.801514 25.756836 -29.18 -34.54 -7.2 -9.0 -13.7987 -15.3667 -0.0754 -0.0053 0.083056 0.166749 10.17 
2.206 2 -0.338042 -6.813584 -19.009468 27.915955 10.429382 24.391174 -12.52 -17.38 2.0 0.1 -15.1940 -19.8863 -0.0780 -0.0055 0.075269 0.161628 12.01 
2.211 2 -16.667149 3.636948 -2.766670 0.083923 8.224487 50.323486 39.89 35.03 9.0 9.0 -9.5906 -13.1288 -0.0800 -0.0057 0.075269 0.166435 10.73 
2.216 2 -10.805356 -1.071665 4.461675 -10.032654 -4.798889 32.569885 66.20 61.68 9.0 9.0 8.8384 -4.8468 -0.0804 -0.0057 0.070078 0.180872 9.05 
2.221 2 3.982183 -0.851099 3.104712 -24.841309 -12.191772 51.895142 -66.36 -70.72 -9.0 -9.0 10.8182 6.6944 -0.0794 -0.0056 0.067483 0.184814 11.68 
2.226 2 9.055210 1.692607 -12.907929 -2.281189 8.888245 34.698486 -27.08 -31.27 -9.0 -9.0 7.1929 5.4091 -0.0784 -0.0056 0.064887 0.174299 10.35 
2.231 2 9.208647 3.680102 -15.521162 2.456665 18.440247 68.702698 -31.04 -35.23 -9.0 -9.0 -7.3895 -6.1467 -0.0792 -0.0056 0.064887 0.164525 9.19 
2.236 2 6.581030 -2.337524 -19.639999 19.065857 28.648376 44.845581 -30.69 -35.05 -9.0 -9.0 -16.9034 -15.0252 -0.0814 -0.0058 0.067483 0.157054 7.86 
2.241 2 -0.781572 -1.795698 -11.850649 29.190063 4.486084 20.179749 -17.56 -21.74 -2.5 -5.6 -18.7815 -19.0460 -0.0844 -0.0060 0.064887 0.153513 11.07 
2.246 2 -17.570992 -2.260806 -0.093501 3.173828 -1.350403 50.285339 38.48 34.12 9.0 9.0 -16.6947 -16.9034 -0.0871 -0.0061 0.067483 0.160048 10.43 
2.251 2 -6.993393 4.027734 4.583945 -10.765076 -10.391235 32.279968 69.00 64.82 9.0 9.0 -7.9545 -6.0640 -0.0885 -0.0062 0.064887 0.175451 8.37 
2.256 2 5.701162 -4.238711 2.325537 -20.996094 -12.771606 48.858643 -19.19 -23.55 -9.0 -9.0 6.3190 3.9656 -0.0883 -0.0062 0.067483 0.185183 7.25 
2.261 2 9.215839 0.982959 -13.329883 -2.876282 1.747131 28.839111 -25.46 -29.98 -9.0 -9.0 4.1354 4.8295 -0.0877 -0.0062 0.070078 0.174253 5.51 
2.266 2 7.571181 1.519990 -18.177547 1.594543 11.184692 43.518066 -25.33 -30.02 -5.3 -9.0 -13.5227 -11.9670 -0.0891 -0.0063 0.072674 0.165915 7.28 
2.271 2 3.773603 -3.809565 -19.639999 15.136719 18.028259 22.758484 -23.40 -28.09 -3.0 -6.3 -17.3368 -18.7815 -0.0915 -0.0065 0.072674 0.159803 10.28 
2.276 2 -0.297285 -0.069526 -14.173789 27.488708 -6.820679 5.393982 -8.15 -12.50 3.8 1.7 -14.5405 -18.0303 -0.0939 -0.0066 0.067483 0.158078 11.64 
2.281 2 -16.130117 -0.342837 0.843906 -3.608704 -18.569946 39.009094 54.00 49.82 9.0 9.0 -7.6833 -9.2621 -0.0953 -0.0067 0.064887 0.167729 10.35 
2.286 2 -7.175601 1.771724 5.454224 -13.343811 -28.457642 21.377563 86.80 82.78 9.0 9.0 2.2804 -2.3477 -0.0951 -0.0067 0.062292 0.184716 8.45 
2.291 2 3.565024 -5.063437 -2.080996 -14.068604 -23.506165 41.053772 -8.12 -11.80 -6.0 -5.5 12.2934 7.8166 -0.0939 -0.0066 0.057101 0.195091 8.04 
2.296 2 11.347182 1.136396 -8.371933 0.831604 -7.980347 19.943237 -17.47 -21.16 -9.0 -9.0 7.9545 6.1467 -0.0927 -0.0066 0.057101 0.185892 5.74 
2.301 2 9.640190 2.565283 -19.301958 1.243591 9.674072 54.512024 -17.08 -20.94 -2.4 -5.9 -9.5906 -2.2389 -0.0933 -0.0066 0.059696 0.177288 7.96 
2.306 2 5.046655 0.563403 -19.639999 19.729614 18.836975 25.321960 -17.40 -21.08 -0.0 -1.9 -15.0252 -16.4911 -0.0955 -0.0067 0.057101 0.170546 11.69 
2.311 2 -2.229639 -1.889199 -15.458828 22.796631 4.432678 27.877808 -6.32 -9.84 3.5 3.7 -10.9941 -15.9091 -0.0977 -0.0068 0.054505 0.166219 11.83 
2.316 2 -14.073095 0.268516 -1.354565 1.266479 1.533508 43.525696 50.03 46.68 9.0 9.0 -6.4394 -6.4089 -0.0987 -0.0069 0.051910 0.171791 10.58 
2.321 2 -11.797905 0.692866 3.905464 -10.238647 -6.523132 36.064148 72.16 68.64 9.0 9.0 5.7543 5.2414 -0.0985 -0.0069 0.054505 0.186425 8.83 
2.326 2 0.182207 -2.359102 0.268516 -15.800476 -7.736206 39.855957 1.66 -2.02 0.5 -3.3 10.0168 13.3888 -0.0971 -0.0068 0.057101 0.197399 7.78 
2.331 2 10.354633 0.843906 -13.274741 -6.843567 9.414673 39.260864 -16.03 -19.88 -9.0 -9.0 7.6399 9.4564 -0.0953 -0.0067 0.059696 0.185882 4.89 
2.336 2 10.560815 0.338042 -18.630669 4.623413 29.815674 49.011230 -24.73 -28.91 -7.8 -9.0 -6.6944 2.7710 -0.0953 -0.0067 0.064887 0.176823 7.85 
2.341 2 8.069853 0.973369 -19.639999 21.003723 42.083740 19.561768 -28.58 -32.77 -6.9 -9.0 -16.0984 -15.0252 -0.0973 -0.0068 0.064887 0.167831 8.21 
2.346 2 0.795957 -3.823950 -14.722807 24.993896 23.757935 15.579224 -21.19 -25.38 -2.9 -6.4 -18.0303 -19.3181 -0.1001 -0.0070 0.064887 0.160441 10.17 
2.351 2 -15.993462 5.116181 -3.970195 8.293152 18.768311 35.530090 32.89 28.71 9.0 9.0 -16.9034 -19.3181 -0.1029 -0.0072 0.064887 0.162896 10.35 
2.356 2 -15.185517 -0.189399 1.335386 -9.605408 7.476807 34.194946 53.76 49.74 9.0 9.0 -6.7613 -6.9347 -0.1043 -0.0073 0.062292 0.175513 7.96 
2.361 2 -0.690469 -3.090327 -1.850840 -27.908325 0.999451 45.486450 70.23 66.21 9.0 9.0 2.4365 3.2274 -0.1039 -0.0073 0.062292 0.192184 7.45 
2.366 2 7.441719 1.697402 -10.982768 -7.110596 11.589050 27.595520 -15.51 -19.87 -9.0 -9.0 8.0492 8.5048 -0.1027 -0.0072 0.067483 0.184055 8.76 
2.371 2 11.164975 2.517334 -14.173789 1.945496 26.733398 49.774170 -28.44 -32.80 -9.0 -9.0 -2.6725 2.7045 -0.1031 -0.0072 0.067483 0.173526 7.61 
2.376 2 9.076787 -4.056504 -19.639999 26.435852 37.437439 26.519775 -33.90 -38.42 -9.0 -9.0 -14.3858 -15.0252 -0.1049 -0.0073 0.070078 0.164037 7.70 
2.381 2 0.918227 -3.445151 -17.698055 29.647827 21.835327 26.794434 -20.24 -24.76 -1.8 -6.4 -18.7815 -18.2739 -0.1077 -0.0075 0.070078 0.157455 9.43 
2.386 2 -10.860497 5.717944 -3.514678 11.665344 18.989563 33.569336 14.61 10.09 9.0 9.0 -18.7815 -19.8863 -0.1105 -0.0077 0.070078 0.157591 11.26 
2.391 2 -13.706284 -2.347114 -2.486167 -8.552551 7.621765 40.039062 43.03 38.84 9.0 9.0 -9.5906 -11.1758 -0.1125 -0.0079 0.064887 0.169784 9.35 
2.396 2 -4.116440 1.232295 2.968056 -23.193359 2.182007 39.970398 81.02 77.00 9.0 9.0 -2.1811 -4.5531 -0.1127 -0.0079 0.062292 0.187491 6.99 
2.401 2 6.441978 -3.994170 -9.148710 -7.209778 12.069702 29.296875 -23.68 -27.37 -9.0 -9.0 8.8384 5.6345 -0.1115 -0.0078 0.057101 0.180645 9.27 
2.406 2 9.268583 3.042378 -13.974799 -3.562927 34.095764 39.939880 -34.29 -37.80 -9.0 -9.0 -3.4942 -8.8965 -0.1121 -0.0078 0.054505 0.170955 7.42 
2.411 2 9.546689 -0.127065 -19.639999 11.787415 39.146423 38.612366 -38.42 -42.11 -9.0 -9.0 -15.5433 -17.3368 -0.1144 -0.0080 0.057101 0.161087 8.19 
2.416 2 1.594311 -9.630600 -13.660732 38.612366 19.477844 26.199341 -26.20 -29.55 -6.0 -7.7 -19.0460 -19.8863 -0.1172 -0.0081 0.051910 0.153596 7.17 
2.421 2 -13.104521 4.569561 -3.536255 11.451721 15.510559 40.916443 19.35 15.83 9.0 9.0 -21.1292 -20.8041 -0.1202 -0.0083 0.054505 0.154668 10.84 
2.426 2 -19.460190 3.143071 -0.762393 -8.529663 5.012512 39.680481 48.50 45.15 9.0 9.0 -11.3636 -10.1674 -0.1224 -0.0084 0.051910 0.168047 8.69 
2.431 2 -5.617251 -4.720601 0.249336 -17.417908 -5.485535 37.025452 58.33 54.65 9.0 9.0 -4.8995 -2.7154 -0.1228 -0.0084 0.057101 0.184391 6.90 
2.436 2 12.265409 -5.185708 -10.774189 -4.028320 9.162903 31.356812 -29.02 -32.70 -9.0 -9.0 5.4970 7.0066 -0.1220 -0.0084 0.057101 0.174766 8.61 
2.441 2 9.012055 6.691313 -12.984648 0.411987 27.153015 44.891357 -39.34 -43.03 -9.0 -9.0 -9.5906 -7.8166 -0.1228 -0.0084 0.057101 0.164443 7.23 
2.446 2 7.014970 0.196592 -19.639999 9.735107 32.157898 22.720337 -38.30 -42.15 -9.0 -9.0 -16.2924 -15.5433 -0.1250 -0.0085 0.059696 0.155225 8.73 
2.451 2 -0.429145 -13.447358 -16.712700 31.791687 14.938354 11.398315 -22.98 -26.66 -5.3 -8.1 -18.5242 -19.3181 -0.1280 -0.0087 0.057101 0.148961 9.46 
2.456 2 -10.409775 8.901772 -1.100435 5.477905 5.424500 20.195007 20.69 17.00 9.0 9.0 -20.1831 -21.1292 -0.1308 -0.0089 0.057101 0.151368 11.37 
2.461 2 -18.611488 0.942202 -0.290093 -10.276794 -2.952576 24.124146 44.63 40.94 9.0 9.0 -8.8965 -11.3636 -0.1328 -0.0090 0.057101 0.165446 9.27 
2.466 2 -5.681982 -0.733623 -0.182207 -24.887085 -8.651733 14.640808 78.96 75.44 9.0 9.0 -2.5563 -3.2429 -0.1330 -0.0090 0.054505 0.184340 6.91 
2.471 2 9.103159 -6.631377 -8.772309 -4.356384 4.928589 15.357971 -23.86 -27.04 -9.0 -9.0 8.1956 1.7074 -0.1322 -0.0090 0.049314 0.177665 8.72 
2.476 2 12.342129 7.113266 -9.621011 -0.450134 13.893127 31.761169 -37.60 -40.78 -9.0 -9.0 -8.7243 -6.0101 -0.1330 -0.0090 0.049314 0.167503 7.63 
2.481 2 5.998447 -3.428369 -19.639999 18.424988 29.144287 27.023315 -35.16 -38.51 -9.0 -9.0 -18.2739 -16.4911 -0.1352 -0.0091 0.051910 0.158643 8.15 
2.486 2 -7.285883 -1.378540 -18.318998 24.566650 15.609741 13.969421 -13.14 -16.49 2.1 0.2 -20.1831 -20.8041 -0.1381 -0.0093 0.051910 0.153315 9.25 
2.491 2 -12.754492 3.991772 -4.147607 11.672974 10.002136 22.895813 19.33 15.98 9.0 9.0 -19.8863 -19.0460 -0.1413 -0.0094 0.051910 0.154296 11.22 
2.496 2 -11.915380 0.539429 0.177412 -8.758545 -4.219055 29.251099 50.84 47.50 9.0 9.0 -9.7286 -9.5230 -0.1429 -0.0095 0.051910 0.167561 9.27 
2.501 2 -4.339404 -1.666235 -0.201387 -19.287109 -15.922546 25.047302 63.98 60.79 9.0 9.0 5.6345 -2.8772 -0.1431 -0.0095 0.049314 0.184896 7.07 
2.506 2 8.182534 -5.108989 -7.981147 -7.736206 -2.471924 19.157410 -22.09 -25.10 -9.0 -9.0 9.2621 6.3190 -0.1421 -0.0095 0.046719 0.183594 9.90 
2.511 2 7.650298 4.593535 -16.669546 -4.875183 27.755737 30.723572 -27.86 -31.04 -9.0 -9.0 -2.9526 -3.9196 -0.1423 -0.0095 0.049314 0.175006 8.99 
2.516 2 13.025405 -2.107368 -19.639999 14.312744 36.956787 15.304565 -36.93 -40.28 -9.0 -9.0 -15.9091 -14.0861 -0.1441 -0.0096 0.051910 0.165080 8.23 
2.521 2 3.814360 -5.025078 -17.223358 27.961731 24.497986 12.504578 -34.50 -37.85 -8.0 -9.0 -21.4646 -20.4889 -0.1473 -0.0097 0.051910 0.155773 8.84 
2.526 2 -5.717944 6.389233 -8.115405 20.408630 20.629883 16.784668 -6.83 -10.35 7.3 3.6 -22.1684 -21.4646 -0.1503 -0.0099 0.054505 0.153585 11.74 
2.531 2 -15.377314 3.306098 1.078857 -5.439758 9.002686 26.992798 40.66 37.14 9.0 9.0 -15.5433 -12.6380 -0.1527 -0.0100 0.054505 0.165756 9.92 
2.536 2 -6.605005 1.503208 0.103091 -19.462585 -2.197266 18.218994 77.10 73.75 9.0 9.0 -5.4308 -4.8643 -0.1537 -0.0101 0.051910 0.182685 7.10 
2.541 2 4.061299 -1.229897 -9.786435 -18.287659 12.962341 31.250000 -25.49 -29.00 -9.0 -9.0 1.8448 5.0458 -0.1531 -0.0101 0.054505 0.180322 10.66 
2.546 2 12.174306 1.488823 -18.048086 6.431580 31.120300 13.710022 -29.94 -33.79 -9.0 -9.0 -6.8296 -4.8643 -0.1535 -0.0101 0.059696 0.170759 10.14 
2.551 2 11.476645 -1.929956 -18.328588 17.929077 38.352966 18.386841 -43.29 -47.15 -9.0 -9.0 -18.2739 -17.3368 -0.1559 -0.0102 0.059696 0.159914 8.95 
2.556 2 -3.936631 -4.176377 -19.639999 28.816223 23.956299 14.701843 -24.21 -27.89 -3.4 -7.3 -20.8041 -19.8863 -0.1589 -0.0104 0.057101 0.151241 7.21 
2.561 2 -13.919658 5.041860 -5.734726 13.015747 25.016785 24.093628 11.75 7.90 9.0 9.0 -22.1684 -21.8108 -0.1620 -0.0106 0.059696 0.151162 11.77 
2.566 2 -19.630409 0.469902 0.302080 -8.865356 3.250122 23.475647 44.57 40.72 9.0 9.0 -12.8788 -13.3888 -0.1644 -0.0107 0.059696 0.164169 9.62 
2.571 2 0.683276 1.227500 4.209941 -25.924683 -10.055542 25.672913 -8.82 -12.67 0.1 -2.1 -3.3144 -3.1230 -0.1648 -0.0107 0.059696 0.176712 7.12 
2.576 2 7.329038 -6.566645 -7.439321 -8.743286 8.102417 19.134521 -35.23 -39.09 -9.0 -9.0 1.5349 1.5126 -0.1644 -0.0107 0.059696 0.170746 10.57 
2.581 2 10.268325 7.681465 -13.385024 3.890991 20.149231 27.526855 -36.97 -40.99 -9.0 -9.0 -5.8287 -6.0369 -0.1654 -0.0108 0.062292 0.160086 9.60 
2.586 2 8.009916 0.004795 -19.639999 15.113831 25.588989 27.946472 -40.26 -44.12 -9.0 -9.0 -17.7930 -17.3368 -0.1676 -0.0109 0.059696 0.150223 7.96 
2.591 2 -3.447549 -6.557055 -16.389042 35.606384 9.330750 6.919861 -26.38 -30.40 -5.4 -8.6 -21.1292 -21.4646 -0.1706 -0.0111 0.062292 0.144227 8.38 
2.596 2 -9.110352 8.206509 -1.488823 7.186890 6.523132 31.074524 5.86 1.85 9.0 8.4 -20.8041 -20.8041 -0.1738 -0.0113 0.062292 0.145780 11.60 
2.601 2 -15.012900 0.328452 -5.226465 -4.333496 -8.171082 18.013000 37.21 33.35 9.0 9.0 -11.6575 -13.9409 -0.1764 -0.0115 0.059696 0.159351 9.92 
2.606 2 -1.253872 -1.886802 3.960605 -18.707275 -15.861511 20.805359 87.25 83.40 9.0 9.0 -3.8417 -3.8092 -0.1768 -0.0115 0.059696 0.177967 7.15 
2.611 2 8.635654 -0.429145 -7.492065 -7.987976 -1.846313 20.858765 -30.97 -34.65 -9.0 -9.0 6.2896 1.9046 -0.1762 -0.0114 0.057101 0.176214 11.06 
2.616 2 9.632998 5.871382 -12.358911 2.319336 10.856628 22.644043 -35.31 -39.16 -9.0 -9.0 -4.1866 2.9144 -0.1760 -0.0114 0.059696 0.165349 10.11 
2.621 2 9.513124 -5.243247 -19.639999 10.765076 28.800964 26.206970 -39.00 -43.02 -9.0 -9.0 -18.0303 -16.0984 -0.1782 -0.0116 0.062292 0.156571 8.84 
2.626 2 3.126289 -1.258667 -19.639999 15.296936 33.416748 16.838074 -41.09 -45.11 -9.0 -9.0 -23.3150 -23.7240 -0.1814 -0.0118 0.062292 0.148666 7.32 
2.631 2 -5.420659 4.730190 -11.661249 20.301819 15.464783 3.089905 -16.27 -20.28 1.3 -2.5 -23.3150 -23.3150 -0.1846 -0.0120 0.062292 0.146575 10.39 
2.636 2 -14.660473 -0.836714 1.730967 0.968933 -1.800537 15.686035 40.61 36.76 9.0 9.0 -15.5433 -20.8041 -0.1877 -0.0122 0.059696 0.157125 7.40 
2.641 2 -3.519473 3.253354 6.183052 -16.372681 -5.981445 5.058289 74.90 71.04 9.0 9.0 -6.8993 -8.7810 -0.1893 -0.0123 0.059696 0.173251 5.74 
2.646 2 7.578374 -0.755200 -5.015488 -11.116028 4.142761 14.411926 -46.61 -50.13 -9.0 -9.0 -2.3976 -2.9720 -0.1893 -0.0123 0.054505 0.177436 11.58 
2.651 2 7.734209 0.961382 -14.250507 1.831055 22.789001 -7.202148 -32.51 -36.03 -9.0 -9.0 -3.4763 -5.7300 -0.1897 -0.0123 0.054505 0.167639 10.46 
2.656 2 10.464916 -0.625737 -19.639999 8.247375 29.945374 8.979797 -38.77 -42.45 -9.0 -9.0 -17.7930 -15.7241 -0.1919 -0.0124 0.057101 0.158689 10.81 
2.661 2 0.551416 -2.419038 -19.639999 20.698547 23.689270 -4.119873 -38.30 -41.99 -9.0 -9.0 -22.1684 -21.4646 -0.1951 -0.0126 0.057101 0.149928 11.09 
2.666 2 -7.866069 3.548242 -11.467055 19.630432 13.526917 7.453918 -11.98 -15.83 3.4 -0.9 -21.4646 -19.8863 -0.1981 -0.0128 0.059696 0.147445 11.49 
2.671 2 -17.851494 1.352168 -1.368950 3.349304 -7.362366 -5.409241 39.88 36.02 9.0 9.0 -16.0984 -14.5405 -0.2005 -0.0129 0.059696 0.159758 9.63 
2.676 2 -5.648418 -1.683017 1.800493 -15.876770 -22.201538 1.281738 72.54 68.85 9.0 9.0 -4.4777 -4.7117 -0.2015 -0.0130 0.057101 0.176208 6.83 
2.681 2 4.816499 0.899048 -4.346597 -10.810852 -11.390686 -2.037048 -15.53 -19.38 -5.2 -8.7 -1.6861 4.4777 -0.2013 -0.0130 0.059696 0.180366 11.69 
2.686 2 12.819223 -2.764272 -9.793628 12.306213 7.034302 -11.894226 -37.02 -41.04 -9.0 -9.0 -3.8200 2.8290 -0.2011 -0.0129 0.062292 0.169970 10.36 
2.691 2 12.224653 2.826606 -19.220444 5.889893 26.573181 9.666443 -40.20 -44.38 -9.0 -9.0 -16.0984 -13.0026 -0.2029 -0.0131 0.064887 0.160103 9.48 
2.696 2 7.921211 3.279727 -19.639999 11.062622 31.532288 -3.883362 -41.05 -45.41 -9.0 -9.0 -22.9198 -21.4646 -0.2059 -0.0133 0.067483 0.151715 9.08 
2.701 2 -4.600728 -0.326055 -8.743540 26.954651 6.790161 -29.830933 -15.40 -19.92 2.6 -2.6 -22.5378 -21.4646 -0.2093 -0.0135 0.070078 0.148821 11.39 
2.706 2 -19.639999 -2.246421 3.924644 -8.430481 -16.883850 4.959106 49.79 45.44 9.0 9.0 -15.7241 -16.9034 -0.2119 -0.0137 0.067483 0.158663 9.68 
2.711 2 -6.545068 6.091948 5.852202 -21.080017 -25.558472 -21.484375 83.93 79.74 9.0 9.0 -5.1613 -7.4711 -0.2129 -0.0137 0.064887 0.176921 6.82 
2.716 2 9.357289 -5.135361 -2.308755 -11.863708 -19.279480 -9.254456 -20.88 -24.90 -9.0 -9.0 4.1996 2.6515 -0.2123 -0.0137 0.062292 0.183952 9.70 
2.721 2 7.038945 2.119355 -9.165493 3.639221 -4.089355 -13.481140 -25.43 -29.62 -9.0 -9.0 3.2902 4.7448 -0.2117 -0.0137 0.064887 0.174430 6.25 
2.726 2 10.505673 0.942202 -17.995340 7.408142 5.722046 10.665894 -28.74 -33.27 -6.5 -9.0 -15.0252 -12.1826 -0.2134 -0.0138 0.070078 0.165490 7.82 
2.731 2 4.838076 2.826606 -19.639999 10.406494 3.501892 -0.579834 -22.57 -27.10 -0.0 -5.0 -22.1684 -20.4889 -0.2162 -0.0140 0.070078 0.158840 10.85 
2.736 2 4.564765 -0.201387 -9.863154 21.308899 -33.180237 -12.367249 -12.04 -16.40 3.7 0.5 -18.2739 -20.1831 -0.2192 -0.0142 0.067483 0.156262 11.34 
2.741 2 -10.484097 -1.706992 1.778916 1.365662 -46.157837 19.271851 55.15 50.80 9.0 9.0 -11.4599 -12.4061 -0.2212 -0.0143 0.067483 0.162526 10.38 
2.746 2 -12.147934 6.813584 4.972334 -15.762329 -52.124023 9.140015 76.04 71.85 9.0 9.0 4.0246 -5.0084 -0.2214 -0.0143 0.064887 0.180528 8.18 
2.751 2 1.172358 2.090586 -5.260029 -17.776489 -51.788330 23.803711 68.88 64.86 9.0 9.0 10.2445 7.7273 -0.2204 -0.0143 0.062292 0.198645 7.56 
2.756 2 9.088774 -4.876435 -14.955360 1.991272 -35.942078 0.572205 5.75 1.73 2.6 -1.7 8.7810 12.2934 -0.2188 -0.0142 0.062292 0.192414 11.47 
2.761 2 10.400186 1.961123 -15.130376 4.913330 -14.541626 40.390015 -6.49 -10.51 -1.0 0.0 2.6005 -3.3307 -0.2188 -0.0142 0.062292 0.186365 11.77 
2.766 2 16.635981 1.771724 -19.639999 15.724182 5.523682 21.629333 -20.92 -24.94 -4.1 -6.7 -7.8620 -8.5587 -0.2200 -0.0142 0.062292 0.178604 11.72 
2.771 2 8.654834 0.592173 -12.912724 11.672974 5.393982 37.834167 -27.44 -31.29 -7.3 -8.7 -10.5646 -13.5227 -0.2214 -0.0143 0.059696 0.170101 11.03 
2.776 2 -0.433940 1.709390 -7.782158 8.445740 -8.262634 25.756836 -10.41 -14.10 4.1 2.4 -16.9034 -19.0460 -0.2240 -0.0145 0.057101 0.163029 11.49 
2.781 2 -6.990996 2.222446 -2.263203 0.724792 -17.837524 53.146362 36.39 32.70 9.0 9.0 -10.8182 -15.3667 -0.2264 -0.0146 0.057101 0.166357 10.24 
2.786 2 -13.763823 2.785850 -1.958726 -7.888794 -31.433105 29.777527 57.69 54.34 9.0 9.0 5.3661 -4.5840 -0.2268 -0.0146 0.051910 0.180790 7.96 
2.791 2 -1.915571 -2.241626 -6.331694 -13.473511 -31.661987 43.769836 49.94 46.59 9.0 9.0 8.8965 7.8166 -0.2260 -0.0146 0.051910 0.192752 7.70 
2.796 2 7.717426 -1.898789 -13.835747 -1.014709 -9.757996 40.443420 -3.85 -7.03 -4.8 -5.5 13.9409 11.9670 -0.2242 -0.0145 0.049314 0.191515 11.82 
2.801 2 14.540600 2.735503 -19.639999 21.118164 19.805908 45.860291 -18.79 -22.14 -8.0 -9.0 4.3905 7.1549 -0.2232 -0.0144 0.051910 0.183354 10.60 
2.806 2 13.159662 5.216875 -14.869052 20.256042 34.210205 31.784058 -38.19 -41.37 -9.0 -9.0 -9.5906 -11.6575 -0.2242 -0.0145 0.049314 0.171810 10.16 
2.811 2 8.587705 1.227500 -15.358134 5.455017 28.511047 38.162231 -35.16 -38.35 -9.0 -9.0 -16.2924 -18.0303 -0.2266 -0.0146 0.049314 0.161995 9.73 
2.816 2 -6.873520 -1.992290 -13.322690 5.760193 19.065857 35.766602 -6.19 -9.38 6.8 2.8 -19.8863 -17.5619 -0.2294 -0.0147 0.049314 0.159651 11.52 
2.821 2 -17.441528 -2.826606 -3.075942 -14.396667 0.564575 52.627563 44.18 40.83 9.0 9.0 -8.1462 -6.4394 -0.2308 -0.0148 0.051910 0.169798 9.87 
2.826 2 -8.621269 3.792783 -0.318862 -21.995544 -15.930176 29.502869 66.55 63.03 9.0 9.0 3.4674 6.0101 -0.2306 -0.0148 0.054505 0.184629 7.42 
2.831 2 5.849804 -3.476318 -7.225947 -9.757996 -7.316589 26.046753 -14.22 -17.90 -8.8 -9.0 10.8182 13.5227 -0.2292 -0.0147 0.057101 0.186402 11.63 
2.836 2 13.840542 -1.735762 -15.808857 16.822815 14.762878 29.975891 -26.88 -30.90 -9.0 -9.0 3.7985 8.2455 -0.2280 -0.0147 0.062292 0.177259 10.06 
2.841 2 9.867949 0.004795 -19.639999 33.935547 25.520325 32.661438 -29.19 -33.55 -7.7 -9.0 -13.1288 -7.9545 -0.2292 -0.0147 0.067483 0.168036 9.37 
2.846 2 3.735244 6.571440 -19.067007 13.610840 20.294189 17.456055 -24.13 -28.48 -4.0 -8.3 -16.4911 -16.6947 -0.2316 -0.0149 0.067483 0.161435 10.49 
2.851 2 -5.192900 -7.350615 -18.942339 10.643005 4.684448 11.627197 -4.18 -8.37 6.5 2.7 -15.3667 -16.6947 -0.2338 -0.0150 0.064887 0.160332 11.55 
2.856 2 -15.087221 -1.934751 0.925420 -18.592834 -9.368896 54.878235 54.80 50.61 9.0 9.0 -6.7953 -5.5879 -0.2350 -0.0151 0.064887 0.171351 9.75 
2.861 2 -8.093828 3.437959 -0.601763 -30.761719 -14.198303 26.641846 72.39 68.37 9.0 9.0 6.6288 2.2024 -0.2344 -0.0151 0.062292 0.187100 7.28 
2.866 2 5.588481 -3.668115 -6.247783 -19.134521 -6.835938 43.144226 -27.14 -31.16 -9.0 -9.0 13.3888 14.2344 -0.2324 -0.0150 0.062292 0.185058 10.58 
2.871 2 11.733173 3.114302 -14.346406 6.805420 13.450623 51.208496 -26.01 -30.36 -9.0 -9.0 3.2197 6.3190 -0.2316 -0.0149 0.067483 0.175705 8.92 
2.876 2 10.275517 -4.447290 -18.793695 39.291382 18.722534 59.379578 -30.05 -34.58 -9.0 -9.0 -10.9941 -8.6684 -0.2326 -0.0150 0.070078 0.166363 7.86 
2.881 2 -5.581289 3.291714 -19.639999 33.699036 15.914917 38.314819 -11.27 -15.96 1.4 -3.6 -15.3667 -14.3858 -0.2348 -0.0151 0.072674 0.161294 10.62 
2.886 2 -10.731035 5.224067 -8.340766 17.898560 -2.250671 44.090271 19.46 14.94 9.0 9.0 -9.7991 -10.5646 -0.2366 -0.0153 0.070078 0.163876 10.50 
2.891 2 -13.811772 -3.881489 -0.935010 -8.224487 -16.990662 69.496155 56.91 52.38 9.0 9.0 2.8957 -2.4676 -0.2366 -0.0153 0.070078 0.176216 8.70 
2.896 2 -0.484287 3.356445 0.688071 -27.259827 -19.454956 62.004089 101.34 96.66 9.0 9.0 12.4061 11.8620 -0.2352 -0.0152 0.072674 0.194205 7.36 
2.901 2 10.711855 -5.379902 -6.772827 -8.773804 -11.352539 55.351257 -20.10 -24.79 -9.0 -9.0 17.1173 17.1173 -0.2328 -0.0150 0.072674 0.189475 8.97 
2.906 2 8.278432 3.982183 -9.431611 1.037598 1.777649 57.174683 -24.30 -28.82 -9.0 -9.0 6.4702 4.6630 -0.2318 -0.0149 0.070078 0.180024 6.87 
2.911 2 7.719824 -3.284521 -19.639999 6.645203 23.918152 59.219360 -20.62 -25.14 -7.0 -8.7 -7.2314 -10.0916 -0.2326 -0.0150 0.070078 0.172341 7.78 
2.916 2 6.981406 0.239746 -19.639999 16.265869 27.259827 58.029175 -23.64 -27.83 -5.8 -7.1 -13.5227 -17.1173 -0.2350 -0.0151 0.064887 0.166259 11.50 
2.921 2 -4.718203 0.661699 -13.255561 32.470703 4.791260 32.119751 0.90 -3.12 6.9 5.3 -12.5210 -15.3667 -0.2368 -0.0153 0.062292 0.164360 11.61 
2.926 2 -11.972919 0.704853 -0.942202 -1.419067 -7.102966 63.240051 52.93 49.08 9.0 9.0 -3.9196 -7.2703 -0.2378 -0.0153 0.059696 0.174979 9.84 
2.931 2 -5.178515 1.829263 -0.187002 -11.718750 -11.238098 41.946411 73.66 69.81 9.0 9.0 8.2455 7.2703 -0.2370 -0.0153 0.059696 0.190897 7.40 
2.936 2 10.500878 -7.026958 -5.104194 -8.888245 -6.042480 58.074951 -5.78 -9.63 -6.3 -7.9 15.0252 14.0861 -0.2350 -0.0152 0.059696 0.198915 8.37 
2.941 2 10.078925 2.701938 -13.816567 1.892090 13.748169 28.305054 -20.43 -24.28 -9.0 -9.0 10.9941 9.3260 -0.2330 -0.0150 0.059696 0.189755 8.45 
2.946 2 10.126875 0.743213 -19.639999 -1.174927 34.530640 41.320801 -20.75 -24.44 -8.4 -8.4 2.2463 -2.7263 -0.2332 -0.0150 0.057101 0.180406 7.42 
2.951 2 7.269101 -0.891855 -19.639999 10.589600 39.375305 29.251099 -24.99 -28.67 -6.3 -8.8 -13.2575 -13.7987 -0.2348 -0.0151 0.057101 0.170732 7.17 
2.956 2 1.361758 -7.242729 -14.564575 30.143738 23.315430 7.812500 -14.78 -18.46 0.3 -2.3 -16.4911 -17.3368 -0.2372 -0.0153 0.057101 0.164580 11.71 
2.961 2 -16.482544 2.653989 -1.611094 -3.593445 16.685486 39.825439 39.87 36.35 9.0 9.0 -12.1826 -13.0026 -0.2394 -0.0154 0.054505 0.169829 10.46 
2.966 2 -11.934560 1.795698 5.504570 -8.758545 -0.152588 9.201050 69.63 66.11 9.0 9.0 -4.6470 -5.9051 -0.2403 -0.0154 0.054505 0.184021 8.48 
2.971 2 -3.023198 -3.725654 -4.902807 -20.919800 5.760193 30.792236 30.61 26.93 9.0 9.0 4.8295 7.1929 -0.2392 -0.0154 0.057101 0.186741 10.05 
2.976 2 11.083462 1.136396 -12.310962 -0.175476 18.814087 -2.906799 -21.17 -24.86 -8.6 -9.0 3.5033 5.0084 -0.2388 -0.0154 0.057101 0.178267 9.94 
2.981 2 8.733950 -0.537031 -18.580322 11.734009 18.661499 10.925293 -25.67 -29.52 -7.7 -9.0 -8.7810 -2.1533 -0.2394 -0.0154 0.059696 0.169112 9.18 
2.986 2 2.323140 -1.105229 -19.639999 17.585754 20.790100 -6.492615 -23.91 -27.76 -5.7 -8.0 -12.8788 -14.6986 -0.2415 -0.0155 0.059696 0.162263 8.51 
2.991 2 -5.545327 2.905723 -14.538202 15.472412 5.805969 -2.456665 -0.42 -4.11 6.9 2.6 -12.7573 -11.0842 -0.2433 -0.0156 0.057101 0.160792 11.77 
2.996 2 -17.283295 -1.232295 -0.913433 -6.484985 -15.640259 6.866455 54.51 50.66 9.0 9.0 -7.3895 -4.3622 -0.2443 -0.0157 0.059696 0.171756 10.14 
3.001 2 -8.532563 0.350029 2.915312 -19.157410 -27.206421 2.838135 88.16 84.47 9.0 9.0 9.9432 9.6591 -0.2433 -0.0156 0.057101 0.189113 7.80 
3.006 2 7.559194 0.549019 -3.481113 -21.278381 -12.947083 9.605408 -24.14 -27.99 -9.0 -9.0 13.9409 15.9091 -0.2415 -0.0155 0.059696 0.192084 12.13 
3.011 2 12.569887 -0.292490 -12.059228 6.622314 -0.823975 -5.325317 -21.92 -25.94 -9.0 -9.0 7.3895 9.8706 -0.2396 -0.0154 0.062292 0.182079 10.35 
3.016 2 10.862895 0.771982 -17.904238 8.918762 15.274048 34.072876 -22.55 -27.08 -6.5 -9.0 -9.4564 -4.0127 -0.2403 -0.0154 0.070078 0.173253 10.00 
3.021 2 5.001103 3.378022 -19.639999 24.467468 18.424988 -10.360718 -18.57 -23.43 -1.9 -7.6 -14.8601 -13.1288 -0.2419 -0.0156 0.075269 0.167197 11.12 
3.026 2 -5.238452 -3.423574 -12.963071 25.085449 1.243591 -33.790588 1.25 -3.27 5.5 4.6 -8.6132 -15.7241 -0.2439 -0.0157 0.070078 0.165063 11.88 
3.031 2 -14.945771 3.946221 -1.941943 -7.972717 -7.133484 16.349792 47.63 43.27 9.0 9.0 -3.8970 -4.5226 -0.2445 -0.0158 0.067483 0.173330 10.25 
3.036 2 -6.065576 2.260806 3.509883 -8.544922 -17.929077 -20.858765 79.29 75.10 9.0 9.0 10.4827 10.0916 -0.2435 -0.0157 0.064887 0.189640 8.23 
3.041 2 6.849545 -7.748593 -1.613491 -20.889282 -10.986328 12.832642 -7.00 -11.02 -8.2 -9.0 17.5619 15.3667 -0.2413 -0.0155 0.062292 0.198648 8.50 
3.046 2 11.740366 4.449687 -11.467055 -1.388550 2.220154 -16.670227 -18.17 -22.36 -9.0 -9.0 11.2689 12.6380 -0.2390 -0.0154 0.064887 0.188685 5.79 
3.051 2 8.815464 0.189399 -18.295023 0.930786 17.433167 18.615723 -15.87 -20.23 -3.6 -6.0 -5.2414 -6.5644 -0.2388 -0.0154 0.067483 0.179776 7.80 
3.056 2 2.124150 -0.194194 -19.639999 21.194458 24.482727 -8.255005 -13.20 -17.72 -0.4 -4.3 -12.0738 -11.8620 -0.2402 -0.0155 0.070078 0.172349 8.65 
3.061 2 -0.208579 -7.213960 -12.179101 25.009155 15.350342 -7.400513 -5.61 -9.96 4.0 0.6 -12.8788 -14.0861 -0.2421 -0.0156 0.067483 0.167781 11.71 
3.066 2 -8.266445 4.332212 -2.164907 3.906250 4.417419 11.314392 35.70 31.52 9.0 9.0 -6.6614 -9.1991 -0.2439 -0.0157 0.064887 0.170402 10.63 
3.071 2 -13.322690 0.213374 2.526924 -6.072998 -7.415771 4.394531 73.66 69.65 9.0 9.0 4.0731 5.3239 -0.2437 -0.0157 0.062292 0.185222 8.84 
3.076 2 -2.493359 2.426230 -1.030908 -20.606995 -6.401062 10.238647 73.53 69.85 9.0 9.0 13.5227 10.7323 -0.2421 -0.0156 0.057101 0.200914 8.56 
3.081 2 8.187329 -1.898789 -11.143398 -2.655029 4.898071 -4.539490 -3.93 -7.61 -6.9 -7.4 15.5433 12.6380 -0.2400 -0.0155 0.057101 0.193072 8.31 
3.086 2 9.247006 2.241626 -14.183378 1.220703 20.637512 12.641907 -19.73 -23.24 -9.0 -9.0 4.3763 3.4852 -0.2394 -0.0155 0.054505 0.183264 6.47 
3.091 2 5.204887 2.236831 -19.639999 7.980347 28.808594 17.234802 -19.26 -22.61 -5.0 -5.2 -8.6132 -12.5210 -0.2408 -0.0156 0.051910 0.175225 8.67 
3.096 2 0.671289 -6.187847 -13.586411 27.313232 13.442993 6.683350 -9.03 -12.38 2.6 -0.7 -13.3888 -11.6575 -0.2429 -0.0157 0.051910 0.169731 11.94 
3.101 2 -9.716908 0.448325 -3.231777 4.692078 7.728577 34.408569 32.24 28.89 9.0 9.0 -9.6591 -8.3992 -0.2441 -0.0157 0.051910 0.171788 10.71 
3.106 2 -13.329883 3.994170 0.649712 -7.530212 -6.332397 12.107849 69.50 66.15 9.0 9.0 4.5840 -2.1431 -0.2441 -0.0157 0.051910 0.186400 9.02 
3.111 2 -6.437182 -4.622304 0.510659 -12.893677 -15.541077 17.616272 70.73 67.21 9.0 9.0 12.4061 13.6593 -0.2423 -0.0156 0.054505 0.202399 8.01 
3.116 2 11.419106 -1.268257 -11.476645 -7.133484 4.264832 9.567261 -9.16 -12.84 -9.0 -9.0 14.3858 17.5619 -0.2400 -0.0155 0.057101 0.193938 7.83 
